"White House acknowledges #InadequatePOTUS can withdraw money from businesses. #Ethics anyone? http:// ow.ly/xEdg30axchJ","#InadequatePOTUS #Ethics","2017-04-05 01:55:06"
"#Ethics #Nepotism","#Ethics #Nepotism","2017-04-05 01:53:17"
"A Fragile Trust panelists answer audience questions regarding the film. #ethics #fakenews #misinformation pic.twitter.com/LrcN58tyby","#ethics #fakenews #misinformation","2017-04-05 01:42:44"
"What's w/ the passive baby talk voice during Gail King interview? Pick a lane & authentically stand up for women! #PlannedParenthood #ethics","#PlannedParenthood #ethics","2017-04-05 01:40:40"
"@china @XHNews @PDChina #Leadership #CHINA #accountability #ETHICS North Korea is a risk for #EARTH #LIFE #HUMANITY #Integrity","#Leadership #CHINA #accountability #ETHICS #EARTH #LIFE #HUMANITY #Integrity","2017-04-05 01:40:39"
"What is going on with @SenateGOP & Dirty #ROTTEN @SenateMajLdr is #Ethics are for OTHERS, not #US ! Remember #GreenEggs & #HAM @SenTedCruz","#ROTTEN #Ethics #US #GreenEggs #HAM","2017-04-05 01:39:13"
"Robot Cars & Fake #EthicalDilemmas by @PatrickLin , Catch him @thetech on 5/13! #robotethics http:// buff.ly/2oWlcb5 http:// buff.ly/2oW5NaO pic.twitter.com/n7xzguYsPh","#EthicalDilemmas #robotethics","2017-04-05 01:30:07"
"What happened to #nepotism laws? #EmolumentsClause ? #conflictofinterest ? #ethics laws? @GOP oversight? Real crises/issues. #Constitution","#nepotism #EmolumentsClause #conflictofinterest #ethics #Constitution","2017-04-05 01:26:47"
"WA: Port Angeles council considers changing #ethics code via @PenDailyNews http:// cgdc.co/2oEQQKU #cgdc","#ethics #cgdc","2017-04-05 01:15:00"
"When you think that you are done with oral exams... #Ethics pic.twitter.com/zVCm7GTceT","#Ethics","2017-04-05 01:14:09"
"It's #sad that @FoxNews is only concerned with advertisers' concerns, not with actual vile actions of @oreillyfactor . #Ethics #Priorities","#sad #Ethics #Priorities","2017-04-05 01:13:44"
"#MoralValues differ from #society to society, because each society has a different source for its moral values. - HH @YounusAlGohar #ethics","#MoralValues #society #ethics","2017-04-05 01:13:33"
"Imagine how many skeletons would fall from the closets of those who represent the #media if we investigated them. #integrity #ethics","#media #integrity #ethics","2017-04-05 01:10:17"
"Miller: industry diversion tactics often include co opting terms like #harmreduction and #ethics to steer away from policy change #WCPH2017 pic.twitter.com/ehbhKA3FVv","#harmreduction #ethics #WCPH2017","2017-04-05 01:10:07"
"@IvankaTrump @jaredkushner @realDonaldTrump PLEASE no deals with @ericschmidt until #google resolves its debt with me Thank You! #ethics 1 pic.twitter.com/UnAuEKjxU8","#google #ethics","2017-04-05 01:06:33"
"#Ethics poll: How should a physician respond when a colleague asks for a medically unwarranted MRI for her child? http:// spr.ly/60138bacF pic.twitter.com/kr4AAs7ECO","#Ethics","2017-04-05 01:00:01"
"Non-Fox News Journalists: Investigate Bill O'Reilly & Fox News Reporters http:// wp.me/pSoaD-jr7 @cjr @gijn #ethics","#ethics","2017-04-05 00:59:59"
"Poverty & the economy of mental energy. There's a relationship here to #ethics in advertising. http:// buff.ly/2ngLuUV #ux #equality","#ethics #ux #equality","2017-04-05 00:51:00"
"#akron #entrepreneur #innovation #ethics #values #philosophy #goals @E19 Creative https://www. instagram.com/p/BSevXuQgBE_/","#akron #entrepreneur #innovation #ethics #values #philosophy #goals","2017-04-05 00:32:31"
"My #illustration for the cover of @RealChangeNews paraphrases #CarlBloch and Monopoly's Mr. Pennybags, to examine #Banking and #Ethics pic.twitter.com/T5L0XFdPPX","#illustration #CarlBloch #Banking #Ethics","2017-04-05 00:13:06"
"What is #personal #integrity ? #Ethics #Virtue pic.twitter.com/z5bGgB7gkc","#personal #integrity #Ethics #Virtue","2017-04-05 00:07:13"
"3 ways we can change accountability to improve #ethics : http:// dld.bz/ePqCe #csr #futureofleadership","#ethics #csr #futureofleadership","2017-04-05 00:00:54"
"Reimbursement says it all! #ethics","#ethics","2017-04-04 23:58:00"
"Being ethical in your decision making is being a high integrity person! http:// bit.ly/cpnfg6 #ethics #decisions #morals","#ethics #decisions #morals","2017-04-04 23:55:33"
"I will STAND BY #TTH & @gorddownie & YOUR BOYS #MORALS #ETHICS #VALUES ARE #TRULYCANADIAN We . You Boys R BROTHERS & for this #CTVBOYCOTT","#TTH #MORALS #ETHICS #VALUES #TRULYCANADIAN #CTVBOYCOTT","2017-04-04 23:51:30"
"#FLIxrisk on #AI #autonomous systems, #ethics #podcast #systems http:// fb.me/5GtIxVdht","#FLIxrisk #AI #autonomous #ethics #podcast #systems","2017-04-04 23:51:25"
"Development Malpractice In Ghana http:// bit.ly/2oWD31F //Important critique. Also why I take issue w/many church missions. #design #ethics","#design #ethics","2017-04-04 23:47:00"
"#Ethics in the #SocialSector , by our @leaderethics http:// buff.ly/2oVU106 #conflictofinterest pic.twitter.com/vRQ9yZQeey","#Ethics #SocialSector #conflictofinterest","2017-04-04 23:30:21"
