"cybersecurity","['ceo', 'infosec', 'datasecurity', 'databreach', 'ciso', 'cisos', 'iot', 'security', 'networksecurity', 'icit', 'icitforum', 'cloud', 'ransomware', 'securityissues', 'publicwifi', 'staysafeoutthere', 'internetofthings', 'windows10', 'privacy', 'ai', 'iamvz', 'itops', 'machinelearning', 'iam', 'auth', 'wednesdaywisdom', 'hacking', u'tool', 'healthcare', 'xc0resecurity', 'malware', 'tech', 'onlinefraud', 'data', 'dig2017', 'atl', 'inboundmarketing', 'smartgrids', 'usg9580', 'patch', 'secospace', 'shop', 'spycamera', 'spyshop', 'gps', 'cartracker', 'tracker', 'hitech', 'it', 'utah', 'gk3404', 'vpn', 'isp', 'fisa', 'iiot', 'biztip', 'smes', 'gdpr', 'nsa', 'cisco', 'digitalhealth', 'apis', 'memorycorruption', 'zeroday', 'ropchain', 'ddos', 'scam', 'blackfriday', 'ethicalhacking', 'byod', 'nyc', u'job', 'naj', 'phishing', 'entrepreneurship', 'idiot', 'smb', 'smallbusiness', 'opensource', 'connectedhome', 'ict', 'github', 'cyberattack', 'oldpost', 'eastertreats', 'hak5', u'backbone', 'cybersecuritylisbon', 'giiwebint', 'dit', 'amazon', 'app', 'risk', u'trend', 'fintech', 'nomoreransom', 'encryption', 'cyber', 'botnets', 'zerodays', 'hitsecurity', 'hacker', 'follow', 'rt', 'wicys2017', 'csuite', 'eratilers', 'apple', 'scarware', 'legaltech', 'legalit', 'fileless', u'hacker', 'iscwest', 'physicalsecurity', 'itsecurity', 'networking', 'job', 'newjersey', 'medicaldevices', 'cyberattacks', 'cybercriminals', 'backup', 'dropsuite', 'digital', 'france', 'cdwsummit', 'cdwsocial', 'iphone', 'featured', '', 'pcidss', 'cybercrime', 'riskmanagement', 'cyberrisk', 'opines', 'netsec', 'artificialintelligence', 'bigdata', 'chamberofcommerce', 'enterprise', 'ibm', 'gartner', 'publicsector', 'spying', 'mobile', 'adblock', 'eyeo', 'flattr', 'business', 'forensics', 'edtech', 'health', 'hipaa', 'healthit', 'wikileaks', 'ialegis', 'google', 'internet', 'virtualwallets', 'itservices', 'wpu', 'cbiz', 'intech', u'algorithm', 'mi', u'wearable', 'cyberswat', 'antivirus', u'hack', 'gartnersec', 'hpe', u'pc', 'silentstormsectips', 'silentstormsec', 'bestpractice', '165', 'incidentresponse', 'technology', 'alphabay', 'pr', 'bypass', 'cve', 'vulnerability', 'cidc']"
"militaryrobots","['militarytechnology', 'tacticalblog', 'weaponsofthewarinafghanistan', 'cactustactical', 'militarysupporter', 'dokingmv', 'marcbot', 'pic', 'warinafghanistan', 'weaponsofwar', 'supportourtroops', 'israel', 'iraq', 'warrobits', u'robot', 'military', 'war', 'unmannedvehicles', u'drone', 'robotwars', 'irobot', 'logo', 'googleisevil', 'fuckgoogle', 'privacy', 'corporatespying', 'corporatesurveillance', 'nymwars', 'adblock', 'animatedgif', 'ai', 'consciousness', 'surveillance', 'worldpatentmarketing', 'autonomousweapons', 'elonmusk', 'stephenhawking', 'justwar', u'weapon', 'artificialintelligence', 'weaponry', 'musk', 'hawking', 'deepdream', 'nightmare', 'darpa', 'terminator', 'ethicsasylum', 'plan', 'android', 'skynet', 'nsa', 'kick', 'kicking', 'goldmansachs', 'servicerobots', 'google', 'wildcat', 'running', 'astrakhanregion', 'defenceministrysstrategicmissileforces', 'dmitryandre', 'moscow', 'moscowtimes', '510robotsinthenews', 'robotics', 'fearofrobots', 'googleplus', 'realnamespolicy', 'vivekgundotra', 'comic', 'spying', 'beach', 'ericschmidt', u'marine', 'departmentofdefense', u'soldier', 'manmachineinterface', 'engineering', 'wildcatrobot', 'datafusion', 'unmannedsystems', 'dronewars', 'ieee', 'robotsforkids', 'happymemorialday', u'auto', 'teamfollowback', u'sensor', 'topstories', 'coastguard', 'lawenforcement', 'navy', 'gps', 'nuclearscience', 'tsunami', 'eek', 'autonomousrobots', 'design']"
"militarydrones","['saudiarabia', 'technology', 'usairforce', 'predator', u'drone', 'civiliandrones', 'drone', 'iot', 'machinelearning', 'ai', 'tech', 'innovation', 'disruption', 'industrial', 'aerialtech', 'dronesforgood', 'fighterjets', 'birdpoop', 'someresearch', 'rescuedrones', 'refugeerescue', 'dronetechnology', 'whentimeallows', 'dronetransport', 'flyingcars', 'selfdrivingcars', 'dronevehicle', 'dronecar', 'dronejet', 'umv', 'weaponssystems', 'aiweapon', 'droneexportstandards', 'uav', 'israel', 'unitedstates', 'civildrones', 'combatdrones', 'dronewarfare', 'uas', 'uavs', 'globaldroneindustry', 'worldpeace', 'humanrights', 'dronesmarket', 'amazondrones', 'cameradrones', 'techkids', '1800mah', 'toasty', 'spydrones', 'dronesdophotos', 'armydrones', 'newdrones', 'elite', 'techgiants', 'trump', 'snowden', 'apple', 'mediablackout', 'wearechange', 'aerovironment', 'electricvehicles', '', 'royalcanadianairforce', u'u', 'congress', 'nsa', 'uk', 'israeli', 'militant', u'combatant', 'art', 'pakistan', 'taliban', 'empathy', 'socialmedia', 'saudi', 'royal', u'harrod', 'sr5r', 'fueltankers', 'china', '42k', 'sig', 'whatcouldgowrong', 'argentina', 'killerrobots', 'internetofthings', 'defensecommerce', 'news', 'alliesthestatedepartment', u'regulation', 'unmannedaircraft', 'weaponssales', 'washingtonpost', 'military', 'airforce', 'morningwin', u'gun', 'stupiddrones', 'allseeingeye', 'alwayswatching', 'trutherbot', 'cure', 'nasa', 'assad', 'targetassad', 'aerialvideo', 'nation', 'corporateamerica', 'insidejob', 'domesticdrones', 'tcot', 'ccot', 'lnyhbt', 'bigbrother', u'fed', 'scan', u'machine', 'monster', 'boeing', 'becreative', 'visualintelligence', 'mediadrones', 'politicaldrones', 'religiousdrones', 'liberaldrones', 'robotethics', 'robotwar', 't184', 'skynet', 'newsweek', 'alqaeda', 'jihadis', 'buzzzzz', 'extremesports', 'economist', u'robot', u'trend', u'social', u'medium', u'viral']"
"defensetechnology","['israeltech', 'military', 'armstrade', 'defense', 'security', 'cybersecurity', 'infosec', 'uk', 'initiative', 'russia', 'pentagon', 'darpa', 'thinkingoutloud', 'training', u'threat', 'china', 'artificialintelligence', 'dltc16', 'fondue', 'cybsec16', 'lte', '4g', 'safe', 'network', u'ic', 'iot', 'defence', 'electrooptics', 'cst', 'defencetechnology', 'missile', 'india', 'demodaysandiego', 'exhibition', 'abudhabi', 'detector', u'helicopter', 'iran', 'aog', 'japan', 'indonesia', 'tokyo', 'jakarta', 'seasia', 'mstgetsit', 'biometrics', u'fingerprint', u'gun', u'sector', 'africa', 'africatrade', 'geopolitics', 'history', 'putin', 'innovation', 'energytechnology', 'biotechnology', 'informationtechnology', 'manufacturingtechnology', 'grmaforum', 'startupisrael', 'israelindiarelations', 'poland', 'polishtechnology', 'science', 'halodefensesystems', u'trend', 'idf', 'helicopter', 'aerospace', 'aircraft', u'drone', 'robotics', 'technology', 'usdefense', 'peosoldier', 'pepperspray', u'laser', 'technews', 'research', 'israelinside', 'matrix', u'robot', 'battlefield', 'oc', 'instructor', 'simunition', 'gopro', 'nationalsecurity', u'submarine', 'nationaldefense', 'army', '3dprintingweek', '3dprinting', 'defenseministry', 'or', 'missiledefensesystem', 'irondome', 'elbit', 'marketing', 'world', 'ally', 'massivebuildup', 'nationaluniversity', 'googlecar', 'usa', 'followme']"
"surveillance","['privacy', 'internet', 'qaysarthur', 'intel', 'spyagencies', 'spy', 'presidenttrump', 'trumpadmin', 'trumppence16', 'donaldtrump', 'trump', 'watergate', 'obama', 'susanrice', 'spygate', 'treason', 'espionage', '28099', 'iscwest', 'democracy', 'people', 'security', 'tech', 'iscwest2017', 'lasvegas', 'dronesecurity', 'technology', 'gangstalking', 'mi5', 'investigation', 'siu', 'teamobama', 'thefive', 'bigdata', 'analytics', 'nsa', 'telecom', 'iot', 'ai', 'timewarner', 'cio', 'ceo', 'ciso', 'terror', 'pii', 'uk', 'pnpcbc', 'rice', 'unmasking', 'fisa', 'spying', 'wiretap', 'socialmedia', u'hacker', 'rcmp', u'stingray', 'surveillance']"
"accesscontrol","['houston', 'securitycenter', 'vms', 'alpr', 'anpr', 'iscwest', 'mercurysecurity', 'security', 'ip', 'library', 'surveillance', 'iscwest17', 'publicsafety', 'videosurveillance', 'biometrics', 'madeeasy', 'id', 'idcardprinter', 'network', 'management', u'student', 'byod', '6reasonstoconsideraccesscontrolforyourbusiness', 'wednesdaywisdom', 'cctv', 'vanderbilttogether', u'camera', 'securitysystems', 'hotel', 'firedetection', 'lasvegas', 'ttf17', 'feelold', 'neo4j', 'liverpool', 'wireless', 'smart', u'lock', 'hertasolutions', 'ticketing', 'solution', 'intruderalarms', 'westmidlands', 'burton', 'derby', 'staffordshire', 'doorentry', 'dublin', 'installers', 'smartbuilding', 'rfid', 'securitymanagement', 'studentaccommodation', 'alarmpanels', 'protection', 'iot', 'traveltuesday', 'bestteam', 'aitteam', 'zkteco', u'turnstile', 'net2', 'automated', 'gate', 'unique', 'cylinderlocks', 'ssaib', 'firealarm', 'maintenance', 'intruderalarm', 'eyup', 'actenterprise', 'eventys', u'locksmith', 'businesssecurity', 'videomanagement', 'gateoperators', 'liftmaster', 'ramset', 'hysecurity', 'allomatic', 'wifi', 'extr', 'norwich', u'building', 'video', 'visitormanagement', 'safety', 'education', 'door', 'academy', 'paxtonaccess', 'schoolsecurity', 'holidayhome', 'villa', 'secure', 'srilanka', 'timeandattendance', 'dormakaba', 'biometric', 'attendance', 'cloudcomputing', u'alarm', 'upvc', 'sap', 'grc', 'controlpanelgrc', 'technews', 'sapnews', 'homeautomation', u'wearable', u'deal', 'business', 'swindon', '24', '87rt', 'automaticgates', 'idconcierge', 'identitymanagement', 'facilitymanagement', 'identity', 'accesscards', 'humanresources', 'hospitality', 'hotelsecurity', 'mobileaccess', 'smartcards', 'unikey', 'kwikset', 'mobileaccesscontrol', 'tech', 'fiberoptic', '7079', 'secutechindia2017', 'designisdivine', 'explosivegrowth', 'keycutting', 'automotive', u'safe', 'firealarms', 'doorentrysystem', 'tbt', 'news', u'professional', 'aesglobal', u'intercom', u'solution', 'cloud', 'technology', 'smartbuildings', 'installer', 'securityaccesscontrol', 'lka', 'fingerprint', 'idcards', 'hr', 'nfc2017', 'sso', 'idteck', 'rfids', u'light', 'landscaping', 'fencing', 'training', 'integration', 'intercomsystems', 'smartphones', 'campussafety', 'electricfence', 'automation', 'reptechghana', 'parkingmanagement', 'idcredential', 'counterterror', 'darknights', u'led', 'securexexpo', 'piam', u'challenge', 'securityhour', 'mifare', 'nxp', 'nedap', 'lpr', 'campus', 'eac', 'emergency', 'alarm', 'crime', 'university', 'bestpeople', 'psim', 'doorsecurity', 'myottawa', 'securitytrends', 'artificialintelligence', 'cybersecurity', 'behavioral', 'healthit', 'mobile', 'mobility', 'mentalhealth', 'access', 'identification', 'shaloms', 'hydraulicrisingbollards', 'risingbollards', 'secusrity', 'lock', 'structuredcabling', 'ipvideo', 'badge', u'io', 'swift', 'apple', 'timeattendance', 'softwaresolutions', 'fire', 'intruder', 'securitysystem', 'businessalarm', 'utah', 'idaho', 'wyoming', 'architectural', 'ironmongery', 'clockerite', 'taa', 'bigdata', 'videodoorentry', 'financial', 'firesafety', 'officerefurb', 'cleaning', 'monitoring', 'dcdenterprise', 'cyber', 'intrusion', 'bluetooth', 'nfc', 'stafford', 'biostation2', 'pontcashour', 'wakeyhour', u'facility', 'officerefurbs', 'remotebuilding', 'controldeacceso', 'idcard', u'employee', 'campusafety', 'bizitalk', 'lockset', 'ditec', 'trend', 'gatesafetyaware', 'gateautomation', 'swinggates', 'slidinggates', 'parking', 'toptrends', 'isc17', u'electric', 'soldering', 'socialmediamarketing', u'nc', 'microsoft', 'nebbia', 'thecloud', 'miltonkeynes', u'demonstration', 'alwaysonthejob', 'researchethics', 'informedconsent', 'home', 'securilec', '24hourmonitoring', 'entrysystem', 'iam', 'collegesecurity', 'tsdistributors', 'fence', 'weld', 'flange', 'barrelhinge', 'gateoperator', 'gatehardware', 'remotegates', 'securitysolution', 'schoolsafety', 'srikes', 'firesystems', 'serviceandmaintenance', u'extinguisher', 'suppression', u'barrier', 'keyholding', 'bedfordshire', 'hertfordshire', 'buckinghamshire', 'cambridgeshire', 'idcardprinters', 'firstdayofspring', 'property', 'hull', 'uk', 'dactilar', 'intercom', 'cardreader', 'entry', 'tv', 'revolvingdoor', 'airportsecurity', 'breecs', 'construction', 'software', 'bugen', 'china', 'followfriday', u'strategy', 'buildingmanagementsystems', 'computersecurity', 'integratedsystems', 'networkedsecurity', 'mannedguarding', 'tgif', u'printer', 'building', 'onvif', 'abloy', 'exposeguridad2017', 'keriinmexico', 'fermaxaustralia', 'fermax', 'videointercom', 'proximity', 'bollard', 'smile', 'liftcontrol', 'eccles', 'emergencylighting', 'horwich', 'iscw2017', 'isc2017', 'physec', 'banking', 'doorrepair', 'switch', 'geovision', 'remotemonitoring', 'service', 'installaions', 'actpro1520e', 'bureauservice', 'blockchain', 'exposeguridadmexico2017', 'exposeguridad', 'melbre', 'skyline', 'cardaccess', 'locksmith', 'shutthefrontdoor', 'ievo', 'republicadominicana', u'opportunity', 'installing', 'retailsecurity', 'design', 'tameside', 'electricgates', 'accesscontrolsystem', 'sportscenter', 'report', 'budget', 'wansport', 'onlinebooking', 'sportlife', '3147', 'seguridad', 'ciberseguridad', 'sitesecurity', 'biometricaccess', 'bespoke', u'gate', 'garage', u'railing', 'police', 'orangecounty', 'emergencylockout', 'rekey', u'deadbolt', 'handlesets', 'highsecurityl', 'electronickeypads', 'businessdata', 'australia', 'securityaustralia', 'rsac2017', 'tcconnect', u'university', 'masterkey', 'birmingham', 'ipcctv', 'valueadded', 'xtime', 'morpho', 'africa', 'paxton', 'clarksecurity', 'nist', 'innovation', 'abac', 'mac', 'rbac', 'smallbiz', 'convenient', 'swinggate', 'slidegate', 'cantilever', 'doorentrysystems', 'electrical', 'essex', 'london', 'ukwide', 'carehomes', 'protec2_cliq', 'residentialsecurity', 'ipsurveillance', u'aec', u'system', 'tsmethos', 'maglock', '18059', 'cosmos17', 'audi', 'urbansolutions', 'fleetsharing', 'openarchitecture', 'control', u'yr', u'enterprise', 'new']"
"militarytechnology","['usaf', 'military', 'militaryrobots', 'xboxone', 'gamestop', u'robot', 'war', 'money', 'vx', 'militaryscience', 'lewinsky', 'falseflag', u'clinton', 'foreigngovernments', 'plannedobsolescence', 'mtv', 'mtvnews', 'mtvunplugged', 'famousquotes', 'otd', 'indoasiapac', u'drone', 'superlist', 'defense', u'startup', 'defence', 'innovation', 'ukraine', 'microsoft', 'hololens', 'materialcoordinator', 'coordinator', 'sumner', 'washington', 'wa', 'su30', 'bestfighterjet', 'china', '', 'quantum', 'radar', 'extreme', 'government', 'wednesdaywisdom', 'technology', 'thefuture', 'militaryleadership', 'militarystudies', 'cyber', 'cyberneticwarfare', 'doj', 'mexican', u'cartel', 'bme', 'militaryweapons', u'weapon', 'uscooters', 'rideuscooters', 'putin', 'cooperation', 'premiumdomain', 'domainforsale', u'escort', 'militarysecurity', 'news', u'magazine', 'army', 'rt', 'killerrobots', 'militaryrobot', 'preventtechnologicalsurprise', 'sniperrifle', 'grettingbrother', 'drone', 'russia', 'nuclearweapons', 'india', 'blos', 'satcom', 'rotarywing', 'airborne', 'helicopter', 'satellite', 'cotm', 'waveform', 'blimp', u'sensor', 'stealthbomber', 'foodforthought', 'navy', u'ship', 'lawdisorder', 'technologylab', 'conceptcars', u'train', 'naturalizeduscitizen', 'admits', 'militaryvehiclesmachines', 'ww2', 'militaryhistory', 'artificialintelligence', u'swarm', 'storage', 'magazine', u'arm', 'arsenal', 'googleglasses', 'market', 'nuclearpower', 'rouhaniputin', 'vladimirputin', 'iran', 'israel', 'sgthack', 'uswings', 'usmilitary', 'documentary', 'usarmy', 'raygun', 'presidentxijinping', 'antigovernmentdemonstrations', 'southasia', 'pakistanchinaeconomiccorridor', 'security', 'america', 'darpa', 'nationalsecurity', u'physic', 'tech', u'satellite', 'microdrones', 'laser', 'miltech', 'vimeo', 'motocross', u'teenager', 'comingofage', 'dirtbiking', 'militaryinventions', u'boat', 'technews', 'connecticutresident', 'school', 'schoolsafety', 'topstories', 'share', 'mikeworld', 'aircraft', 'stealthfighter', 'charlesmoberly', 'dmitryustinov', 'nightscopes', 'cosplayandcrafting', 'suredoes', 'armsexport', 'chatsworthaircraftcomponents', 'exportlicense', 'vision', 'american', 'tvseries', 'uganda', 'irondome', 'chinausnews', 'crime', 'espionage', 'challengecoins', 'lsa39', 'sanantonio', 'uavs', 'futuretechnology', 'invisibltycloak', 'sr71blackbird', 'nasahistory', 'militarynews', 'uav', 'longrange', 'x22report', 'idf', 'ihlevent', 'ihl', u'u', 'smartphone', u'sale', 'purchasing', 'socialhistory', 'miketrends', 'fighterjets', 'mclaren', u'car', 'windshieldwipers', u'troop', 'invisible', 'it', 'ironman', 'ironmansuit', 'dean', 'americascup', 'electronics', 'future', u'video', 'robotics', u'appellation', 'uk', 'warfare', 'ifollowback', 'teamfollowback', 'hamas', 'shs2013', 'dividedregions', 'callforpapers', 'vulcan', 'law', 'police', 'bigdog', 'terrorism', 'alqaeda', 'nanotechnology', 'mit', 'smartphones', 'jamesholmes', 'privacy', 'unmannedautonomousvehicles', 'internet', 'internetsafety', 'issuesandethics', 'debate', 'dematerializing', 'immigrant', 'startupisrael', 'militaryaircraft', 'militarytanks', 'militaryvehicles', 'pollution', 'barackobama', 'computerscience', 'advancedconcepts', 'plastic', 'aviation', 'safetyandprevention', u'gadget', 'infrared', 'armycombatvehicle', 'militaryreplacementgear', 'militarynetworking', 'militaryequipment', 'science', 'gps', 'spacetechnology', 'authoritarian', 'post911', 'dissent', 'biomimetics', 'discovery', 'ubiquitouscomputing', 'gamesandgear', 'libyawar', 'worldwonder', 'alientechnology', 'magic', u'hobby', 'hydroimaging', 'waterprinting', 'missile', 'new', 'advanced', 'korea', 'force']"
