"More testimony supporting #renewableenergy bills #solarpower #MWConvos #mapoli","#renewableenergy #solarpower #MWConvos #mapoli","2017-04-05 01:49:40"
"Are you a business owner? Take a look at the benefits that Solar Power can bring to your business! #SolarPower http:// bit.ly/1Kz2Pil pic.twitter.com/IvDQGFmwXv","#SolarPower","2017-04-05 01:46:04"
"More Than 75% Americans Say Trump Should Speed up Adoption of Renewable Energy #solarpower Read Here http:// dld.bz/fxDvh pic.twitter.com/rAsTLa8aJo","#solarpower","2017-04-05 01:34:12"
"Enel Green Power breaks ground for US$ 220 million solar plant in #Guanajuato Details: http:// bit.ly/2oXrreD #PVplant #SolarPower pic.twitter.com/cZja4JnrHq","#Guanajuato #PVplant #SolarPower","2017-04-05 01:24:57"
"#solarpower Indiana House Passes Bill to Cut Solar Panel Incentives - U.S. News & World Report http:// bit.ly/2oA9mGW #onbeon #renewables","#solarpower #onbeon #renewables","2017-04-05 01:21:06"
"New Solar Crowdfunding Platform Ecoligo Launches Kenya Project http:// buff.ly/2nB08Xv #SolarPower #Crowdfunding #CrowdfundingPlatform pic.twitter.com/FRZDJ9mQaE","#SolarPower #Crowdfunding #CrowdfundingPlatform","2017-04-05 01:11:11"
"Another beautiful customer system. If you have a tile roof, no one can give you a better looking option. #solar #solarpower #greenenergy pic.twitter.com/GHvXC6cvNS","#solar #solarpower #greenenergy","2017-04-05 01:07:08"
"The beauty of wind and solar power industries. #energy #photography #solarpower http:// bit.ly/2nFq1bV pic.twitter.com/duXQneWmGj","#energy #photography #solarpower","2017-04-05 00:44:48"
"https:// goo.gl/5nk288 #trumped #solarpower pic.twitter.com/KDXAxxJoLo","#trumped #solarpower","2017-04-05 00:09:23"
"Temp:80.73F Pressure:1012.85hPa Humidity:47% Dew Point:58.66F Weather Condition: 04/04/17+18:00:40 #solarpower","#solarpower","2017-04-05 00:00:41"
"Can't make our #earthday HH today? @GWNetImpact has u covered! Thursday, join them at DC's 1st #solarpower #brewery http:// owl.li/d3gs30awqQt pic.twitter.com/OE4tPHIf6D","#earthday #solarpower #brewery","2017-04-04 23:55:15"
"These cities are totally slaying the solar power game https:// goo.gl/fb/IgZi5g #report #solarpanels #solarpower","#report #solarpanels #solarpower","2017-04-04 23:46:28"
"#solarpower MAP: Shared Solar Power Pilot Sites - http:// Patch.com http:// bit.ly/2ozTG6x #onbeon #renewables pic.twitter.com/DqbgK4I2Yc","#solarpower #onbeon #renewables","2017-04-04 23:41:39"
"These cities are totally slaying the solar power game https:// goo.gl/fb/o8vtJU #report #solarpanels #solarpower","#report #solarpanels #solarpower","2017-04-04 23:41:18"
"These cities are totally slaying the solar power game https:// goo.gl/fb/DHsfJc #report #solarpanels #solarpower","#report #solarpanels #solarpower","2017-04-04 23:30:43"
"Another happy solar owner! 6.89kW @TrinaSolarUS @SolarEdgePV @quickmountpv @IronRidge #solarpower #menifee pic.twitter.com/YYPl89VuJ2","#solarpower #menifee","2017-04-04 23:29:43"
"Interested in #Solar #SolarPower #SolarPanels - I warn you NOT to deal with #Sungevity due to horrible customer service.","#Solar #SolarPower #SolarPanels #Sungevity","2017-04-04 23:01:28"
"New NREL report: Most detailed cost breakdowns to date for residential #SolarPower w/ storage including soft costs - http:// bit.ly/2nwm32B pic.twitter.com/lmrEL3LodR","#SolarPower","2017-04-04 23:00:03"
"#SolarPower is surging in Australia and around the world http:// ln.is/org.au/dUoA3 #renewables #auspol #coal #stopadani","#SolarPower #renewables #auspol #coal #stopadani","2017-04-04 22:39:13"
"Solar powered airport & a solar powered ""barber"". #southafrica #solarpower #sunpower #sun #ppcsolar https:// youtu.be/hcczz_I1-kE via @YouTube","#southafrica #solarpower #sunpower #sun #ppcsolar","2017-04-04 22:34:25"
"Bad to the bone. I want one! #solarflower #solarpower #cleanenergy #climatechange #solutions http:// buff.ly/2oWsH1C pic.twitter.com/njXUpS9sR3","#solarflower #solarpower #cleanenergy #climatechange #solutions","2017-04-04 22:21:02"
"Spray-on solar cells could be soon a reality http:// buff.ly/2oUDU2C via @torontostar #SolarPower pic.twitter.com/grU6I5gqND","#SolarPower","2017-04-04 22:19:06"
"Solar Power from energy-harvesting trees https:// is.gd/9UHqSh #solarpower","#solarpower","2017-04-04 22:01:01"
"Spray-on solar cells could be soon a reality http:// buff.ly/2oTZ40Z via @torontostar #SolarPower pic.twitter.com/U5Sff9C6BP","#SolarPower","2017-04-04 21:48:02"
"#LyonGroup plans to build the world's biggest #solarpower + #energystorage project in South #Australia . http:// buff.ly/2nZyUwn pic.twitter.com/OCLw7lqEA1","#LyonGroup #solarpower #energystorage #Australia","2017-04-04 21:29:39"
"#solarpower US cities moving forward on solar power - Environment America http:// bit.ly/2ozyPjX #onbeon #renewables","#solarpower #onbeon #renewables","2017-04-04 21:26:57"
"Diamonds and graphite. What a pair! #solar #solarpower #greenenergy #solartoday http:// fb.me/1Vaegnz6T","#solar #solarpower #greenenergy #solartoday","2017-04-04 21:02:56"
"#solarpower #Chile http:// ow.ly/OQWs30anx3q","#solarpower #Chile","2017-04-04 21:01:37"
"Temp:82.42F Pressure:1012.51hPa Humidity:42% Dew Point:57.06F Weather Condition:Breezy 04/04/17+15:00:34 #solarpower","#solarpower","2017-04-04 21:00:34"
"A new solar storage solution ispired by the nature #solarenergy #solarpower pic.twitter.com/4ytK7bo1nL","#solarenergy #solarpower","2017-04-04 21:00:01"
"Got solar? Winston Salem does and so do we!! #gotsolar #powerhome #ownyourpower #solarpower http:// fb.me/wMG7aXtC","#gotsolar #powerhome #ownyourpower #solarpower","2017-04-04 20:51:38"
"#SolarLove #SolarPower pic.twitter.com/XPEaqfW3lr","#SolarLove #SolarPower","2017-04-04 20:48:29"
"Innovative Roll Up Solar Panels http:// dld.bz/e9d7P #innovation #invention #solarpower #cleantech #greenenergy pic.twitter.com/dtszHLS460","#innovation #invention #solarpower #cleantech #greenenergy","2017-04-04 20:36:00"
"#solarpower Next target: Mega solar power plant - Times of India http:// bit.ly/2ozjgJb #onbeon #renewables","#solarpower #onbeon #renewables","2017-04-04 20:19:29"
"Looking for the sun with #Chinese #solarpower #China #Finland pic.twitter.com/o71JfSYjxZ","#Chinese #solarpower #China #Finland","2017-04-04 20:09:52"
"Awesome Inventory Clearance Sale 72-cell solar panels. Pallet and Container qtys available #solarpower #solarenergy http:// tiny.cc/32vaky pic.twitter.com/iiCZQnz9xc","#solarpower #solarenergy","2017-04-04 19:46:22"
"With #Africa 's GDP growth the need for #energy is a growing concern, the solution: #SolarPower @Zawya http:// buff.ly/2opqsYe pic.twitter.com/mmwKRunQzC","#Africa #energy #SolarPower","2017-04-04 19:27:10"
"Solar powering 35,000 meals daily in Mount Abu. What a blessing! #solarPOWER - http:// goo.gl/alerts/3eHF6","#solarPOWER","2017-04-04 19:08:58"
"Discover how much you can actually power using #SolarEnergy : https:// goo.gl/5lA1Bp #SolarPower #Solar","#SolarEnergy #SolarPower #Solar","2017-04-04 18:56:30"
"http:// bit.ly/1PJeUra This high-tech bottle actually creates water out of thin air! #SolarPower . #Water #Innovation #Inventions","#SolarPower #Water #Innovation #Inventions","2017-04-04 18:10:10"
"A Sierra Club leader says a proposed SC tax change is an ""amazing opportunity"" for #solarpower - @hallphotography http:// ow.ly/JS5730ayajb","#solarpower","2017-04-04 18:05:13"
"Good evening Zimbabwe! we hope you enjoyed your day. #Comfort .Safety.Security #Solarenergy #Solarpower #Twimbos pic.twitter.com/je0jWS7J2b","#Comfort #Solarenergy #Solarpower #Twimbos","2017-04-04 18:00:03"
"#FPL announces plan for first Miami-Dade #solar plant: http:// hrld.us/2nYGG9N #renewableenergy #solarpower #solarenergy #miami #florida","#FPL #solar #renewableenergy #solarpower #solarenergy #miami #florida","2017-04-04 17:53:36"
"Call your sales representative to hear our Easter specials! 856-802-0991 #solar #solarpanels #solarsale #solarinverters #solarpower pic.twitter.com/LSG4VaZQFo","#solar #solarpanels #solarsale #solarinverters #solarpower","2017-04-04 17:45:41"
"Never come between a solar panel and the Sun. #Suntuity #SolarEnergy #Sustainable #CleanEnergy #SolarPower #Sun #RenewableEnergy #SolarPanel pic.twitter.com/D5C2tj0FGT","#Suntuity #SolarEnergy #Sustainable #CleanEnergy #SolarPower #Sun #RenewableEnergy #SolarPanel","2017-04-04 17:45:26"
"#service #sales #wearethebest #GST #GreenSolarTechnologies #renewables #renewableenergy #callToday #savemoney #solarpower pic.twitter.com/MfWnYLtO5g","#service #sales #wearethebest #GST #GreenSolarTechnologies #renewables #renewableenergy #callToday #savemoney #solarpower","2017-04-04 17:39:39"
"Spray-on solar cells could be soon a reality http:// bit.ly/2oDHejx via @torontostar #SolarPower pic.twitter.com/31MBse7mTM","#SolarPower","2017-04-04 17:37:02"
"Solar Panthers exhibiting their solar car @FrontierSchools @MOCharterSchool @HighSchoolSolar #stem #solarpower pic.twitter.com/hKKw8l8iOx","#stem #solarpower","2017-04-04 17:26:29"
"When there is a huge #solarenergy spill, it's called a nice day! LOL #solarpower","#solarenergy #solarpower","2017-04-04 17:10:08"
"Que Sol lindoooo! #solarpower #sol","#solarpower #sol","2017-04-04 17:06:05"
"@realDonaldTrump #hydropower is a limited resource that impacts eco systems. #solarpower uses your fucking roof. #IDIOT","#hydropower #solarpower #IDIOT","2017-04-04 16:55:35"
"#solarpower Fortum commissions 70 MW solar power plant in Rajasthan - http:// ETEnergyworld.com http:// bit.ly/2oyrJfx #onbeon #renewables pic.twitter.com/RrAl2vjnIq","#solarpower #onbeon #renewables","2017-04-04 16:54:09"
"Have you ever wondered how does #solarpower work? #youtube #solarenergy #green https:// youtu.be/G-qms8NjCMc","#solarpower #youtube #solarenergy #green","2017-04-04 16:50:16"
"While #Trump promotes #coal , #Chile and others are turning to cheap #solarpower http:// wapo.st/2nFxVyv","#Trump #coal #Chile #solarpower","2017-04-04 16:36:29"
"#SolarPower Advocates Undeterred By #Trump 's #Climate Policies via @NPR #SunDoc #GoSolar http:// n.pr/2nFJUw2","#SolarPower #Trump #Climate #SunDoc #GoSolar","2017-04-04 16:33:18"
"The future of #CleanEnergy is in your hands! Call us today for a free consultation on #solarpower for your home. #OkieSolar pic.twitter.com/qrhnLJw1CY","#CleanEnergy #solarpower #OkieSolar","2017-04-04 16:31:13"
"A Company Just Announced That Tesla Will Be Included in All of Their Homes #Tesla #ElonMusk #Energy #SolarPower http:// ow.ly/YrSp30axHXC","#Tesla #ElonMusk #Energy #SolarPower","2017-04-04 16:30:30"
"A Company Just Announced That Tesla Will Be Included in All of Their Homes #Tesla #ElonMusk #Energy #SolarPower http:// ow.ly/YrSp30axHXC","#Tesla #ElonMusk #Energy #SolarPower","2017-04-04 16:30:29"
"A Company Just Announced That Tesla Will Be Included in All of Their Homes #Tesla #ElonMusk #Energy #SolarPower http:// ow.ly/YrSp30axHXC","#Tesla #ElonMusk #Energy #SolarPower","2017-04-04 16:30:29"
"The sun is simply, one big battery for us. Go solar today! To know more about #FreeEnergy #Solar #SolarPower , call us on +919072840270. pic.twitter.com/R6mrlYeKn0","#FreeEnergy #Solar #SolarPower","2017-04-04 16:30:05"
"First #Solar to Deliver 48.5MW Manildra Solar Farm in #Australia #solarpower Read Here: http:// dld.bz/f8rpx pic.twitter.com/ztGVplWi5z","#Solar #Australia #solarpower","2017-04-04 16:28:21"
"Best way to subsidize #solarpower ? #renewables #solar #CleanEnergyEU","#solarpower #renewables #solar #CleanEnergyEU","2017-04-04 16:13:02"
"Introduction to Solar Power Chargers for Electronics http:// dld.bz/f4qAd #SolarPower #ElectronicCharger pic.twitter.com/aZKcUZPkBK","#SolarPower #ElectronicCharger","2017-04-04 16:12:37"
"Margate Airport - TM Crane Hanger Type: Off-grid Size: 6kWp Annual Energy Output: 1.3MWh http:// buff.ly/2oTMpLA #solarpower #installation","#solarpower #installation","2017-04-04 16:01:37"
"#Powerwall enables a homeowner to capture and store the excess #solarpower produced during the day for use at night http:// ow.ly/a0mA30axHsA pic.twitter.com/e075ewddH6","#Powerwall #solarpower","2017-04-04 16:00:52"
". @insideFPL has announced it will add another 1,500MW of #solarpower , including @MiamiDadeCounty 's first solar plant http:// ow.ly/9qyb30ay9A7","#solarpower","2017-04-04 16:00:28"
"NREL and Giner validate performance of electrolyzers for H2 storage of excess #WindPower #SolarPower in @ESIFLabs - http:// bit.ly/2orsrr8 pic.twitter.com/rm9Cv0KEq2","#WindPower #SolarPower","2017-04-04 16:00:06"
"Impacts of strat/ #sulfate #geoengineering on/ solar #photovoltaic and concentrating #SolarPower / http:// eprints.whiterose.ac.uk/112809/ #climate #energy","#sulfate #geoengineering #photovoltaic #SolarPower #climate #energy","2017-04-04 15:59:57"
"Amazing new Transparent Solar Panels could be a Game-Changer https:// is.gd/2UsFRY #innovation #solarpower","#innovation #solarpower","2017-04-04 15:55:42"
"#Solar -PoweredLantern #solarlantern #SolightSolarpuff #solarpower #solarpuff #solarenergy #productdesign #jebiga ... pic.twitter.com/jh88zc7xYs","#Solar #solarlantern #SolightSolarpuff #solarpower #solarpuff #solarenergy #productdesign #jebiga","2017-04-04 15:45:14"
"Morocco starts final stage of huge solar power complex | #NoorOuarzazate #SolarPower http:// ow.ly/oBeP30aybEP","#NoorOuarzazate #SolarPower","2017-04-04 15:40:45"
"A Brief History On The Development Of Solar Power http:// dld.bz/f45vz #historyofsolarpower #solarpower pic.twitter.com/kEAtsX3HzU","#historyofsolarpower #solarpower","2017-04-04 15:37:22"
"Emerging#fossilfuel alternatives such as #windpower & #solarpower are starting to limit growth in #oil demand. http:// wartsila.smh.re/0Zl pic.twitter.com/69UsJe4OVb","#fossilfuel #windpower #solarpower #oil","2017-04-04 15:21:19"
"#transformationtuesday #ChangingLives #ChangingFutures with #solarpower bringing #Sustainability and #cleanenergy to #Uganda and #Kenya pic.twitter.com/jzsy3q1sDC","#transformationtuesday #ChangingLives #ChangingFutures #solarpower #Sustainability #cleanenergy #Uganda #Kenya","2017-04-04 15:19:37"
"#transformationtuesday #ChangingLives #ChangingFutures with #solarpower bringing #Sustainability and #cleanenergy to #Uganda and #Kenya pic.twitter.com/L4Yvu67NoR","#transformationtuesday #ChangingLives #ChangingFutures #solarpower #Sustainability #cleanenergy #Uganda #Kenya","2017-04-04 15:08:51"
"CORRECTION/ #Ivanpah 392 mW #SolarPower #ConcentratedSolarPower #SolarPowerPlant Not State Built. Built By @Google @BrightSource @NRGEnergy","#Ivanpah #SolarPower #ConcentratedSolarPower #SolarPowerPlant","2017-04-04 15:03:00"
"A Company in Japan Just Broke the World Record for Solar Panel Efficiency #SolarPower #SolarPanels #Energy #Climate http:// ow.ly/a5N430axHaA","#SolarPower #SolarPanels #Energy #Climate","2017-04-04 14:30:17"
"A Company in Japan Just Broke the World Record for Solar Panel Efficiency #SolarPower #SolarPanels #Energy #Climate http:// ow.ly/a5N430axHaA","#SolarPower #SolarPanels #Energy #Climate","2017-04-04 14:30:17"
"A Company in Japan Just Broke the World Record for Solar Panel Efficiency #SolarPower #SolarPanels #Energy #Climate http:// ow.ly/a5N430axHaA","#SolarPower #SolarPanels #Energy #Climate","2017-04-04 14:30:17"
"Find out more info about the #SolarEnergyHub - A remote #SolarPower supply for your #SmartCity #IoT gadgets at http:// ow.ly/HEH430ay0P3 pic.twitter.com/AYd9obsLU8","#SolarEnergyHub #SolarPower #SmartCity #IoT","2017-04-04 14:24:58"
"@DiligentiaS Thanks for the follow . Please visit http://www. ShopOnline.solar #solarpower #solaronline #windonline #shoponline","#solarpower #solaronline #windonline #shoponline","2017-04-04 14:20:19"
"Hi, all followers, Barefoot @powerbarefoot has launched a new logo that we have changed to our twitter DP #solarpower #Barefootpower pic.twitter.com/IkSI1Kpk7X","#solarpower #Barefootpower","2017-04-04 14:19:05"
"Spray-on solar cells could be soon a reality http:// buff.ly/2oTdw9E via @torontostar #SolarPower pic.twitter.com/VSJedTWyOQ","#SolarPower","2017-04-04 13:56:04"
"We had plenty of #solarpower and #windpower Saturday thru Monday, but increased fossil fuel consumption is forecast for the next two days. pic.twitter.com/9KyiTci3Ty","#solarpower #windpower","2017-04-04 13:52:21"
"Yeah! #solar #power #solarpower #greenenergy #duurzaamheid #wakawaka @frunsprefysiotherapie.nl https://www. instagram.com/p/BSdjYYcDclS/","#solar #power #solarpower #greenenergy #duurzaamheid #wakawaka","2017-04-04 13:28:32"
"Solar Power is a technology not a fuel. It becomes less expensive with time, unlike dirty fuels. #SolarPower #SolarEnergy #RenewableEnergy pic.twitter.com/prq8o3L51z","#SolarPower #SolarEnergy #RenewableEnergy","2017-04-04 13:23:20"
"RT @AllanMargolin : Great #Climate Cartoon #SolarPower @InSunWeTrust @sindicatum @CLIME_IT @arikring @dawnbazely pic.twitter.com/KhETtizRNx","#Climate #SolarPower","2017-04-04 13:15:17"
"'Bio-inspired energy storage: a new light for solar power' @ENNnews #solarpower @RMIT https:// goo.gl/cNgg5o","#solarpower","2017-04-04 13:15:00"
"Thinking About Solar Panels? See How Much Sun Your Roof Gets With This Map http:// bit.ly/2owNSLm #Google #solarpower pic.twitter.com/wUfcwgx9aT","#Google #solarpower","2017-04-04 13:07:05"
"#Morocco Unveils the #World 's Largest #Solar http:// ln.is/Hph4f #news #solarpower #cleanenergy","#Morocco #World #Solar #news #solarpower #cleanenergy","2017-04-04 12:58:46"
"#solarpower FPL announces plan for first Miami-Dade solar plant - Miami Herald http:// bit.ly/2nEB164 #onbeon #renewables pic.twitter.com/5IzzGAnZHN","#solarpower #onbeon #renewables","2017-04-04 12:57:30"
"Fortum Commissions a 70 MW Solar Power Project in India http:// bit.ly/2o55kWn #solarpower #solarenergy #solar #solarproject","#solarpower #solarenergy #solar #solarproject","2017-04-04 12:50:02"
"RaysExperts commissions 5.5 MW Solar project for Delhi Metro Rail Corporation http:// bit.ly/2n6LDP2 #solarproject #solar #solarpower","#solarproject #solar #solarpower","2017-04-04 12:46:26"
"@koolkat_energy Thanks for the follow . Please visit http://www. ShopOnline.solar #solarpower #solaronline #windonline #shoponline","#solarpower #solaronline #windonline #shoponline","2017-04-04 12:39:53"
"#USAID supports #SolarPower initiatives through partnership with #Pakistani banks for #CleanEnergy project financing http://www. dawn.com/news/1324562","#USAID #SolarPower #Pakistani #CleanEnergy","2017-04-04 12:17:59"
"I will make #SolarPanel Installation Business Promo video http:// buff.ly/2nXtfa5 #SolarPanelInstallation #Solar #SolarPower #SolarEnergy","#SolarPanel #SolarPanelInstallation #Solar #SolarPower #SolarEnergy","2017-04-04 12:16:22"
"I will make #SolarPanel Installation Business Promo video http:// buff.ly/2nXoqNN #SolarPanelInstallation #Solar #SolarPower #SolarEnergy","#SolarPanel #SolarPanelInstallation #Solar #SolarPower #SolarEnergy","2017-04-04 12:16:21"
"Grants & Incentives - #grants #incentives Making use of #SARS incentive http:// buff.ly/2orP1UW #solarpower #installation","#grants #incentives #SARS #solarpower #installation","2017-04-04 12:00:45"
"Canadian #Solar Begins Operation of 100MW Mustang #SolarPower Project #cleanenergy Read Here: http:// dld.bz/fx76h pic.twitter.com/pTkJURXRBR","#Solar #SolarPower #cleanenergy","2017-04-04 11:56:08"
"#Australia build world's largest solar farm & battery System.including 3.4m solar panels & 1.1m batteries #solarpower #lka pic.twitter.com/sccTvgwxXS","#Australia #solarpower #lka","2017-04-04 11:46:38"
"""We are witnessing an #energy transformation!"" http:// bit.ly/2n6zTM6 #Sustainability #solarpower #windenergy pic.twitter.com/qKeEGxtDcw","#energy #Sustainability #solarpower #windenergy","2017-04-04 11:11:48"
"Nearly 60 buildings in #Mumbai have already started generating their electricity by using rooftop #solarpower plants http:// bit.ly/2mRNEhK pic.twitter.com/9pdjZm6yG0","#Mumbai #solarpower","2017-04-04 10:55:01"
"https:// youtu.be/TMbFmQqss5I #solargenerator #solarpower #cleanenergy #sustainableliving","#solargenerator #solarpower #cleanenergy #sustainableliving","2017-04-04 10:11:13"
"Emerging#fossilfuel alternatives such as #windpower & #solarpower are starting to limit growth in #oil demand. http:// wartsila.smh.re/0ZG pic.twitter.com/xoG6D6zLdR","#fossilfuel #windpower #solarpower #oil","2017-04-04 10:11:12"
"https:// youtu.be/cInj4GFXQSI #solarchargers #solarpower #cleanenergy #sustainableliving","#solarchargers #solarpower #cleanenergy #sustainableliving","2017-04-04 10:03:50"
"Malaysian Firm and Indian Start up Sign MoU to setup Floating Solar Power Plant in Malaysia http:// bit.ly/2nyM8wA #solar #solarpower","#solar #solarpower","2017-04-04 09:49:16"
"Power supply that is reliable #solarpower @GroupGmf . Get this oven while stock lasts pic.twitter.com/UcuMnZupvq","#solarpower","2017-04-04 09:43:54"
"Selamat siang, untuk penerangan taman yang hemat dan modern, gunakan Solar Spot Light dari GriyaTekno :) #solarpower #solaeenergy #solar pic.twitter.com/XnzHqyX0db","#solarpower #solaeenergy #solar","2017-04-04 09:26:32"
"Graphene-based electrode increases solar power storage http:// bit.ly/2o1rR6s #solarpower #graphene @timsandle @digitaljournal","#solarpower #graphene","2017-04-04 09:15:12"
"Adani Group meets Punjab CM to invest in the state Read More: http:// bit.ly/2ox20UG #Adanigroup #solarpower #solarenergy","#Adanigroup #solarpower #solarenergy","2017-04-04 09:02:29"
"Temp:80.12F Pressure:1010.79hPa Humidity:52% Dew Point:60.94F Weather Condition:Breezy 04/04/17+03:00:36 #solarpower","#solarpower","2017-04-04 09:00:37"
"Off Grid Systems - #offgrid #system #Solar Power when there is no #Eskom #power http:// buff.ly/2orSmD4 #solarpower #installation","#offgrid #system #Solar #Eskom #power #solarpower #installation","2017-04-04 09:00:27"
"#Solar #solarenergy #ActNow #climatechange #renewableenergy #coal #Westpac #frackingsnojoke #solarpower #rechargeablesolar #greenpeace pic.twitter.com/q65RrA7u7P","#Solar #solarenergy #ActNow #climatechange #renewableenergy #coal #Westpac #frackingsnojoke #solarpower #rechargeablesolar #greenpeace","2017-04-04 08:56:18"
"Daily Dispatch: Eskom to sign up for renewable energy. #SolarPower #RenewableEnergy #CleanEnergy pic.twitter.com/ZdFNAwgLmD","#SolarPower #RenewableEnergy #CleanEnergy","2017-04-04 08:41:25"
"Cook County's community solar project aims to get at least 30,000 residents using #solarpower in the next five years http:// asq.solar/2nW5M9d pic.twitter.com/X4XYa75con","#solarpower","2017-04-04 08:41:00"
"Solar Stickers to Power the World https:// is.gd/IQ0IXf #solarpower","#solarpower","2017-04-04 08:33:55"
"#RenewableEnergy #Solarpower to light up 900+ remote Arunachal Pradesh villages http:// buff.ly/2oTp1xP","#RenewableEnergy #Solarpower","2017-04-04 08:27:00"
"Power your world, your way and save money with an MEDSOLARSYSTEM. #Comfort .Safety.Security #Solarenergy #Solarpower pic.twitter.com/9WNRk0MuZh","#Comfort #Solarenergy #Solarpower","2017-04-04 08:10:05"
"Bring #Comfort .Safety.Security to you home with MED solar geysers. #Solarenergy #Solarpower #Twimbos #263Chat pic.twitter.com/Mmm7EGdlp5","#Comfort #Solarenergy #Solarpower #Twimbos #263Chat","2017-04-04 08:05:06"
"#SolarPower simply works this way. #GoSolar #SolarDubai #SolarUAE #RenewableEnergy #NavitasDwc #EcoFriendly #GreenEnergy pic.twitter.com/SjhhmHyAJb","#SolarPower #GoSolar #SolarDubai #SolarUAE #RenewableEnergy #NavitasDwc #EcoFriendly #GreenEnergy","2017-04-04 08:03:48"
"Good morning Zimbabwe, Have a great Tuesday! #Comfort .Safety.Security #Solarenergy #Solarpower #Twimbos #263Chat pic.twitter.com/mdMM6egLRO","#Comfort #Solarenergy #Solarpower #Twimbos #263Chat","2017-04-04 08:00:05"
"Solar Directory - Residential Solar PV Price Index March 2017 http:// ow.ly/mlL130aobUO #solar #solarpanels #solarpower #solarpowerAustralia","#solar #solarpanels #solarpower #solarpowerAustralia","2017-04-04 07:45:06"
"Solar Directory - Solar Installers - #Adelaide #Solar Services http:// ow.ly/awkB308FJAr #solarpower #sasolar #solarpanels #SouthAustralia","#Adelaide #Solar #solarpower #sasolar #solarpanels #SouthAustralia","2017-04-04 07:35:06"
"#Solarpower to light up remote #ArunachalPradesh villages: > https:// goo.gl/y8bqbx pic.twitter.com/uguy01vugd","#Solarpower #ArunachalPradesh","2017-04-04 07:29:13"
"I will make #SolarPanel Installation Business Promo video http:// buff.ly/2owiQ6b #SolarPanelInstallation #SolarPV #SolarPower","#SolarPanel #SolarPanelInstallation #SolarPV #SolarPower","2017-04-04 07:21:18"
"I will make #SolarPanel Installation Business Promo video http:// buff.ly/2owzEtT #SolarPanelInstallation #SolarPV #SolarPower","#SolarPanel #SolarPanelInstallation #SolarPV #SolarPower","2017-04-04 07:21:17"
"Here is how solar power helps in saving the world: http:// ow.ly/busg30axq93 #Manshabrothers #Solarpower ... http:// fb.me/8QoYktJ5Q","#Manshabrothers #Solarpower","2017-04-04 06:51:07"
"Here is how solar power helps in saving the world: http:// ow.ly/busg30axq93 #Manshabrothers #Solarpower #Cleanenergy #Gosolar","#Manshabrothers #Solarpower #Cleanenergy #Gosolar","2017-04-04 06:51:02"
"We're about to get to that final line like Queens and Kings @uvoltenergy #Startup #Montreal #Solar #solarpower #Iphone #Samsung #Lit pic.twitter.com/iHF7rZyX6l","#Startup #Montreal #Solar #solarpower #Iphone #Samsung #Lit","2017-04-04 06:42:55"
"#SolarPanel Installation Business Promo video http:// buff.ly/2oDzvSK #SolarPanelInstallation #SolarPV #SolarPower #SolarEnergy","#SolarPanel #SolarPanelInstallation #SolarPV #SolarPower #SolarEnergy","2017-04-04 06:31:22"
"#SolarPanel Installation Business Promo video http:// buff.ly/2oDFI0Q #SolarPanelInstallation #SolarPV #SolarPower #SolarEnergy","#SolarPanel #SolarPanelInstallation #SolarPV #SolarPower #SolarEnergy","2017-04-04 06:31:21"
"#solarpower Office Hours: Why hasn't solar power become wildly popular? - Reading Eagle http:// bit.ly/2nDHXQY #onbeon #renewables pic.twitter.com/Chx3FkYAoU","#solarpower #onbeon #renewables","2017-04-04 06:24:16"
"I will make #SolarPanel Installation Business Promo video http:// buff.ly/2oSVjcn #SolarPanelInstallation #SolarPV #SolarPower #SolarEnergy","#SolarPanel #SolarPanelInstallation #SolarPV #SolarPower #SolarEnergy","2017-04-04 05:51:10"
"I will make #SolarPanel Installation Business Promo video http:// buff.ly/2oTf8ju #SolarPanelInstallation #SolarPV #SolarPower #SolarEnergy","#SolarPanel #SolarPanelInstallation #SolarPV #SolarPower #SolarEnergy","2017-04-04 05:51:08"
"Do you realise how much power swimming pools use up? Best to power them with #solarpower ! pic.twitter.com/GKNAhqgKl4","#solarpower","2017-04-04 05:00:32"
"Thinking About #solarpower Panels? See How Much Sun Your Roof Gets With This Map @google @googlesunroof #RealEstate http:// flip.it/BxSJe5","#solarpower #RealEstate","2017-04-04 04:20:03"
"ReneSola Awarded 13 MW of #Solar Projects in #Poland 's First Electricity Auction #solarpower Read Here: http:// dld.bz/fxUHN pic.twitter.com/9AZda9Mfw5","#Solar #Poland #solarpower","2017-04-04 04:13:30"
"#SolarPower : Canadian Solar raises US 17 million in financing for 19MW solar project in Japan ... https:// goo.gl/W5CZul","#SolarPower","2017-04-04 03:46:45"
"Project Sunroof by @Google is an amazing tool for property owners considering #solar . https://www. google.com/get/sunroof#p=0 #solarpower #maps #opendata","#solar #p #solarpower #maps #opendata","2017-04-04 03:37:53"
"#Solar towers on fast-track after Coalition tips in extra $110m http:// bit.ly/2nNhIZc via @renew_economy #solarpower #auspol pic.twitter.com/O6yeq5JbFP","#Solar #solarpower #auspol","2017-04-04 03:30:20"
"#Solarpower is #technology - not a fuel. It gets cheaper with time","#Solarpower #technology","2017-04-04 03:30:06"
"https:// youtu.be/-VyhsoUemug @smartflower_sol #solar #solarpower #tech","#solar #solarpower #tech","2017-04-04 02:56:09"
"25.19 kWh with 22 #solarpanels ($123.76 MXN) Help us bring amazing #solarpower to #SanMiguelDeAllende #GTO @gobiernoGto @miguelmarquezm pic.twitter.com/KVNRiA7YeL","#solarpanels #solarpower #SanMiguelDeAllende #GTO","2017-04-04 02:52:10"
"#SolarPower : Bill ensures state and local fees don't strangle solar power ... https:// goo.gl/3p9yB0","#SolarPower","2017-04-04 02:45:24"
"The revolution is unstoppable: http:// ow.ly/NnLy30avHp9 #solar #solarpower #efficiency #technology","#solar #solarpower #efficiency #technology","2017-04-04 02:35:06"
"Introduction to Solar Power Chargers for Electronics http:// dld.bz/f4qAd #SolarPower #ElectronicCharger pic.twitter.com/S1Botn2d2h","#SolarPower #ElectronicCharger","2017-04-04 02:25:35"
"#SolarPower : FPL to add another 1500 megawatts of solar over the next seven years ... https:// goo.gl/iLJ6JM","#SolarPower","2017-04-04 02:08:27"
"#SolarPower : Free Off Grid Solar Power Kits To Light Up 895 Remote Villages In Arunachal Pradesh Minister ... https:// goo.gl/DNFtPH","#SolarPower","2017-04-04 02:07:25"
"#SolarPower : Australian Scientists Just Set A Solar Power Efficiency World Record Again ... https:// goo.gl/75hBIl","#SolarPower","2017-04-04 02:06:24"
"As Trump Bows Out, States Set to Fill Void on Climate Change http:// buff.ly/2nzJaZi #solarpower #windpower pic.twitter.com/lQxfXommTa","#solarpower #windpower","2017-04-04 02:00:10"
"#solarpower Aswan solar power project brightens Egypt's energy outlook - Al-Monitor http:// bit.ly/2ovj0e1 #onbeon #renewables pic.twitter.com/bUxF7HZime","#solarpower #onbeon #renewables","2017-04-04 01:32:23"
"The epitome of #sustainable #transport #solarpower #trains ? http:// bit.ly/2o0KHuL","#sustainable #transport #solarpower #trains","2017-04-04 01:23:01"
"@POTUS #Trump #climatechange #solarpower #renewableenergy pic.twitter.com/czKY2q34Nk","#Trump #climatechange #solarpower #renewableenergy","2017-04-04 01:11:35"
"@PookieBojangles Damn,take all of that money you are going to waste building a wall @realDonaldTrump and start #solarpower","#solarpower","2017-04-04 01:11:08"
"#SolarPower #Machine #Sand to #GlassObjects http:// fb.me/8txcwRp3b","#SolarPower #Machine #Sand #GlassObjects","2017-04-04 01:10:56"
"The sun really is a handy thing! #solarpower #renewables pic.twitter.com/EMshkMFtfI","#solarpower #renewables","2017-04-04 01:00:48"
"Another #productive day in the RAVE Lab! #solar #energy #renewables #solarenergy #work #workinghard #solarpower #solarpanel pic.twitter.com/DEi6xxfV12","#productive #solar #energy #renewables #solarenergy #work #workinghard #solarpower #solarpanel","2017-04-04 00:57:13"
"#SolarPower : Kerala startup to build floating solar plants in Malaysia ... https:// goo.gl/M8bRzd","#SolarPower","2017-04-04 00:12:22"
"#SolarPower : Solar represented 13 of California's power in 2016 ... https:// goo.gl/UUBh7X","#SolarPower","2017-04-04 00:11:20"
"#SolarPower : King Mohammed VI of Morocco launches the Noor PV I Program in Ouarzazate ... https:// goo.gl/GvC8Fw","#SolarPower","2017-04-04 00:10:18"
"#SolarPower : FPL announces plan for first Miami Dade solar plant ... https:// goo.gl/2k3tfV","#SolarPower","2017-04-04 00:09:16"
"#SolarPower : FPL to build more solar plants one new gas plant ... https:// goo.gl/QsFZW8","#SolarPower","2017-04-04 00:08:15"
"#solarpower and #ElectricVehicle household in #vaughan pic.twitter.com/69pXabFb6J","#solarpower #ElectricVehicle #vaughan","2017-04-04 00:04:29"
"Temp:83.31F Pressure:1011.38hPa Humidity:42% Dew Point:57.86F Weather Condition:Partly Cloudy 04/03/17+18:00:33 #solarpower","#solarpower","2017-04-04 00:00:34"
"#solarpower FPL to build more solar plants, one new gas plant - Palm Beach Post (blog) http:// bit.ly/2nQD8V9 #onbeon #renewables pic.twitter.com/c1d0fjNM0I","#solarpower #onbeon #renewables","2017-04-03 23:53:07"
"WOW! We love to see new innovations in the Green Technology industry! #IPS #SolarPower http:// fb.me/3u8gWmGmA","#IPS #SolarPower","2017-04-03 23:42:03"
"Thinking About Solar Panels? See How Much Sun Your Roof Gets With This Map https:// goo.gl/fb/4CNSxM #solarpower","#solarpower","2017-04-03 23:41:05"
"Thinking About Solar Panels? See How Much Sun Your Roof Gets With This Map http:// short.am/7aSsot #solarpower pic.twitter.com/L6rQIVzApm","#solarpower","2017-04-03 23:24:01"
"ICYMI: California is shattering #Solar records & Utilities are still pro #SolarPower #RenewableEnergy http:// CVSoci.al/41wajFP1","#Solar #SolarPower #RenewableEnergy","2017-04-03 23:18:41"
"Introduction to Solar Power Chargers for Electronics http:// dld.bz/f4qAd #SolarPower #ElectronicCharger pic.twitter.com/KTVlQgOdEr","#SolarPower #ElectronicCharger","2017-04-03 23:18:24"
"Thinking About Solar Panels? See How Much Sun Your Roof Gets With This Map http:// dlvr.it/NnwH5t #solarpower #energy","#solarpower #energy","2017-04-03 23:07:52"
"Have you seen the new solar-powered bollard lighting in #CapelSound ? #MorningtonPeninsula #solar #solarpower http:// bit.ly/2oferEM pic.twitter.com/CYAuwn0OM9","#CapelSound #MorningtonPeninsula #solar #solarpower","2017-04-03 23:00:50"
"Australian scientists just made a major breakthrough that could put #solarpower anywhere: http:// buff.ly/2nACWZ7 #solar #renewables pic.twitter.com/wCSoxRSXNB","#solarpower #solar #renewables","2017-04-03 23:00:23"
"Understanding #SolarPower When Selling or Buying a #Home http:// buff.ly/2nSBUun via @massrealty #realestate pic.twitter.com/hPcTq3R0FX","#SolarPower #Home #realestate","2017-04-03 23:00:15"
"#ColorOfTheDay #April3rd @pantone #SolarPower I need the #sun #energy ... I need #motivation ... #MondayMotivation #MoodColor #ColorInspires pic.twitter.com/lgydZhUrea","#ColorOfTheDay #April3rd #SolarPower #sun #energy #motivation #MondayMotivation #MoodColor #ColorInspires","2017-04-03 22:43:08"
"Innovative Roll Up Solar Panels http:// dld.bz/e9d7P #innovation #invention #solarpower #cleantech #greenenergy pic.twitter.com/2dfBb0PhLY","#innovation #invention #solarpower #cleantech #greenenergy","2017-04-03 21:57:52"
"#SolarPower : Too Much of a Good Thing An Illustrated Guide to Solar Curtailment on California's Grid ... https:// goo.gl/vnFiLw","#SolarPower","2017-04-03 21:54:16"
"#SolarPower : Solar Storage The Key To Better Solar Power May Be A Plant ... https:// goo.gl/fO3K3Q","#SolarPower","2017-04-03 21:53:14"
"#SolarPower : Developers claim connection rush as RO slams shut ... https:// goo.gl/5fz7ex","#SolarPower","2017-04-03 21:52:12"
"#SolarPower : Des Plaines sites chosen for Cook County solar power program ... https:// goo.gl/LRyQXz","#SolarPower","2017-04-03 21:51:11"
"#solarpower Solar power to light up remote Arunachal Pradesh villages - Livemint http:// bit.ly/2ouDuUf #onbeon #renewables pic.twitter.com/gE7smQOHOb","#solarpower #onbeon #renewables","2017-04-03 21:43:08"
"Na-Cho Nyak Dun First Nation administration building goes solar. #FirstNations #SolarPower #YesAgenda #Sustainable http:// hubs.ly/H06YpfP0 pic.twitter.com/OYZD2bMjRv","#FirstNations #SolarPower #YesAgenda #Sustainable","2017-04-03 21:40:37"
"How Temperature Affects Your Solar Production and Solar Panels. Learn more: http:// buff.ly/2mNFaHa #solarpower #energy #losangeles #green pic.twitter.com/zr2dmyUutE","#solarpower #energy #losangeles #green","2017-04-03 21:32:04"
"@YBVermont gives our students the skills they need to succeed in the competitive job market with green energy skills. #solarpower #jobskills","#solarpower #jobskills","2017-04-03 21:31:15"
"How did America miss the ball on the solar industry? #yourworld #solarenergy #solarpower #solar #renewableenergy http:// buff.ly/2nBIH99","#yourworld #solarenergy #solarpower #solar #renewableenergy","2017-04-03 21:09:03"
"http:// goo.gl/alerts/V1Gb1 The power of solar panels. #solarpower #solarpanel","#solarpower #solarpanel","2017-04-03 21:05:42"
"Mini-grids light the way for parts of #India . #renewableenrgy #powergrids #solarpower http:// ow.ly/oqqi30aw97q via @livemint pic.twitter.com/jhe9F5oMvw","#India #renewableenrgy #powergrids #solarpower","2017-04-03 20:45:13"
"GP made a solar panel. He's noticed them in a field when traveling one day. #Science #solarpower pic.twitter.com/y66S5i9dWZ","#Science #solarpower","2017-04-03 20:44:21"
"Way to go Germany! http:// bit.ly/2nPL494 #energystorage #solarpower #renewableenergy","#energystorage #solarpower #renewableenergy","2017-04-03 20:32:28"
"Burns & McDonnell Completes Big Bend #Solar Project for #Tampa Electric #solarpower Read Here: http:// dld.bz/f9uah pic.twitter.com/1dEbqSPwO5","#Solar #Tampa #solarpower","2017-04-03 20:31:32"
"Futuristic solar panel farm produces 37M lbs food/yr. Totally organic! 100% renewable energy. #solarpower http:// tiny.cc/0q19jy pic.twitter.com/3qJX7nyoCK","#solarpower","2017-04-03 20:23:49"
"Today's Solar Energy Times #Solar #SolarEnergyTimes http:// solarenergytimes.us Stories via @Imsuman_12 @SouthEnergySol @EcoAngels #solarpower","#Solar #SolarEnergyTimes #solarpower","2017-04-03 19:42:10"
"Awesome!, the small village we live in in: @gembunnik is promoting #solarpower :) pic.twitter.com/FmiUWE7y0d","#solarpower","2017-04-03 19:40:44"
"If you own your home and have a electric bill we can help you capture the to power your home! #ecomodehomes #solarpower #sunshine #savings pic.twitter.com/3xTsbOJJbV","#ecomodehomes #solarpower #sunshine #savings","2017-04-03 19:40:05"
"More energy comes from sun in 1 hour than all energy consumed by Earth in a year. Bill Gates on case: https:// youtu.be/ae8CLc3wXYs #solarpower","#solarpower","2017-04-03 19:37:46"
"#Democrat GovMcAuliffe praises 65% growth in #SolarEnergy #Jobs in #Virginia during 2016 http:// buff.ly/2oQArlX #SolarPower #Sun #GreenJobs","#Democrat #SolarEnergy #Jobs #Virginia #SolarPower #Sun #GreenJobs","2017-04-03 19:37:04"
"#Solarpower is a great way to address rising electricity rates! https:// goo.gl/DndvTG #renewableenergy pic.twitter.com/MLnvVRyWnm","#Solarpower #renewableenergy","2017-04-03 19:18:51"
"#American fern inspires groundbreaking new #solar #storage solution: http:// bit.ly/2nBj5t3 #solarpower #solarenergy #renewables #energy","#American #solar #storage #solarpower #solarenergy #renewables #energy","2017-04-03 19:13:42"
"And lastly, thanks @SolarMaidTX @greenerideal @filesanctuary @SylviediGiusto @eastEnergyInnov @InterplexS #solarpower","#solarpower","2017-04-03 19:09:56"
"Solar Job in Atco #solarsolutions #solarpower #renewableenergy pic.twitter.com/zN3MHS0l8w","#solarsolutions #solarpower #renewableenergy","2017-04-03 19:01:19"
"NREL @RockyMtnInst @ENERGY report provides the most detailed cost breakdowns to date for residential #SolarPower - http:// bit.ly/2nwm32B pic.twitter.com/GtN5sOTwvo","#SolarPower","2017-04-03 19:00:09"
"#SolarPower : Nevada bills seek to restore beleaguered rooftop solar industry ... https:// goo.gl/Spz1W4","#SolarPower","2017-04-03 18:52:18"
"#SolarPower : Manitoban shines light on solar energy with 1 83 hydro bill ... https:// goo.gl/NU2zss","#SolarPower","2017-04-03 18:51:16"
"What do you think about giant #sundials ? #solarpower http:// cpix.me/a/20493972 pic.twitter.com/BxDp6T8k0n","#sundials #solarpower","2017-04-03 18:47:16"
"Can Solar Benefit Rural America's Economy? http:// go.shr.lc/2n4C3fa @energycollectiv #solarpower #solarenergy","#solarpower #solarenergy","2017-04-03 18:47:09"
"Examining the Costs and Benefits of Residential Solar Plus Storage: http:// bitly.com/2o2xTUD @engineeringcom #solarenergy #solarpower","#solarenergy #solarpower","2017-04-03 18:45:32"
"Overtake $ F Nice! @elonmusk $ TSLA #tsla @jimcramer @ScottWapnerCNBC @ReformedBroker #solarpower #solarenergy #Battery @a16z @kpcb $ twtr pic.twitter.com/pRMQkUFmGh","#tsla #solarpower #solarenergy #Battery","2017-04-03 18:43:12"
"Angus Poultry Producer Decides Solar Power Offers Ideal Solution http:// buff.ly/2oC55iz #solarpower #poultryfarming pic.twitter.com/9pfH9ST8xu","#solarpower #poultryfarming","2017-04-03 18:43:03"
"To celebrate #OpeningDay of MLB, here's a throwback to the Opening Day of the Chalokwa #energykiosk in Zambia last summer! #SolarPower pic.twitter.com/WY5Ht467VL","#OpeningDay #energykiosk #SolarPower","2017-04-03 18:43:02"
"Diving into the solar #microgrid revolution http:// grn.bz/TC9 #GrnBz via @GreenBiz #microgrids #solarpower","#microgrid #GrnBz #microgrids #solarpower","2017-04-03 18:41:49"
"#SolarPower : Solar Basics video What are the different types of solar inverters ... https:// goo.gl/0xgzzH","#SolarPower","2017-04-03 18:27:28"
"Reinvest your #climatecredit with #GRID and fight #climatechange through by #solarpower in #underserved communities! http:// ow.ly/Nvyz30awdHA","#climatecredit #GRID #climatechange #solarpower #underserved","2017-04-03 18:22:49"
"""This visionary approach was inspired by ferns."" #solarpower #solarstorage http:// ow.ly/1I4730awcxc http:// fb.me/26JyZ75L7","#solarpower #solarstorage","2017-04-03 18:16:38"
""" #Startup Snapshot: Lean and Green"" highlights Michael Fallquist (MBA '04): http:// bit.ly/2oqpvuT #Sustainability #SolarPower pic.twitter.com/UbwRk43dc2","#Startup #Sustainability #SolarPower","2017-04-03 18:01:04"
"Good evening Zimbabwe! we hope you enjoyed your day. #Comfort .Safety.Security #Solarenergy #Solarpower pic.twitter.com/dv6fyZcW37","#Comfort #Solarenergy #Solarpower","2017-04-03 18:00:07"
"Beyond Rooftop #Solar : Inventive uses for #SolarPower - https:// goo.gl/e3P4kw #SolarStories pic.twitter.com/AHdmi5zOMb","#Solar #SolarPower #SolarStories","2017-04-03 17:58:49"
"American fern inspires groundbreaking new solar storage solution http:// buff.ly/2nAReJf #solarpower","#solarpower","2017-04-03 17:56:18"
"Taking advantage of that sunshine #solarpower http:// goo.gl/alerts/kxpxb #GoogleAlerts","#solarpower #GoogleAlerts","2017-04-03 17:54:49"
"In case you missed it - Momentum Solar Footprint in Southern California Positioned for Success https:// goo.gl/tJQ3o7 #SolarPower #Solar pic.twitter.com/GWrf4eRHBd","#SolarPower #Solar","2017-04-03 17:53:46"
"@elonmusk thoughts on using @TeslaMotors battery tech for a reusable solarpowered ITS to Mars? #SpaceX #solarpower #ThinkingonPurpose","#SpaceX #solarpower #ThinkingonPurpose","2017-04-03 17:53:07"
"A fresh look at the resources needed for different power sources #nuclearpower #solarpower #windpower #hydropower #coal #gas #gastech #Oil pic.twitter.com/kMoEvSWJP3","#nuclearpower #solarpower #windpower #hydropower #coal #gas #gastech #Oil","2017-04-03 17:50:12"
"#solarpower #solarenergy im100% bihar","#solarpower #solarenergy","2017-04-03 17:41:30"
"Solar power support initiatives on the cards #Pakistan #SolarPower http://www. dawn.com/news/1324562","#Pakistan #SolarPower","2017-04-03 17:25:27"
"In #energy starved Indian villages, #solar mini-grids light the way #renewables #solarpower http:// bit.ly/2osarRz","#energy #solar #renewables #solarpower","2017-04-03 17:17:54"
"#solarpower Solar Power Advocates Undeterred By Trump's Climate Policies ... - KGOU http:// bit.ly/2otBhZn #onbeon #renewables pic.twitter.com/b8SKAmxYOI","#solarpower #onbeon #renewables","2017-04-03 17:14:45"
"Obama's Big Plan to make Solar Energy More Efficient and Affordable https:// is.gd/drEX2g #solarenergy #solarpower","#solarenergy #solarpower","2017-04-03 17:13:58"
"#solarpower now employs more people in the US than coal and natural gas #renewables http:// bit.ly/2nwhBQ4","#solarpower #renewables","2017-04-03 17:08:42"
"#SolarPower : Canadian Solar in Japan to finance 19 MWp project with green bond ... https:// goo.gl/dthjop","#SolarPower","2017-04-03 16:52:05"
"#Fusion #solarlights are here & will spruce up any #garden or #pathway #solarpower #LondonDrugs #gardening Create your own #osasis 2017 pic.twitter.com/tXtWkXNy5V","#Fusion #solarlights #garden #pathway #solarpower #LondonDrugs #gardening #osasis","2017-04-03 16:51:35"
"#SolarPower : Electrek green energy brief Ohio attacking renewables North Dakota rejects wind moratorium more ... https:// goo.gl/K8CvvH","#SolarPower","2017-04-03 16:51:03"
"#free #idea No.453: What if all#laptops & #tablets had #solarpower integrated in them already? @Samsung @Apple pic.twitter.com/Lkap4KomER","#free #idea #laptops #tablets #solarpower","2017-04-03 16:44:11"
"Solar Companies Brawley CA | 323-992-9254 | Solar Energy Contractor Solar Energy Contractor https:// youtu.be/Ful3bWGxFd0 #solarpower","#solarpower","2017-04-03 16:37:17"
"Solar Companies Brentwood CA | 323-992-9254 | Solar Energy Contractor https:// youtu.be/ciLAEcSW4Wo #solarpower","#solarpower","2017-04-03 16:22:36"
"Hey @RealdonaldTrump forget your clean #Coal #haux #SolarPower is the #Future #GlobalGoals #2030NOW https:// lnkd.in/gH4McKZ","#Coal #haux #SolarPower #Future #GlobalGoals #2030NOW","2017-04-03 16:16:07"
"#solar #solarenergy #solarpower we will allow you to compete with the biggest competitors in your geographical area info@expsales.ca pic.twitter.com/cGWK5Dm8Y5","#solar #solarenergy #solarpower","2017-04-03 16:15:02"
"Mercy Corps and @DFID_UK bring clean energy to #Afghanistan : http:// tmsnrt.rs/2nOKOYd #UKAid #solarpower","#Afghanistan #UKAid #solarpower","2017-04-03 16:11:27"
"Stay connected at http://www. solarexpo.ae to learn more about the industry! #SolarExpo2018 #SolarExpo #SolarPower pic.twitter.com/upvL9j1Sea","#SolarExpo2018 #SolarExpo #SolarPower","2017-04-03 16:01:50"
"Sasol Komatipoort Type: Commerical Rooftop Size: 54kWp Annual Energy Output: 207MWh http:// buff.ly/2nyNXKv #solarpower #installation","#solarpower #installation","2017-04-03 16:01:27"
"#SolarPower : ThinkPhi's smart umbrellas are making the world a better place ... https:// goo.gl/xXpqXD","#SolarPower","2017-04-03 15:47:51"
"I will make #SolarPanel Installation Business Promo video http:// buff.ly/2nAl1Sk #SolarPanelInstallation #SolarPV #SolarPower #SolarEnergy","#SolarPanel #SolarPanelInstallation #SolarPV #SolarPower #SolarEnergy","2017-04-03 15:20:21"
"I will make #SolarPanel Installation Business Promo video http:// buff.ly/2nA2eHb #SolarPanelInstallation #SolarPV #SolarPower #SolarEnergy","#SolarPanel #SolarPanelInstallation #SolarPV #SolarPower #SolarEnergy","2017-04-03 15:20:20"
"What are your #EarthDay2017 plans? Host a screening of @shalinikantayya 's #SunDoc to spark a conversation about the #future of #solarpower pic.twitter.com/gUbklS3BNt","#EarthDay2017 #SunDoc #future #solarpower","2017-04-03 15:19:51"
"Washing #solarpanels in Hemet! Need your #solar cleaned? Contact us today! #solarpower #renewableenergy pic.twitter.com/2vEuQCNRjC","#solarpanels #solar #solarpower #renewableenergy","2017-04-03 15:07:54"
"#solarenergy #solar #SolarPower #renewableenergy #DIY #energy #SolarPanels #renewables #LightingTheWorld #KPRS http://www. prosolaramerica.com pic.twitter.com/vkOGKZSQkv","#solarenergy #solar #SolarPower #renewableenergy #DIY #energy #SolarPanels #renewables #LightingTheWorld #KPRS","2017-04-03 15:01:57"
"Quality assurance sets us apart! #solarpv #solarpower #gosolar pic.twitter.com/mozcAqe2Hl","#solarpv #solarpower #gosolar","2017-04-03 15:01:33"
"#SolarPower : Bio inspired Graphene based Electrode to boost Solar Power Storage ... https:// goo.gl/LrmfQX","#SolarPower","2017-04-03 14:54:14"
"#SolarPower : Cape Fear Solar Systems gives to Honduran clinic ... https:// goo.gl/qrYmG1","#SolarPower","2017-04-03 14:53:12"
"Google can tell you if Solar Roof Panels will pay off https:// is.gd/H1JXeQ #solarenergy #solarpower","#solarenergy #solarpower","2017-04-03 14:44:47"
"Have a look at our website for customised light solutions #greenenergy #solarpower http:// magnaafrica.co.ke","#greenenergy #solarpower","2017-04-03 14:32:17"
"Scientists Find Groundbreaking Solution for Solar Storage and its Inspired by Nature #Nature #SolarPower #Energy http:// ow.ly/szp230av8Ex","#Nature #SolarPower #Energy","2017-04-03 14:30:17"
"Scientists Find Groundbreaking Solution for Solar Storage and its Inspired by Nature #Nature #SolarPower #Energy http:// ow.ly/szp230av8Ex","#Nature #SolarPower #Energy","2017-04-03 14:30:16"
"Scientists Find Groundbreaking Solution for Solar Storage and its Inspired by Nature #Nature #SolarPower #Energy http:// ow.ly/szp230av8Ex","#Nature #SolarPower #Energy","2017-04-03 14:30:16"
"#solarpower Solar power support initiatives on the cards - http:// DAWN.com http:// bit.ly/2osNfm0 #onbeon #renewables pic.twitter.com/TGlmNCCn97","#solarpower #onbeon #renewables","2017-04-03 14:27:12"
"Rise Above #Lisburn with 20.50MWp capacity! #Solarpark #solarenergy #renewableenergy #renewables #england #solarpower #GreenEnergy pic.twitter.com/pw8NVFyYqU","#Lisburn #Solarpark #solarenergy #renewableenergy #renewables #england #solarpower #GreenEnergy","2017-04-03 14:17:19"
"#Solar #solarpower #Electricity most #workforce #USA via Peter Rothman http:// fb.me/8BV0OMik0","#Solar #solarpower #Electricity #workforce #USA","2017-04-03 14:12:20"
"#SolarEnergy #jobs rose 65 percent in #Virginia , report finds http:// buff.ly/2nvthE8 #RenewableEnergy #SolarPower #Sunshine #GreenEnergy pic.twitter.com/3qR2YklHr7","#SolarEnergy #jobs #Virginia #RenewableEnergy #SolarPower #Sunshine #GreenEnergy","2017-04-03 14:08:06"
"#SolarPower : Record renewable power capacity installed in 2016 ... https:// goo.gl/ivNU0D","#SolarPower","2017-04-03 14:04:43"
"#SolarPower : United Photovoltaics 2016 revenue boosted by 415 4MW of new PV power plants ... https:// goo.gl/whHwft","#SolarPower","2017-04-03 14:03:42"
"#SolarPower : India's solar market to become the world's third largest this year ... https:// goo.gl/DbHh8O","#SolarPower","2017-04-03 14:02:40"
"#SolarPower : SPONSORED Material choice matters for durable high efficiency PV modules ... https:// goo.gl/wlrXF4","#SolarPower","2017-04-03 14:01:39"
"#SolarPower : Canadian Solar CSIQ Announces 47M Inaugural Dual Tenor Green Project Bond in Japan ... https:// goo.gl/Z5GPWv","#SolarPower","2017-04-03 14:00:38"
"#SolarPower : ACWA Power breaks ground on 72MW PV plant in Morocco ... https:// goo.gl/UsNEfO","#SolarPower","2017-04-03 13:59:36"
"#SolarPower : Morocco's Solar Bet ... https:// goo.gl/c0Tq54","#SolarPower","2017-04-03 13:58:35"
"#SolarPower : SOLAR HINGHAM Making the solar process easy ... https:// goo.gl/lcjkho","#SolarPower","2017-04-03 13:57:33"
"#SolarPower : Want solar panels but can't afford them Cook County's working to set up co ops ... https:// goo.gl/zgdet5","#SolarPower","2017-04-03 13:56:32"
"Mosaic Completes Inaugural Securitization of Residential #Solar Loans #solarpower Read Here: http:// dld.bz/fxE5M pic.twitter.com/ooF6uBrgCK","#Solar #solarpower","2017-04-03 13:31:18"
"#Solar operated #smartcars #smartbikes are the way to the future. It's about speed but longevity and the journey. #ebikes #solarpower","#Solar #smartcars #smartbikes #ebikes #solarpower","2017-04-03 12:49:46"
"Good news! More countries making #solarpower their go-to source. America, wake up! Read it here http:// bit.ly/globewarm pic.twitter.com/j4u283pZvD","#solarpower","2017-04-03 12:41:54"
"Introducing to you The solar charging station (USBE), A great new product out this week. Supplying the public with clean energy #solarpower pic.twitter.com/QkMhFJxL8F","#solarpower","2017-04-03 12:39:49"
"#startup #startupindia http://www. sheoransolar.com #solarpower #solarenergy #cleanenergy ..... #life","#startup #startupindia #solarpower #solarenergy #cleanenergy #life","2017-04-03 12:36:31"
"[NEW REPORT] #SolarPower is surging in Australia and around the world http://www. climatecouncil.org.au/solar-report #renewables via @climatecouncil","#SolarPower #renewables","2017-04-03 12:32:07"
"We have a feeling today could be a good day for solar energy production! #renewableenergy #solarpower #sunshine pic.twitter.com/XQrtxKXaTG","#renewableenergy #solarpower #sunshine","2017-04-03 12:31:39"
"Good to see #solarpower on roof of new homes #fairviewhomes . In #GospelOak #byelection . Big fan of #renewableenergy #solartradeassociation pic.twitter.com/ixwI8j7jjK","#solarpower #fairviewhomes #GospelOak #byelection #renewableenergy #solartradeassociation","2017-04-03 12:29:24"
"Solar Directory - Solar Installers - RTP Electrical http:// ow.ly/snx9308DF6j #solarpower #vicsolar #solarMelbourne #Melbourne #solarpanels","#solarpower #vicsolar #solarMelbourne #Melbourne #solarpanels","2017-04-03 12:01:14"
"Grid Tied Systems - #gridtied #system Best solution for cutting#electricitycosts http:// buff.ly/2orVijm #solarpower #installation","#gridtied #system #electricitycosts #solarpower #installation","2017-04-03 12:00:36"
"With cheap #solarpower #greenenergy ,developing nations will get rid of National power grid 4 greater growth.All they need is the right deal","#solarpower #greenenergy","2017-04-03 11:50:00"
"#SolarPower : Jordan ACWA Power donates 4m PV plant to school ... https:// goo.gl/U85KmJ","#SolarPower","2017-04-03 11:48:51"
"#SolarPower : The multibillion ringgit solar power grab ... https:// goo.gl/VfG1Yd","#SolarPower","2017-04-03 11:47:48"
"Mizoram becomes 27th State to join UDAY Read More: http:// bit.ly/2n3um9r #mizoram #solar #solarpower #solarenergy #Uday","#mizoram #solar #solarpower #solarenergy #Uday","2017-04-03 11:45:14"
"Solar mini-grids power Indian villages #solarpower #energy http:// fb.me/5NVrWVna5","#solarpower #energy","2017-04-03 11:44:45"
"Railways join hands with BHEL for setting up of a roof top solar power plant in Patiala http:// bit.ly/2n3uMMH #solarpowerplant #solarpower","#solarpowerplant #solarpower","2017-04-03 11:38:14"
"Wolverine to Add Largest #Solar Array in Northern #Michigan #solarpower #renewables Read Here: http:// dld.bz/fxE3H pic.twitter.com/AX1nAUr9Wx","#Solar #Michigan #solarpower #renewables","2017-04-03 11:25:18"
"Temp:79.44F Pressure:1011hPa Humidity:60% Dew Point:64.37F Weather Condition:Partly Cloudy 04/03/17+05:00:36 #solarpower","#solarpower","2017-04-03 11:00:37"
"Record breaking weekend for #solarpower generation http:// hubs.ly/H06XFHf0","#solarpower","2017-04-03 10:53:14"
"#SolarPower : Morocco starts construction on 70 MW Noor Ouarzazate IV PV plant ... https:// goo.gl/5up8cX","#SolarPower","2017-04-03 10:52:53"
"#SolarPower : Rae Bareli village to finally see a new 'Savera' ... https:// goo.gl/rwLP8s","#SolarPower","2017-04-03 10:51:52"
"#SolarPower : EMerge Leads Smart Energy Microgrid Marketplace Demo at SPI 2017 ... https:// goo.gl/WEfEce","#SolarPower","2017-04-03 10:50:50"
"#solar product teardowns & analysis, circuit re-design & development. #Solargo #solarpower #solarenergy #renewable pic.twitter.com/IvEarm8JYg","#solar #Solargo #solarpower #solarenergy #renewable","2017-04-03 10:44:45"
"A ray of hope in the desert. #Solarpower lights up remote #villages in #Rajasthan http:// bit.ly/2mRJNB9 #CleanTech #SaveEarth #News #Solar pic.twitter.com/CkAlD66sPp","#Solarpower #villages #Rajasthan #CleanTech #SaveEarth #News #Solar","2017-04-03 10:42:01"
"@elonmusk @solarcity 's Solar Roofs same energy as solar panels with 98% efficiency #Elonmusk #solarpower #renewables https:// youtu.be/1lYAQqOvkNQ","#Elonmusk #solarpower #renewables","2017-04-03 10:15:16"
"@elonmusk @solarcity 's Solar Roofs generates same energy as of solar panels with 98% efficiency #Elonmusk #solarpower #SpaceX #renewables","#Elonmusk #solarpower #SpaceX #renewables","2017-04-03 10:14:14"
"#solarpower Is the green edging out the black? - The Hindu http:// dlvr.it/Nnd6zw #onbeon #renewables pic.twitter.com/6aQ9yRIzaC","#solarpower #onbeon #renewables","2017-04-03 10:01:09"
"Temp:79.94F Pressure:1010.56hPa Humidity:59% Dew Point:64.36F Weather Condition:Partly Cloudy 04/03/17+04:00:34 #solarpower","#solarpower","2017-04-03 10:00:35"
"#SolarPower : Power Tex India scheme launched ... https:// goo.gl/rBxfpr","#SolarPower","2017-04-03 09:48:28"
"#SolarPower : OUT & ABOUT Solar panels popping up ... https:// goo.gl/fBgJFO","#SolarPower","2017-04-03 09:47:26"
"#MondayMotivation #solarpower What an awesome weekend in the sun - Solar Panels certainly recharged to brew some more of the good stuff! pic.twitter.com/fJJi8p1FpZ","#MondayMotivation #solarpower","2017-04-03 09:45:37"
"Solar Directory - Solar Installers - Run On Sun http:// ow.ly/AkRn308DxOq #energystorage #solarpower #solarpanels #renewables #solarNSW","#energystorage #solarpower #solarpanels #renewables #solarNSW","2017-04-03 09:40:13"
"Solarnow and @futurepump #makingadifference with the #solar #water pump, solving #irrigation problems in #Uganda and #Kenya #solarpower pic.twitter.com/3IVdbF9TuW","#makingadifference #solar #water #irrigation #Uganda #Kenya #solarpower","2017-04-03 09:11:12"
"#SolarPower : The world's biggest solar energy storage farm is set to launch in Australia ... https:// goo.gl/fqvGtJ","#SolarPower","2017-04-03 08:48:08"
"#SolarPower : Maharashta to design solar power scheme for textile mills ... https:// goo.gl/UIa2Do","#SolarPower","2017-04-03 08:47:06"
"Wonderful @ThiessenEnergy #solarpower","#solarpower","2017-04-03 08:27:30"
"More Than 75% Americans Say Trump Should Speed up Adoption of Renewable Energy #solarpower Read Here http:// dld.bz/fxDvh pic.twitter.com/sibzquyKEC","#solarpower","2017-04-03 08:16:29"
"Power your world, your way and save money with an MEDSOLARSYSTEM. #Comfort .Safety.Security #Solarenergy #Solarpower pic.twitter.com/AEwxvTLkYZ","#Comfort #Solarenergy #Solarpower","2017-04-03 08:10:01"
"Bring #Comfort .Safety.Security to your home with MED solar geysers. #Solarenergy #Solarpower #Twimbos pic.twitter.com/Pbzt5K9zzX","#Comfort #Solarenergy #Solarpower #Twimbos","2017-04-03 08:05:03"
"Boom box for hire - #SolarPower plant development program in #TouwsRiver boosts local business: http:// ow.ly/ZIY3309T9WD @SAREC_ZA pic.twitter.com/dWLlUL2R5O","#SolarPower #TouwsRiver","2017-04-03 08:00:34"
"Good morning Zimbabwe, Happy Monday! Have a great day #Comfort .Safety.Security #Solarenergy #Solarpower #Twimbos pic.twitter.com/az1vL5paOe","#Comfort #Solarenergy #Solarpower #Twimbos","2017-04-03 08:00:06"
"#SolarPower : Solar farm project in South Australia to create 270 Australian jobs ... https:// goo.gl/q5FAHC","#SolarPower","2017-04-03 07:45:00"
"#SolarPower : LG steps up to efficiency challenge with the new NeON solar panel ... https:// goo.gl/jjvoJc","#SolarPower","2017-04-03 07:43:58"
"#SolarPower : MIT to study data at Currituck solar site ... https:// goo.gl/NbbaEn","#SolarPower","2017-04-03 07:42:57"
"BYD Brings B-Box To Battery Battleground - #Solar Quotes Blog http:// ow.ly/gXrL30ajIrl #EnergyStorage #SolarPower #SolarPowerAustralia","#Solar #EnergyStorage #SolarPower #SolarPowerAustralia","2017-04-03 07:10:07"
"#SolarPower : Idea Design Studio and Keep America Beautiful Month Frank Shuman ... https:// goo.gl/uxbHJa","#SolarPower","2017-04-03 06:40:30"
"Using biowaste to produce solar panels... https:// goo.gl/zQGCWV #solarpower #Biowaste #SL","#solarpower #Biowaste #SL","2017-04-03 06:30:58"
"Empowering lives of thousands of villagers; Adani's Bhatinda #Solarpower Plant etches a new picture of growing India http:// bit.ly/2n6RLGi pic.twitter.com/4vbTSHlPDO","#Solarpower","2017-04-03 06:30:00"
"The future is RENEWABLE! #thefutureisrenewable #letsmakeithappennow #renewableenergy #environment #solarpower #windenergy @PrinceEa pic.twitter.com/7GNW7VnVhj","#thefutureisrenewable #letsmakeithappennow #renewableenergy #environment #solarpower #windenergy","2017-04-03 06:18:24"
"A Brief History On The Development Of Solar Power http:// dld.bz/f45vz #historyofsolarpower #solarpower pic.twitter.com/cPnTRytSqO","#historyofsolarpower #solarpower","2017-04-03 06:17:41"
"@jamesbondlive would definitely use this gadget for his phone ( http:// amzn.to/2nMUqTe ) #solarpower #iphone #android #Phone #gadgets #007","#solarpower #iphone #android #Phone #gadgets #007","2017-04-03 06:01:28"
"It's called #solarpower #windenergy #hydropower Let's wake up and stay up people. #ourstolose","#solarpower #windenergy #hydropower #ourstolose","2017-04-03 05:56:31"
"#solarpower Mt Abu's 25-acre solar plant delivers power on demand - http:// ETEnergyworld.com http:// dlvr.it/NnYQFD #onbeon #renewables pic.twitter.com/JNrk26JVUU","#solarpower #onbeon #renewables","2017-04-03 05:44:11"
"#SolarPower : Bhageria Industries Ltd commssions Solar Power Plant at Ahmednagar in Maharashtra ... https:// goo.gl/n8PMCr","#SolarPower","2017-04-03 05:42:08"
"Enjoying a #localbrew 'Home Rule' by @AtlasBrewWorks @our #tailgate @dcunited last season at #rfkstadium . #dcunited #solarpower #beer pic.twitter.com/zZPtDdWUdU","#localbrew #tailgate #rfkstadium #dcunited #solarpower #beer","2017-04-03 05:18:59"
"#SolarPower : Cross River to Build Two Megawatts Power Plants in 18 LGAs ... https:// goo.gl/6MqLgT","#SolarPower","2017-04-03 04:41:54"
"World's Largest Solar Energy Complex Launched in Morocco #Maroc #Morocco #solarpower http:// bitly.com/2oruoHM pic.twitter.com/yADnM6qonW","#Maroc #Morocco #solarpower","2017-04-03 04:14:35"
"#solarpower Forum, April 3: Solar Power for Connecticut - Valley News http:// dlvr.it/NnWprs #onbeon #renewables","#solarpower #onbeon #renewables","2017-04-03 03:33:06"
"Solar-tastic!! | @FullyChargedShw News https:// youtu.be/nui7VAqvINY #Solar #Solarenergy #solarpower","#Solar #Solarenergy #solarpower","2017-04-03 03:21:04"
"#ACLU @Greenpeace @sierrs14 @greenpeaceusa No jobs are worth the risks to our Environment...PERIOD... #SolarPower #WindPower @BeyondCoal","#ACLU #SolarPower #WindPower","2017-04-03 03:12:51"
"#ACLU @Greenpeace @sierrs14 @greenpeaceusa No jobs are worth the risks to our Environment...PERIOD... #SolarPower #WindPower","#ACLU #SolarPower #WindPower","2017-04-03 03:11:35"
"Saving money every month is as easy as 1-2-3. Contact us to get your hassle-free quote. #gosolar #solarpower #temecula #murrieta #menifee","#gosolar #solarpower #temecula #murrieta #menifee","2017-04-03 02:56:20"
"#SolarPower : Mt Abu boasts of a concentrated solar power plant that delivers power on demand ... https:// goo.gl/TUAiae","#SolarPower","2017-04-03 02:44:22"
"#SolarPower : NTPC Ramagundam misses target ... https:// goo.gl/id4nUP","#SolarPower","2017-04-03 02:09:29"
"#SolarPower : FEATURE In energy starved Indian villages solar mini grids ... https:// goo.gl/VmvF4e","#SolarPower","2017-04-03 02:08:27"
"#afternoonwalk #solarpower #trees @Lehigh, Pennsylvania https://www. instagram.com/p/BSZwIg-jrUI/","#afternoonwalk #solarpower #trees","2017-04-03 02:02:58"
"A great solar day in SW #Ohio Our @ SolarEdgePV system produced 47.59 kWh today #LiveGreen #pv #solarpower pic.twitter.com/AHv7kmhXIe","#Ohio #LiveGreen #pv #solarpower","2017-04-03 01:59:15"
"#SolarPower solutions #startup OrianoSolar gets $3 mn from Samridhi Fund | #VentureCapital https:// goo.gl/Lmeyg9 via vcc","#SolarPower #startup #VentureCapital","2017-04-03 00:58:14"
"#SolarPower solutions #startup @OrianoSolar gets $3 mn from Samridhi Fund | #VentureCapital https:// goo.gl/Lmeyg9","#SolarPower #startup #VentureCapital","2017-04-03 00:55:05"
"#SolarPower solutions #startup @OrianoSolar gets $3 mn from Samridhi Fund | #VentureCapital https:// goo.gl/Lmeyg9","#SolarPower #startup #VentureCapital","2017-04-03 00:55:05"
"If he was this awesome businessman he'd see all the GLOBAL money this country & it's #tax payers could make w/ #SolarPower & #Wind #ThePoint","#tax #SolarPower #Wind #ThePoint","2017-04-03 00:50:37"
"#SolarPower : King Mohammed VI Launches Final Stage of World's Largest Solar Plant ... https:// goo.gl/aSZ92o","#SolarPower","2017-04-03 00:35:28"
"#SolarPower : Going Green Green Lake Sask moving to solar power due to frequent outages ... https:// goo.gl/oGVcMc","#SolarPower","2017-04-03 00:34:25"
"#SolarPower : Centre suspends Pune Cantonment plan for solar power ... https:// goo.gl/KquXTg","#SolarPower","2017-04-03 00:33:24"
"Low-cost Solar Technology for the Developing World https:// is.gd/SR2dDm #solarpower","#solarpower","2017-04-02 23:54:26"
"#sunrise #StMarys #FingalValley #solarpower https://www. instagram.com/p/BSZeZ7Jgtdo/","#sunrise #StMarys #FingalValley #solarpower","2017-04-02 23:28:04"
"What If All U.S. Coal Workers Were Retrained to Work in Solar? #solarpower #cleanenergy #renewableenergy #cleanjobs http:// ow.ly/zuZG30arZHl","#solarpower #cleanenergy #renewableenergy #cleanjobs","2017-04-02 23:25:05"
"First #Solar to Deliver 48.5MW Manildra Solar Farm in #Australia #solarpower Read Here: http:// dld.bz/f8rpx pic.twitter.com/Q8j7xlovH4","#Solar #Australia #solarpower","2017-04-02 23:10:41"
"#sun #solarpower #solarenergy #energy #sunlight #fossilfuels #globalwarming #climatechange #earth #nature #consciousclub pic.twitter.com/S2YokzX7Cl","#sun #solarpower #solarenergy #energy #sunlight #fossilfuels #globalwarming #climatechange #earth #nature #consciousclub","2017-04-02 23:00:51"
"Sustainable Development: Google's big data calculates U.S. rooftop solar potential http:// bit.ly/2nQuwQz #SolarPower","#SolarPower","2017-04-02 23:00:39"
"Cool infographic for a Solar 101 primer #solarpower pic.twitter.com/NT56th2QmO","#solarpower","2017-04-02 22:56:02"
"U.S. Utilities Boost Investments in Wind, Solar Power https:// is.gd/RiSLUa #solarpower","#solarpower","2017-04-02 22:40:42"
"#solarpower","#solarpower","2017-04-02 22:21:11"
"Solar Power anyone?!! #electricvehicles #solarpower #camping #tesla #safaricondo http:// ift.tt/2nOW9ce pic.twitter.com/5yF5FUYKgB","#electricvehicles #solarpower #camping #tesla #safaricondo","2017-04-02 22:02:57"
"#SolarPower : Acwa breaks ground on 220m Morocco PV plant ... https:// goo.gl/YK89nK","#SolarPower","2017-04-02 21:31:28"
"#SolarPower : Global Airport Solar Power Market 2017 Analysis and Forecast to 2021 ... https:// goo.gl/P1VsQX","#SolarPower","2017-04-02 21:30:26"
"#SolarPower : India adds record 5400MW wind power in 2016 17 ... https:// goo.gl/2K4Mbz","#SolarPower","2017-04-02 21:29:24"
"#SolarPower : Solar cells that work in all weather conditions Chinese scientists explore possibility ... https:// goo.gl/8DyMWj","#SolarPower","2017-04-02 21:28:22"
"Taking a walk in the sunshine now hibernation's over... #tortoise #wideawake #solarpower #speedy #goingforarun #sweetcornchops #reptile #pet pic.twitter.com/sxHYtla3wu","#tortoise #wideawake #solarpower #speedy #goingforarun #sweetcornchops #reptile #pet","2017-04-02 21:23:42"
"With sun pouring down all around, #SolarPower for Nevada is just common sense 1000s of good jobs Affordable power Healthy communities pic.twitter.com/qnjsc3ULxQ","#SolarPower","2017-04-02 20:40:33"
"Bright Horizons: A look into solar energy's future. http:// ow.ly/C1R430ahfTk #solarpower #retail #solarenergy @clawrence pic.twitter.com/OszceO1gzt","#solarpower #retail #solarenergy","2017-04-02 19:50:13"
"Scientists have developed Solar Cells 100 times Thinner than a Human Hair https:// is.gd/UoM9Pb #solarpower","#solarpower","2017-04-02 19:46:10"
"While #Trump promotes #coal , other countries are turning to cheap sun #power : http:// wapo.st/2oxLFMA #solar #solarenergy #solarpower #chile","#Trump #coal #power #solar #solarenergy #solarpower #chile","2017-04-02 19:38:24"
"Thanks France for being a demo of rest of world to move forward here.. hopefully #solarpower doesn't being answer..","#solarpower","2017-04-02 19:33:06"
"Our perfect demo is #france to see if they get cancer by #solarpower , etc.. then see if it works if it doesn't put it to America 1st world","#france #solarpower","2017-04-02 19:32:10"
"#Solar Reaches Major Milestone: Turns #UK #Grid Demand 'Upside Down' http:// rbl.ms/2nxhwie #solarpower #solarenergy","#Solar #UK #Grid #solarpower #solarenergy","2017-04-02 19:19:44"
"See how a drone helped to survey land for designing Solar Power plants... #FutureGreen #SolarEnergy #SolarPower http:// ow.ly/UQFN30ag6Th","#FutureGreen #SolarEnergy #SolarPower","2017-04-02 19:05:15"
"Why Choose Smart Roofs? #Solar #SolarEnergy #SolarPower See how we can help your home or business:... http:// fb.me/8aCnSrBJK","#Solar #SolarEnergy #SolarPower","2017-04-02 18:47:03"
"Canadian #Solar Begins Operation of 100MW Mustang #SolarPower Project #cleanenergy Read Here: http:// dld.bz/fx76h pic.twitter.com/L3J8ksDlqk","#Solar #SolarPower #cleanenergy","2017-04-02 18:37:16"
"How much do you know about #solarpower ? Check out this great video from National Geographic for a great overview... http:// fb.me/16HsBiNQn","#solarpower","2017-04-02 18:30:04"
"Stay tuned! Big things are happening! #solarpower #offthegrid #kW #renewableenergy #cleanpower #SOLARemPOWERed pic.twitter.com/GRvaIYYAgo","#solarpower #offthegrid #kW #renewableenergy #cleanpower #SOLARemPOWERed","2017-04-02 18:15:33"
"#SolarPower : VAFB solar project is it a good deal ... https:// goo.gl/6x8sbz","#SolarPower","2017-04-02 17:24:40"
"Of course you are! Imperati e to hit sunlight to recharge batteries. #GoodGirl #SolarPower","#GoodGirl #SolarPower","2017-04-02 17:06:39"
"Understanding #SolarPower When Selling or Buying a #Home http:// buff.ly/2oj0oy0 via @massrealty #realestate pic.twitter.com/cBYnmgaZv1","#SolarPower #Home #realestate","2017-04-02 16:20:01"
"#Tesla to begin rolling out #solar #roofing . #renewable #solarpower http:// fb.me/81hp1fFnU","#Tesla #solar #roofing #renewable #solarpower","2017-04-02 16:15:46"
"Solar power growth leaps by 50% worldwide thanks to US and China http:// http:// crwd.fr/2mpfyzS #solarpower #cleanenergy #climatechange pic.twitter.com/iOOeaBSQkD","#solarpower #cleanenergy #climatechange","2017-04-02 16:05:16"
"How Off-Grid Electricity Systems are Impacting Developing World Communities https:// is.gd/LNR6tq #solarpower","#solarpower","2017-04-02 15:55:39"
"The answer rises every morning #SolarWorksForIowa #SolarWorks #SolarWorks #SolarPower #SolarEnergy #SolarPV http:// fb.me/518ntTslJ","#SolarWorksForIowa #SolarWorks #SolarWorks #SolarPower #SolarEnergy #SolarPV","2017-04-02 15:41:18"
