"Better test properly then! lol #smartcontracts #bitcoin #blockchaintechnology","#smartcontracts #bitcoin #blockchaintechnology","2017-04-04 22:03:04"
"A look at #BlockchainTechnology #cryptocurrency #Automotive #Voting #healthcare #bitcoin #fintech #digital #payments pic.twitter.com/wtXKNyuJQg","#BlockchainTechnology #cryptocurrency #Automotive #Voting #healthcare #bitcoin #fintech #digital #payments","2017-04-04 21:47:28"
"What is #blockchaintechnology ? http:// bit.ly/2n11U6M #blockchain #banking #fintech #artificialintelligence #deeplearning #bigdata @coindesk","#blockchaintechnology #blockchain #banking #fintech #artificialintelligence #deeplearning #bigdata","2017-04-04 15:45:08"
"Why digital #advertising is experimenting with #blockchain https:// goo.gl/hjurti@Digiday #blockchaintechnology #bigdata #datascience #AI #ML","#advertising #blockchain #blockchaintechnology #bigdata #datascience #AI #ML","2017-04-04 15:30:17"
"Top 6 mistakes enterprises make when exploring #blockchaintechnology https:// goo.gl/csmai5 @themerklenews #blockchain #crypto #fintech","#blockchaintechnology #blockchain #crypto #fintech","2017-04-04 15:10:08"
"Latest news :- Big Banks Intensely Filing for #BlockchainPatents VISIT:- http:// buff.ly/2nRIIbq #blockchaintechnology #bitcoinMarket pic.twitter.com/2wbDC0cLsE","#BlockchainPatents #blockchaintechnology #bitcoinMarket","2017-04-04 00:30:13"
"Blockchain: A Bulls http:// wp.me/p6Q7TF-1Nq #blockchaintechnology #darcygueringue #healthcareit #interoperability pic.twitter.com/Xrjgq6wNSv","#blockchaintechnology #darcygueringue #healthcareit #interoperability","2017-04-03 11:52:25"
"The #moneymarket remains unstable while #blockchaintechnology provides opportunity for aspiring #entrepreneurs http:// ow.ly/SNrc30aqPQU pic.twitter.com/jGoDEItF5X","#moneymarket #blockchaintechnology #entrepreneurs","2017-03-31 12:45:07"
"@IBM launches enterprise-ready blockchain service . #BlockchainTechnology","#BlockchainTechnology","2017-03-31 05:17:26"
"Bajaj Displays the Potential of Blockchain Technology to Revolutionize Indian Manufacturing Sector. #BlockchainTechnology","#BlockchainTechnology","2017-03-31 05:14:47"
"Live the life of your dreams is with #financialfreedom ! The power of #cryptocurrency & #blockchaintechnology awaits http:// ow.ly/XUMA30aoLpN pic.twitter.com/B8uvZW9TfQ","#financialfreedom #cryptocurrency #blockchaintechnology","2017-03-30 17:00:42"
"How to explore #blockchain http:// bit.ly/2n6oRml @coindesk #blockchaintechnology #cryptocurrency #banking #fintech #insurtech #IoT #AI","#blockchain #blockchaintechnology #cryptocurrency #banking #fintech #insurtech #IoT #AI","2017-03-29 16:55:05"
"A guide to #blockchain https:// goo.gl/TdwfUY #blockchaintechnology #banking #IoT #digitalpayments #cryptocurrency #fintech @FreightWaves","#blockchain #blockchaintechnology #banking #IoT #digitalpayments #cryptocurrency #fintech","2017-03-29 16:35:34"
"How #blockchaintechnology will dominate the travel sector https:// goo.gl/XvhMgX @Forbes #blockchain #bitcoin #digitalpayments #IoT #AI ML","#blockchaintechnology #blockchain #bitcoin #digitalpayments #IoT #AI","2017-03-29 16:34:06"
"Any #UsStartup working on #blockchain ?? #kryptomoney #UnitedStates #Startups #StartupIndia #blockchaincommunity #blockchaintechnology","#UsStartup #blockchain #kryptomoney #UnitedStates #Startups #StartupIndia #blockchaincommunity #blockchaintechnology","2017-03-28 16:05:18"
"UK Broker Summit 2017: Brokers encouraged to understand #blockchain https:// goo.gl/INRlkd #insurtech #cryptocurrency #blockchaintechnology","#blockchain #insurtech #cryptocurrency #blockchaintechnology","2017-03-27 18:15:06"
"#Blockchain : How #dataacceleration makes it more secure https:// goo.gl/OH6xfQ @ITProPortal #datascience #bigdata #blockchaintechnology #AI","#Blockchain #dataacceleration #datascience #bigdata #blockchaintechnology #AI","2017-03-27 16:05:07"
"How to explore #blockchain http:// bit.ly/2n6oRml @coindesk #fintech #cryptocurrency #insurtech #banking #blockchaintechnology #bitcoin","#blockchain #fintech #cryptocurrency #insurtech #banking #blockchaintechnology #bitcoin","2017-03-27 15:51:17"
"How to explore #blockchain http:// bit.ly/2n6orml @coindesk #blockchaintechnology #bitcoin #fintech #insurtech #AI #bigdata #datascience","#blockchain #blockchaintechnology #bitcoin #fintech #insurtech #AI #bigdata #datascience","2017-03-27 05:50:05"
"#Blockchain : #CRM 's next frontier https:// shar.es/1qhbp9 @technewsworld #blockchaintechnology #datascience #bigdata #machinelearning #AI","#Blockchain #CRM #blockchaintechnology #datascience #bigdata #machinelearning #AI","2017-03-26 17:45:03"
"#Distributedledger technology vs #blockchaintechnology https:// goo.gl/ixF3pg @themerklenews #blockchain #fintech #banking #AI #datascience","#Distributedledger #blockchaintechnology #blockchain #fintech #banking #AI #datascience","2017-03-26 17:33:03"
"How to explore #blockchain http:// bit.ly/2n6orml @coindesk #fintech #banking #blockchaintechnology #bitcoin #IoT #AI #datascience","#blockchain #fintech #banking #blockchaintechnology #bitcoin #IoT #AI #datascience","2017-03-26 16:37:52"
"#Blockchaintechnology is going to disrupt the #Realestate industry and cut out all of the middlemen using... http:// fb.me/5Yr60P1je","#Blockchaintechnology #Realestate","2017-03-25 16:06:31"
"How to use #blockchain to build a #database solution http:// zd.net/2m0b54U@ZDNet #blockchaintechnology #bitcoin #fintech #datascience #bigdata","#blockchain #database #blockchaintechnology #bitcoin #fintech #datascience #bigdata","2017-03-24 14:40:09"
"Executive's guide to implementing #blockchaintechnology http:// zd.net/2ncEDOS via @ZDNet & @laurashin","#blockchaintechnology","2017-03-24 03:51:54"
"@Google 's #AI subsidiary turns to #blockchaintechnology to track UK #healthdata https:// goo.gl/bUXDEr @verge #blockchain #datascience #AI","#AI #blockchaintechnology #healthdata #blockchain #datascience #AI","2017-03-23 15:00:43"
"Could #blockchain be the operating system of the cities of the future? https:// goo.gl/NaCLQj #blockchaintechnology #bigdata @CityMetric pic.twitter.com/2bNwm7RHU5","#blockchain #blockchaintechnology #bigdata","2017-03-23 14:20:16"
"Another step forward for #blockchaintechnology working with @IBMCICBE team! #blockchain #stillworking #agile #coding pic.twitter.com/guVd1S8WFv","#blockchaintechnology #blockchain #stillworking #agile #coding","2017-03-23 12:42:03"
"#blockchain :How #Dataacceleration makes it more secure https:// goo.gl/ASUdAea #Blockchaintechnology #datasecurity ITProPortal","#blockchain #Dataacceleration #Blockchaintechnology #datasecurity","2017-03-23 06:08:46"
"#Blockchain :How #dataacceleration makes it more secure https:// goo.gl/ASUdAea #datasecurity #blockchaintechnology #datascience @ITProPortal","#Blockchain #dataacceleration #datasecurity #blockchaintechnology #datascience","2017-03-23 06:03:57"
"What actually is #blockchain and why is everyone talking about it? https:// goo.gl/Ztu7se @CityAM #bigdata #blockchaintechnology #fintech","#blockchain #bigdata #blockchaintechnology #fintech","2017-03-22 16:05:56"
"#Blockchain tech has never been more valuable or more ready for world domination https:// goo.gl/5uzuOT @futurism #blockchaintechnology","#Blockchain #blockchaintechnology","2017-03-22 16:01:18"
"Unblocking #blockchain : The challenges and their solutions https:// goo.gl/yxkf6k @Gadgets360 #fintech #blockchaintechnology #datascience","#blockchain #fintech #blockchaintechnology #datascience","2017-03-22 15:59:24"
"Why use a #blockchain ? http:// bit.ly/2n1d3of @coindesk #fintech #insurtech #banking #blockchaintechnology #datascience #datasecurity","#blockchain #fintech #insurtech #banking #blockchaintechnology #datascience #datasecurity","2017-03-21 14:05:12"
"When will #blockchaintechnology deliver on its promise? @NakedSecurity @dannybradbury #blockchain #fintech #insurtech #bigdata #datascience","#blockchaintechnology #blockchain #fintech #insurtech #bigdata #datascience","2017-03-21 14:00:53"
"OWN http:// TheBlockchainTechnology.com INQUIRIES To: ownitbrandit@gmail.com #Blockchain #BlockchainTechnology #Brand #Branding #BITCOIN #DomainName pic.twitter.com/WeRY78WFxF","#Blockchain #BlockchainTechnology #Brand #Branding #BITCOIN #DomainName","2017-03-21 11:33:44"
"How major #banks are experimenting with #blockchaintechnology . http:// read.bi/2ml5CZH @businessinsider #fintech #banking #blockchain #AI","#banks #blockchaintechnology #fintech #banking #blockchain #AI","2017-03-21 06:50:28"
"How does #blockchaintechnology work? http:// bit.ly/2muNI2z @coindesk #blockchain #bitcoin #cryptocurrency #fintech #insuretech #AI #ML","#blockchaintechnology #blockchain #bitcoin #cryptocurrency #fintech #insuretech #AI #ML","2017-03-20 17:27:05"
"What is a #distributedledger ? http:// bit.ly/2muV85T @coindesk #blockchain #blockchaintechnology #bitcoin #crypto #fintech #insurtech","#distributedledger #blockchain #blockchaintechnology #bitcoin #crypto #fintech #insurtech","2017-03-20 17:09:20"
"When will #BlockchainTechnology deliver on its promise? http:// ht.ly/HnHj30a4E1K","#BlockchainTechnology","2017-03-20 14:49:06"
"When will #BlockchainTechnology deliver on its promise? http:// ht.ly/HnHj30a4E1K","#BlockchainTechnology","2017-03-20 14:49:06"
"4 ways #blockchain can disrupt civic traditions http:// bit.ly/2mWkBYF @coindesk #blockchaintechnology #fintech #insurtech #bitcoin #crypto","#blockchain #blockchaintechnology #fintech #insurtech #bitcoin #crypto","2017-03-19 16:48:47"
"#Blockchaintechnology can provide lawyers with an authentic, secure ledger https:// goo.gl/Qvniv8 #datascience #datasecurity @ABAJournal","#Blockchaintechnology #datascience #datasecurity","2017-03-19 15:56:44"
"Blockstream Begins Lightning Network Development Read here for more info :- #blockchaintechnology ... http:// fb.me/518Jr53bA","#blockchaintechnology","2017-03-18 20:00:40"
"What is #blockchaintechnology ? http:// bit.ly/2n11U6M @coindesk #fintech #banking #insurtech #cryptocurrency #bitcoin #AI #datascience","#blockchaintechnology #fintech #banking #insurtech #cryptocurrency #bitcoin #AI #datascience","2017-03-18 18:07:17"
"The Number For Me #edinarcoin #cwttop #blockchaintechnology #bitcoin https://www. instagram.com/p/BRw-K8PjRit/","#edinarcoin #cwttop #blockchaintechnology #bitcoin","2017-03-18 04:56:46"
"At Oodles, we provide #DecentralizedApplicationDevelopmentServices VISIT;- http:// buff.ly/2mW6z9r #Blockchaintechnology pic.twitter.com/JJNl2zc5M0","#DecentralizedApplicationDevelopmentServices #Blockchaintechnology","2017-03-17 18:30:50"
"#Blockchain will help us prove our identities in a #digitalworld https:// goo.gl/jszsvr @HarvardBiz #blockchaintechnology #datascience","#Blockchain #digitalworld #blockchaintechnology #datascience","2017-03-17 14:35:10"
": #BlockchainTechnology - The 'GIFT', the 'CURSE', NEITHER or BOTH?","#BlockchainTechnology","2017-03-16 21:51:10"
"Top 6 #bitcoin documentaries https:// goo.gl/a4pzFJ #blockchaintechnology #blockchain #fintech #banking #finance #crypto @themerklenews","#bitcoin #blockchaintechnology #blockchain #fintech #banking #finance #crypto","2017-03-16 15:15:10"
"What caused the #bitcoin unlimited node crash? https:// goo.gl/MwgvHa @CryptoCoinsNews #blockchaintechnology #blockchain #fintech #banking","#bitcoin #blockchaintechnology #blockchain #fintech #banking","2017-03-16 15:10:06"
"#Bitcoin and the #Blockchain https:// goo.gl/1eQv80 #banking #insurtech #fintech @livemint #blockchaintechnology #digitaltransactions #IoT","#Bitcoin #Blockchain #banking #insurtech #fintech #blockchaintechnology #digitaltransactions #IoT","2017-03-16 15:00:23"
"businessfortnightcom #Bitcoin #blockchaintechnology #DIGITALBANKING #digitalcurrency http:// bit.ly/2m3Plsc pic.twitter.com/XPQbF4Vx0n","#Bitcoin #blockchaintechnology #DIGITALBANKING #digitalcurrency","2017-03-16 10:51:11"
"businessfortnightcom #Bitcoin #blockchaintechnology #DIGITALBANKING #digitalcurrency http:// bit.ly/2m3Plsc pic.twitter.com/SsvJMvNodg","#Bitcoin #blockchaintechnology #DIGITALBANKING #digitalcurrency","2017-03-16 10:42:31"
"Could #blockchain tech be used to combat corruption? https:// goo.gl/bFgQ5A #AI #bigdata #blockchaintechnology #bitcoin @TheStudentPaper","#blockchain #AI #bigdata #blockchaintechnology #bitcoin","2017-03-15 14:35:09"
"#BlockchainTechnology : Enabling #SupplyChain Transparency through Greater Visibility | @hcltech @HCL_MFG http:// soc.fm/faX9swdZ pic.twitter.com/kN82T5KPpE","#BlockchainTechnology #SupplyChain","2017-03-13 09:44:13"
"#Fintech 's next wave https:// goo.gl/VpzX5x @Forbes #banking #insurtech #finance #bitcoin #blockchaintechnology #blockchain #AI #ML #IoT","#Fintech #banking #insurtech #finance #bitcoin #blockchaintechnology #blockchain #AI #ML #IoT","2017-03-12 18:51:36"
"@Google #AI subsidiary turns to #blockchaintechnology to track UK health data https:// goo.gl/cuKE5J @verge #ML #deeplearning #Fintech","#AI #blockchaintechnology #ML #deeplearning #Fintech","2017-03-12 14:20:14"
"Apart from Currency and Finance, in what all sectors, #BlockchainTechnology will make an impact?????? #blockchain #kryptomoney #IoT","#BlockchainTechnology #blockchain #kryptomoney #IoT","2017-03-12 13:27:57"
"#blockchain Demystified - An introduction to Blockchain Technology #blockchaintechnology #distributedledger http:// bit.ly/2nhXTbF","#blockchain #blockchaintechnology #distributedledger","2017-03-12 09:35:07"
"#blockchain Demystified - An introduction to Blockchain Technology #blockchaintechnology #distributedledger http:// bit.ly/2nhXTbF","#blockchain #blockchaintechnology #distributedledger","2017-03-12 09:34:39"
"Bitcoin Could Still Be Trusted Despite the Current Volatility VISIT:- http:// buff.ly/2n6voAR #bitcoin #BlockchainTechnology #bitcoinWallet pic.twitter.com/yNAlQ8luhb","#bitcoin #BlockchainTechnology #bitcoinWallet","2017-03-11 18:30:08"
"msftmfg: #BlockchainTechnology : Enabling #SupplyChain Transparency through Greater Visibility http:// msft.social/Gi4Fab | hcltech HCL_MFG","#BlockchainTechnology #SupplyChain","2017-03-10 21:58:10"
"msftmfg: #BlockchainTechnology : Enabling #SupplyChain Transparency through Greater Visibility http:// msft.social/Gi4Fab | hcltech HCL_MFG","#BlockchainTechnology #SupplyChain","2017-03-10 21:56:14"
"#BlockchainTechnology : Enabling #SupplyChain Transparency through Greater Visibility http:// msft.social/Gi4Fab | @hcltech @HCL_MFG","#BlockchainTechnology #SupplyChain","2017-03-10 21:55:00"
"Seriously looking into becoming a #blockchain developer. Major banks are starting to recruit for #blockchaintechnology . It's coming...","#blockchain #blockchaintechnology","2017-03-09 21:53:24"
"#Banking on #blockchain https:// goo.gl/j5yGiU #blockchaintechnology #bitcoin #cryptocurrency #datamanagement #smartcontracts #fintech","#Banking #blockchain #blockchaintechnology #bitcoin #cryptocurrency #datamanagement #smartcontracts #fintech","2017-03-08 15:10:13"
"Four ways the #blockchain will make the world a better place https:// goo.gl/xJ8G1K @BitcoinMagazine @NASDAQ #blockchaintechnology #fintech","#blockchain #blockchaintechnology #fintech","2017-03-08 14:50:09"
"#MASTEAM talks: Tomorrow at @EETAC_UPC Dr Jordi Herrera - #BlockchainTechnology : a possible #IoTenabler http:// bit.ly/2meEsjP pic.twitter.com/wAYhW9QscZ","#MASTEAM #BlockchainTechnology #IoTenabler","2017-03-07 15:50:22"
"The promise of #blockchain is a world without middlemen https:// goo.gl/g17uWf @HarvardBiz #fitnech #banking #bitcoin #blockchaintechnology","#blockchain #fitnech #banking #bitcoin #blockchaintechnology","2017-03-07 07:57:30"
"KWM backs calls for #blockchain standards #blockchaintechnology #AustralianFinTech http:// bit.ly/2muXgh7 pic.twitter.com/VUJVaKFTfH","#blockchain #blockchaintechnology #AustralianFinTech","2017-03-07 00:34:14"
"KWM backs calls for #blockchain standards #blockchaintechnology #AustralianFinTech http:// bit.ly/2muXgh7 pic.twitter.com/DgK25urmaN","#blockchain #blockchaintechnology #AustralianFinTech","2017-03-07 00:25:09"
"Just as there are those who insists that #cryptocurrency and #blockchaintechnology are just fads and will NEVER... http:// fb.me/8ztYdfkgb","#cryptocurrency #blockchaintechnology","2017-03-06 11:43:04"
"#Bitcoin is better than #gold https:// goo.gl/ebghw0 @Forbes #fintech #blockchain #blockchaintechnology #banking #investments #crypto","#Bitcoin #gold #fintech #blockchain #blockchaintechnology #banking #investments #crypto","2017-03-06 10:35:24"
"How to use #blockchaintechnology to retain more customers https:// goo.gl/vo6Iz5 @NASDAQ @joshabrown00 #customerengagement #userengagement","#blockchaintechnology #customerengagement #userengagement","2017-03-05 15:10:04"
"How the #blockchain will secure your online identity https:// goo.gl/XKkBoJ @Forbes #blockchaintechnology #bigdata #datasecurity #fintech","#blockchain #blockchaintechnology #bigdata #datasecurity #fintech","2017-03-04 15:45:05"
"In case you missed it, the #blockchain revolution's officially begun https:// goo.gl/hcKf8A @futurism #blockchaintechnology #fintech #IoT","#blockchain #blockchaintechnology #fintech #IoT","2017-03-04 12:07:46"
"Inside scoop a change in wealth #BlockchainTechnology AdsCash blockchain http:// bit.ly/2l2fDdy","#BlockchainTechnology","2017-03-04 02:07:42"
"Inside scoop a change in wealth #BlockchainTechnology AdsCash blockchain http:// bit.ly/2l2fDdy","#BlockchainTechnology","2017-03-04 02:06:54"
"Inside scoop a change in wealth #BlockchainTechnology AdsCash blockchain http:// bit.ly/2l2fDdy","#BlockchainTechnology","2017-03-04 02:06:54"
"Inside scoop a change in wealth #BlockchainTechnology AdsCash blockchain http:// bit.ly/2l2fDdy","#BlockchainTechnology","2017-03-04 02:06:53"
"Inside scoop a change in wealth #BlockchainTechnology AdsCash blockchain http:// bit.ly/2l2fDdy","#BlockchainTechnology","2017-03-04 02:04:04"
"Inside scoop a change in wealth #BlockchainTechnology AdsCash blockchain http:// bit.ly/2l2fDdy","#BlockchainTechnology","2017-03-04 02:03:54"
"Inside scoop a change in wealth #BlockchainTechnology AdsCash blockchain http:// bit.ly/2l2fDdy","#BlockchainTechnology","2017-03-04 02:03:53"
"Inside scoop a change in wealth #BlockchainTechnology AdsCash blockchain http:// bit.ly/2l2fDdy","#BlockchainTechnology","2017-03-04 01:58:58"
"Inside scoop a change in wealth #BlockchainTechnology AdsCash blockchain http:// bit.ly/2l2fDdy","#BlockchainTechnology","2017-03-04 01:58:57"
"Inside scoop a change in wealth #BlockchainTechnology AdsCash blockchain http:// bit.ly/2l2fDdy","#BlockchainTechnology","2017-03-04 01:44:58"
"Inside scoop a change in wealth #BlockchainTechnology AdsCash blockchain http:// bit.ly/2l2fDdy","#BlockchainTechnology","2017-03-04 01:44:58"
"Inside scoop a change in wealth #BlockchainTechnology AdsCash blockchain http:// bit.ly/2l2fDdy","#BlockchainTechnology","2017-03-04 01:44:57"
"Inside scoop a change in wealth #BlockchainTechnology AdsCash blockchain http:// bit.ly/2l2fDdy","#BlockchainTechnology","2017-03-04 01:44:57"
"The potential future in constructing six-figure income #BlockchainTechnology AdsCash United Kingdom http:// bit.ly/2lWlwrV","#BlockchainTechnology","2017-03-03 23:05:21"
"The potential future in constructing assets #BlockchainTechnology AdsCash Great Britain http:// bit.ly/2lWlwrV","#BlockchainTechnology","2017-03-03 23:04:51"
"The next generation in constructing six-figure income #BlockchainTechnology AdsCash England http:// bit.ly/2lWlwrV","#BlockchainTechnology","2017-03-03 23:04:51"
"The potential future in making assets #BlockchainTechnology AdsCash Great Britain http:// bit.ly/2lWlwrV","#BlockchainTechnology","2017-03-03 23:02:50"
"The future in creating six-figure income #BlockchainTechnology AdsCash United Kingdom http:// bit.ly/2lWlwrV","#BlockchainTechnology","2017-03-03 23:02:50"
"The future in making assets #BlockchainTechnology AdsCash England http:// bit.ly/2lWlwrV","#BlockchainTechnology","2017-03-03 23:02:50"
"The future in making wealth #BlockchainTechnology AdsCash United Kingdom http:// bit.ly/2lWlwrV","#BlockchainTechnology","2017-03-03 23:02:50"
"The next generation in forming wealth #BlockchainTechnology AdsCash United Kingdom http:// bit.ly/2lWlwrV","#BlockchainTechnology","2017-03-03 22:52:51"
"The next generation in creating wealth #BlockchainTechnology AdsCash Great Britain http:// bit.ly/2lWlwrV","#BlockchainTechnology","2017-03-03 22:52:50"
"The next generation in assembling wealth #BlockchainTechnology AdsCash England http:// bit.ly/2lWlwrV","#BlockchainTechnology","2017-03-03 22:46:00"
"The potential future in making assets #BlockchainTechnology AdsCash Great Britain http:// bit.ly/2lWlwrV","#BlockchainTechnology","2017-03-03 22:46:00"
"The future in constructing assets #BlockchainTechnology AdsCash England http:// bit.ly/2lWlwrV","#BlockchainTechnology","2017-03-03 22:46:00"
"The potential future in forming six-figure income #BlockchainTechnology AdsCash Great Britain http:// bit.ly/2lWlwrV","#BlockchainTechnology","2017-03-03 22:46:00"
"AdsCash Switzerland #BlockchainTechnology the very next #GoldRush check 2-minute video. https:// youtu.be/lK23imN1mXU","#BlockchainTechnology #GoldRush","2017-03-03 20:12:24"
"AdsCash Switzerland #BlockchainTechnology the the next #GoldRush take a look at 2-minute video. https:// youtu.be/lK23imN1mXU","#BlockchainTechnology #GoldRush","2017-03-03 20:11:52"
"AdsCash Switzerland #BlockchainTechnology the the next #GoldRush check out 2-minute video. https:// youtu.be/lK23imN1mXU","#BlockchainTechnology #GoldRush","2017-03-03 20:11:52"
"AdsCash Switzerland #BlockchainTechnology the the next #GoldRush check 2-minute video. https:// youtu.be/lK23imN1mXU","#BlockchainTechnology #GoldRush","2017-03-03 20:04:44"
"AdsCash Switzerland #BlockchainTechnology the very next #GoldRush check 2-minute video. https:// youtu.be/lK23imN1mXU","#BlockchainTechnology #GoldRush","2017-03-03 20:03:58"
"AdsCash Switzerland #BlockchainTechnology the the next #GoldRush take a look at 2-minute video. https:// youtu.be/lK23imN1mXU","#BlockchainTechnology #GoldRush","2017-03-03 20:03:58"
"AdsCash Switzerland #BlockchainTechnology the future #GoldRush see 2-minute video. https:// youtu.be/lK23imN1mXU","#BlockchainTechnology #GoldRush","2017-03-03 20:03:58"
"AdsCash Switzerland #BlockchainTechnology the second #GoldRush see 2-minute video. https:// youtu.be/lK23imN1mXU","#BlockchainTechnology #GoldRush","2017-03-03 19:46:53"
"AdsCash Switzerland #BlockchainTechnology the up coming #GoldRush take a look at 2-minute video. https:// youtu.be/lK23imN1mXU","#BlockchainTechnology #GoldRush","2017-03-03 19:46:53"
"AdsCash Switzerland #BlockchainTechnology the future #GoldRush check out 2-minute video. https:// youtu.be/lK23imN1mXU","#BlockchainTechnology #GoldRush","2017-03-03 19:39:55"
"AdsCash Switzerland #BlockchainTechnology the up coming #GoldRush check out 2-minute video. https:// youtu.be/lK23imN1mXU","#BlockchainTechnology #GoldRush","2017-03-03 19:39:55"
"AdsCash Switzerland #BlockchainTechnology the very next #GoldRush check out 2-minute video. https:// youtu.be/lK23imN1mXU","#BlockchainTechnology #GoldRush","2017-03-03 19:39:55"
"AdsCash Switzerland #BlockchainTechnology the next #GoldRush see 2-minute video. https:// youtu.be/lK23imN1mXU","#BlockchainTechnology #GoldRush","2017-03-03 19:39:55"
"A brief history of #blockchain https:// goo.gl/jvqEGe @HarvardBiz #cryptocurrency #bitcoin #blockchaintechnology #IoT #fintech #insurtec","#blockchain #cryptocurrency #bitcoin #blockchaintechnology #IoT #fintech #insurtec","2017-03-03 06:40:04"
"#BlockchainTechnology : Enabling #SupplyChain Transparency through Greater Visibility http:// bit.ly/2l4fNge via @hcltech","#BlockchainTechnology #SupplyChain","2017-03-02 18:44:13"
"How #blockchain is changing #finance https:// goo.gl/ypwQfW @HarvardBiz #fintech #bitcoin #insurtech #cryptocurrency #blockchaintechnology","#blockchain #finance #fintech #bitcoin #insurtech #cryptocurrency #blockchaintechnology","2017-03-02 15:10:17"
"Find out how Blockchain is changing the face of financial technology. #BlockchainTechnology #Digitalcurrency http:// fb.me/8Cn0hoaOo","#BlockchainTechnology #Digitalcurrency","2017-03-02 13:21:04"
"Find out how blockchain is changing the face of financial technology. #BlockchainTechnology #Digitalcurrency http:// fb.me/8nojYLqPd","#BlockchainTechnology #Digitalcurrency","2017-03-02 13:18:28"
"@coindesk research releases new data on #blockchain 'ICOs' http:// bit.ly/2lqeraf #fintech #bitcoin #blockchaintechnology #banking #crypto","#blockchain #fintech #bitcoin #blockchaintechnology #banking #crypto","2017-03-01 18:10:06"
"AdsCash Switzerland #BlockchainTechnology the future #GoldRush take a look at 2-minute video. https:// youtu.be/lK23imN1mXU","#BlockchainTechnology #GoldRush","2017-03-01 02:31:55"
"AdsCash Switzerland #BlockchainTechnology the second #GoldRush take a look at 2-minute video. https:// youtu.be/lK23imN1mXU","#BlockchainTechnology #GoldRush","2017-03-01 02:31:55"
"AdsCash Switzerland #BlockchainTechnology the the next #GoldRush take a look at 2-minute video. https:// youtu.be/lK23imN1mXU","#BlockchainTechnology #GoldRush","2017-03-01 02:31:55"
"AdsCash Switzerland #BlockchainTechnology the the next #GoldRush check 2-minute video. https:// youtu.be/lK23imN1mXU","#BlockchainTechnology #GoldRush","2017-03-01 02:31:55"
"AdsCash Switzerland #BlockchainTechnology the second #GoldRush take a look at 2-minute video. https:// youtu.be/lK23imN1mXU","#BlockchainTechnology #GoldRush","2017-03-01 02:24:54"
"AdsCash Switzerland #BlockchainTechnology the very next #GoldRush check 2-minute video. https:// youtu.be/lK23imN1mXU","#BlockchainTechnology #GoldRush","2017-03-01 02:24:54"
"AdsCash Switzerland #BlockchainTechnology the future #GoldRush look at 2-minute video. https:// youtu.be/lK23imN1mXU","#BlockchainTechnology #GoldRush","2017-03-01 02:22:37"
"AdsCash Switzerland #BlockchainTechnology the the next #GoldRush look at 2-minute video. https:// youtu.be/lK23imN1mXU","#BlockchainTechnology #GoldRush","2017-03-01 02:21:52"
"AdsCash Switzerland #BlockchainTechnology the second #GoldRush check 2-minute video. https:// youtu.be/lK23imN1mXU","#BlockchainTechnology #GoldRush","2017-03-01 02:21:50"
"AdsCash Switzerland #BlockchainTechnology the the next #GoldRush check 2-minute video. https:// youtu.be/lK23imN1mXU","#BlockchainTechnology #GoldRush","2017-03-01 02:20:56"
"AdsCash Switzerland #BlockchainTechnology the very next #GoldRush look at 2-minute video. https:// youtu.be/lK23imN1mXU","#BlockchainTechnology #GoldRush","2017-03-01 02:20:56"
"AdsCash Switzerland #BlockchainTechnology the future #GoldRush check out 2-minute video. https:// youtu.be/lK23imN1mXU","#BlockchainTechnology #GoldRush","2017-03-01 02:20:55"
"AdsCash Switzerland #BlockchainTechnology the second #GoldRush look at 2-minute video. https:// youtu.be/lK23imN1mXU","#BlockchainTechnology #GoldRush","2017-03-01 02:20:55"
"#BlockchainTechnology : What Will Be Its Biggest Bang? via @LarryCaoHK #FinTech http:// cfa.is/2lrOjBQ pic.twitter.com/szLi3kpoW4","#BlockchainTechnology #FinTech","2017-02-28 15:31:14"
"#Bitcoin 's #blockchaintechnology will better record-keeping https:// goo.gl/NdsaL9 @TheDailyCougar #fintech #blockchain #bigdata #data","#Bitcoin #blockchaintechnology #fintech #blockchain #bigdata #data","2017-02-28 15:10:12"
"How to use #blockchaintechnology to retain more #customers http:// bit.ly/2ltn9u8 @joshabrown00 @cmswire #customerengagement #userresearch","#blockchaintechnology #customers #customerengagement #userresearch","2017-02-28 15:00:47"
"How government organizations can set the pace for #blockchaintechnology adoption https:// goo.gl/mlHv7Y @CryptoCoinsNews #fintech #bitcoin","#blockchaintechnology #fintech #bitcoin","2017-02-27 18:10:18"
"#Bitcoin 's #blockchaintechnology will better record-keeping https:// goo.gl/aAv1AC @TheDailyCougar #fintech #blockchain #banking #insurtech","#Bitcoin #blockchaintechnology #fintech #blockchain #banking #insurtech","2017-02-26 18:05:04"
"#Blockchaintechnology : Accelerating adoption of #distributedledger in #financialservices https:// goo.gl/umravt @Finextra #fintech #banking","#Blockchaintechnology #distributedledger #financialservices #fintech #banking","2017-02-26 17:51:15"
"We're heading to #LasVegas March 13-16 for @MerchRisk - where @andreassuma will be presenting on #BlockchainTechnology pic.twitter.com/npsH7EhIyz","#LasVegas #BlockchainTechnology","2017-02-26 17:35:01"
"How to use #blockchaintechnology to retain more #customers http:// bit.ly/2lux9eg @cmswire @joshabrown00 #fintech #banking #blockchain","#blockchaintechnology #customers #fintech #banking #blockchain","2017-02-25 16:08:51"
"#BlockchainTechnology 's application in healthcare could be the solution to the issue of #interoperability and more: http:// bit.ly/2kRNQfS","#BlockchainTechnology #interoperability","2017-02-24 23:56:00"
"#Fintech innovation picks up the pace https:// goo.gl/3kxawh @ThinkAdvisor #blockchain #blockchaintechnology #bitcoin #banking #AI #bigdata","#Fintech #blockchain #blockchaintechnology #bitcoin #banking #AI #bigdata","2017-02-24 19:45:08"
"State of #fintech for 2017 https:// goo.gl/ZGLRv6 @due @NASDAQ #blockchaintechnology #chatbots #AI #IoT #bigdata #dataanalytics #blockchain","#fintech #blockchaintechnology #chatbots #AI #IoT #bigdata #dataanalytics #blockchain","2017-02-24 19:10:07"
"Do you believe in #blockchain magic? http:// bit.ly/2lcq58y @coindesk #blockchaintechnology #bitcoin #fintech #bigdata #datascience","#blockchain #blockchaintechnology #bitcoin #fintech #bigdata #datascience","2017-02-24 16:30:18"
"3 reasons #fintech is thriving https:// goo.gl/8V3Z0x @Forbes #fintech #blockchain #cryptocurrency #blockchaintechnology #bitcoin #banking","#fintech #fintech #blockchain #cryptocurrency #blockchaintechnology #bitcoin #banking","2017-02-24 16:00:17"
"Do You Believe in Blockchain Magic? https:// goo.gl/fb/I1856P http:// goo.gl/zeTWI3 #features #opinion #blockchaintechnology #hype #media","#features #opinion #blockchaintechnology #hype #media","2017-02-24 13:03:33"
"Do You Believe in Blockchain Magic? http:// viid.me/qcX3eF #Features #Opinion #BlockchainTechnology #hype #Media pic.twitter.com/P8s7abL2hi","#Features #Opinion #BlockchainTechnology #hype #Media","2017-02-24 12:02:44"
"@SoftBank , @Sprint and @TBCASoft Collaborate to Develop #BlockchainTechnology for TelecomCarriers","#BlockchainTechnology","2017-02-24 08:06:00"
"Why should records management professionals care about #blockchain ? https:// goo.gl/S5zdyU @addthis #fitntech #blockchaintechnology","#blockchain #fitntech #blockchaintechnology","2017-02-24 06:56:36"
"@KloutSupport i have seen that the topic #blockchaintechnology has been added! Thanks a lot for your support! We really appreciate ur work!","#blockchaintechnology","2017-02-23 16:15:02"
"Dubai Aims to Become First Blockchain-Powered City by 2020. #blockchain #2020 #Blockchaintechnology http:// buff.ly/2lyysCn pic.twitter.com/r5GiVmOKAt","#blockchain #2020 #Blockchaintechnology","2017-02-23 12:39:01"
"How #blockchaintechnology can be used in auto #insurance businesses https:// goo.gl/EJyprl @themerklenews #blockchain #insurtech #fintech","#blockchaintechnology #insurance #blockchain #insurtech #fintech","2017-02-22 22:00:50"
"How #blockchain will evolve in 2017 @Forbes https:// goo.gl/xeu36d #bitcoin #blockchaintechnology #banking #fintech #insurance #insurtech","#blockchain #bitcoin #blockchaintechnology #banking #fintech #insurance #insurtech","2017-02-22 16:00:59"
"What #blockchain can do for #IoT https:// goo.gl/embjcd@DZone #blockchaintechnology #fintech #automation #bigdata #datascience #datasecurity #AI","#blockchain #IoT #blockchaintechnology #fintech #automation #bigdata #datascience #datasecurity #AI","2017-02-22 15:30:56"
"#Bots , crowds, and #bitcoin : Welcome to the next #hedgefund wave. https:// goo.gl/cPmjGi @WIRED #fintech #blockchain #blockchaintechnology","#Bots #bitcoin #hedgefund #fintech #blockchain #blockchaintechnology","2017-02-22 15:25:07"
"What #blockchain can do for #IoT https:// goo.gl/embjcd@DZone #blockchaintechnology #fintech #automation #bigdata #datascience #datasecurity #AI","#blockchain #IoT #blockchaintechnology #fintech #automation #bigdata #datascience #datasecurity #AI","2017-02-22 15:05:21"
"So what exactly is a #blockchain ? Decoding #blockchaintechnology https:// goo.gl/8YLJhC @valuewalk #fintech #bitcoin #cryptocurrency #data","#blockchain #blockchaintechnology #fintech #bitcoin #cryptocurrency #data","2017-02-22 15:00:51"
"Blockchain Solutions for Cyber & Data Security https:// goo.gl/fb/w7UOMc #emergingtechnologies #blockchaintechnology","#emergingtechnologies #blockchaintechnology","2017-02-21 19:30:19"
"#Sustainabledevelopment through #bitcoin http:// bit.ly/2kbcole @coindesk #blockchain #blockchaintechnology #fintech #cryptocurrency","#Sustainabledevelopment #bitcoin #blockchain #blockchaintechnology #fintech #cryptocurrency","2017-02-21 15:55:07"
"#Blockchain - what legal changes lie ahead? #blockchaintechnology #bigdata #dataanalytics #smartdata #AI #datasecurity #analytics @lexology","#Blockchain #blockchaintechnology #bigdata #dataanalytics #smartdata #AI #datasecurity #analytics","2017-02-21 15:30:12"
"#Blockchaintechnology can solve several media industry problems https:// goo.gl/0oGbkL #blockchain #bigdata #dataanalytics @bravenewcoin","#Blockchaintechnology #blockchain #bigdata #dataanalytics","2017-02-21 15:25:05"
"#Bitcoin hash functions explained http:// bit.ly/2kvu3n1 @coindesk #blockchain #blockchaintechnology #fintech #banking #bankingtech #IoT","#Bitcoin #blockchain #blockchaintechnology #fintech #banking #bankingtech #IoT","2017-02-20 15:05:10"
"The big mistakes #enterprises are making on #blockchain http:// bit.ly/2lpgars #bitcoin #fintech #blockchaintechnology #cryptocurrency #IoT","#enterprises #blockchain #bitcoin #fintech #blockchaintechnology #cryptocurrency #IoT","2017-02-20 14:10:13"
"How #blockchain will evolve in 2017 https:// goo.gl/i0j3ft @Forbes #fintech #blockchaintechnology #bitcoin #cryptocurrency @chalmers_brown","#blockchain #fintech #blockchaintechnology #bitcoin #cryptocurrency","2017-02-19 16:52:38"
"Too slow out of the blocks #BlockchainTechnology #Blockchain #FinTechDisruptors #government http:// bit.ly/2lDqzOY pic.twitter.com/X8H3AfzP29","#BlockchainTechnology #Blockchain #FinTechDisruptors #government","2017-02-13 23:49:27"
"We start our weekly monday night training into #Cryptocurrency & #Blockchaintechnology in 15 mins https:// goo.gl/8huOB5 id 2776583850 pic.twitter.com/F1AvHPkS8O","#Cryptocurrency #Blockchaintechnology","2017-02-13 21:37:36"
"Is this your last opportunity to buy #Bitcoin ? https:// goo.gl/D6F8la @TheMotleyFoolUK #bitcoin #blockchain #fintech #blockchaintechnology","#Bitcoin #bitcoin #blockchain #fintech #blockchaintechnology","2017-02-13 16:25:07"
". @Walmart Adopts #BlockchainTechnology http:// bit.ly/2ln3sou pic.twitter.com/LhR2Tnr9yM","#BlockchainTechnology","2017-02-12 17:11:09"
"How #blockchain will defend the #InternetofThings https:// goo.gl/70SzIX @InformationAge #IoT #bitcoin #fintech #blockchaintechnology","#blockchain #InternetofThings #IoT #bitcoin #fintech #blockchaintechnology","2017-02-11 15:25:03"
"#Blockchain Tracker: Back To Basics - https:// goo.gl/CBxihw #fintech #blockchaintechnology #bitcoin #datascience @PYMNT","#Blockchain #fintech #blockchaintechnology #bitcoin #datascience","2017-02-11 15:10:15"
"The impending use of #blockchain in #financialservices https:// goo.gl/wYVdmw @InformationAge #blockchaintechnology #fintech #bitcoin","#blockchain #financialservices #blockchaintechnology #fintech #bitcoin","2017-02-11 15:00:26"
"A complete beginners guide to #fintech in 2017 https:// goo.gl/N7tCVM @Forbes #blockchain #bitcoin #blockchaintechnology #cryptocurrency","#fintech #blockchain #bitcoin #blockchaintechnology #cryptocurrency","2017-02-10 16:30:29"
"Corporate boards are on board with #blockchain https:// goo.gl/wD6eBX @AmerBanker #cryptocurrency #blockchaintechnology #bitcoin #fintech","#blockchain #cryptocurrency #blockchaintechnology #bitcoin #fintech","2017-02-10 16:05:11"
"#bitcoin , #blockchain and Trump: Where Do We Go From Here? - CoinDesk #BlockchainTechnology http:// bit.ly/2lrcYu0 pic.twitter.com/2Ga8fFIhI0","#bitcoin #blockchain #BlockchainTechnology","2017-02-10 12:31:11"
"Will the #SEC Approve a #Bitcoin ETF? https:// goo.gl/3ylFlZ #NMTA #ETF #AML #regulatoryreform #blockchaintechnology #fintechreg","#SEC #Bitcoin #NMTA #ETF #AML #regulatoryreform #blockchaintechnology #fintechreg","2017-02-08 20:22:17"
"Will #bitcoin and #BlockchainTechnology drive the #FutureOf philanthropy? http:// tmsk.sg/r9 @BitcoinMagazine","#bitcoin #BlockchainTechnology #FutureOf","2017-02-08 07:30:00"
"#blockchaintechnology #uotm17 Suis-je la seule qui ne comprend pas vraiment le concept ?","#blockchaintechnology #uotm17","2017-02-07 02:37:18"
"The relationship between #blockchain and #fintech https:// goo.gl/0BQIFf @The_MarketMogul #cryptocurrency #bitcoin #blockchaintechnology","#blockchain #fintech #cryptocurrency #bitcoin #blockchaintechnology","2017-02-06 22:15:20"
"How #blockchaintechnology can be used in auto #insurance businesses https:// goo.gl/8fACqY @themerklenews #blockchain #cryptocurrency","#blockchaintechnology #insurance #blockchain #cryptocurrency","2017-02-06 15:20:14"
"Nieuwe #workshops @DEGasfabriek bij #SallandAcademy via @RabobankSalland o.a. #BlockChainTechnology op 1 maart pic.twitter.com/6EUdqWqGmD","#workshops #SallandAcademy #BlockChainTechnology","2017-02-06 13:09:09"
"#Bitcoin and #BlockchainTechnology : The Future of Philanthropy https:// goo.gl/SaJlIZ #Fintech #Blockchain #crypto @BitcoinMagazine","#Bitcoin #BlockchainTechnology #Fintech #Blockchain #crypto","2017-02-04 18:08:37"
"The Next Tsunami.............. #blockchaintechnology #cryptocurrency #silence #worldwide Inbox me for more... http:// fb.me/33eXBwwvm","#blockchaintechnology #cryptocurrency #silence #worldwide","2017-02-02 05:29:38"
"#BlockchainTechnology Explained: Powering #Bitcoin http:// buff.ly/2kdCsY4 via @FundsSociety #Cryptocurrency #Cryptography","#BlockchainTechnology #Bitcoin #Cryptocurrency #Cryptography","2017-02-01 18:07:19"
"What will #blockchaintechnology and rise of #digitalcurrencies mean for #investments around the world? https:// goo.gl/nKDqbC @findercomau","#blockchaintechnology #digitalcurrencies #investments","2017-02-01 15:05:14"
"NBAD become first bank in #MiddleEast to offer #BlockchainTechnology | http:// sco.lt/5Z21VB @nbad @Ripple #banking #technology pic.twitter.com/WV9jTtPGK4","#MiddleEast #BlockchainTechnology #banking #technology","2017-02-01 13:36:33"
"Is #BlockchainTechnology set to reshape the #Investment world? http:// bit.ly/2jBI5xg #Blockchain #Insurtech #Fintech #Technology pic.twitter.com/sV2a0x83q8","#BlockchainTechnology #Investment #Blockchain #Insurtech #Fintech #Technology","2017-02-01 13:31:35"
"#BlockchainTechnology Explained: Powering #Bitcoin http:// buff.ly/2jT1mxK via @FundsSociety #Cryptocurrency #Cryptography","#BlockchainTechnology #Bitcoin #Cryptocurrency #Cryptography","2017-02-01 01:26:02"
"The future is a decentralized internet! https:// goo.gl/9qzTLh @TechCrunch #Blockchain #Blockchaintechnology #bitcoin #cybersecurity","#Blockchain #Blockchaintechnology #bitcoin #cybersecurity","2017-01-31 15:40:08"
"@ING conducted 27 #POC of the application of #BlockchainTechnology in 6 business areas via @Finextra","#POC #BlockchainTechnology","2017-01-31 10:42:24"
"#IMF to Co-Host Blockchain Seminar Next Month https:// goo.gl/fb/iCXgPr http:// goo.gl/zeTWI3 #events #news #blockchaintechnology #dubai","#IMF #events #news #blockchaintechnology #dubai","2017-01-30 15:42:41"
"Bosch, Cisco, BNY Mellon, others launch new blockchain consortium http:// reut.rs/2jG3RAM via @ReutersUK #blockchainke #blockchaintechnology","#blockchainke #blockchaintechnology","2017-01-30 11:15:49"
"It will not die, but its applicability will be extremely limited. #blockchaintechnology , on the other hand, has massive and bright future","#blockchaintechnology","2017-01-30 05:58:16"
"#Trendsetters shaping #cloud : #cognitivecomputing #blockchaintechnology #serverless #cloudcomputing #security http:// ow.ly/pGCn5094jON","#Trendsetters #cloud #cognitivecomputing #blockchaintechnology #serverless #cloudcomputing #security","2017-01-30 03:56:50"
"What is a #Blockchain ? Can it be used for business? http:// bit.ly/2kBCOel #BlockchainTechnology #Bitcoin #Business pic.twitter.com/p5rRGZmVbw","#Blockchain #BlockchainTechnology #Bitcoin #Business","2017-01-27 17:55:23"
"Is your #SupplyChain solution getting it done? #Virtualization and #blockchaintechnology can make the difference ... http:// ow.ly/1apg308m7IX","#SupplyChain #Virtualization #blockchaintechnology","2017-01-25 23:45:12"
"Another Nation Has Developed a National Currency That's Entirely Digital #BlockchainTechnology http:// hubs.ly/H05VGR10","#BlockchainTechnology","2017-01-25 20:30:01"
"#BBVA Report Cites 7 Regulatory Challenges Facing #BlockchainTechnology via @CryptoCoinsNews #FinTech http:// bit.ly/2jmn1M9 pic.twitter.com/kqKfiZbCgG","#BBVA #BlockchainTechnology #FinTech","2017-01-23 12:30:44"
"#Blockchaintechnology beyond #bitcoins and cryptocurrencies http://www. newsbreakapp.com/n/05yYupmO?s=a2","#Blockchaintechnology #bitcoins","2017-01-20 06:44:36"
"2017 #Cybersecurity Predictions: Financial Sector Attackers Exploit Cracks in #BlockchainTechnology http:// ow.ly/XmZV307TzZG","#Cybersecurity #BlockchainTechnology","2017-01-16 16:35:16"
"Blockchain technology: travelling in the right direction http:// bit.ly/2jPDXdC #travel #BlockchainTechnology #bitcoin #cryptocurrency pic.twitter.com/Avbpoh9xTm","#travel #BlockchainTechnology #bitcoin #cryptocurrency","2017-01-16 11:09:12"
"Why Blockchain Will Trump Populism https:// goo.gl/fb/Q3YgtY http:// goo.gl/zeTWI3 #features #opinion #blockchaintechnology #donaldtrump","#features #opinion #blockchaintechnology #donaldtrump","2017-01-15 14:40:34"
"Why #blockchain Will Trump Populism - CoinDesk #BlockchainTechnology #DonaldTrump #Politics http:// bit.ly/2jl3Ghx pic.twitter.com/iaFeq7hDXd","#blockchain #BlockchainTechnology #DonaldTrump #Politics","2017-01-15 13:32:15"
"Balaji Srinivasan from 21 Inc. Stands a Chance to Head the USFDA http:// cur.lv/14fb7m #BitcoinNews #BlockchainTechnology pic.twitter.com/3x3JsprZP5","#BitcoinNews #BlockchainTechnology","2017-01-14 20:45:19"
"PwC Startup Collider Fosters European Fintech Ecosystem http:// cur.lv/14eilz #BitcoinNews #BlockchainTechnology pic.twitter.com/Y7eV0wYnl4","#BitcoinNews #BlockchainTechnology","2017-01-12 13:43:20"
"Valuable insight from @wmougayar http:// bit.ly/2jkgvpv @BankingExchange #fintech #fintech2017 #blockchaintechnology #bitcoin #Blockchain","#fintech #fintech2017 #blockchaintechnology #bitcoin #Blockchain","2017-01-11 21:53:32"
"Just two days left until the #blockchain event at E|SPACES Belle Meade. Register now for free: http:// bit.ly/2j4qyl7 #blockchaintechnology pic.twitter.com/bsXCckvr6a","#blockchain #blockchaintechnology","2017-01-11 21:30:06"
"""The new face of big data: AI, IoT and blockchain"" | http:// mtnpoint.co/2ikwN37 | #BigData #AI #AR #IoT #BlockchainTechnology #DataSphere","#BigData #AI #AR #IoT #BlockchainTechnology #DataSphere","2017-01-11 19:36:00"
"@realDonaldTrump Key to ACA overhaul is single payer system for all using #blockchaintechnology & #Bitcoin payments. Eliminate adm layers","#blockchaintechnology #Bitcoin","2017-01-11 18:37:03"
"#blockchain Technology Streamline Processes Efficiency - Bitcoinsblock #bitcoin #blockchaintechnology http:// bit.ly/2jtS3Bl","#blockchain #bitcoin #blockchaintechnology","2017-01-11 09:00:40"
"#blockchain Technology Streamline Processes Efficiency - Bitcoinsblock #bitcoin #blockchaintechnology http:// bit.ly/2jtS3Bl","#blockchain #bitcoin #blockchaintechnology","2017-01-11 08:53:11"
"#blockchain Technology Streamline Processes Efficiency - Bitcoinsblock #bitcoin #blockchaintechnology http:// bit.ly/2jtS3Bl","#blockchain #bitcoin #blockchaintechnology","2017-01-11 08:52:14"
"DTCC to Soon Include Blockchain Tech for Wall Street Companies http:// cur.lv/14dt02 #BitcoinNews #BlockchainTechnology pic.twitter.com/pasPVRAAde","#BitcoinNews #BlockchainTechnology","2017-01-10 14:30:15"
"#Blockchaintechnology THIS IS THE BEGINNING Everything you know about finance is about to change. Over the... http:// fb.me/1ttKcbAln","#Blockchaintechnology","2017-01-09 07:30:04"
"Cybersecurity Takes Prominence alongside Blockchain Technology in 2017 http:// cur.lv/14d5y0 #BlockchainTechnology #Hacked pic.twitter.com/LR3r8eCiSB","#BlockchainTechnology #Hacked","2017-01-08 22:00:17"
"Quantum Computers May Arrive Much Sooner Than Expected http:// cur.lv/14d4xs #BitcoinNews #BlockchainTechnology pic.twitter.com/yE6XesgkpI","#BitcoinNews #BlockchainTechnology","2017-01-08 19:49:13"
"Canadian Fintech Sector Overshadows its US Counterpart in 2016 http:// cur.lv/14cwo5 #BitcoinNews #BlockchainTechnology pic.twitter.com/CGKDke89nP","#BitcoinNews #BlockchainTechnology","2017-01-08 07:47:14"
"Saxo Bank: Trump Maybe Good News For Bitcoin http:// cur.lv/14cruo #BitcoinNews #BlockchainTechnology pic.twitter.com/wcuvBsAF9e","#BitcoinNews #BlockchainTechnology","2017-01-07 19:56:09"
"Global #Blockchain Business Council launches http:// j.mp/2iEtcvj #cryptocurrency #blockchaintechnology #alternativecurrency pic.twitter.com/irtnkNlzhJ","#Blockchain #cryptocurrency #blockchaintechnology #alternativecurrency","2017-01-07 00:12:01"
"TOP 5 BIG DATA TRENDS 2017 #BigDataTrends #BigDataTechnology #DeepLearning #ApacheSpark #BlockChainTechnology http:// bit.ly/2jb5xBX","#BigDataTrends #BigDataTechnology #DeepLearning #ApacheSpark #BlockChainTechnology","2017-01-06 12:03:56"
"#BigDataTrends #BigDataTechnology #DeepLearning #ApacheSpark #BlockChainTechnology #Hadoop #DataAnalytics2017 http:// bit.ly/2iLhTBT","#BigDataTrends #BigDataTechnology #DeepLearning #ApacheSpark #BlockChainTechnology #Hadoop #DataAnalytics2017","2017-01-06 12:03:54"
"Another Nation Has Developed a National Currency That's Entirely Digital #BlockchainTechnology http:// hubs.ly/H05GCVn0","#BlockchainTechnology","2017-01-06 01:15:05"
"Bitcoin Core Launches a New Version, Officially Ends Win XP Support http:// cur.lv/14c1ld #BitcoinNews #BlockchainTechnology pic.twitter.com/Mpml3zT9tn","#BitcoinNews #BlockchainTechnology","2017-01-05 21:54:23"
"What are the top potential benefits of using #BlockchainTechnology to secure #healthcare records? https:// iii.hm/7pf pic.twitter.com/CImqHiv7jp","#BlockchainTechnology #healthcare","2017-01-04 10:57:31"
"#bitcoin becomes best-performing currency 2016 - Pressenza #currency #blockchaintechnology http:// bit.ly/2j0oh6Z pic.twitter.com/KtkOTRwoOx","#bitcoin #currency #blockchaintechnology","2017-01-03 15:19:16"
"#bitcoin becomes best-performing currency 2016 - Pressenza #currency #blockchaintechnology http:// bit.ly/2j0oh6Z pic.twitter.com/RaMaQyXE1S","#bitcoin #currency #blockchaintechnology","2017-01-03 15:18:14"
"#bitcoin becomes best-performing currency 2016 - Pressenza #currency #blockchaintechnology http:// bit.ly/2j0oh6Z pic.twitter.com/0uLZaMiqia","#bitcoin #currency #blockchaintechnology","2017-01-03 15:14:22"
"2017 is Expected to Be a Great Year for Blockchain Technology http:// cur.lv/14awgf #BitcoinNews #BlockchainTechnology pic.twitter.com/h9qrEiJO1u","#BitcoinNews #BlockchainTechnology","2017-01-02 21:52:12"
"CageCoin died :( #blockchain #blockchaintechnology","#blockchain #blockchaintechnology","2017-01-02 16:48:25"
"#blockchaintechnology creating value by defining services!","#blockchaintechnology","2017-01-02 15:54:45"
"verdiep je erbeter echt in #blockchaintechnology , misschien zelf lokaal politiek in? Dat scheelt weer een 'hoge heer' i.p.v..","#blockchaintechnology","2017-01-02 13:54:45"
"Opinion: What Do We Gain by Sending Bitcoin to Mars? http:// cur.lv/14ajf3 #BitcoinNews #BlockchainTechnology pic.twitter.com/HMDJ4i9NlX","#BitcoinNews #BlockchainTechnology","2017-01-01 21:54:08"
"#Blockchaintechnology marries security & purchasing/licensing in a way that may be effective for digital blueprints: http:// ow.ly/gdRS306Nj9O","#Blockchaintechnology","2016-12-30 00:35:11"
"You have a chance to be part of the biggest trend that will be bigger then the internet, #BlockchainTechnology if you part of#bitclubnetwork","#BlockchainTechnology #bitclubnetwork","2016-12-29 16:05:51"
"Towards a Clearer Understanding of #Blockchain 's True Value http:// bit.ly/2hqPrn5 via @CoinDesk #blockchaintechnology #bitcoin","#Blockchain #blockchaintechnology #bitcoin","2016-12-22 08:59:41"
"Is #BlockchainTechnology a killer app? Read more http:// ow.ly/kD8I305Lhfd #FinTechDisruptors","#BlockchainTechnology #FinTechDisruptors","2016-12-21 16:55:21"
"Property investors welcome rise of Blockchain Technology http:// dlvr.it/Mwd7S5 #News #blockchain #blockchaintechnology","#News #blockchain #blockchaintechnology","2016-12-20 10:16:07"
"#ICAP Will process foreign exchange trades on #BlockchainTechnology @FT","#ICAP #BlockchainTechnology","2016-12-20 09:48:52"
"http://www. libertyunderattack.com/luapodcast11/ #NewPodcast : Concluding #CryptoWeek and #FutureOutlooks on the #BlockchainTechnology . Check it out! #Bitcoin","#NewPodcast #CryptoWeek #FutureOutlooks #BlockchainTechnology #Bitcoin","2016-12-19 17:43:09"
"DTC's Myra Moore says #3Dprinting is serious business with serious implications for IP. More: http:// ow.ly/BfiQ306NiYB #blockchaintechnology","#3Dprinting #blockchaintechnology","2016-12-19 00:35:09"
"#bitcoin #darkcoin #trading #anonymousmarketplace #genesismining #quantumcomputing #blockchaintechnology https:// lnkd.in/dsju2_S","#bitcoin #darkcoin #trading #anonymousmarketplace #genesismining #quantumcomputing #blockchaintechnology","2016-12-18 08:49:37"
"Will #blockchaintechnology revolutionize online payments and contracts in 2017? What say you? https:// lnkd.in/eNGAyYv","#blockchaintechnology","2016-12-17 06:02:00"
"Is #BlockchainTechnology something to be concerned over for credit unions? http:// ow.ly/ovsm305LhaJ #FinTechDisruptors","#BlockchainTechnology #FinTechDisruptors","2016-12-16 22:55:15"
"@niinarkuquaynor On the history of Internet dev't in Africa, as an Internet pioneer on the continent! #COALANairobi #Blockchaintechnology pic.twitter.com/Ts6lCAGdwg","#COALANairobi #Blockchaintechnology","2016-12-15 08:16:42"
"#Bitcoin and #BlockchainTechnology : Understanding the Ground Reality: http:// buff.ly/2hefaQE by @gautham_n","#Bitcoin #BlockchainTechnology","2016-12-15 06:20:01"
"5 #enterprise -related things you can do with #BlockchainTechnology today https:// goo.gl/FXQCUx","#enterprise #BlockchainTechnology","2016-12-14 23:41:40"
"The State of Global Blockchain Consortia https:// goo.gl/fb/jFdazd http:// goo.gl/zeTWI3 #features #opinion #blockchaintechnology #featured","#features #opinion #blockchaintechnology #featured","2016-12-11 17:27:53"
"Blockchain Technology: Those Unanswered Questions #Blockchain #Fintech #Finance #Technology #BlockchainTechnology http:// buff.ly/2gO29Mh","#Blockchain #Fintech #Finance #Technology #BlockchainTechnology","2016-12-11 16:20:07"
"DTC's Myra Moore says #3Dprinting is serious business with serious implications for IP. More: http:// ow.ly/BfiQ306NiYB #blockchaintechnology","#3Dprinting #blockchaintechnology","2016-12-08 17:35:23"
"#BlockChainTechnology breakout Do you know what it is? #insurancevaluechain #enabler #integrateddata #E &Y","#BlockChainTechnology #insurancevaluechain #enabler #integrateddata #E","2016-12-07 16:38:32"
"How #blockchain can help fight #cyberattacks #bitcoin #blockchaintechnology http:// tcrn.ch/2gZpeNb via @techcrunch","#blockchain #cyberattacks #bitcoin #blockchaintechnology","2016-12-06 05:46:14"
"What ways can credit unions respond to #BlockchainTechnology ? http:// ow.ly/bPmq305LgTu #FinTech #Disruptors #creditunions #finance","#BlockchainTechnology #FinTech #Disruptors #creditunions #finance","2016-12-06 00:50:26"
"New blog by Myra Moore: 3D Printing: Who Owns the Designs? http:// ow.ly/QTQY306NiPv #3Dprinting #blockchaintechnology","#3Dprinting #blockchaintechnology","2016-12-05 13:45:15"
"WATCH: The Potential of #BlockchainTechnology , and where it can take us all. http:// bit.ly/2fIp8XK","#BlockchainTechnology","2016-12-04 01:30:28"
"'KMi #blockchaintechnology featured in Times Higher Education': https:// goo.gl/e2jZ4u #oudigitalinnovation #openblockchain #bitcoin pic.twitter.com/yiImbOO6b8","#blockchaintechnology #oudigitalinnovation #openblockchain #bitcoin","2016-11-30 12:56:43"
"#BlockChainTechnology - The next big thing to create a buzz in #finance http:// fb.me/8usPl9Dzp","#BlockChainTechnology #finance","2016-11-29 10:25:29"
"#BlockchainTechnology - The next big thing http:// fb.me/1jtZil4eV","#BlockchainTechnology","2016-11-29 10:20:51"
"Property investors welcome rise of Blockchain Technology http:// dlvr.it/Mm1mfN #News #blockchain #blockchaintechnology","#News #blockchain #blockchaintechnology","2016-11-28 11:05:35"
"The mass adaption of #BlockchainTechnology will soon transform the government services. @TechCrunch http:// ow.ly/WZ9i306vG2a","#BlockchainTechnology","2016-11-25 13:30:27"
"Could 2017 be the year for #BlockchainTechnology in healthcare? https:// lnkd.in/ejD6ENT","#BlockchainTechnology","2016-11-24 19:24:51"
"Tuning in to @BitRushCo for deeper info about their payment solution. #CIX16 #Bitcoin #blockchaintechnology pic.twitter.com/6dMxfQEHib","#CIX16 #Bitcoin #blockchaintechnology","2016-11-23 20:46:55"
"Blockchain Interest is Rising in #Russia (Despite #Legal Concerns) #blockchain #blockchaintechnology #bitcoin http:// bit.ly/2gA9aEQ","#Russia #Legal #blockchain #blockchaintechnology #bitcoin","2016-11-21 07:25:28"
"#MAS , #R3 and #FinancialInstitutions experimenting with #BlockchainTechnology | #payments #project #bank http:// bit.ly/2fEqjbU","#MAS #R3 #FinancialInstitutions #BlockchainTechnology #payments #project #bank","2016-11-16 08:00:32"
"The real benefit of paying with bitcoin http:// cnb.cx/1lonjm5 #cashlesssociety #bitcoin #cryptocurrency #blockchaintechnology #fintech","#cashlesssociety #bitcoin #cryptocurrency #blockchaintechnology #fintech","2016-11-15 06:25:51"
"#BlockchainTechnology , what is it and how can it help you create and protect value. #DisruptiveInnovation http:// hubs.ly/H057nDX0 pic.twitter.com/xo8SmVvKsw","#BlockchainTechnology #DisruptiveInnovation","2016-11-11 20:24:22"
"What is #blockchaintechnology and who is using it?- By @joshinav of @allerint #Technology #Banking http:// ow.ly/3bfx30621zo pic.twitter.com/UbO6IFhoNv","#blockchaintechnology #Technology #Banking","2016-11-10 14:00:53"
"- still rigged. we need new system of voting #blockchaintechnology","#blockchaintechnology","2016-11-09 06:08:13"
"#blockchain : Why the Big Guys Cant Win The Markets Post #BlockchainTechnology http:// bit.ly/2feIR2s pic.twitter.com/c7FQzdYtut","#blockchain #BlockchainTechnology","2016-11-06 22:02:28"
"Even the US military is looking at #BlockchainTechnology , but it's to secure nuclear weapons. http:// bit.ly/2e4OVt5 pic.twitter.com/Yik3R168re","#BlockchainTechnology","2016-11-06 22:00:53"
"#blockchain : Why the Big Guys Cant Win The Markets Post #BlockchainTechnology http:// bit.ly/2feIR2s pic.twitter.com/JgSZcHT3yX","#blockchain #BlockchainTechnology","2016-11-06 22:00:17"
"#blockchain : Why the Big Guys Cant Win The Markets Post #BlockchainTechnology http:// bit.ly/2feIR2s pic.twitter.com/zxPI0xh6je","#blockchain #BlockchainTechnology","2016-11-06 21:59:29"
"These experts unpack the future of #BlockchainTechnology : https:// goo.gl/qzN7Ca pic.twitter.com/XbUZZKWfwV","#BlockchainTechnology","2016-11-04 20:00:39"
"Chris Coney Talks with Jeremy Kauffman from @LBRYio >> http:// bit.ly/2fjf7BK #blockchain #BlockchainRevolution #Blockchaintechnology pic.twitter.com/LfwIe4KZkG","#blockchain #BlockchainRevolution #Blockchaintechnology","2016-11-04 14:13:51"
"Microsoft Doubles Down on #ethereum With New #blockchain #Product #Blockchaintechnology #tech http:// bit.ly/2fkShbN","#ethereum #blockchain #Product #Blockchaintechnology #tech","2016-11-03 18:02:51"
"@Mastercard libera tres #API experimentales de #blockchain https:// goo.gl/IeZlNU #Blockchaintechnology #smartcontract #pagos #payments pic.twitter.com/ZHsXazmv8s","#API #blockchain #Blockchaintechnology #smartcontract #pagos #payments","2016-11-03 17:53:06"
"#insurance industry will likely benefit the most from #Blockchaintechnology - @AskParis #BSR16","#insurance #Blockchaintechnology #BSR16","2016-11-03 16:53:13"
"I know about #Blockchaintechnology Just sayin #DigitalNative #nyla2016","#Blockchaintechnology #DigitalNative #nyla2016","2016-11-03 15:14:30"
"Interesting #Blockchaintechnology as way to fight land corruption http:// bit.ly/2eYeJe2 #StopLandCorruption #landrightsnow","#Blockchaintechnology #StopLandCorruption #landrightsnow","2016-11-03 15:13:23"
"Interesting #Blockchaintechnology as way to fight land corruption http:// bit.ly/2eYeJe2 #StopLandCorruption #landrightsnow","#Blockchaintechnology #StopLandCorruption #landrightsnow","2016-11-03 15:09:19"
"We bring cutting-edge technology to the Bitcoin ecosystem https:// goo.gl/1yGChr #btc #ltc #blockchaintechnology","#btc #ltc #blockchaintechnology","2016-11-03 14:07:49"
"We are delighted to host an expert discussion panel on #BlockchainTechnology and #fintech at our Hong Kong office. http:// bit.ly/2faBax5 pic.twitter.com/LAexSZgEvX","#BlockchainTechnology #fintech","2016-11-02 13:03:22"
"Unlike traditional banking services, #Bitcoin cannot be centrally shut down. #BlockchainTechnology #GetOnBoard http:// ow.ly/2k2i305zC0X","#Bitcoin #BlockchainTechnology #GetOnBoard","2016-10-29 19:01:23"
"Rambunctious emissaries of Armageddon: #hyperconnectedworld #worldclasstalent #blockchaintechnology #cybersecurity Revelation16:16 Mark11:22","#hyperconnectedworld #worldclasstalent #blockchaintechnology #cybersecurity","2016-10-29 01:19:21"
"#BlockchainTechnology , #AI , and #IoT are set to shake up healthcare http:// buff.ly/2eyFd2p via @3LSConsulting","#BlockchainTechnology #AI #IoT","2016-10-28 09:48:00"
"Smart Contract security https:// youtu.be/466bmp6bs9g #devcon2 @ethereumproject #ethereum @ChrJentzsch #Blockchaintechnology #Blockchain","#devcon2 #ethereum #Blockchaintechnology #Blockchain","2016-10-26 20:59:00"
"#Bitcoin . 43716 unconfirmed transactions and counting http:// bit.ly/2ebEvbr @reddit @ethereumproject #cryptocurrency #Blockchaintechnology","#Bitcoin #cryptocurrency #Blockchaintechnology","2016-10-26 20:54:14"
"Will #Blockchaintechnology disrupt legacy #loyalty and #rewards technology? via @thewisemarketer via http:// bit.ly/2eg7Bad","#Blockchaintechnology #loyalty #rewards","2016-10-26 19:13:20"
"Good read: The #Fintech Files: What Does It Take to Be Successful? http:// cfa.is/2e8YNCn #Blockchaintechnology #startups","#Fintech #Blockchaintechnology #startups","2016-10-26 08:57:45"
"#Banks adopt #Blockchaintechnology for #mortgage valuation system - http:// on.ft.com/2ek96F4 pic.twitter.com/r3Ie2dNawr","#Banks #Blockchaintechnology #mortgage","2016-10-25 09:33:24"
"#ONC 's Savage Outlines Steps Taken to Address #HIPAA in Health IT http:// bit.ly/2dUxUlC #EHR #BlockchainTechnology","#ONC #HIPAA #EHR #BlockchainTechnology","2016-10-24 16:31:19"
"#CreditUnions Should Care About #BlockchainTechnology - http:// bit.ly/2efEnwK","#CreditUnions #BlockchainTechnology","2016-10-23 00:33:00"
"The next generation #blockchaintechnology will be better, faster, strong, more powerfull and much more secure.","#blockchaintechnology","2016-10-22 13:33:06"
"We are a Digital Agency#socialMedia #blockchainTechnology #BigData #MobileMarketing#BusinessIntelligence#Proximitymarketing","#socialMedia #blockchainTechnology #BigData #MobileMarketing #BusinessIntelligence #Proximitymarketing","2016-10-21 23:59:30"
"Bitbrands: We are a Digital Agency#socialMedia #blockchainTechnology #BigData #MobileMarketing#BusinessIntelligence#Proximitymarketing...","#socialMedia #blockchainTechnology #BigData #MobileMarketing #BusinessIntelligence #Proximitymarketing","2016-10-21 23:59:24"
"We are a Digital Agency#socialMedia #blockchainTechnology #BigData #MobileMarketing#BusinessIntelligence#Proximitymarketing","#socialMedia #blockchainTechnology #BigData #MobileMarketing #BusinessIntelligence #Proximitymarketing","2016-10-21 23:47:41"
"#BlockchainTechnology https:// youtu.be/1yWA5nNPYLw","#BlockchainTechnology","2016-10-21 07:29:57"
"i.e. @Ripple 's #InterLedger technology is fundamentally different than #BlockchainTechnology #DistributedLedger #DLT technologies","#InterLedger #BlockchainTechnology #DistributedLedger #DLT","2016-10-21 04:43:27"
"#LearnedSomethingNew #BlockchainTechnology - database of growing list of records secured from tampering & revision #consultingweek16","#LearnedSomethingNew #BlockchainTechnology #consultingweek16","2016-10-20 21:48:42"
"An Irish firm becomes the first in world to use #BlockchainTechnology to close deal. http:// bit.ly/2cRXWr2 pic.twitter.com/w9o3g8N1Fj","#BlockchainTechnology","2016-10-19 19:01:16"
"Let's get educated on the many reasons to try #digitalcurrency #blockchaintechnology #amphitryon","#digitalcurrency #blockchaintechnology #amphitryon","2016-10-17 19:34:35"
"A Pitch Perfect Illustration of Blockchain Hype http:// goo.gl/fb/eCAEMl http:// goo.gl/zeTWI3 #features #opinion #blockchaintechnology","#features #opinion #blockchaintechnology","2016-10-16 16:37:36"
"Hello Twitter! #myfirstTweet #amphitryonllc #blockchaintechnology","#myfirstTweet #amphitryonllc #blockchaintechnology","2016-10-15 20:30:48"
"Potential of #blockchaintechnology for #financial auditing http:// ow.ly/MFZp304X1qu pic.twitter.com/ilBNA5SO87","#blockchaintechnology #financial","2016-10-14 20:03:04"
"#ICICIBank first #Indian lender to #execute #BlockchainTechnology transaction http:// ow.ly/WrBV3058at8","#ICICIBank #Indian #execute #BlockchainTechnology","2016-10-13 08:00:14"
"Why ThisIsMe is planning to use #blockchaintechnology https:// goo.gl/JEAZrw","#blockchaintechnology","2016-10-12 14:24:24"
"New developments in #blockchaintechnology could be taking faster #payments to another next level http:// bit.ly/2e5Cb9G","#blockchaintechnology #payments","2016-10-10 11:00:39"
"#TechCrunch Creates a New Series on #Cryptocurrencies and #BlockchainTechnology | #Bitcoin #digitalgold #invention http:// bit.ly/2deorYx","#TechCrunch #Cryptocurrencies #BlockchainTechnology #Bitcoin #digitalgold #invention","2016-10-10 10:58:09"
"Stay up to date! Here's an inside look at the 10 #BlockchainTechnology magazines. http:// bit.ly/2cMaz6g pic.twitter.com/V37oxlC3cp","#BlockchainTechnology","2016-10-08 20:01:27"
"#DubaiGovt to embrace #BlockchainTechnology | http:// sco.lt/8nFiS1 @SmartDubaiGov #SmartDubai @HamdanMohammed pic.twitter.com/z2jk9eu2Qk","#DubaiGovt #BlockchainTechnology #SmartDubai","2016-10-06 08:10:23"
"J.P.Morgan's private blockchain revealed http:// futurism.com/?p=54658 #blockchain #blockchaintechnology #blockchainrevolution #fintech #banking","#blockchain #blockchaintechnology #blockchainrevolution #fintech #banking","2016-10-05 10:33:12"
"How Digital Finance will Fuel Emerging Economy Growth http:// flip.it/nJMTzy #blockchaintechnology #digitaldisruption","#blockchaintechnology #digitaldisruption","2016-10-05 09:45:48"
"@Tecnocom in #MobeyDay , 2 days ahead sharing ideas about #blockchaintechnology , #Payments , #aheadofPSD2 , ... pic.twitter.com/q6WAr3Ocy5","#MobeyDay #blockchaintechnology #Payments #aheadofPSD2","2016-10-05 09:43:45"
"Thank You, You made my Day @alextapscott #blockchain #blockchaintechnology #fintech #metrics #CFO pic.twitter.com/QjqTVGSLvQ","#blockchain #blockchaintechnology #fintech #metrics #CFO","2016-10-05 07:45:07"
"' #Blockchain : For Banks to Survive, the System Has to Fail' via @techinsider_sv #bitcoin #blockchaintechnology - http:// buff.ly/2dHyhPJ","#Blockchain #bitcoin #blockchaintechnology","2016-10-05 03:30:06"
"#FairTradeMusic : #Musicians should be fairly compensated for the #value they create. #BlockchainTechnology http:// on.thestar.com/2dDdQVy","#FairTradeMusic #Musicians #value #BlockchainTechnology","2016-10-04 13:10:03"
"UBS invests big in #blockchain future #fintech #bitcoin #blockchaintechnology #banking http:// bit.ly/2dDvVBJ pic.twitter.com/3o7SgAlA0X","#blockchain #fintech #bitcoin #blockchaintechnology #banking","2016-10-04 00:41:21"
"Australia leads the way in revolutionary #blockchain technology #blockchaintechnology http:// bit.ly/2dSxNL3 pic.twitter.com/pskoq627Gm","#blockchain #blockchaintechnology","2016-10-03 05:59:32"
"Australia leads the way in revolutionary #blockchain technology #blockchaintechnology http:// bit.ly/2dSxNL3 pic.twitter.com/0dtHcHFh4z","#blockchain #blockchaintechnology","2016-10-03 05:57:23"
"Best invention (disruptive innovation) of this Century is #Cryptocurrency #Bitcoin #Blockchaintechnology . are you Missing something?","#Cryptocurrency #Bitcoin #Blockchaintechnology","2016-10-02 19:39:09"
"Best invention (disruptive innovation) of this Century is #Cryptocurrency #Bitcoin #Blockchaintechnology . are you Missing something? pic.twitter.com/uITzw3XUvm","#Cryptocurrency #Bitcoin #Blockchaintechnology","2016-10-02 19:33:26"
