"We are developing a #ClimateActionPlan with @FCM_online . Join us on Apr 25 at 7pm to learn more https:// goo.gl/Wq2Dbl #perthproud pic.twitter.com/0QQuniWkxS","#ClimateActionPlan #perthproud","2017-04-03 16:50:38"
"Roses are dead Violets are too Still defending Trump? What the fuck is wrong with you? #NationalPoetryMonth #ClimateActionPlan #climatemarch","#NationalPoetryMonth #ClimateActionPlan #climatemarch","2017-04-02 01:04:57"
"Een zwarte dag voor onze kinderen. #Brexit #ClimateActionPlan","#Brexit #ClimateActionPlan","2017-03-29 20:08:55"
"Trump's rollback of #ClimateActionPlan will see large-scale devastation such as this (pic by @ddimick ). Show the impact w #climatevisuals pic.twitter.com/vF7hVJ972K","#ClimateActionPlan #climatevisuals","2017-03-29 16:47:07"
"For 1st time @OECD_ENV invites govs & @TUACOECD 2 share views on how 2 protect workers in #climate transition #G20Germany #climateactionplan","#climate #G20Germany #climateactionplan","2017-03-10 11:46:49"
"Napa County proposes carbon-cutting steps to combat global warming. #ClimateActionPlan http:// buff.ly/2lg1cRH pic.twitter.com/lJR3kKL3Uq","#ClimateActionPlan","2017-02-21 18:05:16"
"India played key role in #climateActionPlan : Suresh Prabhu https:// youtu.be/1iYIfZIKaSY via @YouTube","#climateActionPlan","2017-02-20 11:14:47"
"Hear Commissioner Spector @BU_tweets and @SustainableBU 's Panel #ClimateActionPlan Wed @4pm ! http:// bit.ly/2lrog0y","#ClimateActionPlan","2017-02-19 22:15:10"
"#Bethlehem #PA passes resolution for a #ClimateActionPlan seeking to reduce #Pollution http:// buff.ly/2kOO3ij","#Bethlehem #PA #ClimateActionPlan #Pollution","2017-02-19 08:58:00"
"Don't miss @BU_Tweets & @sustainableBU 's next #ClimateActionPlan event on 2/22 @4pm . Learn more at http:// bit.ly/2lrog0y","#ClimateActionPlan","2017-02-18 22:15:09"
"Danielle Bishop on how @RoanokeStormH2O is using #isienvision with #climateactionplan pic.twitter.com/OZLzN2Y9S4","#isienvision #climateactionplan","2017-02-17 19:43:59"
"@GovRitter_Press speaking at the #AllianceCenter ! Full house tonight! #LocalGovernment #Sustainability #climateactionplan @AllSustCO pic.twitter.com/TK8GCEafge","#AllianceCenter #LocalGovernment #Sustainability #climateactionplan","2017-02-17 02:47:22"
"#OffGrid #100PercentRenewableEnergy #100PercentOfTheTime #SolarParkingLotLights are here! Paving the way for #SanDiego #ClimateActionPlan ! pic.twitter.com/AaMjNGD9Vb","#OffGrid #100PercentRenewableEnergy #100PercentOfTheTime #SolarParkingLotLights #SanDiego #ClimateActionPlan","2017-02-15 23:06:27"
"#ClimateActionPlan had 3 main goals cut domestic carbon pollution, prepare the US for climate change impacts","#ClimateActionPlan","2017-02-08 19:50:21"
"Economic #growth and #greenhouse gas emissions reduction #ClimateActionPlan https:// lnkd.in/dbGNuz7","#growth #greenhouse #ClimateActionPlan","2017-02-08 18:48:36"
"Care about climate? Have your voice heard @sustainableBU @BU_Tweets 's public forum on their #ClimateActionPlan 2/14 http:// bit.ly/2lca9MZ","#ClimateActionPlan","2017-02-07 17:45:24"
"@chevron funded @cityofrichmond #climateactionplan strategy has sections on #adaptation & #resilience . #CCCS2017 pic.twitter.com/8mt35vy9vo","#climateactionplan #adaptation #resilience #CCCS2017","2017-01-25 23:17:18"
"Why is @POTUS repealing the #ClimateActionPlan and the #WatersOfTheUSRule ? #BadIdea #Trump #ClimateDenier #ScienceIsReal #MoneyWontSaveUs","#ClimateActionPlan #WatersOfTheUSRule #BadIdea #Trump #ClimateDenier #ScienceIsReal #MoneyWontSaveUs","2017-01-23 19:25:46"
"#Trump 's administration committed to eliminating Obama's #ClimateActionPlan in favor of #oilandgas #coal http:// bit.ly/2kjgWnG pic.twitter.com/ZzK8RjNSil","#Trump #ClimateActionPlan #oilandgas #coal","2017-01-23 13:00:03"
"A sign of times to come? @WhiteHouse website decides to remove #climatechange , policies such as #ClimateActionPlan http:// wapo.st/2k6NzBP","#climatechange #ClimateActionPlan","2017-01-23 08:29:01"
"These Cities Are Setting the Standard for Clean Energy Worldwide http:// dlvr.it/N9mpGp #EarthEnergy #burlington #climateactionplan pic.twitter.com/3WHBIEOHE6","#EarthEnergy #burlington #climateactionplan","2017-01-22 18:54:32"
"@SanDiego350 @womensmarch_sd #WhyWeMarch #SanDiego 's legally enforceable #ClimateActionPlan needs to stay! @womensmarch @ClimateReality pic.twitter.com/6UL7qMmtT7","#WhyWeMarch #SanDiego #ClimateActionPlan","2017-01-22 07:17:07"
"What America could be vs. what America will be #Inauguration #NewAdmin #ClimateActionPlan #WOTUS #unacceptable #ClimateChangeIsReal pic.twitter.com/ZC9D4pw9GN","#Inauguration #NewAdmin #ClimateActionPlan #WOTUS #unacceptable #ClimateChangeIsReal","2017-01-22 02:49:22"
"""... President Trump is committed to eliminating harmful and unnecessary policies such as the #ClimateActionPlan ..."" #WhiteHouse website.","#ClimateActionPlan #WhiteHouse","2017-01-21 05:17:52"
"Trump wants to bring ""prosperity"" to the Americans by pollution and destruction of environment ? Seriously ? RIP #ClimateActionPlan .","#ClimateActionPlan","2017-01-21 01:57:33"
"#BreakingNews Trump scraps the #Obama #ClimateActionPlan Loud cheering from Virginia pic.twitter.com/GBzg7D5ZBG","#BreakingNews #Obama #ClimateActionPlan","2017-01-21 01:24:14"
"There is no #cleancoal , @Potus . @BarackObama #climateactionplan is anything BUT ""harmful + unnecessary."" Ignore #climatechange at our peril.","#cleancoal #climateactionplan #climatechange","2017-01-20 23:11:34"
"#Trump 's first action on energy: ""eliminating harmful and unnecessary policies such as the #ClimateActionPlan "" https:// goo.gl/jHoIdl","#Trump #ClimateActionPlan","2017-01-20 22:03:55"
"#Inauguration : #ClimateChange & #GlobalWarming disappear from http://www. whitehouse.org & Trump promises to eliminate #ClimateActionPlan . Bad. pic.twitter.com/rGrabRfvA1","#Inauguration #ClimateChange #GlobalWarming #ClimateActionPlan","2017-01-20 20:43:52"
"I think #Canada needs to build a bubble around it to protect it from the #USA now that they are cancelling their #climateactionplan","#Canada #USA #climateactionplan","2017-01-20 20:26:39"
"Trump's plan for energy independence sacrifices the environment http:// bit.ly/2k9gVih #cleancoal #climateactionplan","#cleancoal #climateactionplan","2017-01-20 19:34:39"
"#cleancoal #climateactionplan Trump's plan for energy independence sacrifices the environment http:// dlvr.it/N92rXr pic.twitter.com/5lJmye1nuP","#cleancoal #climateactionplan","2017-01-20 19:28:42"
". @realDonaldTrump 's just posted America First Energy Plan pledges to eliminate #ClimateActionPlan . http:// ow.ly/VxKS308cpMK #CleanEnergyTexas","#ClimateActionPlan #CleanEnergyTexas","2017-01-20 19:25:03"
"Important read. Only climate change mention now is about destroying #ClimateActionPlan . http:// bit.ly/2iTxBsM http:// fb.me/6oyPLKoCy","#ClimateActionPlan","2017-01-20 19:23:07"
"San Diego Business Community Survey: Climate Action Plan Take the survey: https://www. surveymonkey.com/r/C3RXQ53 #CaliBaja #SanDiego #ClimateActionPlan","#CaliBaja #SanDiego #ClimateActionPlan","2017-01-14 01:06:09"
"City of Seattle wants your feedback #climateactionplan http:// ift.tt/2icXfZC","#climateactionplan","2016-12-21 00:01:38"
"I want my tax $$ back! What good was forming a taxpaid #ClimateActionPlan if they weren't going to follow it?","#ClimateActionPlan","2016-12-12 18:56:51"
"#Trump Win Restores Hope for the #Coalfields http:// ow.ly/vsTg306Z8Wp #WorldSeries #CleanPowerPlan #ClimateActionPlan @SteveFiscor","#Trump #Coalfields #WorldSeries #CleanPowerPlan #ClimateActionPlan","2016-12-12 15:10:28"
"@PremierBradWall cooperation on climate action needs 2 happen now, don't stand in the way of a good thing -UofR Alumna #climateactionplan","#climateactionplan","2016-12-09 22:59:50"
"The Purge of #Government Employees Who Believe in #ClimateChange Has Begun http:// trib.al/IRXmyEW #COP22 #COP21 #ClimateActionPlan","#Government #ClimateChange #COP22 #COP21 #ClimateActionPlan","2016-12-09 19:45:17"
"#ClimateChange #ClimateActionPlan #ClimateActionCampaign #SanDiego #California https:// lnkd.in/gevEC8n","#ClimateChange #ClimateActionPlan #ClimateActionCampaign #SanDiego #California","2016-12-08 21:11:46"
"Honored to be part of Buildings working group for @CityPGH 's #CAP #ClimateActionPlan 3.0. Great room of progressive thinkers and actors. pic.twitter.com/Ag6soMKJnC","#CAP #ClimateActionPlan","2016-12-08 20:20:44"
"He needs to remember his promise to his #ClimateActionPlan Digging new pipelines isn't part of it. @stk6678 @POTUS pic.twitter.com/FnSHLcl7hp","#ClimateActionPlan","2016-11-27 22:54:33"
"Pipeline goes against #POTUS #ClimateActionPlan to cut carbonemissions & protect the NativeAmericanCommunity #NoDAPL pic.twitter.com/ucQWlFHz5R","#POTUS #ClimateActionPlan #NoDAPL","2016-11-27 18:01:45"
". @flySFO looks to be most #sustainable airport thru #climateactionplan that includes #wetlandprotection . @ELDaily : http:// bit.ly/2fSafpG","#sustainable #climateactionplan #wetlandprotection","2016-11-23 20:11:01"
"Germany has adopted a national #ClimateActionPlan . By 2050 practically no more coal is to be used to generate power. http:// bit.ly/2g37RNd","#ClimateActionPlan","2016-11-18 12:13:40"
"The UK has committed an 80% reduction in emissions against 1990 levels by 2050 in national #climateactionplan #cop22 http:// bit.ly/2fZ4Ta6","#climateactionplan #cop22","2016-11-18 11:42:46"
"#whitehouse #climateactionplan #johnkerry #climatechange http:// fb.me/EWydvCvB","#whitehouse #climateactionplan #johnkerry #climatechange","2016-11-17 16:48:33"
"@MarkRuffalo The noDakota pipeline goes against . @POTUS #ClimateActionPlan to reduce greenhouse emissions by 2020 #NoDAPL #IsLife pic.twitter.com/FzTddPgXGK","#ClimateActionPlan #NoDAPL #IsLife","2016-11-17 15:08:31"
"Nothing gained by not trying. Pipeline violates land/water treaty & is conflict w/ #ClimateActionPlan #NoDAPL @namaste2911","#ClimateActionPlan #NoDAPL","2016-11-16 21:26:04"
"Dear . @POTUS Digging pipelines is not part of your #ClimateActionPlan . You pledged to reduce greenhouse emissions by 2020 #NoDAPL pic.twitter.com/sMbX50t64x","#ClimateActionPlan #NoDAPL","2016-11-16 04:58:49"
"#climateactionplan #nextgeneration #kidsgetit #climatechange #snetoday . http:// fb.me/8cyCBenIU","#climateactionplan #nextgeneration #kidsgetit #climatechange #snetoday","2016-11-16 01:27:11"
"It's #AmericaRecyclesDay ! Support the Eagle Valley #ClimateActionPlan by recycling. Learn more at: http:// bit.ly/2geq3E2 cc: @WalkingMtns pic.twitter.com/EuVpD7BI2z","#AmericaRecyclesDay #ClimateActionPlan","2016-11-15 21:49:16"
"#Germany 's #ClimateActionPlan for 2050 outlines action for all sectors 2reduce emissions by 80-95%-Enviro. Minister #klimaschutzplan #COP22 pic.twitter.com/DlzIQbhK96","#Germany #ClimateActionPlan #klimaschutzplan #COP22","2016-11-14 18:11:23"
"German government reaches agreement on climate action plan - http://www. dw.com/p/2SY5v?tw #Germany #ClimateActionPlan","#Germany #ClimateActionPlan","2016-11-11 15:46:09"
"""We will eliminate the...""Waters of the US"" rule & scrap the $5 trillion dollar Obama-Clinton #ClimateActionPlan & the #CleanPowerPlan ""","#ClimateActionPlan #CleanPowerPlan","2016-11-10 14:51:47"
"More #renewable #diesel - City of San Diego transitions #vehicle #fleet http:// ow.ly/Af3X305Ygho #climateactionplan #Sandiego #fuel pic.twitter.com/jeyv6CRROf","#renewable #diesel #vehicle #fleet #climateactionplan #Sandiego #fuel","2016-11-08 21:00:41"
"#Solar panels to be featured @YourAlberta 36 new schools as part of #ClimateActionPlan http:// ow.ly/wXwo305ArIy @AlbertaEd @davideggenAB pic.twitter.com/9kmG3QsgFm","#Solar #ClimateActionPlan","2016-10-28 15:01:40"
"yes! Especially appreciate leadership & details on @CityofSanDiego #ClimateActionPlan & tech solutions, data analysis. @CANVAWWA pic.twitter.com/oPRuXKC4oz","#ClimateActionPlan","2016-10-25 19:25:23"
"@sxsweco @potus 1st Climate President: reducing green house gas, #climateactionplan ,coal plant standards reduced emissions #ParisAgreement","#climateactionplan #ParisAgreement","2016-10-11 17:25:10"
"#EnvironmentalAction or #Inaction ? #Canada 's latest #ClimateActionPlan & #EmissionTargets incite #Debate http:// bit.ly/2dwgXi6","#EnvironmentalAction #Inaction #Canada #ClimateActionPlan #EmissionTargets #Debate","2016-09-27 19:24:00"
". @BU_Tweets #BoardOfTrustees endorsed the Advisory Committee on Socially Responsible Investing #Divestment #CO2limit & #ClimateActionPlan pic.twitter.com/DIiZIkG0Bs","#BoardOfTrustees #Divestment #CO2limit #ClimateActionPlan","2016-09-20 20:50:51"
"City wants to ease anxiety about #ClimateActionPlan http:// noconow.co/2cpEJOR via @coloradoan @fortcollinsgov #roadto2020 #efficiency","#ClimateActionPlan #roadto2020 #efficiency","2016-09-04 19:13:19"
"Thanks @AveKathleen ! Looking fwd to Capital Region Climate Readiness Collaborative and @SMUD participation in @SacCounty #ClimateActionPlan","#ClimateActionPlan","2016-08-25 02:15:34"
"@ErikJdeKok with #Ascent Environmental doing a great job (as usual!) introducing @SacCountyCA #climateactionplan process","#Ascent #climateactionplan","2016-08-24 23:31:20"
"Nice to see @350sacramento @ecosacramento @WALKSacramento @kt_loves_equity @SMUDUpdates & others @SacCountyCA #climateactionplan kickoff","#climateactionplan","2016-08-24 23:27:39"
"Full room for kickoff of @SacCountyCA #climateactionplan lots of great engagement and questions pic.twitter.com/kqR6bF703p","#climateactionplan","2016-08-24 23:18:54"
"Canada looking to align with new Phase 2 GHG standards http:// ow.ly/IzKT303tvEL #Canada #US @EPA #ClimateActionPlan","#Canada #US #ClimateActionPlan","2016-08-23 20:31:09"
". @Resource_Works Executive Director @sjmuir joins @BIVnews NOW to offer his insights on the #BC #ClimateActionPlan #TuneIn","#BC #ClimateActionPlan #TuneIn","2016-08-23 18:45:32"
"@maryforBC says #ClimateActionPlan is NOT going to 'get us there.' Says province will need new actions every year to get us there. ON NOW","#ClimateActionPlan","2016-08-22 17:15:45"
"#BrandNewCongress #OurRevolution #OurProgressives #WeAreTheMedia #BlackLivesMatter #ClimateActionPlan pic.twitter.com/CQqlmDEEUf","#BrandNewCongress #OurRevolution #OurProgressives #WeAreTheMedia #BlackLivesMatter #ClimateActionPlan","2016-08-22 04:45:36"
"Scary. I just now- rewatched #VICEonHBO 'Future of Energy' thinking wtf; we gotta act Need #ClimateActionPlan @HillaryClinton","#VICEonHBO #ClimateActionPlan","2016-08-22 02:03:15"
"I'll wait 2C the promised 1000s of jobs from #LNG B4 I believ in any mor pie in sky job promises4 #ClimateActionPlan #bcpoli","#LNG #ClimateActionPlan #bcpoli","2016-08-20 06:29:41"
"Our #ClimateActionPlan creates 66,000 jobs, reduces harmful GHG's and modernizes our economy. #bcpoli pic.twitter.com/kyEuVgUnwf","#ClimateActionPlan #bcpoli","2016-08-20 04:59:24"
"Is the new #climateactionplan a puzzle because it's puzzling. And what is this showing me. #minecraft #bcpoli pic.twitter.com/62MV3rM5VE","#climateactionplan #minecraft #bcpoli","2016-08-20 00:30:24"
". @christyclarkbc 's #ClimateActionPlan props up & protects BC Lib's big donors instead of B.C.'s climate goals http:// bit.ly/2bDpWwG","#ClimateActionPlan","2016-08-19 23:51:14"
"Without new targets and pricing, what will be in BC's #ClimateActionPlan to be released tomorrow? http:// bit.ly/2b1KgGc","#ClimateActionPlan","2016-08-18 21:33:06"
"they said their ""conservative GOP constituents"" would not accept the city having a #ClimateActionPlan (with #wildfire preparedness)","#ClimateActionPlan #wildfire","2016-08-17 23:50:07"
". @BOEM_DOI supports development of floating wind farm offshore California #windenergy #renewables #ClimateActionPlan http://www. boem.gov/press08162016a/","#windenergy #renewables #ClimateActionPlan","2016-08-17 19:25:16"
"We've been waiting for @govbc to release its #ClimateActionPlan since March. When do we get to know what's in it? http:// ow.ly/6ycI3039UkG","#ClimateActionPlan","2016-08-13 02:00:53"
"How can #Canada promote #Innovation & new #Tech for its #ClimateActionPlan ? YOUR input needed! #CANClimateAction pic.twitter.com/JWnmZceRgv","#Canada #Innovation #Tech #ClimateActionPlan #CANClimateAction","2016-07-29 01:35:56"
"#Canada wants input for #ClimateActionPlan : can #ClimateChange fight create jobs & be profitable? #CANclimateaction pic.twitter.com/VZhq1d0514","#Canada #ClimateActionPlan #ClimateChange #CANclimateaction","2016-07-28 17:46:14"
"so cutting it down to #climatetargets to be met within 20 months from now. what's the #climateactionplan ?","#climatetargets #climateactionplan","2016-07-22 09:17:42"
"Meet #PDX : Silicon Valley, but w/lower rent + #ClimateActionPlan , bicycles & #craftbeer . http:// townsq.co/29NvarI pic.twitter.com/qukcbqqIqT","#PDX #ClimateActionPlan #craftbeer","2016-07-16 03:30:20"
"Singapore unveils latest plans for addressing climate change https:// goo.gl/3YNw0c #climateactionplan #Singapore","#climateactionplan #Singapore","2016-07-11 03:15:10"
"#Climatechange hits our communities #firstandworst . We need #equity in the #climateactionplan http:// gomixte.co/1toT7eo","#Climatechange #firstandworst #equity #climateactionplan","2016-07-03 17:45:16"
"Canada's Cement Industry Applauds Ontario's #ClimateActionPlan http:// ow.ly/Vduw301LibI @McSweeneyCAC","#ClimateActionPlan","2016-06-29 22:55:09"
"Canada's Cement Industry Applauds Ontario's #ClimateActionPlan http:// ow.ly/Vduw301LibI @McSweeneyCAC","#ClimateActionPlan","2016-06-29 22:50:12"
"Canada's Cement Industry Applauds Ontario's #ClimateActionPlan http:// ow.ly/Vduw301LibI @McSweeneyCAC","#ClimateActionPlan","2016-06-29 21:35:11"
"Dr. Baglia @NCState : #energyefficiency can achieve Pres. Obama's #ClimateActionPlan goal of cutting 3 Bil tons of CO2. #ClimateInnovation","#energyefficiency #ClimateActionPlan #ClimateInnovation","2016-06-29 20:27:36"
"Canada's Cement Industry Applauds Ontario's #ClimateActionPlan http:// ow.ly/Vduw301LibI @McSweeneyCAC","#ClimateActionPlan","2016-06-29 18:50:11"
"SDG&E Gets OK To Market On #AlternativeEnergy Program | KPBS #cleanpower #climateactionplan #SDG &E #CPUC #renewable http:// goo.gl/4NcYBX","#AlternativeEnergy #cleanpower #climateactionplan #SDG #CPUC #renewable","2016-06-22 22:55:03"
"@DrAmeliaClarke presents implementing community plans to @sustainableptbo #climateactionplan task forces #ourchange pic.twitter.com/nUN2xdkzdB","#climateactionplan #ourchange","2016-06-20 19:27:22"
"Revenue for public services or profits for wealthy investors connected to @OntLiberal & @SousaCharles ? #ClimateActionPlan #KeepHydroPublic","#ClimateActionPlan #KeepHydroPublic","2016-06-11 16:34:11"
"combined with #climateactionplan hydro could generate revenue for public services","#climateactionplan","2016-06-11 16:32:00"
"If the Ontario gov't #keephydropublic then the #climateactionplan when fully implemented will generate lots of revenue for services #onpoli","#keephydropublic #climateactionplan #onpoli","2016-06-11 15:09:42"
"#queensu energy expert Warren Mabee says the #ClimateActionPlan is a step in the right direction. http:// bit.ly/1POKN1N","#queensu #ClimateActionPlan","2016-06-10 21:00:23"
"#FeelTheBern #Revolution #DemocracySpring #climateactionplan #SaveTheReefs #oligarchy #MediaBias pic.twitter.com/MxafgkcjXn","#FeelTheBern #Revolution #DemocracySpring #climateactionplan #SaveTheReefs #oligarchy #MediaBias","2016-06-09 05:31:36"
"We need to get this happening ASAP #climatechange #climateactionplan We're in #climateemergency","#climatechange #climateactionplan #climateemergency","2016-06-09 05:30:29"
"#MediaBias #oligarchy #Democracy #DemocraticNomination #SaveTheReef #climateactionplan #FeelTheBurn pic.twitter.com/2ZU6gfWoeO","#MediaBias #oligarchy #Democracy #DemocraticNomination #SaveTheReef #climateactionplan #FeelTheBurn","2016-06-09 05:19:49"
"#Revolution #DemocracySpring #oligarchy #MediaBias #climateactionplan pic.twitter.com/5OCR1nEQR0","#Revolution #DemocracySpring #oligarchy #MediaBias #climateactionplan","2016-06-09 04:59:25"
"Well, I certainly am! #climateactionplan","#climateactionplan","2016-06-09 03:44:14"
"Hail #Norway the 1st country in the world to ban #deforestation #climatechange #climateactionplan #Uganda #policy pic.twitter.com/VHE4jpYqSc","#Norway #deforestation #climatechange #climateactionplan #Uganda #policy","2016-06-09 01:05:03"
"Climate change and Pacific food systems: navigating a perfect storm #climatechange #pacificfoodsysystems #climateactionplan","#climatechange #pacificfoodsysystems #climateactionplan","2016-06-09 00:52:43"
"this should terrify everyone! #climatechange #climateactionplan","#climatechange #climateactionplan","2016-06-09 00:32:31"
"#climateactionplan http:// bit.ly/217MUOT GLAD2C #JustTransition & #carbonneutral #publicsector NEEDS #Municipal #publictransport @Glen4ONT","#climateactionplan #JustTransition #carbonneutral #publicsector #Municipal #publictransport","2016-06-08 23:33:54"
"Ontario unveils 'quite generous' incentives in climate change plan http://www. cbc.ca/1.3621658 #ontpoli #cdnpoli #climateactionplan #bcpoli","#ontpoli #cdnpoli #climateactionplan #bcpoli","2016-06-08 22:55:28"
"#ClimateActionPlan ""Who is running America..Globalists are.Since1933emergency WarPowers have been implemented...ConstitutionHasBeenSuspended","#ClimateActionPlan","2016-06-08 22:02:05"
"Bravo Ontario! #climateactionplan fully costed through cap & trade will help citizens reduce carbon footprint + save money! #onpoli #cdnpoli","#climateactionplan #onpoli #cdnpoli","2016-06-08 20:09:07"
"2/2 ""Wynne gov't made a courageous decision...they should be commended. #climateactionplan #cdnpoli","#climateactionplan #cdnpoli","2016-06-08 20:01:39"
"AVAILABLE EXPERT - Energy expert Warren Mabee on the #climateactionplan http:// bit.ly/25MeNTp","#climateactionplan","2016-06-08 19:25:06"
"#climateactionplan BROOKINGS: On World #OceansDay , a reminder that #climatechange action must consider the oceans http:// brook.gs/1rdcSnQ","#climateactionplan #OceansDay #climatechange","2016-06-08 18:44:06"
"Incentive commitments for energy efficiency retrofits - key part of Ontario's newly announced #climateactionplan pic.twitter.com/rWW1RjJIzO","#climateactionplan","2016-06-08 18:42:07"
"@ONgov #ClimateActionPlan outlines how to meet the 2020 emissions target and accelerate the shift to a low-carbon economy in the province.","#ClimateActionPlan","2016-06-08 17:19:31"
"2day @Kathleen_Wynne & @Glen4Ont outline our #lowcarbon future w/ the #climateactionplan . Want proof of the possible? Look to #CoLabNetwork","#lowcarbon #climateactionplan #CoLabNetwork","2016-06-08 16:28:53"
"Passed! @CityofDelMar #climateactionplan pic.twitter.com/LYCfeQYJOF","#climateactionplan","2016-06-07 04:37:42"
"The community supports @CityofDelMar adoption of the #climateactionplan @thgreendoc @sdclimateaction @sierraclubsd pic.twitter.com/6KHvFWKIoU","#climateactionplan","2016-06-07 04:09:24"
"Del Mar's #ClimateActionPlan passage could influence other cities @AlisonStJohn @KPBS https:// lnkd.in/eRr2MEW","#ClimateActionPlan","2016-06-06 22:55:47"
"""This US City Is a Sustainable Utopia - Here's What They Have Accomplished"": http:// ow.ly/OPU4300QGik #SustainableLiving #climateactionplan","#SustainableLiving #climateactionplan","2016-06-02 18:15:14"
"#HTe 's 5th grade learning about SD's #climateactionplan from the experts #citizenscientists #pbl #lifebythetide pic.twitter.com/2bqTeHoZZZ","#HTe #climateactionplan #citizenscientists #pbl #lifebythetide","2016-06-01 23:38:53"
"#ActOnClimate #ClimateChangeClimatePlanClimateAction #PresisentObama #ClimateActionPlan","#ActOnClimate #ClimateChangeClimatePlanClimateAction #PresisentObama #ClimateActionPlan","2016-05-27 09:10:43"
"#smartcityio finalists: if you can do this in 48 hrs, we will rock the @CityofSanDiego #ClimateActionPlan ! pic.twitter.com/uCx1gu66X2","#smartcityio #ClimateActionPlan","2016-05-26 03:39:26"
"Our take on #climateactionplan @environmentont : many positive changes - building codes, zoning, energy retrofits. (1/2) #onpoli","#climateactionplan #onpoli","2016-05-16 15:52:22"
"#TPP yyz ISDS can't be compared to private arbitration in comm/family law. #cdnpoli it's about national policy (like #climateactionplan )","#TPP #cdnpoli #climateactionplan","2016-05-13 17:34:59"
"@DukeEnvironment alumna's convo federal and state managers for #ClimateActionPlan for Papahanaumokuakea @HawaiiReef : https:// youtu.be/jhcI-yKop3Y","#ClimateActionPlan","2016-05-11 23:18:56"
"#SanDiego 100% rinnovabile entro il 2035 grazie al #ClimateActionPlan - http:// goo.gl/EiIfCn pic.twitter.com/6KqJ75XYox","#SanDiego #ClimateActionPlan","2016-05-10 09:52:14"
"Great turnout for our second meeting of the #ClimateActionPlan working group. pic.twitter.com/OxnYDBzPCq","#ClimateActionPlan","2016-05-06 20:06:08"
"Celebrating #SanDiego #ClimateActionPlan awards @AlvarezSD @greenienic hosted by @sdclimateaction w/ @WillMooreSD pic.twitter.com/SAmbaNXlS9","#SanDiego #ClimateActionPlan","2016-05-06 04:45:33"
"#SanDiego #ClimateActionPlan best advocate @greenienic presents our #CAP to shift priorities & service providers pic.twitter.com/ZmBt7C90jH","#SanDiego #ClimateActionPlan #CAP","2016-05-03 22:09:01"
"What are some ways that New Haven can incorporate #climatejustice into their #climateactionplan ? #tax #tod pic.twitter.com/VpQ2lgR2MQ","#climatejustice #climateactionplan #tax #tod","2016-05-02 23:32:41"
"Not a bad day for a #climateactionplan press conference pic.twitter.com/oJNhcAjwtl","#climateactionplan","2016-05-02 23:11:29"
"New #Ontario agency will be given sweeping mandate to overhaul #energy use http:// ow.ly/4ncFfQ #climateactionplan","#Ontario #energy #climateactionplan","2016-04-29 15:05:32"
"CM @ToddGloria was excellent in defense of truth - we must put a marker down to advance this city. #DowntownMobilityPlan #ClimateActionPlan","#DowntownMobilityPlan #ClimateActionPlan","2016-04-28 02:00:44"
"1 pair of jeans has #GHG equivalent to driving 101miles: See #Seattle #ClimateActionPlan pic.twitter.com/SfToChrhCa","#GHG #Seattle #ClimateActionPlan","2016-04-23 03:26:54"
"How is the US's #ClimateActionPlan stacking up? Check out the #EPA 's annual Green House Gas Inventory. #GHG http:// 1.usa.gov/1qWos7e","#ClimateActionPlan #EPA #GHG","2016-04-20 15:59:04"
"Add your Community Voice on the Fort Collins #ClimateActionPlan 4/24 from 4-7pm at the Wolverine Farm. This is a... http:// fb.me/7rIhIpMJf","#ClimateActionPlan","2016-04-18 18:49:56"
"#SodaMountainSolar project approval to bring 287 MW of #renewable energy for California! #climateactionplan http:// hubs.ly/H02Dfff0","#SodaMountainSolar #renewable #climateactionplan","2016-04-09 00:00:03"
"Bittersweet morning in #COleg for our environment - #RainBarrel bill passes 6-3 to Sen. floor but #ClimateActionPlan bill killed by committee","#COleg #RainBarrel #ClimateActionPlan","2016-03-30 19:49:03"
"#1issueisclimate gr8 respect 4 @SenBrianSchatz #superdelegate and @BernieSanders @HillaryClinton has weak #climateactionplan need #80x50","#1issueisclimate #superdelegate #climateactionplan #80x50","2016-03-30 07:11:36"
"Carbon plan helps the environment, economy http:// bit.ly/22UrPta via @newsminer #ClimateActionPlan pic.twitter.com/wCEtX4tQjc","#ClimateActionPlan","2016-03-30 01:14:59"
"@honghd talks responsible Goverment spending & #climateactionplan at @ABASD Rice Club @SDGE Energy Innovation Center pic.twitter.com/toRK4oTixb","#climateactionplan","2016-03-29 21:33:28"
". @FranksSwain speaking up for HB 1004: #ClimateActionPlan should do more than discuss impacts of climate change; we need measurable goals!","#ClimateActionPlan","2016-03-24 23:34:29"
"2015 was warmest year ever on record. It's clear we need to take action, like #ClimateActionPlan for Colorado #coleg","#ClimateActionPlan #coleg","2016-03-24 22:55:13"
"All future generations depend on what we do to mitigate climate change. We need a #ClimateActionPlan for Colorado -HB 1004 #copolitics","#ClimateActionPlan #copolitics","2016-03-24 22:49:03"
"Let's dispel with this fiction of a ""myth of man-made climate change"", #coleg GOP. Pass #HB1004 , the #ClimateActionPlan . #ActOnClimate #TBT","#coleg #HB1004 #ClimateActionPlan #ActOnClimate #TBT","2016-03-24 22:47:36"
"#ClimateActionPlan needs urgency and efficiency for addressing climate change. - Rev. Peter Sawtell of Eco-Justice Ministries #coleg","#ClimateActionPlan #coleg","2016-03-24 22:44:36"
"CO is a nation-wide leader in fighting #climatechange . Let's stay ahead thru the #ClimateActionPlan , #HB1004 . #ActOnClimate #copolitics","#climatechange #ClimateActionPlan #HB1004 #ActOnClimate #copolitics","2016-03-24 22:38:36"
"#ClimateActionPlan would set the groundwork we need to take action on #climatechange - representative from CO Dept. of Natural Resources","#ClimateActionPlan #climatechange","2016-03-24 22:17:07"
"""The science is very clear."" - @KefalasJohn . We need to #ActOnClimate . #ClimateActionPlan set through goals w/ #HB1004 will help. #coleg","#ActOnClimate #ClimateActionPlan #HB1004 #coleg","2016-03-24 22:11:11"
"It's evident that what draws people to the state of CO is our clean water, clean air & natural resources. @KefalasJohn #ClimateActionPlan","#ClimateActionPlan","2016-03-24 22:10:09"
"Next bill in Senate Ag Committee: goals for #ClimateActionPlan with @KefalasJohn . Big day for the environment in #coleg","#ClimateActionPlan #coleg","2016-03-24 22:08:34"
"#Cleantech sector employs over 23,000 #Coloradoans ! A stronger state #ClimateActionPlan would increase solar,... http:// fb.me/3McN6KJqM","#Cleantech #Coloradoans #ClimateActionPlan","2016-03-24 22:06:11"
"@coagcomm HB16-1004 A Livable Climate needs a #ClimateActionPlan and annual reporting on #Colorado #GHGemissions http:// tinyurl.com/zhgoqog","#ClimateActionPlan #Colorado #GHGemissions","2016-03-24 21:59:45"
"Ask @COAGcomm Senators for HB16-1004; real #ClimateActionPlan goals. What doesn't get measured doesn't get done! http:// tinyurl.com/h453yuh","#ClimateActionPlan","2016-03-24 03:05:24"
"Accepting @AtlantaRegional #CREATECommunity award for our #ClimateActionPlan @KasimReed @Jairohgarcia @Cityofatlanta pic.twitter.com/P3OJ9a1JcT","#CREATECommunity #ClimateActionPlan","2016-03-23 18:35:41"
"Excited about @AlvarezSD leading #ClimateActionPlan Implementation Working Group--smart people from all sectors. pic.twitter.com/rbdXEXV0OW","#ClimateActionPlan","2016-03-18 21:15:11"
"So many attending the FoCo City Council Work session on the #ClimateActionPlan ! Want it? http://www. fcgov.com/climateaction pic.twitter.com/MOi1j8xnEh","#ClimateActionPlan","2016-03-11 02:27:26"
"Thx @PICSCanada 4 hosting last nite's excellent #climateactionplan forum. 16 more days 4 public input - BC be heard! pic.twitter.com/WH6iN5WSba","#climateactionplan","2016-03-09 17:36:28"
"You know the world is shifting when @MattAdamsBIA likes one of my tweets! :) #newalliances #climateactionplan #revitalizedneighborhoods","#newalliances #climateactionplan #revitalizedneighborhoods","2016-03-07 20:42:38"
"@RealDonaldTrump #NeverTrump #DumpTrump #TrumpSteaks is an example of greed over wisdom. No #ClimateActionPlan ! -HI pic.twitter.com/xRhYOM5zav","#NeverTrump #DumpTrump #TrumpSteaks #ClimateActionPlan","2016-03-07 13:55:41"
"As a @multco commissioner I worked to strengthen our #climateactionplan , and I look forward to doing much more when I am the #PDXMayor","#climateactionplan #PDXMayor","2016-03-04 03:46:35"
"A principle ingredient of @BarackObama 's #ClimateActionPlan ? ""Adaptation,"" Holdren says. @whitehouseostp","#ClimateActionPlan","2016-03-01 03:03:33"
"""The projected harm will be much smaller if we take prompt strong evasive action than if we don't.""-Holdren on Obama's #ClimateActionPlan","#ClimateActionPlan","2016-03-01 03:01:23"
"The #ClimateActionPlan is being official recognized with the @FCM_online award @CityKitchener council tonight pic.twitter.com/0ZFuLKPN3I","#ClimateActionPlan","2016-02-23 00:58:46"
"WR Region was recognized for leading the way in #Energy planning for #ClimateActionPlan . Check out the video: http:// ow.ly/Yggn5","#Energy #ClimateActionPlan","2016-02-12 18:10:13"
"Learn more about the #climateactionplan and the amazing work in #WRAwesome here: http://www. climateactionwr.ca / @FCM_online","#climateactionplan #WRAwesome","2016-02-11 00:54:02"
"We are so thankful to @FCM_online for recognizing the #ClimateActionPlan and all the hard work of community leaders in #kwawesome","#ClimateActionPlan #kwawesome","2016-02-11 00:47:38"
"Today the #ClimateActionPlan is receiving @FCM_online award 4 Best Energy Plan! Our community is truly leading in #climateaction #wrawesome","#ClimateActionPlan #climateaction #wrawesome","2016-02-10 21:10:43"
"Hanna Grene gives insight into why San Diego's #ClimateActionPlan is worth it. http:// ht.ly/XRQ8a pic.twitter.com/QWb7XtzYi0","#ClimateActionPlan","2016-02-04 19:02:48"
"Hanna Grene gives insight into why San Diego's #ClimateActionPlan is worth it. http:// ht.ly/XU0Ps pic.twitter.com/T0tDuwMGZ9","#ClimateActionPlan","2016-02-04 19:02:48"
"An excerpt from CSE's latest blog on San Diego's #ClimateActionPlan http:// ht.ly/XTZHS pic.twitter.com/O26tbRkp6E","#ClimateActionPlan","2016-02-04 02:30:36"
"An excerpt from CSE's latest blog on San Diego's #ClimateActionPlan http:// ht.ly/XTZHS pic.twitter.com/ocYFYBSC7E","#ClimateActionPlan","2016-02-04 02:30:36"
"Local municipalities are moving ahead with LED streetlight conversion. Part of the #ClimateActionPlan http:// bit.ly/1Txhi3Q via @wr_record","#ClimateActionPlan","2016-02-01 19:09:03"
"Learn more about the #climateactionplan our GHG reduction target and our partners on our new website: http:// bit.ly/1U82zLk","#climateactionplan","2016-01-20 17:01:56"
"On 12/15/15, we made history. SD City Council voted to approve a #climateactionplan with social equity requirements. http:// gomixte.co/23dffX1","#climateactionplan","2016-01-20 00:34:11"
". #San Diego to Move Entirely to #Renewable Energy in 20 Years, Adopts #ClimateActionPlan . #SmartCity , #ClimateChange http:// nyti.ms/1Yf9BDD","#San #Renewable #ClimateActionPlan #SmartCity #ClimateChange","2016-01-19 19:02:21"
"100% clean energy will protect our resources and environment #climateactionplan @Kevin_Faulconer #stotcsd via @LorieZapf","#climateactionplan #stotcsd","2016-01-15 03:44:02"
"@Kevin_Faulconer makes his #climateactionplan a centerpiece of state of city address for a greener and more prosperous future!","#climateactionplan","2016-01-15 03:36:31"
"100% clean energy will protect our resources and environment #climateactionplan @Kevin_Faulconer #stotcsd","#climateactionplan #stotcsd","2016-01-15 03:36:21"
"@ErnestMoniz @GinaEPA @WhiteHouseCEQ @Rohan44 When will @WhiteHouse release a #carbonneutralityplan or #climateactionplan ? #cleanenergyu","#carbonneutralityplan #climateactionplan #cleanenergyu","2016-01-13 20:23:01"
"A big victory this year came only weeks ago when #SanDiego prioritized our communities in the #climateactionplan http:// ow.ly/Wj5jx","#SanDiego #climateactionplan","2015-12-28 22:05:26"
"Status quo is highly subsidized... #SanDiego top priority is to get @SANDAG transnet $ invested in transit now to achieve #ClimateActionPlan","#SanDiego #ClimateActionPlan","2015-12-20 21:29:33"
"San Diego commits to use 100% renewable energy by 2035. Who's next? #climateactionplan http:// tinyurl.com/zt7ytsl @sdclimateaction","#climateactionplan","2015-12-18 22:00:11"
"#SanDiego #ClimateActionPlan raises the bar for cities across the country, including #LosAngeles -> @jemersmith http:// ow.ly/W3fn5","#SanDiego #ClimateActionPlan #LosAngeles","2015-12-18 03:20:16"
"San Diego did absolutely nothing 2 stop ""climate change"" but did provide hilarious photo op of old commies in support #ClimateActionPlan","#ClimateActionPlan","2015-12-18 02:34:37"
"Unpacking the nightmare of the #SanDiego #ClimateActionPlan on the @MarkLarsonRadio on @AM1170TheAnswer ... http:// fb.me/33AbywJ5J","#SanDiego #ClimateActionPlan","2015-12-17 15:36:06"
"@chillblaine And the Sierra Club expects taxpayers to reimburse their legal expenses! Tyranny! #SanDiego #ClimateActionPlan #Tyranny","#SanDiego #ClimateActionPlan #Tyranny","2015-12-17 02:41:07"
"Listening now to @greenienic @sdclimateaction @codyhooven on @KPBSnews talking #ClimateActionPlan & #SDgoes100 #cleanenergy !","#ClimateActionPlan #SDgoes100 #cleanenergy","2015-12-16 21:12:59"
"San Diego City Council unanimously approves #ClimateActionPlan w/ goals for 100% clean energy, zero waste & more transit. GO @EHCSanDiego !!!","#ClimateActionPlan","2015-12-16 20:25:08"
"Have you had a chance to read the #ClimateActionPlan yet? Check it out on our new website: http://www. climateactionwr.ca/resources/","#ClimateActionPlan","2015-12-16 16:26:00"
"@RandyApuzzo @Kevin_Faulconer Excellent work, thank you! Something we can all be proud to improve for future generations. #ClimateActionPlan","#ClimateActionPlan","2015-12-16 10:24:03"
"Five ways to reverse #climatechange right now ... #ClimateActionPlan #ClimateAgreement pic.twitter.com/L8LxEBxFQi","#climatechange #ClimateActionPlan #ClimateAgreement","2015-12-16 05:06:47"
"@BernieSanders Is concerned with the things I am concerned with #SocialSecurity #ClimateActionPlan #freecollege #FightFor15 #BLM #Bernie2016","#SocialSecurity #ClimateActionPlan #freecollege #FightFor15 #BLM #Bernie2016","2015-12-16 04:55:17"
". @algore may have invented the Internet, but I invented #ClimateChange ! #SavingTheWorld #SuperMayor #ClimateActionPlan","#ClimateChange #SavingTheWorld #SuperMayor #ClimateActionPlan","2015-12-16 04:49:57"
"My #climateactionplan is called an #umbrella","#climateactionplan #umbrella","2015-12-16 03:41:02"
"And just like that, the #climateactionplan is real in #sandiego #roadtorenewables #sdge woot woot!!","#climateactionplan #sandiego #roadtorenewables #sdge","2015-12-16 03:23:47"
"#CNNDebate the reason they didn't talk about #isis at the #climateconference because it was a #climateactionplan ! Duh #dontbestupid","#CNNDebate #isis #climateconference #climateactionplan #dontbestupid","2015-12-16 03:14:27"
"Great call for collective action! By @jasonjay on The Paris Accord Is #OurAccord http:// huff.to/1JaHg5e #COP21 #climateactionplan","#OurAccord #COP21 #climateactionplan","2015-12-16 03:10:29"
"Precedent-setting #climateactionplan adopted today! Thank you to all who made this possible. http:// gomixte.co/1Yf8bJj pic.twitter.com/tQMV5Akjwf","#climateactionplan","2015-12-16 02:24:25"
"Huge, historic and a big deal! #SanDiegoCityCouncil votes unanimously to pass #ClimateActionPlan ! Big congrats @SDClimateAction @GreenieNic!","#SanDiegoCityCouncil #ClimateActionPlan","2015-12-16 02:23:18"
"#Breakingnews : #SanDiego City Council adopts precedent-setting #climateactionplan with social equity requirements. http:// gomixte.co/1Yf8bJj","#Breakingnews #SanDiego #climateactionplan","2015-12-16 02:20:40"
"I just donated to @psrnational .Support PSR's work on climate change & nuclear weapons here: http:// bit.ly/1saItVd #climateactionplan","#climateactionplan","2015-12-16 02:14:41"
"It is passed. And it is laudable. Lots of hard work by many ppl to get to this point. Thank you & well done. #SanDiego #ClimateActionPlan","#SanDiego #ClimateActionPlan","2015-12-16 02:07:31"
"Proud to support today's #ClimateActionPlan as we move towards cleaner energy and reduced #GHG emissions for San Diego! via @LorieZapf","#ClimateActionPlan #GHG","2015-12-16 01:47:17"
"Proud to support today's #ClimateActionPlan as we move towards cleaner energy and reduced #GHG emissions for San Diego!","#ClimateActionPlan #GHG","2015-12-16 01:43:08"
"#COP21 The slippery slope #corporatetax #corporate #corruption #climateactionplan #COP21 #food #water #land #arms pic.twitter.com/SkhXZlImgb","#COP21 #corporatetax #corporate #corruption #climateactionplan #COP21 #food #water #land #arms","2015-12-16 01:38:44"
". @Georgette75 speaking out for #equity and #environmentaljustice in the #climateactionplan today. pic.twitter.com/bWxbKTlSsE","#equity #environmentaljustice #climateactionplan","2015-12-16 01:35:53"
"San Diego City Council unanimously approves adoption of #ClimateActionPlan with goals for 100% clean energy, zero waste & more transit","#ClimateActionPlan","2015-12-16 01:35:14"
"Council passes #ClimateActionPlan unanimously. pic.twitter.com/JnUzi0l08z","#ClimateActionPlan","2015-12-16 01:32:49"
"#SanDiego #ClimateActionPlan ""We Rock"" by @SherriLightner unanimously passes pic.twitter.com/OLi7eK1jDb","#SanDiego #ClimateActionPlan","2015-12-16 01:32:27"
". @JFrancoG reading statement from Sherman Heights resident in support of #ClimateActionPlan for #healthyhoods pic.twitter.com/Md20ZBoRvQ","#ClimateActionPlan #healthyhoods","2015-12-16 00:55:52"
"Debra Kelley from @lungforce , a Sullivan Solar Power partner, spoke out in favor of the #SanDiego #ClimateActionPlan pic.twitter.com/Rap120E9k1","#SanDiego #ClimateActionPlan","2015-12-16 00:41:41"
". @SanDiego350 shares a live postcard with the Council to support the #ClimateActionPlan ! #SDgoes100 pic.twitter.com/vDutxvGUYS","#ClimateActionPlan #SDgoes100","2015-12-16 00:37:41"
". @IBEW569 says environmental & economic justice & success go hand in hand, support #ClimateActionPlan #SDgoes100 pic.twitter.com/c3AlY5UATr","#ClimateActionPlan #SDgoes100","2015-12-16 00:36:05"
"@SurfriderSD supports #ClimateActionPlan for healthy beaches, healthy communities 4 generations to come! #SDgoes100 pic.twitter.com/luCTIevYbf","#ClimateActionPlan #SDgoes100","2015-12-16 00:27:03"
". @SaveOurBoltsSD supports #ClimateActionPlan bc ""It's hotter each year at the Q. We're baking"". #SDgoes100 pic.twitter.com/55VZy9E68b","#ClimateActionPlan #SDgoes100","2015-12-16 00:18:29"
". @ColinParent @CirculateSD says we must build transit-oriented, bikeable, walkable communities. #ClimateActionPlan pic.twitter.com/NWRWw97TT8","#ClimateActionPlan","2015-12-15 23:55:05"
"""This will be the most important decision you will make"" said @greenienic 2 SD Council regarding #ClimateActionPlan pic.twitter.com/02jDYrg0bd","#ClimateActionPlan","2015-12-15 23:52:22"
"Livia Borak of @ECO_CERF supports swift & strong implementation of #ClimateActionPlan . Costs of inactions are grave. pic.twitter.com/3OxPYlqAMa","#ClimateActionPlan","2015-12-15 23:49:11"
". @BIOCOMCA Sr VP of Public Policy @jjaxsd speaking in support of #SanDiego #ClimateActionPlan at today's council mtg pic.twitter.com/fxLVOCiqip","#SanDiego #ClimateActionPlan","2015-12-15 23:43:30"
"""We will be the green energy & #solar capital"" with the #SanDiego #ClimateActionPlan , said Mayor Kevin Faulconer.... http:// fb.me/4eqJAUzoI","#solar #SanDiego #ClimateActionPlan","2015-12-15 23:34:46"
"Full house supporting SD's 100% clean energy #ClimateActionPlan ! #SDgoes100 #MakingHistory #BiggestUScitytogo100 pic.twitter.com/LpWMUvQhrv","#ClimateActionPlan #SDgoes100 #MakingHistory #BiggestUScitytogo100","2015-12-15 23:29:00"
"#ClimateActionPlan public comment tally: 2 in opposition. 77 in support. #SDgoes100","#ClimateActionPlan #SDgoes100","2015-12-15 23:14:24"
"Rallying for a council ""yes"" vote on proposed #ClimateActionPlan pic.twitter.com/YPhaVs7lp4","#ClimateActionPlan","2015-12-15 21:51:20"
"Today's the day! The #SanDiegoCityCouncil is voting on the #ClimateActionPlan . Join us at 12:30 at #CityHallPlaza : http:// bit.ly/1RmxJQu","#SanDiegoCityCouncil #ClimateActionPlan #CityHallPlaza","2015-12-15 17:02:37"
"#EPA Will Target #AirToxics in Future #Enforcement http:// ow.ly/VPm2k #ClimateActionPlan #GlobalWarming","#EPA #AirToxics #Enforcement #ClimateActionPlan #GlobalWarming","2015-12-15 12:10:38"
"#EPA Will Target #AirToxics in Future #Enforcement http:// ow.ly/VPm0V #ClimateActionPlan #GlobalWarming","#EPA #AirToxics #Enforcement #ClimateActionPlan #GlobalWarming","2015-12-15 12:10:38"
"Support the #ClimateActionPlan - Tue Dec 15, 12:30pm Rally @City Hall then Council Hearing 12th Floor, 202 C St 2pm pic.twitter.com/X6jnEDQvSX","#ClimateActionPlan","2015-12-15 01:32:13"
"#EPA Will Target #AirToxics in Future #Enforcement http:// ow.ly/VPlYS #ClimateActionPlan #GlobalWarming","#EPA #AirToxics #Enforcement #ClimateActionPlan #GlobalWarming","2015-12-14 19:21:01"
"#EPA Will Target #AirToxics in Future #Enforcement http:// ow.ly/VPm0C #ClimateActionPlan #GlobalWarming","#EPA #AirToxics #Enforcement #ClimateActionPlan #GlobalWarming","2015-12-14 19:21:01"
"#EPA Will Target #AirToxics in Future #Enforcement http:// ow.ly/VPlQx @Schiff_hardin #ClimateActionPlan #GlobalWarming","#EPA #AirToxics #Enforcement #ClimateActionPlan #GlobalWarming","2015-12-13 23:15:11"
"Let's take a cue from the rest of the world and pass the #ClimateActionPlan in #SD @SanDiego350 @sdclimateaction pic.twitter.com/QbctmQ01XL","#ClimateActionPlan #SD","2015-12-13 02:34:11"
"Just saw some climate denier fat cats at the #cop21 #unitedstates panel on the USA #climateactionplan You couldn't cast a scarier bunch eep!","#cop21 #unitedstates #climateactionplan","2015-12-10 14:47:50"
"Great @US_Center panel with reps from the @WhiteHouse @EPA @ENERGY & @USDA on US #ClimateActionPlan . #UNFCCC #COP21 pic.twitter.com/wutboZOYC8","#ClimateActionPlan #UNFCCC #COP21","2015-12-10 14:01:03"
"#ClimateActionPlan Panel at #Bourget , #COP21Paris . #climateaction pic.twitter.com/JODiOiB7N6","#ClimateActionPlan #Bourget #COP21Paris #climateaction","2015-12-10 13:54:00"
"Janet McCabe, #EPA Office of Air & Radiation presenting at #ClimateActionPlan Panel at #COP21Paris . pic.twitter.com/FgOSVuRLt4","#EPA #ClimateActionPlan #COP21Paris","2015-12-10 13:45:14"
"Jonathan Pershing, #DOE Office of #Energy Policy presenting at #ClimateActionPlan Panel at #COP21Paris #Bourget pic.twitter.com/Do2veRZzvn","#DOE #Energy #ClimateActionPlan #COP21Paris #Bourget","2015-12-10 13:36:18"
"Rick Duke, Dep Dir for #Cimate Policy at the White House presenting at #ClimateActionPlan Panel at #COP21Paris pic.twitter.com/92n0ZeAQTF","#Cimate #ClimateActionPlan #COP21Paris","2015-12-10 13:33:51"
"Happening Now: BCSE is at the @US_Center 's event on the President's #ClimateActionPlan . #COP21","#ClimateActionPlan #COP21","2015-12-10 13:21:09"
"The U.S. needs #EPA to move forward with #ClimateActionPlan that protects current & future generations. #COP21 pic.twitter.com/uhIvSFrT5n","#EPA #ClimateActionPlan #COP21","2015-12-08 14:03:26"
"Learn how Denver will #ActOnClimate by reading the new #ClimateActionPlan : http:// denvergov.org/climate pic.twitter.com/9DX02hKpzg","#ActOnClimate #ClimateActionPlan","2015-12-07 17:30:15"
"#ClimateActionPlan has us tracking to 1/2 oil consumption in 20yrs? Help make it a reality! @UCSUSA @hashtagclimate http:// clim.at/eEW","#ClimateActionPlan","2015-12-06 15:11:21"
"Learn how Denver will #ActOnClimate by reading the new #ClimateActionPlan : http:// denvergov.org/climate pic.twitter.com/HYyWufo81R","#ActOnClimate #ClimateActionPlan","2015-12-04 18:30:05"
"Learn how Denver will #ActOnClimate by reading the new #ClimateActionPlan : http:// denvergov.org/climate pic.twitter.com/aLDBprMNwl","#ActOnClimate #ClimateActionPlan","2015-12-03 21:30:13"
"#SanDiego is getting closer to approve the progressive #ClimateActionPlan , which will bring more #solar to our... http:// fb.me/7DTzWG3Li","#SanDiego #ClimateActionPlan #solar","2015-12-03 20:20:19"
"#mama RT CFigueres: Thanks Mexico for submitting #INDC #climateactionplan ahead of #COP21 - 1st developing country to do so","#mama #INDC #climateactionplan #COP21","2015-12-02 01:20:03"
"Yesterday the #climateactionplan moved closer to equity and justice. Read more here. http:// gomixte.co/1ODyEZf pic.twitter.com/nB8Eml8vj8","#climateactionplan","2015-12-01 21:16:25"
"We're talking about the historic #ClimateActionPlan for #SanDiego . What does the business community think? #GMSD pic.twitter.com/Rc3flqwdu2","#ClimateActionPlan #SanDiego #GMSD","2015-12-01 16:24:26"
"Huge day as #SanDiegoCityCouncil committee votes 4-0 to send the #ClimateActionPlan to the full council for a vote: http:// bit.ly/1l42sEO","#SanDiegoCityCouncil #ClimateActionPlan","2015-12-01 05:05:17"
"It seems @GreenieNic was everywhere today with the #SanDiegoCityCouncil cmte. vote for the #ClimateActionPlan , but we had her on first @91X !","#SanDiegoCityCouncil #ClimateActionPlan","2015-12-01 03:37:32"
"@vosdscott Agreed. Lots of eyes watching on this one to make sure there is true *action* in the #ClimateActionPlan .","#ClimateActionPlan","2015-12-01 03:13:12"
"The #climateactionplan has our full attention. We ask communities hit first and worst be prioritized in the plan. pic.twitter.com/fD3HGh7lt9","#climateactionplan","2015-12-01 01:38:12"
"After 3-1/4 hours Enviro Committee votes unanimously to forward #ClimateActionPlan to full council. pic.twitter.com/5i0qqS6mYR","#ClimateActionPlan","2015-12-01 01:17:18"
"Full house at SD Council Environment Committee to support action on #climatechange today! #ClimateActionPlan pic.twitter.com/55mix35pp6","#climatechange #ClimateActionPlan","2015-11-30 22:08:10"
". @Georgette75 talks to @UnivisionSD about the #ClimateActionPlan - it must begin in the most impacted communities pic.twitter.com/OlvBbqLNW1","#ClimateActionPlan","2015-11-30 20:50:10"
"Helmets littering the floor at the #ClimateActionPlan press conference. #healthyhoods #transportationjustice pic.twitter.com/AI67YwABQf","#ClimateActionPlan #healthyhoods #transportationjustice","2015-11-30 20:27:27"
"We need #equity in the #ClimateActionPlan to address impacts of #climatechange in low-income communities. pic.twitter.com/8yoosTCnMK","#equity #ClimateActionPlan #climatechange","2015-11-30 20:22:46"
"Joined by many local leaders to support a strong #climateactionplan that puts our communities first. pic.twitter.com/2CI2fOQaBQ","#climateactionplan","2015-11-30 20:12:49"
"@WhiteHouse @COP21 #COP21 @Potus #Obama 's #Klimaschutzplan #ClimateChange https://www. whitehouse.gov/climate-change #ClimateActionplan #ActonClimate","#COP21 #Obama #Klimaschutzplan #ClimateChange #ClimateActionplan #ActonClimate","2015-11-30 07:14:43"
"@WhiteHouse @COP21 #COP21 @Potus #Obama 's Plan to #Fight #ClimateChange https://www. whitehouse.gov/climate-change #ClimateActionplan #ActonClimate #goCop21","#COP21 #Obama #Fight #ClimateChange #ClimateActionplan #ActonClimate #goCop21","2015-11-30 07:12:54"
"Neighborhoods impacted first and worst by #climatechange should be prioritized in the city's #climateactionplan - http:// bit.ly/1MKY2f0","#climatechange #climateactionplan","2015-11-28 19:26:05"
"How will you kick off 2016? Why not create a #climateactionplan to help birds thrive in NC? http:// ow.ly/V1yQU","#climateactionplan","2015-11-28 17:05:34"
"#ClimateActionPlan has us tracking to 1/2 oil consumption in 20yrs? Help make it a reality! @UCSUSA @hashtagclimate http:// clim.at/hFH","#ClimateActionPlan","2015-11-23 12:20:38"
"#ClimateActionPlan has us tracking to 1/2 oil consumption in 20yrs? Help make it a reality! @UCSUSA @hashtagclimate http:// clim.at/jG9","#ClimateActionPlan","2015-11-23 04:10:27"
"JBE: With Obama's #ClimateActionPlan , US electricity generation from wind tripled, solar energy is 20x greater. @cop21 @WhiteHouse","#ClimateActionPlan","2015-11-20 19:32:45"
"Listening to Megan Ceronsky from @WhiteHouse talk on the #ClimateActionPlan and the #CleanPowerPlan pic.twitter.com/a5tpKUWN4w","#ClimateActionPlan #CleanPowerPlan","2015-11-20 01:17:31"
"Thanks @joe_lacava for speaking up at La Jolla Town Council this eve to support the #climateactionplan after @KaylaRace 's presentation!","#climateactionplan","2015-11-13 03:26:25"
"Learning more about #HomeEnergyCoach a great program and action in the #ClimateActionPlan #REEPawards","#HomeEnergyCoach #ClimateActionPlan #REEPawards","2015-11-13 01:33:39"
"Familiar with the #ClimateActionPlan proposed by our leaders? http:// ow.ly/U9C1h","#ClimateActionPlan","2015-11-10 21:32:29"
"France has law that requires all cities w pop. 50k+ to adopt #climateactionplan to reduce GHGs 75% below 2004 levels by 2050. U.S. next??","#climateactionplan","2015-11-06 17:16:16"
"Learning about #ChulaVista #climateactionplan this morn! @MayorMarySalas says cities are leaders of climate future! pic.twitter.com/pW9C2CFvzk","#ChulaVista #climateactionplan","2015-11-06 17:05:26"
"""Our #ClimateActionPlan is only successful if it advances City's goals for healthy prosperous resilient & equitable community"" @PortlandBPS","#ClimateActionPlan","2015-10-29 19:21:15"
"Richmond businesses discuss partnership opps for #climateactionplan . #hiap #publicprivatepartnerships pic.twitter.com/0Rpko6PY4G","#climateactionplan #hiap #publicprivatepartnerships","2015-10-15 23:02:07"
"@TVEyesInc Thanks for the follow! Have you read the #ClimateActionPlan yet? Check it out & give us your thoughts http:// bit.ly/1m5gowJ","#ClimateActionPlan","2015-10-13 23:27:22"
"#EPA Proposes Changes in Emissions Guidelines for Municipal Solid Waste Landfills #Methane #ClimateActionPlan http:// ow.ly/TjulL","#EPA #Methane #ClimateActionPlan","2015-10-12 22:26:57"
"@alexandra_t_h Thanks for the follow! Have you read the #ClimateActionPlan ? Check it out & give us your thoughts http:// bit.ly/1m5gowJ","#ClimateActionPlan","2015-10-08 20:03:02"
"@Laurier_GS Thanks for the follow! Have you read the #ClimateActionPlan yet? Check it out & give us your thoughts http:// bit.ly/1m5gowJ","#ClimateActionPlan","2015-10-08 19:34:56"
"@SHFoleanu Thanks for the follow! Have you read the #ClimateActionPlan yet ? Check it out & give us your thoughts http:// bit.ly/1m5gowJ","#ClimateActionPlan","2015-10-08 19:34:39"
"@NancyGionet Thanks for the follow! Have you read the #ClimateActionPlan yet? Check it out & give us your thoughts http:// bit.ly/1m5gowJ","#ClimateActionPlan","2015-10-08 19:30:42"
"@KW_REALTORS Thanks for the follow! Have you read the #ClimateActionPlan yet? Check it out & give us your thoughts http:// bit.ly/1m5gowJ","#ClimateActionPlan","2015-10-08 17:46:53"
"@healthyconnec Thanks for the follow! Have you read the #ClimateActionPlan ? Check it out & give us your thoughts http:// bit.ly/1m5gowJ","#ClimateActionPlan","2015-10-08 15:50:58"
"@ColleenRoxNPOs Thanks for the follow! Have you read the #ClimateActionPlan ? Check it out & give us your thoughts http:// bit.ly/1m5gowJ","#ClimateActionPlan","2015-10-08 01:46:31"
"@PositveLifeTips Thanks for the follow! Have you read the #ClimateActionPlan ? Check it out & give us your thoughts http:// bit.ly/1m5gowJ","#ClimateActionPlan","2015-10-07 22:08:30"
"#Water runs through #Colorado 's #ClimateActionPlan - http:// buff.ly/1RrjPd2","#Water #Colorado #ClimateActionPlan","2015-10-07 18:29:14"
"@Citiz4Solutions Thanks for the follow! Have you read the #ClimateActionPlan ? Check it out & give us your thoughts http:// bit.ly/1m5gowJ","#ClimateActionPlan","2015-10-07 18:08:44"
"@NicoleLindman Thanks for the follow! Have you read the #ClimateActionPlan ? Check it out & give us your thoughts http:// bit.ly/1m5gowJ","#ClimateActionPlan","2015-10-07 16:20:23"
"@1LeoLewis Thanks for the follow! Have you read the #ClimateActionPlan yet? Check it out & give us your thoughts http:// bit.ly/1m5gowJ","#ClimateActionPlan","2015-10-07 16:20:00"
"Read the first report from the Southern Thinktank @CSEINDIA take on US #ClimateActionPlan @ClimateHome @edking_CH","#ClimateActionPlan","2015-10-07 11:00:34"
"@absoluterehab Thanks for the follow! Have you read the #ClimateActionPlan ? Check it out & give us your thoughts http:// bit.ly/1m5gowJ","#ClimateActionPlan","2015-10-06 22:04:28"
"@FaithCommonGood Thanks for the follow! Have you read the #ClimateActionPlan ? Check it out & give us your thoughts http:// bit.ly/1m5gowJ","#ClimateActionPlan","2015-10-06 16:56:00"
"@MySoftIT1 Thanks for the follow! Have you read the #ClimateActionPlan yet? Check it out & give us your thoughts http:// bit.ly/1m5gowJ","#ClimateActionPlan","2015-10-06 16:33:36"
"@HomeEnergyMag Thanks for the follow! Have you read the #ClimateActionPlan ? Check it out & give us your thoughts http:// bit.ly/1m5gowJ","#ClimateActionPlan","2015-10-06 16:33:18"
"@alexbcarr Thanks for the follow! Have you read the #ClimateActionPlan yet? Check it out & give us your thoughts http:// bit.ly/1m5gowJ","#ClimateActionPlan","2015-10-06 16:32:54"
"To be included in the #ClimateActionplan will be key references to #humanrights #genderequality @chica_mag @jobomont http:// bit.ly/1L2SUj6","#ClimateActionplan #humanrights #genderequality","2015-10-05 23:46:34"
"RT @MercomIndia : #India submits its #ClimateActionPlan of reducing 33-35% emission intensity by 2030 to @UNFCCC http:// bit.ly/mercomIndiaINDC","#India #ClimateActionPlan","2015-10-02 20:46:31"
"#India submits its #ClimateActionPlan of reducing 33-35% emission intensity by 2030 to @UNFCCC http:// bit.ly/mercomIndiaINDC","#India #ClimateActionPlan","2015-10-02 19:31:03"
"@SegunSopitan Thanks for the follow! Have you read the #ClimateActionPlan yet? Check it out & give us your thoughts http:// bit.ly/1m5gowJ","#ClimateActionPlan","2015-10-01 20:23:12"
"If you missed my @SDEnviroDems appearance @CarlDeMaio 's @KOGORadio show Mon. to talk #ClimateActionPlan , here it is: http:// bit.ly/1OEOXar","#ClimateActionPlan","2015-10-01 19:37:54"
"@hamadigharbi2 Thanks for the follow! Have you read the #ClimateActionPlan yet? Check it out & give us your thoughts http:// bit.ly/1m5gowJ","#ClimateActionPlan","2015-10-01 17:37:08"
"@johnmarshall198 Thanks for the follow! Have you read the #ClimateActionPlan ? Check it out & give us your thoughts http:// bit.ly/1m5gowJ","#ClimateActionPlan","2015-10-01 17:08:48"
"@AlarmDotCom Thanks for the follow! Have you read the #ClimateActionPlan yet? Check it out & give us your thoughts http:// bit.ly/1m5gowJ","#ClimateActionPlan","2015-10-01 17:08:28"
"@tbebenek Thanks for the follow! Have you read the #ClimateActionPlan yet? Check it out & give us your thoughts http:// bit.ly/1m5gowJ","#ClimateActionPlan","2015-10-01 17:07:15"
"India to unveil its #climateactionplan tomorrow. Know how @ChintanIndia helps fight #climatechange at http:// bit.ly/1M3ei7L","#climateactionplan #climatechange","2015-10-01 10:37:59"
"#China 's #ClimateActionPlan is pushing Brazil and others alike http:// fb.me/5crgYBfBJ","#China #ClimateActionPlan","2015-10-01 02:11:09"
"@dickmunson Thanks for the follow! Have you read the #ClimateActionPlan yet? Check it out & give us your thoughts http:// bit.ly/1m5gowJ","#ClimateActionPlan","2015-09-30 21:40:58"
"The #climateactionplan of @Cityofatlanta is so impressive, including stakeholders & using ambitious goals @KasimReed pic.twitter.com/SnodbE5gHK","#climateactionplan","2015-09-30 15:48:34"
"@OANDorg Thanks for the follow! Have you read the #ClimateActionPlan yet? Check it out & give us your thoughts http:// bit.ly/1m5gowJ","#ClimateActionPlan","2015-09-30 15:24:58"
"@54WenTian Thanks for the follow! Have you read the #ClimateActionPlan yet? Check it out & give us your thoughts http:// bit.ly/1m5gowJ","#ClimateActionPlan","2015-09-29 16:14:12"
"Yes, I was really on #CarlDeMaio 's #KOGO radio show today talking about the #ClimateActionPlan , and it went well. Hope they post the audio.","#CarlDeMaio #KOGO #ClimateActionPlan","2015-09-29 04:37:56"
"Thanks to @CarlDeMaio for having me on the air today at @KOGORadio to talk about the city of #SanDiego #ClimateActionPlan and @SDEnviroDems !","#SanDiego #ClimateActionPlan","2015-09-28 23:50:13"
"@Restoration_BC Thanks for the follow! Have you read the #ClimateActionPlan ? Check it out & give us your thoughts http:// bit.ly/1m5gowJ","#ClimateActionPlan","2015-09-28 17:10:45"
"@BeyondPump Thanks for the follow! Have you read the #ClimateActionPlan yet? Check it out & give us your thoughts http:// bit.ly/1m5gowJ","#ClimateActionPlan","2015-09-28 17:10:27"
"@zfolgerlaronde Thanks for the follow! Have you read the #ClimateActionPlan ? Check it out & give us your thoughts http:// bit.ly/1m5gowJ","#ClimateActionPlan","2015-09-28 17:10:11"
"@LynnSerafinn Thanks for the follow! Have you read the #ClimateActionPlan yet? Check it out & give us your thoughts http:// bit.ly/1m5gowJ","#ClimateActionPlan","2015-09-28 17:09:40"
"@JoshKubassek Thanks for the follow! Have you read the #ClimateActionPlan yet? Check it out & give us your thoughts http:// bit.ly/1m5gowJ","#ClimateActionPlan","2015-09-28 17:09:21"
"USA & China Climate Change Joint Statement highlight @CityofSeattle #ClimateActionPlan #CarbonNeutralBy2050 http:// go.wh.gov/UmseKJ","#ClimateActionPlan #CarbonNeutralBy2050","2015-09-25 19:28:16"
"@Bob_Chiarelli Thanks for the follow! Have you read the #ClimateActionPlan yet? http:// bit.ly/1m5gowJ We'd love to hear your input #onpoli","#ClimateActionPlan #onpoli","2015-09-24 15:28:52"
"The road blocks to sane global #climateactionplan lie not with climate science but with political science.","#climateactionplan","2015-09-23 15:46:05"
". @amyluers : Pres Obama's #ClimateActionPlan will cut CO2 equivalent of taking every can in US off the road for 4 years. #BusinessResilience","#ClimateActionPlan #BusinessResilience","2015-09-22 16:12:05"
"Great meeting today with @sdclimateaction and @CityofSanDiego on the #SanDiego #ClimateActionPlan . Thanks for keeping our members informed!","#SanDiego #ClimateActionPlan","2015-09-17 23:43:42"
"""when 14.5% of GHG emissions from animal agri, it's a big thermostat we can turn down"" @JimCameron #ClimateActionPlan http:// ow.ly/Si9oy","#ClimateActionPlan","2015-09-16 18:40:19"
"@LoyolaChicago announces #climateactionplan http://www. luc.edu/climatechange pic.twitter.com/rjwiTvEG5l","#climateactionplan","2015-09-15 17:53:48"
"@SummitCountyUT released a #climateactionplan evaluating costs & benefits of community #GHG reduction strategies http:// buff.ly/1igTCC7","#climateactionplan #GHG","2015-09-11 09:00:19"
"#Algeria Submits its #ClimateActionPlan ahead of @COP21 : between 7-22% #emissionsreduction by 2030 http:// ow.ly/RQKJ6","#Algeria #ClimateActionPlan #emissionsreduction","2015-09-06 23:30:39"
"My #1000th tweet! Thx for following & for all you do to #ActOnClimate . We must keep moving ahead on #CleanPowerPlan & #ClimateActionPlan .","#1000th #ActOnClimate #CleanPowerPlan #ClimateActionPlan","2015-08-29 16:17:04"
"New streamlined #windpower #environment review option in 6 states supports #climateactionplan , #QER & #energyfrontier http:// go.usa.gov/36Mkw","#windpower #environment #climateactionplan #QER #energyfrontier","2015-08-26 18:54:27"
"#NCES8 #SectyMoniz honors #SenReid ; #ClimateActionPlan needs #innovation . pic.twitter.com/0Dlka8IhWh","#NCES8 #SectyMoniz #SenReid #ClimateActionPlan #innovation","2015-08-24 02:29:38"
"Learn about @EPA 's new proposal to cut methane emissions as part of the #ClimateActionPlan : http:// ow.ly/R8ZbU","#ClimateActionPlan","2015-08-21 15:31:35"
"EPA begins rollout of new methane rules #MoreRegulations #greenhousegas #ClimateActionPlan http:// ow.ly/R2GLy","#MoreRegulations #greenhousegas #ClimateActionPlan","2015-08-18 18:01:50"
"The @EPA 's #ClimateActionPlan is now aggressively addressing #methane emissions http:// ow.ly/R0glg pic.twitter.com/VndcTOo8gM","#ClimateActionPlan #methane","2015-08-18 02:10:37"
". @EPA tightens rules for #ghgemissions at landfills http:// buff.ly/1Eypu9M #ClimateActionPlan","#ghgemissions #ClimateActionPlan","2015-08-18 00:03:08"
". @epa issues 2 new proposals to #reduce #methane #emissions from #landfills by a 1/3 or est 487K T #ClimateActionPlan http:// 1.usa.gov/1TD6FZO","#reduce #methane #emissions #landfills #ClimateActionPlan","2015-08-17 15:01:02"
"Cities focus on transportation, #buildings for energy goals http:// bit.ly/1Elpp9d @NREL #ClimateActionPlan pic.twitter.com/AP2ojtxnfw","#buildings #ClimateActionPlan","2015-08-14 22:53:06"
"@bouldercolorado seeking a sustainability specialist to carry out its #climateactionplan & meet #zerowaste goals http:// buff.ly/1PnGi9Z","#climateactionplan #zerowaste","2015-08-14 08:01:01"
"Have you taken action yet? #LNG has no place in BC's #ClimateActionPlan http:// ow.ly/QSaa5 #BCPoli #survey #LNGinBC","#LNG #ClimateActionPlan #BCPoli #survey #LNGinBC","2015-08-13 22:32:22"
"Why is a #ClimateActionPlan important ?. All explained here http:// ow.ly/QQnGY","#ClimateActionPlan","2015-08-13 17:51:06"
"Why is a #ClimateActionPlan important ?. All explained here http:// ow.ly/QQnJj","#ClimateActionPlan","2015-08-13 11:45:20"
"Thx @gasierraclub for letting @ATLSustainable present Atlanta's #ClimateActionPlan to your Chapter Mtg @ClimateMayors pic.twitter.com/tYwqevNhoE","#ClimateActionPlan","2015-08-12 23:08:13"
"Thx @gasierraclub for featuring @ATLSustainable #ClimateActionPlan at their ATL chapter mtg tonight @Jairohgarcia pic.twitter.com/w5KmflTITp","#ClimateActionPlan","2015-08-12 01:39:03"
"@Jairohgarcia & I present ATL's #ClimateActionPlan to @gasierraclub TONIGHT @7 pm @Episcopal Church of Epiphany. Join us! @garlandjenna","#ClimateActionPlan","2015-08-11 12:19:50"
"Learn more about how the president's #ClimateActionPlan will work and affect MA. http:// ow.ly/QIfcS #ActOnClimate #RenewableEnergy","#ClimateActionPlan #ActOnClimate #RenewableEnergy","2015-08-10 18:00:27"
"Can you believe the #GOPDebate yesterday didn't mention the #ClimateActionPlan ? #ActOnClimate pic.twitter.com/fMony9QgYV","#GOPDebate #ClimateActionPlan #ActOnClimate","2015-08-08 00:00:14"
"Our Sustainable Atlanta Rountable presentation on the #ClimateActionPlan can be found here: http:// bit.ly/1eXEo2B pic.twitter.com/HRiWYY6RpM","#ClimateActionPlan","2015-08-07 17:15:50"
"Thank you @SouthfaceEnergy for the opportunity to present the @Cityofatlanta #ClimateActionPlan @SFSART @ATLSustainable","#ClimateActionPlan","2015-08-07 16:53:09"
"Our #Atlanta team at #SFSART @AllSaintsAtl this AM on the city's #ClimateActionPlan @ATLSustainable @StuckeyBenfield pic.twitter.com/T6UPgTLGHU","#Atlanta #SFSART #ClimateActionPlan","2015-08-07 16:04:04"
"22% of #Atlanta #ghg emissions were from energy spent on cleaning water in 2014. #ClimateActionPlan #SustainableInfrastructure","#Atlanta #ghg #ClimateActionPlan #SustainableInfrastructure","2015-08-07 14:46:12"
"presenting at #SFSART @SouthfaceEnergy about #climateactionplan @ATLSustainable pic.twitter.com/6G4Lzvxyeq","#SFSART #climateactionplan","2015-08-07 14:35:27"
"Dr. Marilyn Brown - ""I've seen many...and Atlanta's #ClimateActionPlan is one of the best."" #CleanPowerPlan pic.twitter.com/5Ru3mhiJdM","#ClimateActionPlan #CleanPowerPlan","2015-08-07 14:34:17"
"All Star panel discussing ATL's #ClimateActionPlan . Thx Dr. Marilyn Brown for promoting #CleanEnergy #SFSART pic.twitter.com/ieLMk8SQWQ","#ClimateActionPlan #CleanEnergy #SFSART","2015-08-07 14:33:05"
"@Jairohgarcia author of our #ClimateActionPlan shares strategies with today's group #climate #ATL #sustainability pic.twitter.com/pfwTXo2APN","#ClimateActionPlan #climate #ATL #sustainability","2015-08-07 14:12:33"
"Thx @KasimReed for supporting #CleanAir @ATLSustainable presenting ATL's #ClimateActionPlan today at #SFSART pic.twitter.com/9cezfSJANj","#CleanAir #ClimateActionPlan #SFSART","2015-08-07 14:10:59"
"ATL Ofc of Sustainability presenting our #ClimateActionPlan this morning @ATLSustainable @garlandjenna @BethSEGreen @Cityofatlanta #SFSART","#ClimateActionPlan #SFSART","2015-08-07 13:35:56"
"Only a few spots remain for the Sustainable Atlanta Roundtable this Friday! See the City's #ClimateActionPlan #ATL http:// bit.ly/1M5qtVa","#ClimateActionPlan #ATL","2015-08-06 17:24:44"
"Registered for this Friday's #SART ? Topic: Atlanta's #ClimateActionPlan Our exiting panel will take your questions: http:// bit.ly/1M5qtVa","#SART #ClimateActionPlan","2015-08-05 21:25:41"
"@CityofSanDiego published av#climateactionplan , legally commiting SD 2 having 100% of its energy come from renewables!vhttp://bit.ly/1P6PCyS","#climateactionplan","2015-08-05 20:28:46"
". @RobertRaben on #ClimateActionPlan : 'Diversifying the leadership ranks of mainstream enviro mvmt will move this important goal along'","#ClimateActionPlan","2015-08-04 15:40:25"
"@fortcollinsgov seeking a manager for interdepartmental initiatives around their #ClimateActionPlan http:// buff.ly/1OF2xHr #greenjobs","#ClimateActionPlan #greenjobs","2015-08-04 08:01:09"
"The White House knows it's time to act with the new #ClimateActionPlan . RT if you want to #ActOnClimate . pic.twitter.com/qaibnV31l9","#ClimateActionPlan #ActOnClimate","2015-08-04 00:40:31"
". @RobertRaben on #ClimateActionPlan : 'Diversifying the leadership ranks of mainstream enviro mvmt will move this important goal along'","#ClimateActionPlan","2015-08-03 20:35:44"
"@WhiteHouse releases #ClimateActionPlan . Includes #CleanEnergy , #EnergyEfficiency , #CommunityResilience , & more. https://www. whitehouse.gov/climate-change","#ClimateActionPlan #CleanEnergy #EnergyEfficiency #CommunityResilience","2015-08-03 20:03:29"
"Obama to Unveil Monday Final Plan to Battle Climate Change http:// bloom.bg/1HgwXdl #climateactionplan with 32% #GHG reduction @harcresearch","#climateactionplan #GHG","2015-08-03 14:49:31"
"#sustainablesolutions #futureishere #BCPoli #news #climateactionplan #haveyoursay Have you shared your ideas for... http:// fb.me/6GkkbvCCS","#sustainablesolutions #futureishere #BCPoli #news #climateactionplan #haveyoursay","2015-08-02 00:36:07"
"Last eve at @SDEnviroDems we passed a resolution to support #ClimateActionPlan and learned about wildfire prevention pic.twitter.com/QLThRH1VuZ","#ClimateActionPlan","2015-07-31 19:06:40"
"@ATLSustainable presents our proposed #ClimateActionPlan at the next #SFSART next Friday. Join us! http:// tinyurl.com/c9t3c7o @SouthfaceEnergy","#ClimateActionPlan #SFSART","2015-07-31 12:01:32"
"Dr. Bouchard speaking on #ClimateActionPlan @lwvshr pic.twitter.com/Hq42vYRznm","#ClimateActionPlan","2015-07-31 01:35:15"
"#Carbon and the Climate Change Dogma http:// ow.ly/Qbwk9 #EPA #NMA #PowerPlants #ClimateActionPlan #AffordableCareAct #Obamacare","#Carbon #EPA #NMA #PowerPlants #ClimateActionPlan #AffordableCareAct #Obamacare","2015-07-28 17:20:09"
"A vote for #ExImBank pro-coal re-authorization is an attack on @POTUS #climateactionplan . Write an LTE and #StandUp4Climate !","#ExImBank #climateactionplan #StandUp4Climate","2015-07-23 23:00:05"
"Two years ago @POTUS unveiled his #ClimateActionPlan . Now the old rules will become obsolete with the #CleanPowerPlan pic.twitter.com/SQtECwm9LL","#ClimateActionPlan #CleanPowerPlan","2015-07-22 23:11:43"
"Can your city survive the apocalypse? http:// cnn.it/1LA1063 @CNN #globalwarming #climatechange #urbaninfastructure #climateactionplan","#globalwarming #climatechange #urbaninfastructure #climateactionplan","2015-07-22 22:19:41"
"A Rebuke for a Reckless #EPA http:// ow.ly/PUqF8 @SteveFiscor #SCOTUS #NMA #Powerplant #ClimateActionPlan #Obamacare","#EPA #SCOTUS #NMA #Powerplant #ClimateActionPlan #Obamacare","2015-07-21 21:12:13"
"China announced its #climateactionplan including emission cuts & using renewable energy. #globalplan #ClimateChange http:// ow.ly/PitHv","#climateactionplan #globalplan #ClimateChange","2015-07-11 18:01:54"
"Resiliency news today out of the @WhiteHouse today: http:// 1.usa.gov/1Cru2Dq @WhiteHouseCEQ #FFRMS #ClimateActionPlan","#FFRMS #ClimateActionPlan","2015-07-09 20:32:53"
"Wonderful being on The Green Guy tonight & discussing @ATLSustainable #ClimateActionPlan with Stephanie @stuckeyBenfield and @greenguyatl","#ClimateActionPlan","2015-07-08 02:11:56"
"Great being on The Green Guy tonight & discussing @ATLSustainable #ClimateActionPlan with @Jairohgarcia http:// tinyurl.com/p4gfpvd @greenguyatl","#ClimateActionPlan","2015-07-08 02:03:10"
"City of Atlanta Office of Sustainability featured tonight on The Green Guy Radio Show @greenguyatl @ATLSustainable #ClimateActionPlan","#ClimateActionPlan","2015-07-08 01:34:06"
"In #quebec the $2.7billion in revenue from the #carbontrading it supposed to go to their #climateactionplan","#quebec #carbontrading #climateactionplan","2015-07-08 00:11:35"
