"A threat to #indigenous lands, #mining is driving #deforestation in the Venezuelan Amazon http:// arcg.is/2nsqB8y #ArcoMinero #Storymap pic.twitter.com/jZI6jJuhl5","#indigenous #mining #deforestation #ArcoMinero #Storymap","2017-04-05 01:15:53"
"#European Parliament says, #EU must stop #PalmOil #deforestation . http:// bit.ly/2oEb9bf via @GreenpeaceEU pic.twitter.com/D6OXIN24YI","#European #EU #PalmOil #deforestation","2017-04-05 00:42:12"
"#WestPapua is one of the most biodiverse places on Earth, up to 9% of all plant & animal species being found there #deforestation","#WestPapua #deforestation","2017-04-05 00:15:09"
"Europe votes to ban #palmoil in fuels, in an effort to turn the tide on global #deforestation . http:// ow.ly/lSZB30az6Be","#palmoil #deforestation","2017-04-04 23:50:08"
"@UNEP @EUClimateAction @Elysee @Greenpeace @Sciam @YEARSofLIVING @XHNews @MTV @TheHindu @Pontifex @NRDC Scenes: Samurai Jack #Deforestation pic.twitter.com/lq0CjPYdFU","#Deforestation","2017-04-04 23:47:42"
"@UNEP @EUClimateAction @Elysee @Greenpeace @Sciam @YEARSofLIVING @XHNews @MTV @TheHindu @Pontifex @NRDC Scenes: Samurai Jack #Deforestation pic.twitter.com/AWdhzTwpFG","#Deforestation","2017-04-04 23:44:40"
"I wonder how much percent of the #palmoil imported from Indonesia comes from #WestPapua #deforestation #ecocide #genocide pic.twitter.com/WoqQDzHdOw","#palmoil #WestPapua #deforestation #ecocide #genocide","2017-04-04 23:26:56"
"#Conservation . Amazon #Deforestation , Once Tamed, Comes Roaring Back https:// nyti.ms/2lDTxLP","#Conservation #Deforestation","2017-04-04 23:23:51"
"I #deserved a lot of my #pain for not #pressing more about my #past however why did #no one stop #deforestation why #hurt the #animals more? pic.twitter.com/Kde0ytUqck","#deserved #pain #pressing #past #no #deforestation #hurt #animals","2017-04-04 23:17:54"
"#Ecuador : #Deforestation threatens spider monkeys. Cocoa farmers are trying to make up for past mistakes http:// dw.com/p/2adOY pic.twitter.com/qHWqmLdBcc","#Ecuador #Deforestation","2017-04-04 23:05:07"
"JU Faculty & Student Symposium going on now during #URW2017 ! Topics #ADHD , #ExerciseIsMedicine , #Deforestation , more http:// bit.ly/2nrfNsj","#URW2017 #ADHD #ExerciseIsMedicine #Deforestation","2017-04-04 22:43:38"
"You can use Global Forest Watch to monitor #deforestation in the #Leuser Ecosystem! #LoveTheLeuser @RAN http:// bit.ly/2o6GdTp pic.twitter.com/13nKX6Uozn","#deforestation #Leuser #LoveTheLeuser","2017-04-04 22:20:52"
"After extreme rainfall and #deforestation led to #Colombia 's deadly landslide, the country is in mourning http:// dw.com/p/2adU7 pic.twitter.com/hUivAUMRvG","#deforestation #Colombia","2017-04-04 21:48:05"
"Wonder why climate is changing in Australia? Easy answer is: #deforestation in #WestPapua is altering your rainfall #palmoil pic.twitter.com/zndnPUKB5M","#deforestation #WestPapua #palmoil","2017-04-04 21:08:40"
"#Jokowi Forest clearing happens cos we're hell-bent on growing #palmoil thats where the money is. We are Nr 1 world leader in #deforestation pic.twitter.com/HqjlXkE5yt","#Jokowi #palmoil #deforestation","2017-04-04 21:02:30"
"I dedicated list of food that are free of it would help. A website in which everybody can contribute would be usefu. #deforestation #palmoil","#deforestation #palmoil","2017-04-04 21:00:53"
"For your daily dose of #deforestation : Cleared #rainforest near Sorong #WestPapua . Thanks to Indonesia's dysfunctional democracy. pic.twitter.com/kATXIDZdHc","#deforestation #rainforest #WestPapua","2017-04-04 20:50:58"
"#Indonesian government has never had any respect for the land #Deforestation #PalmOil nor people of #WestPapua pic.twitter.com/KsTk1T45Yg","#Indonesian #Deforestation #PalmOil #WestPapua","2017-04-04 20:42:20"
"#WestPapua will soon be famous for:The #extinction of tree kangaroo & cassowary #deforestation #PalmOil pic.twitter.com/MvXQOGzNF4","#WestPapua #extinction #deforestation #PalmOil","2017-04-04 20:40:39"
"like everywhere on this planet #deforestation is killing wildlife & destroying ecosystems","#deforestation","2017-04-04 20:36:16"
"We innovated a new future in #sustainable living. Stop #deforestation , reduce #plasticwaste #circulareconomy http:// buff.ly/2oETi4c pic.twitter.com/LtQyw8mTyQ","#sustainable #deforestation #plasticwaste #circulareconomy","2017-04-04 20:01:48"
"#our #lives are #every #reason to #stop #deforestation #worldwide #alllivesmatter pic.twitter.com/ocNdKLy8e4","#our #lives #every #reason #stop #deforestation #worldwide #alllivesmatter","2017-04-04 19:27:02"
"#Brazil halves #environment budget amid rising Amazon #deforestation http:// sumo.ly/y57V","#Brazil #environment #deforestation","2017-04-04 19:01:19"
"Retweeted UNISDR ( @unisdr ): Death toll in #ColombiaMudSlide climbs. Extreme weather, #deforestation played role.... http:// fb.me/2f93RIaSM","#ColombiaMudSlide #deforestation","2017-04-04 18:46:23"
"Retweeted UNISDR ( @unisdr ): Death toll in #ColombiaMudSlide climbs. Extreme weather, #deforestation played role.... http:// fb.me/1gcLuCTBy","#ColombiaMudSlide #deforestation","2017-04-04 18:46:21"
"After @Europarl_EN voted on #deforestation , listen to @danimorle on why sustainable #PalmOil is possible: http:// frnds.eu/2nF1G5r pic.twitter.com/vb9nXv3iNv","#deforestation #PalmOil","2017-04-04 18:16:25"
"Let's STOP #deforestation , #FossilFuel , #pollution , to keep the beauty of #nature ! http:// buff.ly/2n58W6H (song and clip by @borsato ) pic.twitter.com/EiBkRmX3Z7","#deforestation #FossilFuel #pollution #nature","2017-04-04 18:15:05"
"This is a clean cookstove. They can improve #WomensHealth and curb #deforestation & #climatechange . From the @cookstoves booth #SE4allforum pic.twitter.com/nVIwClZOYA","#WomensHealth #deforestation #climatechange #SE4allforum","2017-04-04 18:12:25"
"Chart: Where Have Forests Been Lost and Gained? http:// nzzl.us/7MDn9rb via @nuzzel #environment #deforestation","#environment #deforestation","2017-04-04 18:09:14"
"Bloody oil: the socio-ecological impacts of oil palm in Indonesia https:// vimeo.com/44104682 #PalmOil #aceitedepalma #deforestation #tropofilms","#PalmOil #aceitedepalma #deforestation #tropofilms","2017-04-04 17:57:11"
"#Stanford study explores policies for avoiding #deforestation as agriculture expands in #Africa ... http:// fb.me/1k4vLMHNO","#Stanford #deforestation #Africa","2017-04-04 17:46:23"
"ICYMI @ConMEPs voted for sustainable #palmoil production.Tackling #climatechange , #deforestation &protecting animals http:// buff.ly/2oUUobi pic.twitter.com/cceEUfT3TJ","#palmoil #climatechange #deforestation","2017-04-04 17:39:01"
"Need to clean up agricultural commodity supply chains driving #deforestation as joint, pre-competitive priority @InnovaForum @P4Forests pic.twitter.com/J2wYGmJy6v","#deforestation","2017-04-04 17:36:13"
"After extreme rainfall and #deforestation led to #Colombia 's deadly landslide, the country is in mourning http:// dw.com/p/2adU7 pic.twitter.com/KdIYnzS3RK","#deforestation #Colombia","2017-04-04 17:36:02"
"How can businesses work w/ NGOs&competitors to scale #deforestation impact? @EZBudiansky to discuss now @InnovaForum http:// ow.ly/MMAC30aebpb","#deforestation","2017-04-04 17:30:51"
". @Europarl_EN voted for detailed action plan on #deforestation & full stop to biofuel subsidies & any investment in unsustainable #PalmOil","#deforestation #PalmOil","2017-04-04 17:07:40"
"#NowReading @guardianeco - How to stop #deforestation : 'Indigenous people are the best park rangers"" @rachel_biderman http:// ow.ly/h0tj30aybM3","#NowReading #deforestation","2017-04-04 16:45:08"
"that is good - thanks to your hard work #PalmOil #deforestation #EPlenary","#PalmOil #deforestation #EPlenary","2017-04-04 16:42:41"
"1 hour til @WorldCocoa 's @EZBudiansky takes the stage at @InnovaForum to talk #deforestation & collaboration talk http:// ow.ly/MMAC30aebpb","#deforestation","2017-04-04 16:30:59"
"MEPs call for clampdown on imports of unsustainable palm oil and use in biofuel http:// bit.ly/2n7sgFo #deforestation","#deforestation","2017-04-04 16:21:16"
"Let's STOP #deforestation , #FossilFuel , #pollution , to keep the beauty of #nature ! http:// buff.ly/2n58W6H (song and clip by @borsato ) pic.twitter.com/JIozdQcDSc","#deforestation #FossilFuel #pollution #nature","2017-04-04 16:02:16"
"#WestPapua This was rainforest. Bye tree kangaroos, cassowaries, birds of paradise, ground rats, pig-nose turtles, crocodiles #deforestation pic.twitter.com/fdZzFlOqbb","#WestPapua #deforestation","2017-04-04 16:01:47"
"I only tweet about #WestPapua , I noticed my #deforestation , cute animals & #palmoil tweets get far more attention than my #genocide tweets","#WestPapua #deforestation #palmoil #genocide","2017-04-04 15:57:52"
"#Deforestation","#Deforestation","2017-04-04 15:56:27"
"Dear @KarmenuVella , when can we expect the EU action plan to stop #deforestation ? 640 MEPs would like to know pic.twitter.com/OvhzORn7zr","#deforestation","2017-04-04 15:47:05"
"#deforestation The boundary btwn intact rainforest and land already cleared for #palmoil plantations in #WestPapua pic.twitter.com/lZMpYReoXO","#deforestation #palmoil #WestPapua","2017-04-04 15:07:42"
"Lower #deforestation rates in the Amazon on land securely held by indigenous communities. More http:// bit.ly/2nGA67r @WorldResources pic.twitter.com/mGaRZXu4JA","#deforestation","2017-04-04 15:02:01"
"RT #Forest fragmentation increases yrly #tropical #deforestation #carbon #emissions 31% via @mongabay http:// ow.ly/r7lJ30ay5t3 #ClimateAction","#Forest #tropical #deforestation #carbon #emissions #ClimateAction","2017-04-04 14:59:59"
"#NowReading : Tropical #Deforestation may be releasing much more #carbon than we think! Via @mongabay http:// ow.ly/z1Dp30axogg #ThinkLandscape","#NowReading #Deforestation #carbon #ThinkLandscape","2017-04-04 14:50:10"
". @ConMEPs voted for sustainable #palmoil production. Tackling #climatechange , #deforestation & protecting animals > http:// buff.ly/2nY7Xc9 pic.twitter.com/sdkc30uwFg","#palmoil #climatechange #deforestation","2017-04-04 14:48:44"
"Retweeted CECHR ( @CECHR_UoD ): How to stop #deforestation Indigenous people = best park rangers... http:// fb.me/7WRqs67zU","#deforestation","2017-04-04 14:46:31"
"Retweeted CECHR ( @CECHR_UoD ): How to stop #deforestation Indigenous people = best park rangers... http:// fb.me/7DBL4lnBE","#deforestation","2017-04-04 14:46:28"
"Brazil halves environment budget amid rising #Amazon #deforestation #climatechange http:// sumo.ly/y57V via @ClimateHome","#Amazon #deforestation #climatechange","2017-04-04 14:38:32"
"#Eplenary calls for measures to support genuinely sustainable #palmoil production and consumption to fight #deforestation","#Eplenary #palmoil #deforestation","2017-04-04 14:37:44"
"#huiledepalme : des pistes pour la rendre plus #durable http:// bit.ly/2oEoYGL @FR_Conversation @iddrilefil @Europarl_FR #deforestation","#huiledepalme #durable #deforestation","2017-04-04 14:24:55"
"From #Morocco @csmonitor 's @zcolman talks #climatechange , #deforestation & 'Farming a warmer planet': http:// fw.to/iv5rUyE #ClimateAction pic.twitter.com/6V30v5yHcK","#Morocco #climatechange #deforestation #ClimateAction","2017-04-04 13:35:28"
"Spot om #responsible #soy #production w. #dkbiz #dkaid & #dkpol . Focus on threats 2 #indigenous #deforestation #wildlife #brazil #Argentina pic.twitter.com/haAXoEUBCK","#responsible #soy #production #dkbiz #dkaid #dkpol #indigenous #deforestation #wildlife #brazil #Argentina","2017-04-04 13:32:26"
"#deforestation & #PalmOil : report @Europarl_EN adopted w large majority despite letter palmoil producing countries https:// goo.gl/7O2pGe","#deforestation #PalmOil","2017-04-04 13:17:25"
"#PlenPE pour le soutien d'une production et d'une consommation #durable d' #huiledepalme pour stopper #deforestation pic.twitter.com/4UPZFPRyD4","#PlenPE #durable #huiledepalme #deforestation","2017-04-04 12:44:29"
"#PalmOil and #deforestation : #EPlenary adopts report by @Konecna_K with 640 votes to 18 and 28 abstentions","#PalmOil #deforestation #EPlenary","2017-04-04 12:42:17"
"We will be backing plans to encourage sustainable production of #palmoil to reduce #deforestation and #climatechange in today's vote. pic.twitter.com/RpygeG0sun","#palmoil #deforestation #climatechange","2017-04-04 11:49:20"
"#Brazil halves #environment budget amid rising #Amazon #deforestation by @climatemegan via @ClimateHome http:// sumo.ly/y57V","#Brazil #environment #Amazon #deforestation","2017-04-04 11:25:56"
"4 mar 17 Una noche en #Amazonas #Colombia Si la selva se conserva, no hay q temer. #deforestation = tragedias como en #Mocoa pic.twitter.com/D5WeD0beZF","#Amazonas #Colombia #deforestation #Mocoa","2017-04-04 11:16:01"
". @dbsbank says Buy Bumitama Agri after ""aggressive plantings"" high earnings expected #deforestation https:// go.dbs.com/2n6KqqG @crresearch","#deforestation","2017-04-04 11:14:37"
"Following the European Parliament vote today on #PalmOil & #Deforestation ? Watch for our comment after the vote. pic.twitter.com/w1R9iIX7JE","#PalmOil #Deforestation","2017-04-04 10:51:30"
"TODAY: @ConMEPs are backing plans to encourage the sustainable production of #palmoil which will reduce #deforestation and #climatechange pic.twitter.com/xEXAcIOs6n","#palmoil #deforestation #climatechange","2017-04-04 08:48:02"
"#Brazil halves environment budget amid rising Amazon #deforestation http:// sumo.ly/y57V Terrible choice. Think again, @MichelTemer","#Brazil #deforestation","2017-04-04 08:03:53"
"Let's STOP #deforestation , #FossilFuel , #pollution , to keep the beauty of #nature ! http:// buff.ly/2n58W6H (song and clip by @borsato ) pic.twitter.com/8cA9BjwVIQ","#deforestation #FossilFuel #pollution #nature","2017-04-04 08:01:01"
"Granting land rights to #indigenous could help save the #amazon and cut #deforestation by 75%. http:// bit.ly/2nRxQIY pic.twitter.com/mZMX3Lg5sC","#indigenous #amazon #deforestation","2017-04-04 06:46:26"
"Retweeted #WestPapua ( @PurePapua ): Some might noticed, my tweets are more focused on #deforestation #palmoil &... http:// fb.me/1qFsZiDYZ","#WestPapua #deforestation #palmoil","2017-04-04 05:41:44"
"Retweeted #WestPapua ( @PurePapua ): #WestPapua #deforestation Three-quarters of forest birds & butterflies are... http:// fb.me/8qEHwaxQY","#WestPapua #WestPapua #deforestation","2017-04-04 05:39:34"
"Would it surprise you to know that #deforestation for meat has a greater impact on the climate than all our transportation combined?","#deforestation","2017-04-04 05:23:27"
"#WestPapua Fire is the cheapest way to clear land for cash crops. #deforestation #palmoil pic.twitter.com/IwOQQ0LLQX","#WestPapua #deforestation #palmoil","2017-04-04 04:39:24"
