"Ashawa Consults Limited offers Design & Feasibility Programmes and Integrated Water Management to mitigate #Drought and #Desertification . pic.twitter.com/7Gh7mpMNLF","#Drought #Desertification","2017-04-04 13:10:48"
"Thanks for spreading the word so we can begin to seriously address global #desertification and #climatechange because technology alone can't","#desertification #climatechange","2017-04-03 07:03:25"
"Workshop @the #ecolodge in #Agadir about the Great Green Wall of #Africa against #climatechange & #desertification #Morocco #GGV #greenwall pic.twitter.com/mL2ToipNXn","#ecolodge #Agadir #Africa #climatechange #desertification #Morocco #GGV #greenwall","2017-04-01 17:22:53"
"sandstone walls by #magnuslarsson against #desertification , turning sand into sandstones, and forming new oases in which people can inhabit pic.twitter.com/pdC1bEZRqZ","#magnuslarsson #desertification","2017-03-31 14:26:02"
"What r the implications of the doubling of the African #population by 2050 for #desertification & land #restoration in Africa? Doom or Boom? pic.twitter.com/ZKi926ldhL","#population #desertification #restoration","2017-03-31 11:00:37"
"#WFF17Bregenz Thousands of refugees today are victims of #desertification","#WFF17Bregenz #desertification","2017-03-31 10:44:07"
"Meetings on #Mars , #desertification and #DataScience all in the same day. I think I'll go in search of a dark room now... #neveradullmoment","#Mars #desertification #DataScience #neveradullmoment","2017-03-30 17:58:54"
"Fighting #desertification the green way & a green wall will have many other derivative benefits.Fuel,rain,general aesthetics","#desertification","2017-03-30 12:18:23"
"Your diet choices affect more than your midsection, veganism is being responsible to humanity #desertification http:// hubs.ly/H06Rv-t0 pic.twitter.com/qbBEIJomBz","#desertification","2017-03-29 17:06:49"
"@romano_devivoI hope ELO follow up with #desertification changing political face of Europe","#desertification","2017-03-29 06:36:29"
"#AcaciasForAll offers solutions to #Desertification , #PovertyReduction and #GenderEquality in Tunisia http:// ow.ly/a3fK30ajHr8 #1MillionTrees","#AcaciasForAll #Desertification #PovertyReduction #GenderEquality #1MillionTrees","2017-03-28 16:45:13"
"@AllanRSavory : animal husbandry to reverse #landDegradation & #desertification #FFA2017 #complexSystems","#landDegradation #desertification #FFA2017 #complexSystems","2017-03-28 15:28:02"
"#Desertification & #climatechange are a greater threat than all wars, warns @AllanRSavory in sobering #FFA2017 address. #timeforsolutions pic.twitter.com/KfNKF3pBaY","#Desertification #climatechange #FFA2017 #timeforsolutions","2017-03-28 15:23:24"
"Global #desertification and soil erosion pose a greater danger than all wars ever fought @SavoryInstitute #FFA2017 #agriculture #climate pic.twitter.com/wNga1IB2YC","#desertification #FFA2017 #agriculture #climate","2017-03-28 15:20:03"
"Including: shame on corruption. Shame on exploitation of the environment, too #deforestation + #overgrazing -> #desertification","#deforestation #overgrazing #desertification","2017-03-26 21:26:19"
"#desertification in #Nigeria - #geo4b #geog4b #geographyteacher #sahel @SJCR_GEOG pic.twitter.com/tvVe4v1GAS","#desertification #Nigeria #geo4b #geog4b #geographyteacher #sahel","2017-03-26 21:06:38"
"#Somaliland #drought #desertification #overgrazing #deforestation #erosion http:// unpo.org/article/19922 pic.twitter.com/kYj5xnDsak","#Somaliland #drought #desertification #overgrazing #deforestation #erosion","2017-03-26 18:28:02"
"How about tackling #overgrazing , too? Also I hear in many regions families still rely on a lot of #firewood . --> #desertification","#overgrazing #firewood #desertification","2017-03-26 18:18:41"
"Finishing up work at Myanmar's Dry Zone Greening Dep. after being the 1st foreigner intern in 20 yrs #desertification @NewColomboPlan pic.twitter.com/xtLdmiB29V","#desertification","2017-03-24 16:23:48"
"The #Sahara Desert used to be green and lush. Then humans showed up. http:// ow.ly/YGsO30abT4e @FrontiersIn #climatechange #desertification pic.twitter.com/1eExIgX0Jj","#Sahara #climatechange #desertification","2017-03-23 17:00:19"
"Today the @UNCCD Executive Secretary Monique Barbut met with @FatouDiawara to discuss about how to combat #desertification and #endpoverty pic.twitter.com/mXFfGrQBXh","#desertification #endpoverty","2017-03-22 17:43:37"
"Alhamdulilah it rained. But she needs political determination to survive in a country facing #desertification #ClimateChange #deforestation pic.twitter.com/1pZkRbCerr","#desertification #ClimateChange #deforestation","2017-03-22 11:04:11"
"Seems you have no evidence to back your claims nor refute mine. #Fire leads to #desertification . pic.twitter.com/FsOVZekgby","#Fire #desertification","2017-03-21 22:20:12"
"I am referring to all wildfires; fire is a contributing factor of #DESERTIFICATION , due to resulting loss of (cont...)","#DESERTIFICATION","2017-03-21 22:15:13"
"The #VeoliaFoundation supports the #GreatGreenWall project against #Desertification #IntForestDay http:// ow.ly/ztev30a49AY pic.twitter.com/Uk4yrgrbkN","#VeoliaFoundation #GreatGreenWall #Desertification #IntForestDay","2017-03-21 11:00:47"
"See @SarahToumi 's inspiring story of fighting inequality & #desertification with #AcaciaTrees ! Via @MiddleEastEye http:// bit.ly/2mkdIBO pic.twitter.com/1fyKLJlpCq","#desertification #AcaciaTrees","2017-03-20 11:02:00"
"#Desertification & Habitat Destruction affect us all! Learn how to protect the #environment here! #ScienceSunday https:// youtu.be/1yuXYyi1LJ4 pic.twitter.com/2G0ytiVQx0","#Desertification #environment #ScienceSunday","2017-03-19 18:40:15"
