""" #AR and #IoT is the backbone in all of it. At the end of the day, it's trying to make a better farm."" @MrNeilGupta on #intelligentfarming","#AR #IoT #intelligentfarming","2017-03-31 01:07:48"
"""40% of the US is farm land."" Real-time analysis, automation, sensors, & predictive maintenance create #intelligentfarming @BostonARmeetup pic.twitter.com/fvd5w6Aq1j","#intelligentfarming","2017-03-31 01:06:06"
"Seen our latest Society Insight? It explores #Spacecameras , Giant #telescopes & #Intelligentfarming #intheblog http:// ow.ly/AD56309ZSV2 pic.twitter.com/qttTT9QDlY","#Spacecameras #telescopes #Intelligentfarming #intheblog","2017-03-18 12:15:17"
"Have you seen our latest Society Insight? #Spacecameras , giant #telescopes & #Intelligentfarming http:// ow.ly/meLe309fiyY #intheblog #tech pic.twitter.com/egAclo8DQ8","#Spacecameras #telescopes #Intelligentfarming #intheblog #tech","2017-02-23 11:05:20"
"Seen our latest Society Insight? It explores #Spacecameras , Giant #telescopes & #Intelligentfarming #intheblog http:// ow.ly/HlUF3093y5f pic.twitter.com/o3sUA4JUaB","#Spacecameras #telescopes #Intelligentfarming #intheblog","2017-02-16 14:05:08"
"New Society Insight explores #Spacecameras , Giant #telescopes & #Intelligentfarming #intheblog #engineering #tech http:// ow.ly/DgPm308S3Vc pic.twitter.com/b9wrf0Ul68","#Spacecameras #telescopes #Intelligentfarming #intheblog #engineering #tech","2017-02-10 10:45:05"
"Today at #GAIAcongress16 on the #development of #Greek #agriculture #intelligentfarming pic.twitter.com/ifWLellYMA","#GAIAcongress16 #development #Greek #agriculture #intelligentfarming","2016-10-07 09:05:01"
"#intelligentfarming @CooperativeITA @PhilHoganEU @MercuriGiorgio @LPofferi Terzo congresso panellenico coop agricole pic.twitter.com/nGMG7laOdS","#intelligentfarming","2016-10-07 08:40:23"
"#IQ puzzle test or simply clever #farmers at work? #IntelligentFarming #SmartFarming #FineArt pic.twitter.com/Aivy92htFE","#IQ #farmers #IntelligentFarming #SmartFarming #FineArt","2016-07-13 14:37:58"
"Tobacco farmers in Zim reporting #10% additional yield #intelligentfarming #dudutech360 pic.twitter.com/oxyUvl0c5G","#10 #intelligentfarming #dudutech360","2016-05-04 21:53:38"
