"5 Reasons You Haven't Been Able to Make #SocialMedia Work by @Ginaschreck http:// buff.ly/2mwke6R","#SocialMedia","2017-04-06 00:13:01"
"7 ways for #SmallBusinesses to generate #Leads with #SocialMedia http:// ow.ly/jkbE305a9Pb #LeadGeneration #Marketing #DigitalMarketing","#SmallBusinesses #Leads #SocialMedia #LeadGeneration #Marketing #DigitalMarketing","2017-04-06 00:12:50"
"How To Use #LinkedIn To Generate Sales #Leads http:// ow.ly/gBm1305aeSJ #SocialMedia #LeadGeneration #DigitalMarketing #Marketing #Business","#LinkedIn #Leads #SocialMedia #LeadGeneration #DigitalMarketing #Marketing #Business","2017-04-06 00:12:49"
"What Would It Feel Like To Wake Up Everyday And Control Your Life? http:// bit.ly/2o2o5tr #attractionmarketing #socialmedia pic.twitter.com/QmWogxy1jO","#attractionmarketing #socialmedia","2017-04-06 00:12:10"
"If you frequently turn to #socialmedia &other online sources for answers, then you're what we call a Mutant #Learner http:// bit.ly/2o4SVkX pic.twitter.com/jFfGignlA9","#socialmedia #Learner","2017-04-06 00:12:03"
"How to Promote Your Shopify Store on Pinterest by @stephenjeske via @ViralWoot http:// buff.ly/2o1BBgS #socialmedia","#socialmedia","2017-04-06 00:12:03"
"#SocialMedia for #socialgood . http:// rite.ly/jQUI #socent pic.twitter.com/1PpU67nuZK","#SocialMedia #socialgood #socent","2017-04-06 00:11:59"
"Schedule your tweets like a pro with http:// Blastwit.com -> Follow us at @BlasTwit_app #Twitter #SocialMedia","#Twitter #SocialMedia","2017-04-06 00:11:52"
"9 #Facebook Page Optimization #Tips To Beat Your Competitors http:// ow.ly/72lv3059Rw7 #SocialMedia #DigitalMarketing #Marketing #Business","#Facebook #Tips #SocialMedia #DigitalMarketing #Marketing #Business","2017-04-06 00:11:25"
"How To Create A Click-Worthy Tweet http:// bit.ly/101jSGU #Twitter #SocialMedia RT MarcGuberti","#Twitter #SocialMedia","2017-04-06 00:11:18"
"#SMM #Mpgvip #BBuzzShowJakart #Marketing #growthhacking #ff #SEM #startup #socialmedia #art #cool #smmediaadotnet #contentmarketing #nyc pic.twitter.com/eK2yjHsSuP","#SMM #Mpgvip #BBuzzShowJakart #Marketing #growthhacking #ff #SEM #startup #socialmedia #art #cool #smmediaadotnet #contentmarketing #nyc","2017-04-06 00:11:11"
"On #socialmedia How Tire Discounters wins business with social media - Traction News http:// dlvr.it/NptYWc pic.twitter.com/1iiJTpuDsV","#socialmedia","2017-04-06 00:11:07"
"10 Ways #B2B Marketers Can Incorporate Video into their #ContentMarketing Strategy http:// buff.ly/2nUpZvV #socialmedia #smm #marketing pic.twitter.com/nrqMBxz2bA","#B2B #ContentMarketing #socialmedia #smm #marketing","2017-04-06 00:11:02"
"#Communities : #SocialMedia alert-7 important hacks for more #SM effectiveness. #1-Curate #Content ! @jimmyrohampton http:// ow.ly/Tjyb30aBJOU","#Communities #SocialMedia #SM #1 #Content","2017-04-06 00:10:58"
"EU #PublicSafety embracing #SocialMedia - @112_sos partners with @waze to crowd source data in and out http:// eepurl.com/cIYlXz","#PublicSafety #SocialMedia","2017-04-06 00:10:49"
"Schedule your tweets like a pro with http:// Blastwit.com -> Follow us at @BlasTwit_app #Twitter #SocialMedia","#Twitter #SocialMedia","2017-04-06 00:10:41"
"Check out Gina Schreck's page @Ginaschreck She is the CEO a content marketing & social media mgmt agency! #socialmedia #contentmarketing","#socialmedia #contentmarketing","2017-04-06 00:10:39"
"'Algunos consejos sobre LinkedIn #infografia #infographic #socialmedia ' http:// ln.is/z0voV","#infografia #infographic #socialmedia","2017-04-06 00:10:32"
"'La vida de un Influencer en Twitter #infografia #infographic #socialmedia #marketing ' http:// ln.is/lhJFO","#infografia #infographic #socialmedia #marketing","2017-04-06 00:10:30"
"Give benefit and advantage to our customer. @jual_beli #socialmedia #srudukfollow","#socialmedia #srudukfollow","2017-04-06 00:10:25"
"A Duke is the highest rank you can achieve without being a king or a prince. http:// TheArtOfPamela.com/501 #blog #media #socialmedia pic.twitter.com/rREEbTzgfq","#blog #media #socialmedia","2017-04-06 00:10:24"
"#goldentime #kaskuser #kicaupromo #kaskuser #kaskus_fjb #jualan #promo #lapakgw #socialmedia #srudukfollow","#goldentime #kaskuser #kicaupromo #kaskuser #kaskus_fjb #jualan #promo #lapakgw #socialmedia #srudukfollow","2017-04-06 00:10:21"
"16 Ways to Build #Authority Quickly When Starting #OnlineBusiness > http:// snip.ly/q5mgx < #entrepreneur #smallbiz #socialmedia","#Authority #OnlineBusiness #entrepreneur #smallbiz #socialmedia","2017-04-06 00:10:18"
"Is #Snapchat the Right #SocialMedia Marketing Platform for Your Brand? http:// ow.ly/4vYC30a74qs via @Forbes pic.twitter.com/NwFMeNNvZ6","#Snapchat #SocialMedia","2017-04-06 00:10:15"
"Globalize your business with #VideoContent , Strategy & Creation, #SocialMedia & #WebDesign ! Amplification, Inc. http:// ow.ly/B1M030agQ70","#VideoContent #SocialMedia #WebDesign","2017-04-06 00:10:14"
"How to Market to Different Generations on #SocialMedia [Infographic] https:// shar.es/1QaM5o","#SocialMedia","2017-04-06 00:10:14"
"5 Digital Marketing Trends & Insights That Will Boost Your Business http:// bit.ly/2oYGq84 #SEO #online #content #marketing #socialmedia pic.twitter.com/LchLczsWC8","#SEO #online #content #marketing #socialmedia","2017-04-06 00:10:11"
"How To Create A Click-Worthy Tweet http:// bit.ly/101jSGU #Twitter #SocialMedia","#Twitter #SocialMedia","2017-04-06 00:10:09"
"How to Simplify Social Media Sharing and Find Viral Content with @PostPlanner http:// buff.ly/2o1VhkQ #smm #socialmedia","#smm #socialmedia","2017-04-06 00:10:08"
"Here's how to actually run a #socialmedia contest for your #ecommerce brand: http:// ow.ly/Um2l30aBgUK via @SMExaminer pic.twitter.com/HVs7LzMxzM","#socialmedia #ecommerce","2017-04-06 00:10:07"
"Facebook Campaign Planner + 6 other #Facebook tools created for advertisers http:// ow.ly/c0ts30aBaZj #socialmedia #tools #socialmediatips","#Facebook #socialmedia #tools #socialmediatips","2017-04-06 00:10:07"
"Oil products provide a range of high quality fuels and lubricant to industrial and commercial @jual_beli #socialmedia #srudukfollow","#socialmedia #srudukfollow","2017-04-06 00:10:05"
"9 Ways to Make Your #Instagram Popular via @Social_Hire http:// buff.ly/2oHl9Ri #SocialMedia pic.twitter.com/CEka9yCKyv","#Instagram #SocialMedia","2017-04-06 00:10:00"
"Tips From 9 Experts for a Successful #SocialMedia #Contest > http:// buff.ly/2nBUBQj @AdeldMeyer @DholakiyaPratik @nscalice @MarjiJSherman","#SocialMedia #Contest","2017-04-06 00:10:00"
"The right tweet can do wonders for your company, but what makes a great tweet? http:// gag.gl/pZjdMd #socialmedia #marketing pic.twitter.com/f70cZKIb9Y","#socialmedia #marketing","2017-04-06 00:09:56"
"Using my writing skills to help a friend with some #socialmedia #soexcited #writingjourneycontinues #amwritingalways #forwardinspiration","#socialmedia #soexcited #writingjourneycontinues #amwritingalways #forwardinspiration","2017-04-06 00:09:51"
"#SMM #Mpgvip #BBuzzShowJakart #Marketing #growthhacking #ff #SEM #startup #socialmedia #art #cool #smmediaadotnet #contentmarketing #nyc pic.twitter.com/pdbQmyFr3E","#SMM #Mpgvip #BBuzzShowJakart #Marketing #growthhacking #ff #SEM #startup #socialmedia #art #cool #smmediaadotnet #contentmarketing #nyc","2017-04-06 00:09:46"
"Chondrotin & Glukosamin (GaGS) Pada saat seseorang menua, kondisi tulang rawan ikut menipis, @sinungwiloso1 #socialmedia #srudukfollow","#socialmedia #srudukfollow","2017-04-06 00:09:42"
"CGF inilah yang bertanggung jawab untuk menstimulus proses regenerasi atau peremajaan sel dan berperan untuk mem #socialmedia #srudukfollow","#socialmedia #srudukfollow","2017-04-06 00:09:41"
"4. BIODISC Untuk perawatan kulit, letakkan kosmetik (cream, lotion, sabun wajah dll) diatas Biodisc. #JFB #socialmedia","#JFB #socialmedia","2017-04-06 00:09:40"
"5. BIODISC Meningkatkan tingkat oksigen dalam darah. #JFB pic.twitter.com/w8ogGF8P4y #SOCIALMEDIA","#JFB #SOCIALMEDIA","2017-04-06 00:09:39"
"#SMM #Mpgvip #BBuzzShowJakart #Marketing #growthhacking #ff #SEM #startup #socialmedia #art #cool #smmediaadotnet #contentmarketing #nyc pic.twitter.com/EzsEascvtb","#SMM #Mpgvip #BBuzzShowJakart #Marketing #growthhacking #ff #SEM #startup #socialmedia #art #cool #smmediaadotnet #contentmarketing #nyc","2017-04-06 00:09:36"
"4. Air merupakan merupakan komponen alam yang paling banyak kita konsumsi dan pergunakan. #JFB #SOCIALMEDIA","#JFB #SOCIALMEDIA","2017-04-06 00:09:35"
"Mr. Suci Riadi Prihantanto adalah seorang Praktisi Pengembangan Diri, Konselor Hipnoterapis dan Psikoterapis @ca #socialmedia #srudukfollow","#socialmedia #srudukfollow","2017-04-06 00:09:29"
"It pays to use the right tool for the job. http:// bit.ly/2nX0j1T #socialmedia #smm #socialtools http:// bit.ly/2obuFxU","#socialmedia #smm #socialtools","2017-04-06 00:09:27"
"#SMM #Mpgvip #BBuzzShowJakart #Marketing #growthhacking #ff #SEM #startup #socialmedia #art #cool #smmediaadotnet #contentmarketing #nyc pic.twitter.com/CKxbAe3SXh","#SMM #Mpgvip #BBuzzShowJakart #Marketing #growthhacking #ff #SEM #startup #socialmedia #art #cool #smmediaadotnet #contentmarketing #nyc","2017-04-06 00:09:27"
"Ultimate Guide to Social Media Image Sizes. by @kikolani http:// goo.gl/eCrt6J via @smexaminer #socialmedia","#socialmedia","2017-04-06 00:09:15"
"#SMM #Mpgvip #BBuzzShowJakart #Marketing #growthhacking #ff #SEM #startup #socialmedia #art #cool #smmediaadotnet #contentmarketing #nyc pic.twitter.com/DAiTmwsqPK","#SMM #Mpgvip #BBuzzShowJakart #Marketing #growthhacking #ff #SEM #startup #socialmedia #art #cool #smmediaadotnet #contentmarketing #nyc","2017-04-06 00:09:13"
"Schedule posts across your multiple #SocialMedia accounts with Socialpilot http://www.socialpilot.co?refer=VUYI4MWD socialpilot.co/?refer=VUYI4MWD >","#SocialMedia","2017-04-06 00:09:11"
"Every #SocialMedia Post is an Advertisement via @mattgentile http:// hubs.ly/H06Vdhq0","#SocialMedia","2017-04-06 00:09:00"
"#socialmedia : Twitter to Livestream Red Carpet at 74th Annual Golden Gl... #GrowthHacking http:// buff.ly/2i7yxKN pic.twitter.com/18qbg3ktO1","#socialmedia #GrowthHacking","2017-04-06 00:08:34"
"It pays to use the right tool for the job. http:// socialjukebox.com #socialmedia #smm #socialtools pic.twitter.com/i6jvqbT78H","#socialmedia #smm #socialtools","2017-04-06 00:08:19"
"#socialmedia #watson #analytics http:// bit.ly/2nLOp8k pic.twitter.com/rqKH5Ly5MV","#socialmedia #watson #analytics","2017-04-06 00:08:18"
"Rando friends can see your Facebook Stories and you can't stop it https:// goo.gl/IV1ia7 via @mashable #SMM #SocialMedia pic.twitter.com/fsA2Z1zftx","#SMM #SocialMedia","2017-04-06 00:08:13"
"Rando friends can see your Facebook Stories and you can't stop it http:// dlvr.it/NptWGq #sm #SocialMedia","#sm #SocialMedia","2017-04-06 00:08:13"
"40 #SocialMedia #Tools in 40 Minuten hat @beilharz auf der #OMKB vorgestellt. Und hier die Folien: http:// goo.gl/vZjcbZ","#SocialMedia #Tools #OMKB","2017-04-06 00:08:10"
"Learn how to use #Facebook groups to grow your online biz via @Malamax_com http:// buff.ly/2n6NIp1 #SocialMedia pic.twitter.com/XcpMlpEith","#Facebook #SocialMedia","2017-04-06 00:08:05"
"#SMM #Mpgvip #Marketing #makeyourownlane #growthhacking #ff #SEM #startup #socialmedia #art #cool #smmediaadotnet #contentmarketing pic.twitter.com/m43TkfyoAC","#SMM #Mpgvip #Marketing #makeyourownlane #growthhacking #ff #SEM #startup #socialmedia #art #cool #smmediaadotnet #contentmarketing","2017-04-06 00:08:00"
"Social Media Sharing Tools for Marketers & Bloggers 2017 https:// is.gd/ZPAWsb #socialmedia","#socialmedia","2017-04-06 00:07:49"
"Do you know your #Child 's #SocialMedia / #Email Passwords? You Should Let them #KickAndScream ! Do you #Love them? https:// sellfy.com/p/7lSa","#Child #SocialMedia #Email #KickAndScream #Love","2017-04-06 00:07:48"
"#SMM #Mpgvip #Marketing #makeyourownlane #growthhacking #ff #SEM #startup #socialmedia #art #cool #smmediaadotnet #contentmarketing pic.twitter.com/mFaXzmQ5R1","#SMM #Mpgvip #Marketing #makeyourownlane #growthhacking #ff #SEM #startup #socialmedia #art #cool #smmediaadotnet #contentmarketing","2017-04-06 00:07:47"
"Hey Fitness Health 1 thanks for the follow! great to have you as a connection #new #socialmedia #smm","#new #socialmedia #smm","2017-04-06 00:07:26"
"#SMM #Mpgvip #Marketing #makeyourownlane #growthhacking #ff #SEM #startup #socialmedia #art #cool #smmediaadotnet #contentmarketing pic.twitter.com/RKJFUG3syc","#SMM #Mpgvip #Marketing #makeyourownlane #growthhacking #ff #SEM #startup #socialmedia #art #cool #smmediaadotnet #contentmarketing","2017-04-06 00:07:24"
"Understanding Blogging & Social Media #Blogging #Marketing #SocialMediaMarketing #Mng #CustomerExperience http:// buff.ly/2oXAA7a pic.twitter.com/PvHATfTZKt","#Blogging #Marketing #SocialMediaMarketing #Mng #CustomerExperience","2017-04-06 00:07:11"
"5 Ways to Market Your Business for Free (or Nearly Free) - https://www. entrepreneur.com/article/283024 #marketing #socialmedia pic.twitter.com/PDMh7n5DGi","#marketing #socialmedia","2017-04-06 00:07:03"
"Twitter just lost the one thing it did well http:// buff.ly/2nZ3ynS #social #socialmedia #onlinemarketing","#social #socialmedia #onlinemarketing","2017-04-06 00:07:02"
"The 7 Spiritual Laws of #SocialMedia #Success by @lisabuyer http:// rite.ly/jdS5 pic.twitter.com/5q7iJbKrwz","#SocialMedia #Success","2017-04-06 00:06:58"
"#SOCIALMEDIA Rando friends can see your Facebook Stories and you can't stop it https:// goo.gl/0mDtx1 via @mashable pic.twitter.com/MsDG3nrIM2","#SOCIALMEDIA","2017-04-06 00:06:43"
"Rando friends can see your Facebook Stories and you can't stop it http:// dlvr.it/NptV2Y #socialmedia #mktg","#socialmedia #mktg","2017-04-06 00:06:42"
"Blair: Social media would have killed PM hopes - Sky News http:// dlvr.it/NptTts #socialmedia pic.twitter.com/n1EWCwu5E0","#socialmedia","2017-04-06 00:06:39"
"Pepsi withdraws Kendall Jenner ad after social media backlash - Financial Times http:// dlvr.it/NptTsw #socialmedia","#socialmedia","2017-04-06 00:06:37"
"Interesting view on how cutting back too far can harm a business #SocialMedia #Comms https://www. entrepreneur.com/amphtml/243905","#SocialMedia #Comms","2017-04-06 00:06:35"
"How are your New Years resolutions working out? #online & #socialmedia #marketing ==> http:// mariebennett.com pic.twitter.com/N2RiJNLScx","#online #socialmedia #marketing","2017-04-06 00:06:15"
"Rando friends can see your Facebook Stories and you can't stop it http:// dlvr.it/NptT4W #SocialMedia","#SocialMedia","2017-04-06 00:06:13"
"Help! My Brand Went Viral: 12 Small Brands That Made It Big #socialmedia #influence | http:// buff.ly/2oIc4HD pic.twitter.com/uo3CEgYHt2","#socialmedia #influence","2017-04-06 00:06:02"
"#1kFollowers #SmokesAndJokes #FollowForFollow #BOTL #SOTL #Comedy #NYC #Columbus #Ohio #Vape #Hookah #SocialMedia #FollowBack","#1kFollowers #SmokesAndJokes #FollowForFollow #BOTL #SOTL #Comedy #NYC #Columbus #Ohio #Vape #Hookah #SocialMedia #FollowBack","2017-04-06 00:06:01"
"Find Your #SocialMedia #Influencers & Make the Most of Them http:// rite.ly/jqYH pic.twitter.com/U5BglY7Nto","#SocialMedia #Influencers","2017-04-06 00:05:58"
"learn how to use Social Media to engage your customers http:// ow.ly/dtPZ30aBJp5 #Engagement #SocialMedia #CMG","#Engagement #SocialMedia #CMG","2017-04-06 00:05:54"
"Working some #socialmedia for @CrossFitForward super excited!!! #letsgetthisrollin #buildupthefam #forwardforever #crossfit #whosontwitter","#socialmedia #letsgetthisrollin #buildupthefam #forwardforever #crossfit #whosontwitter","2017-04-06 00:05:30"
"Pepsi Pulls Kendall Jenner Commercial After Social Media Backlash #SocialMedia https:// youtu.be/72UIcU_qALE","#SocialMedia","2017-04-06 00:05:27"
"The right tweet can do wonders for your company, but what makes a great tweet? http:// gag.gl/pZjdMd #socialmedia #marketing pic.twitter.com/cfnWPjEQbZ","#socialmedia #marketing","2017-04-06 00:05:26"
"Man United Latest News: Patrice Evra makes Paul Pogba #socialmedia admission - I'm scared - Daily Star : http:// fat.ly/26jd3","#socialmedia","2017-04-06 00:05:23"
"A guaranteed solution. http://www. kaboomsocialmedia.co.uk / #marketing #networking #economy #entrepreneurs #socialmedia #yorkshire #B2B #legal #charity pic.twitter.com/Gd35aEx6wO","#marketing #networking #economy #entrepreneurs #socialmedia #yorkshire #B2B #legal #charity","2017-04-06 00:05:22"
"4 Undeniable Ways to Stay Ahead of the Competition on #SocialMedia http:// ow.ly/wDTC305ai5G #SocialMediaMarketing #DigitalMarketing #Leads","#SocialMedia #SocialMediaMarketing #DigitalMarketing #Leads","2017-04-06 00:05:20"
"Social Media Etiquette- How To Get Noticed In A Positive Way http:// bit.ly/1Qyekd1 #SocialMediaEtiquette","#SocialMediaEtiquette","2017-04-06 00:05:19"
"10 Strategies to Go Viral on Any Platform #socialmedia #viral #social #marketing #digitalmarketing http:// ow.ly/IdR130auI6M pic.twitter.com/r3QUlvw41S","#socialmedia #viral #social #marketing #digitalmarketing","2017-04-06 00:05:14"
"WATCH BKChat LDN on the Red Carpet https:// youtu.be/GtftoJiV-eU @bkchatldn #bkchat #bkchatldn #video #uk #webseries #youtube #socialmedia #np pic.twitter.com/lqQxuvPbWR","#bkchat #bkchatldn #video #uk #webseries #youtube #socialmedia #np","2017-04-06 00:05:13"
"5 ways to use #socialmedia #monitoring to generate qualified #leads http:// bit.ly/2oC2usN by @lilachbullock pic.twitter.com/pWW5wyEfan","#socialmedia #monitoring #leads","2017-04-06 00:05:13"
"Organizing and managing #profiles + #socialmedia is seriously a full-time job!!! --- spending today determined... http:// fb.me/3m5Ogj9EJ","#profiles #socialmedia","2017-04-06 00:05:11"
"#StopBullying #DaliTalks #EmbracingDifferences #StopCyberBullying #KnowTheFacts #ThingsYouShouldKnow #SocialMedia pic.twitter.com/9Ohti2Uk1j","#StopBullying #DaliTalks #EmbracingDifferences #StopCyberBullying #KnowTheFacts #ThingsYouShouldKnow #SocialMedia","2017-04-06 00:05:11"
"Alektorophobia is the fear of chickens. #socialmedia #marketing","#socialmedia #marketing","2017-04-06 00:05:08"
"#SocialMedia Coaching & Mentorship Program for #babyboomers and #genxers http:// ow.ly/5QYR30aBbD4","#SocialMedia #babyboomers #genxers","2017-04-06 00:05:07"
"Key challenges that #B2B businesses face on #socialmedia : 50% difficulty proving ROI 33% lack of time 32% no strategic planning pic.twitter.com/3JXCFu5WT4","#B2B #socialmedia","2017-04-06 00:05:03"
"#SocialMediaGig Social media assistance with workshop in Kinzie on Friday morning (Chicago) http:// ift.tt/2oKcFsw","#SocialMediaGig","2017-04-06 00:04:59"
"#socialmedia #marketing Social media algorithms have resulted in a big drop in organic reach, but it doesn't mean... http:// fb.me/1FBeCGdEw","#socialmedia #marketing","2017-04-06 00:04:39"
"Twitter just lost the one thing it did well https:// goo.gl/fb/dRoZ8v #media #socialmedia","#media #socialmedia","2017-04-06 00:04:30"
"Are you ready for a second #Facebook news feed? What does this new feature mean for #advertising ? https:// tnw.to/2nW0vOZ #socialmedia #pr","#Facebook #advertising #socialmedia #pr","2017-04-06 00:04:24"
"Brave Media Management http:// bravemediamanagement.com #WebDesign #SocialMedia #DigitalMarketing #Miami #Venezuela pic.twitter.com/GTk8pah25c 4","#WebDesign #SocialMedia #DigitalMarketing #Miami #Venezuela","2017-04-06 00:04:16"
"Skyrocket Your #SocialMedia Shares With Help From Top #Influencers http:// buff.ly/2nQRzKE #bloggingtips via @JoeElliottSYDJ","#SocialMedia #Influencers #bloggingtips","2017-04-06 00:04:05"
"#Socialmedia : Is it me or is the internet getting nicer? http:// buff.ly/2oAizPP pic.twitter.com/l69VH4q6K2","#Socialmedia","2017-04-06 00:04:04"
"#Lead #Generation : http:// bit.ly/2gWv04M How to Create a Powerful #LeadMagnet on #Twitter #digibom #socialmedia pic.twitter.com/qEMRo1VmRb","#Lead #Generation #LeadMagnet #Twitter #digibom #socialmedia","2017-04-06 00:04:02"
"Improve engagement on your social media with these post scheduling tips! http:// buff.ly/2mGQftz via @HubSpot #inbound #socialmediamarketing pic.twitter.com/hTzAbHmjS9","#inbound #socialmediamarketing","2017-04-06 00:04:02"
"Lacking Focus In Your Social Strategy? http:// dld.bz/fa3Nh #social #socialmedia #strategy pic.twitter.com/djcw4MZMhk","#social #socialmedia #strategy","2017-04-06 00:03:44"
"@RobertBohan #cheers for the follow! what is one #SocialMedia tool or feature you can't live without?","#cheers #SocialMedia","2017-04-06 00:03:39"
"#Snapchat : Snapchat Marketing: The Important Things You Need to Know - Red... #SocialMedia http:// buff.ly/2i5If03","#Snapchat #SocialMedia","2017-04-06 00:03:34"
"10 common social media mistakes > http:// chattyi.mp/0VzO3 #socialmedia #marketing #content #startup #lincoln pic.twitter.com/jSF3du45vi","#socialmedia #marketing #content #startup #lincoln","2017-04-06 00:03:31"
"Your social media strategy plan: Where do you START? http:// goo.gl/SrQKI2 via Mark Schaefer #socialmedia","#socialmedia","2017-04-06 00:03:25"
"33 #SocialMedia Facts and Statistics You Should Know in 2015 http:// bit.ly/1aHVzUp #smm #socialmediatips @jeffbullas","#SocialMedia #smm #socialmediatips","2017-04-06 00:03:22"
"How to Use Twitter for Business in 2016 and Beyond: http:// stfi.re/zwpznnd #twitter #business #socialmedia","#twitter #business #socialmedia","2017-04-06 00:03:22"
"Is your #socialmedia brand falling flat? #branding #SMM #MomBiz #podcast #entrepreneur http:// goo.gl/lu14S8 #growthhacking","#socialmedia #branding #SMM #MomBiz #podcast #entrepreneur #growthhacking","2017-04-06 00:03:13"
"4 Reasons Why Consumers View Brands As Relationships http:// bit.ly/1oRXYCc #branding #marketing #socialmedia","#branding #marketing #socialmedia","2017-04-06 00:03:07"
"#SocialMedia TMI: Finding the Balance Between Professional & Personal - @EdieMelson http:// buff.ly/2oHfeeU #writing pic.twitter.com/FFa66JRLaf","#SocialMedia #writing","2017-04-06 00:03:06"
"Awesome success quote #success #socialmedia #marketing #quotes #twitter #successful pic.twitter.com/j1fotaihwk","#success #socialmedia #marketing #quotes #twitter #successful","2017-04-06 00:03:05"
"If you find a security bug in Facebooks code they WILL pay you from $500 for you to tell them about it. #socialmedia #fact","#socialmedia #fact","2017-04-06 00:03:05"
"Tips From 9 Experts for a Successful #SocialMedia #Contest > http:// buff.ly/2ouDXpH @AdeldMeyer @DholakiyaPratik @nscalice @MarjiJSherman","#SocialMedia #Contest","2017-04-06 00:03:02"
"Tim Fargo.- @alphabetsuccess http://www. tweetjukebox.com #quote #socialmedia #tweetjukebox http:// goo.gl/VITHxC pic.twitter.com/8HvHeSg8uL","#quote #socialmedia #tweetjukebox","2017-04-06 00:02:51"
"Tim Fargo.- @alphabetsuccess http://www. tweetjukebox.com #quote #socialmedia #tweetjukebox http:// goo.gl/Lu6ugl pic.twitter.com/Hs1gpaG1Bd","#quote #socialmedia #tweetjukebox","2017-04-06 00:02:50"
"57 Ways to Boost Your Blog Traffic http:// bit.ly/16UYDEd #blogging #socialmedia #marketing @jeffbullas","#blogging #socialmedia #marketing","2017-04-06 00:02:46"
"Want to learn how to make your #Facebook marketing work? Read part 1 of my 3 part blog series. #socialmedia http:// dld.bz/dHtt2 pic.twitter.com/Ffoxhonmhg","#Facebook #socialmedia","2017-04-06 00:02:41"
"How to Turn Twitter Followers into Repeat Customers [Infographic] https:// shar.es/1Qe8zC via @socialmedia2day #socialmedia","#socialmedia","2017-04-06 00:02:34"
"Can you recommend anyone for this #job in #VernonHills , IL? http:// bit.ly/2mkP3Jo #SocialMedia #Hiring","#job #VernonHills #SocialMedia #Hiring","2017-04-06 00:02:30"
"How to Take Your Pinterest Engagement And Results To The Next Level http:// bit.ly/1hDQVoS #socialmedia #marketing @jeffbullas","#socialmedia #marketing","2017-04-06 00:02:27"
"Algunas de las mejores bromas que se hicieron en April Fools Day 2017 http:// dlvr.it/NptPSD #SocialMedia #MarketingDigital pic.twitter.com/b6i5RWd9M6","#SocialMedia #MarketingDigital","2017-04-06 00:02:22"
"#socialmedia - Direct Mail Marketing - Do it right. Marketing Direct: Breaking Through The Clutter http:// goo.gl/6nDh3e pic.twitter.com/3SOXBk3r0I","#socialmedia","2017-04-06 00:02:21"
"What is #matchedbetting & #BOOKIEBASHING ? SEE @ukbookiebash #facup #bets #Newmarket #newtonabbot #SOCIALMEDIA pic.twitter.com/5y2Pfxedyn","#matchedbetting #BOOKIEBASHING #facup #bets #Newmarket #newtonabbot #SOCIALMEDIA","2017-04-06 00:02:16"
"4 Tips To a Rock Solid #SocialMedia Strategy - http:// bit.ly/1q9PCrc #socialmediamarketing #entrepreneur pic.twitter.com/XVOnRqgRge","#SocialMedia #socialmediamarketing #entrepreneur","2017-04-06 00:02:16"
"#SocialMedia #FakeNews #MAGA #LIberalLunacy #VeryFakeNews #Immigration pic.twitter.com/F0eS4zGxaB","#SocialMedia #FakeNews #MAGA #LIberalLunacy #VeryFakeNews #Immigration","2017-04-06 00:02:16"
"57 Ways to Boost Your Blog Traffic http:// bit.ly/16UYDEd #blogging #socialmedia #marketing @jeffbullas","#blogging #socialmedia #marketing","2017-04-06 00:02:16"
"How to Recycle Your Content Using LinkedIn Publisher. by @njellering http:// goo.gl/70lB8S via @smexaminer #socialmedia","#socialmedia","2017-04-06 00:02:11"
"More Twitter Followers Investing 3 Times Less Effort https:// app.quuu.co/r/pnpal #smm #socialmedia","#smm #socialmedia","2017-04-06 00:02:10"
"4 Tips for Successful Social Media Contests http:// dlvr.it/NptNmW #socialmedia pic.twitter.com/LkBsgA2bK8","#socialmedia","2017-04-06 00:02:09"
"10 of the Amazing #Tools to Create Shareable #SocialMedia #Graphics http:// bit.ly/2mBzvFc via @postplanner pic.twitter.com/JDhLdE1FkU","#Tools #SocialMedia #Graphics","2017-04-06 00:02:09"
"Who is tired of going down the social media rabbit hole? Let us drag you out! #socialmediastrategy","#socialmediastrategy","2017-04-06 00:02:08"
"Can Siri schedule tweets for you? I DON'T THINK SO! LOL Message me because I can. #assistant #socialmedia http://www. virtualasstprof.wix.com/virtualasstprof","#assistant #socialmedia","2017-04-06 00:02:06"
"5 Social Media Strategy Questions to ask Yourself. #socialmedia #strategies http:// bit.ly/2o4jabs via @@Prepare1","#socialmedia #strategies","2017-04-06 00:02:06"
"How to Handle Negative Comments on #SocialMedia via @BlueBirdBC http:// buff.ly/2oYOKVm pic.twitter.com/9bmJSGDvJm","#SocialMedia","2017-04-06 00:02:05"
"3 Things to Remember When Joining #SocialMedia http:// buff.ly/2ov5gQk #smm pic.twitter.com/Z7QSsiIY1I","#SocialMedia #smm","2017-04-06 00:02:02"
"#socialmedia Germany approves law to fine social media companies for 'criminal content' http:// ow.ly/IENx50aFdWz","#socialmedia","2017-04-06 00:01:59"
"8 LinkedIn Marketing Tips From the Experts. by @CindyKing http:// goo.gl/trgcdJ via @smexaminer #socialmedia","#socialmedia","2017-04-06 00:01:52"
"16 Ways to Use #SocialMedia to Promote Your #Event via @SMExaminer : http:// qoo.ly/ej5md via @SMExaminer","#SocialMedia #Event","2017-04-06 00:01:51"
