"This inflatable wristband could save your life in deep waters http:// buff.ly/2nZGVkL #wearables","#wearables","2017-04-05 01:54:00"
"I'm bored of #Wearables . ZZZZZZzzzzzz","#Wearables","2017-04-05 01:48:13"
"Microsoft licenses smartwatch technologies to Casio in patent deal http:// ift.tt/2oG2160 #Wearables #Smartwatch","#Wearables #Smartwatch","2017-04-05 01:44:10"
"Designing Wearables That Sense, Think, and Communicate http:// ift.tt/2oG6Cp0 #Wearables #Smartwatch","#Wearables #Smartwatch","2017-04-05 01:44:09"
"#Wearables . Leverage more datasets via the #cloud than you expect. Plus #BigData principles are used. http:// ow.ly/p8gi30axdoK #mobile pic.twitter.com/tOPFWKBatw","#Wearables #cloud #BigData #mobile","2017-04-05 01:40:10"
"Scientists Are Developing a Contact Lens That Tells You When You're Sick. #wearables #healthtech http:// buff.ly/2oVpJdM pic.twitter.com/WWTl8z218d","#wearables #healthtech","2017-04-05 01:40:06"
"http:// WristSet.com domain for sale #fitbit #jawbone #wearables #wearabletech #wrist #golf #tennis","#fitbit #jawbone #wearables #wearabletech #wrist #golf #tennis","2017-04-05 01:37:44"
"@Fitbit tracker clues woman in to life-threatening condition #Wearables #DigitalHealth #healthIT https:// goo.gl/M8O7MM pic.twitter.com/PXDYB7qJQ0","#Wearables #DigitalHealth #healthIT","2017-04-05 01:35:07"
"Researchers use a pair of robotics platforms in hopes of developing drought resistant crops https:// goo.gl/BVKuSl #Wearables #IoT pic.twitter.com/DSmZbZbxCj","#Wearables #IoT","2017-04-05 01:33:38"
"Smart Watches Mtk2502 http:// ift.tt/2nV0OaW #smartwatch #wearables","#smartwatch #wearables","2017-04-05 01:16:21"
"IBM and Visa want all smart devices to be able to make purchases for you. https:// tmblr.co/ZHYahi2KHQPNc // #smartTech #IoT #wearables","#smartTech #IoT #wearables","2017-04-05 01:12:38"
"Microsoft licenses smartwatch technologies to Casio in patent deal http:// ift.tt/2nBSiMx #smartwatch #wearables","#smartwatch #wearables","2017-04-05 01:06:20"
"Huawei Opts for OT eSIM in Huawei Watch 2 http:// ift.tt/2o7aGAs #smartwatch #wearables","#smartwatch #wearables","2017-04-05 01:06:18"
"Aetna, Apple Watch & the Integration of #Wearables in #Healthcare - http:// buff.ly/2nZ7mXZ #insurtech #digitalhealth #TuesdayMotivation pic.twitter.com/fe91gWdwJk","#Wearables #Healthcare #insurtech #digitalhealth #TuesdayMotivation","2017-04-05 01:05:05"
"Fitness tracker clues woman in to life-threatening condition #Cardiology #wearables http:// clclp.me/4Kpc","#Cardiology #wearables","2017-04-05 01:04:09"
"Fitness tracker clues woman in to life-threatening condition #Cardiology #wearables http:// clclp.me/4Kpa","#Cardiology #wearables","2017-04-05 01:04:05"
"Fitness tracker clues woman in to life-threatening condition #Cardiology #wearables http:// clclp.me/4Kpb","#Cardiology #wearables","2017-04-05 01:04:05"
"Tokk #handsfree #smart #speaker https:// goo.gl/oYjkfK #WearableTech #wearables pic.twitter.com/sLFCJzHQjK","#handsfree #smart #speaker #WearableTech #wearables","2017-04-05 01:01:03"
"Jackson Somes shares his big dreams for a connected world. http:// bit.ly/2n8PMSq #wearables #blog #gapsignal #TechTuesday pic.twitter.com/bNrMWgpGwX","#wearables #blog #gapsignal #TechTuesday","2017-04-05 00:46:58"
"Naptime - Making Every Spot a Napping Spot http:// bit.ly/2kZ8KFH #wearables #wellbeing","#wearables #wellbeing","2017-04-05 00:40:44"
"RT @mymedkaz : What you need to know to keep up with consumer mobile health needs http:// flip.it/0ZEp5M #digitalhealth #wearables #IoT","#digitalhealth #wearables #IoT","2017-04-05 00:35:38"
"#Digital #Health Funding Tops Over $1B in Q1 2017 http:// bit.ly/2oxmqx2 #digitalhealth #healthcare #bigdata #wearables #telemedicine","#Digital #Health #digitalhealth #healthcare #bigdata #wearables #telemedicine","2017-04-05 00:25:02"
"New #wearables startup: temperature responsive headpiece that malfunctions when fashionistas talk to it.","#wearables","2017-04-05 00:21:52"
"What you need to know to keep up with consumer mobile health needs http:// ow.ly/9mZV30auJNF #digitalhealth #wearables #IoT","#digitalhealth #wearables #IoT","2017-04-05 00:20:12"
"#wearables Designing Wearables That Sense, Think, and Communicate - Product Design & Development http:// bit.ly/2nBL9Md","#wearables","2017-04-05 00:15:18"
"Wearable Tech at Work: Why Recruiters Need to Pay Attention http:// ift.tt/2oA7GgN #wearables #iot","#wearables #iot","2017-04-05 00:15:12"
"Holy cow! @shape_scale visualizes your fat loss & muscle gains in 3D! #IoT #wearables http:// queue.vip/xhcczHn https:// youtu.be/W7doB0msqMw","#IoT #wearables","2017-04-05 00:08:40"
"Heart-rate readings and music while you work out http:// ift.tt/2ozRv3e #wearables #iot","#wearables #iot","2017-04-05 00:06:23"
"Lifetrak Zoom HRV is a computer you can wear http:// ift.tt/2nHbYPU #wearables #iot","#wearables #iot","2017-04-05 00:06:23"
"How #Wearables are Disrupting The #Insurance Industry [Infographic] #Insurtech #Fintech #CX #smartdevices #healthtech #FS pic.twitter.com/lgx5OAT2zp","#Wearables #Insurance #Insurtech #Fintech #CX #smartdevices #healthtech #FS","2017-04-05 00:01:05"
"Are #wearables a #security risk for organizations? https:// goo.gl/LQAy0n via @CIOonline","#wearables #security","2017-04-05 00:00:01"
"How #Wearables are Disrupting The #Insurance Industry [Infographic] #Insurtech #Fintech #CX #smartdevices #healthtech #FS pic.twitter.com/X1OqBCON2o","#Wearables #Insurance #Insurtech #Fintech #CX #smartdevices #healthtech #FS","2017-04-04 23:55:17"
"How #Wearables are Disrupting The #Insurance Industry [Infographic] #Insurtech #Fintech #CX #smartdevices #healthtech #FS pic.twitter.com/aEFucHkjth","#Wearables #Insurance #Insurtech #Fintech #CX #smartdevices #healthtech #FS","2017-04-04 23:50:16"
"The latest generation of #health and fitness #wearables http:// huff.to/2osgztd #tech #technology #gadgets #electronics #medTech #healthTech pic.twitter.com/I9ZfP793z9","#health #wearables #tech #technology #gadgets #electronics #medTech #healthTech","2017-04-04 23:47:02"
"#Wearables . Leverage more datasets via the #cloud than you expect. Plus #BigData principles are used. http:// ow.ly/p8gi30axdoK #mobile pic.twitter.com/WxNjoBpTwo","#Wearables #cloud #BigData #mobile","2017-04-04 23:45:12"
"#Wearables","#Wearables","2017-04-04 23:24:14"
"M2 Plus Heart Rate Monitor OLED Touch Screen Activity Tracker Bluetoot... http:// ift.tt/2oXfUw1 #activitytracker #wearables","#activitytracker #wearables","2017-04-04 23:12:37"
"Intelligent Activity Tracker http:// ift.tt/2o03Qw8 #activitytracker #wearables","#activitytracker #wearables","2017-04-04 23:12:36"
"Can Smart Rings Be More Than Just Another Notifications Device? http:// flip.it/ANzhsq #wearables #jewlry #payment","#wearables #jewlry #payment","2017-04-04 23:09:48"
"Fitbit Wants to Be Your Coach http:// flip.it/Tf.gbP #fitbit #wearables #tracking #coaching #sport","#fitbit #wearables #tracking #coaching #sport","2017-04-04 23:05:48"
"Top 5 Fashion Tech Startups, Innovating The Fashion Industry https:// goo.gl/7sFPBJ #FashionTech #Wearables pic.twitter.com/uc6EwlI6W5","#FashionTech #Wearables","2017-04-04 22:58:09"
"Our Medical Future Through the Lens of Smart Glasses. #Tech #Digital #Wearables #ConnectedDevices #IoT http:// bit.ly/2ouu8by @QmedNews pic.twitter.com/YeJT4fxsCt","#Tech #Digital #Wearables #ConnectedDevices #IoT","2017-04-04 22:55:03"
"Top 5 Fashion Tech Startups, Innovating The #Fashion Industry http:// goo.gl/7sFPBJ #FashionTech #Wearables pic.twitter.com/GggcrKuCq6","#Fashion #FashionTech #Wearables","2017-04-04 22:54:50"
"Huawei Opts for OT eSIM in Huawei Watch 2 http:// ift.tt/2oySi4F #Wearables #Smartwatch","#Wearables #Smartwatch","2017-04-04 22:54:11"
"Samsung's Tizen Smart TV, Smartwatch OS Riddled With Dozens Of Zero-Day Exploits http:// ift.tt/2oWZQue #Wearables #Smartwatch","#Wearables #Smartwatch","2017-04-04 22:54:11"
"Samsung's Gear S3 software, Tizen, is said to be riddled with security holes http:// ift.tt/2oySjpf #Wearables #Smartwatch","#Wearables #Smartwatch","2017-04-04 22:54:10"
"How brands are using tech in marketing http:// ift.tt/2oWY2S6 #Wearables #Smartwatch","#Wearables #Smartwatch","2017-04-04 22:54:10"
"Amazfit Pace SmartWatch Review: Affordable Fitness Tracking and More http:// ift.tt/2oWYYWi #Wearables #Smartwatch","#Wearables #Smartwatch","2017-04-04 22:54:08"
"Amazfit Pace SmartWatch Review: Affordable Fitness Tracking and More http:// ift.tt/2oX99tV #activitytracker #wearables","#activitytracker #wearables","2017-04-04 22:52:36"
"Top 5 Fashion Tech Startups, Innovating The Fashion Industry https:// goo.gl/7sFPBJ #FashionTech #Wearables pic.twitter.com/3mPrvo83hw","#FashionTech #Wearables","2017-04-04 22:52:14"
"Benefits of Supplying Employees with #Wearables http:// buff.ly/2nz0G04 pic.twitter.com/yYLgCSa3Ws","#Wearables","2017-04-04 22:49:01"
"Holy cow! @shape_scale visualizes your fat loss & muscle gains in 3D! #IoT #wearables http:// queue.vip/D96EMNJ https:// youtu.be/W7doB0msqMw","#IoT #wearables","2017-04-04 22:37:17"
"How #Fitbit #heartrate data saved this woman's life http:// bit.ly/2oVTFq6 #wearables #digitalhealth pic.twitter.com/HKxsaau7X7","#Fitbit #heartrate #wearables #digitalhealth","2017-04-04 22:35:58"
"Most of Us Don't Need a Fitness Tracker http:// buff.ly/2oX4jgf #Wearables pic.twitter.com/12LPwER1mU","#Wearables","2017-04-04 22:34:16"
"Now meeting @LookSeeLabs to discuss advanced #wearables @WeWorkSF #SeminaireMediaESSEC pic.twitter.com/JjxTI7h3OD","#wearables #SeminaireMediaESSEC","2017-04-04 22:33:49"
"McAfee is Back, Spun Off from Intel https:// goo.gl/f9p2sj #Cyber #Wearables pic.twitter.com/MyryQFWCQq","#Cyber #Wearables","2017-04-04 22:29:03"
"The watch is beautiful however I've returned it & am still waiting for customer services to respond? #wearables #steelHR #smartwatch","#wearables #steelHR #smartwatch","2017-04-04 22:25:40"
"Prevention the holly grail of #wearables - Fitness tracker clues woman in to life-threatening condition @CNN http:// cnn.it/2nBAGRK","#wearables","2017-04-04 22:22:22"
"#Wearables Market Growth Shifting To #Smartwatches : The global wearables market... http:// bit.ly/2mn9ppu","#Wearables #Smartwatches","2017-04-04 22:20:18"
"Scientists Are Developing a Contact Lens That Tells You When You're Sick http:// buff.ly/2oWSHKm @Gizmodo #Wearables pic.twitter.com/6UJgnQmiw5","#Wearables","2017-04-04 22:18:16"
"I am loving what I just read about #Wearables . Love it!","#Wearables","2017-04-04 22:18:14"
"Half of Large British Businesses Victims of Ransomware https:// goo.gl/DE4qfd #Cyber #Wearables pic.twitter.com/JtCeYEeI0o","#Cyber #Wearables","2017-04-04 22:12:24"
"#Wearables | What people are playing, watching and doing in VR in 2017 http:// dlvr.it/NpMpjf | @Wareable pic.twitter.com/Sjqcjmhbsa","#Wearables","2017-04-04 22:12:09"
"A Sneak Peek into the Wearable Space - #TechEST http:// bit.ly/1Ipi1KN #Android #AppleWatch #watchOS #Wearables","#TechEST #Android #AppleWatch #watchOS #Wearables","2017-04-04 22:11:29"
"Samsung's Tizen Smart TV, Smartwatch OS Riddled With Dozens Of Zero-Day Exploits http:// ift.tt/2oyLHHA #smartwatch #wearables","#smartwatch #wearables","2017-04-04 21:56:24"
"Samsung's Gear S3 software, Tizen, is said to be riddled with security holes http:// ift.tt/2oFyZmV #smartwatch #wearables","#smartwatch #wearables","2017-04-04 21:56:23"
"How brands are using tech in marketing http:// ift.tt/2oyPgxt #smartwatch #wearables","#smartwatch #wearables","2017-04-04 21:56:23"
"Deal: LG Watch Style Smartwatch for just $179 - 4/4/17 http:// ift.tt/2oFDlKZ #smartwatch #wearables","#smartwatch #wearables","2017-04-04 21:56:23"
"Amazfit Pace SmartWatch Review: Affordable Fitness Tracking and More http:// ift.tt/2oyRIE9 #smartwatch #wearables","#smartwatch #wearables","2017-04-04 21:56:22"
"How will your industry be impacted by #wearables and #IoT ? http:// buff.ly/2ozJJ9r #IBM #cognitive pic.twitter.com/ImCBtznPU8","#wearables #IoT #IBM #cognitive","2017-04-04 21:53:07"
"Our interview with Tyme Wear founder Arnar Larusson. We discuss #wearables , competition, and overcoming obstacles. http:// bit.ly/2nGTGOo","#wearables","2017-04-04 21:45:46"
"$25b by 2020 for #wearables . But do we really need them? http:// bit.ly/2oyYBp5 via @CruyffInstitute #DataAnalysis #tech #SmartGarmets","#wearables #DataAnalysis #tech #SmartGarmets","2017-04-04 21:36:28"
"The future of data is #Wearables http:// ow.ly/YfkH30ayoUC #digitaltransformation #datascience #bigdata #analytics #IoT","#Wearables #digitaltransformation #datascience #bigdata #analytics #IoT","2017-04-04 21:35:08"
"PPE and the Internet of Things http:// ift.tt/2nBeOVu #wearables #iot","#wearables #iot","2017-04-04 21:31:24"
"9 of the Best Fake Gadgets of 2017 http:// ift.tt/2o6Dr08 #wearables #iot","#wearables #iot","2017-04-04 21:31:23"
"@IoT_Summit 2017 Panel Discussion https:// youtu.be/aFef5jbdauA via @YouTube #IoT #InternetOfThings #wearables @Gartner_inc @HPE_Security","#IoT #InternetOfThings #wearables","2017-04-04 21:29:41"
"Preliminary Study on Wearable Devices based on Artificial Intelligence Algorithms http:// bit.ly/2n8oqfg #AI #Wearables #WomeninTECH pic.twitter.com/UzToSKPl4P","#AI #Wearables #WomeninTECH","2017-04-04 21:20:06"
"Information Management: #Wearables come in for a refit via @LogisticsMgmt http:// bit.ly/2otwTJO #Logistics pic.twitter.com/U5RmUURsXf","#Wearables #Logistics","2017-04-04 21:15:03"
"GTX Corp Reports 2016 Financial Results and Business Overview http:// ift.tt/2nGoBL6 #Wearables #WearableTechnology","#Wearables #WearableTechnology","2017-04-04 21:10:42"
"Revolar Turns the Everyday Step-Counter into a Sexual Assault Prevention Innovation http:// ift.tt/2nZm4ya #Wearables #WearableTechnology","#Wearables #WearableTechnology","2017-04-04 21:10:42"
"Wearable Fitness Tracker Alerts Woman To Dangerous Health Condition http:// ift.tt/2nGRgPW #Wearables #WearableTechnology","#Wearables #WearableTechnology","2017-04-04 21:10:41"
"After Surprise Profits, Blackberry Targets Wearable & Medical Software http:// ift.tt/2nZEQFs #Wearables #WearableTechnology","#Wearables #WearableTechnology","2017-04-04 21:10:40"
"We pick our fave wearable fitness technology http:// ift.tt/2nGOmdY #Wearables #WearableTechnology","#Wearables #WearableTechnology","2017-04-04 21:10:40"
"Wearable Tracks What You Are Eating Based On Arm Movements http:// ow.ly/spFd30ayWL9 #nutrition #foodtech #wearables","#nutrition #foodtech #wearables","2017-04-04 21:10:11"
"Intel To Continue With #Wearables Despite Lack Of A Hit Product http:// buff.ly/2olHMKT pic.twitter.com/6ViHcJNuac","#Wearables","2017-04-04 21:09:11"
"Data privacy and security considerations for the future of #wearables http:// buff.ly/2odiOA3 pic.twitter.com/eXfGrJ8HI1","#wearables","2017-04-04 21:09:02"
"A #video recap of the #NFCinnovationAward winners. #IoT #Wearables #Mobile http:// bit.ly/2ovPapQ","#video #NFCinnovationAward #IoT #Wearables #Mobile","2017-04-04 21:08:00"
"#Wearables | New Balance RunIQ review http:// dlvr.it/NpLdks | @Wareable pic.twitter.com/Ful9AcbyxC","#Wearables","2017-04-04 21:06:10"
"#Wearables | Samsung's Gear S3 software, Tizen, is said to be riddled with security holes http:// dlvr.it/NpLdbd | @Wareable pic.twitter.com/YVo7fqJdb4","#Wearables","2017-04-04 21:06:07"
"#Infographic : The physician view on patient data - Medical Marketing and Media http:// ow.ly/vpgt30ayYMD #wearables","#Infographic #wearables","2017-04-04 21:05:06"
"Time to register for #DevFestDC #DC ! Get #midbird ticket 25% sale: http:// bit.ly/2oW57C6 #DeepLearning #Wearables @GoModev @iotDC pic.twitter.com/91u5UpqHqa","#DevFestDC #DC #midbird #DeepLearning #Wearables","2017-04-04 20:56:01"
"PPE and the Internet of Things http:// ift.tt/2nGMwtR #Wearables","#Wearables","2017-04-04 20:54:17"
"GTX Corp Reports 2016 Financial Results and Business Overview http:// ift.tt/2nZlEYy #Wearables","#Wearables","2017-04-04 20:54:16"
"Sparkle Sweater #eTextiles #wearables https:// youtu.be/JB7tdKRFe6M","#eTextiles #wearables","2017-04-04 20:40:22"
"Step out in style! Yay! #funktionalwearables #fitbitflex2 #fitbitbracelet #etsy #5star #https://www. instagram.com/p/BSeUTmJhaZe/","#funktionalwearables #fitbitflex2 #fitbitbracelet #etsy #5star #https","2017-04-04 20:36:05"
"Safety #sensors for #chemical workers http:// bit.ly/2oWntTA #wearables via @ChemEngMag","#sensors #chemical #wearables","2017-04-04 20:33:31"
"If any connected device can be hacked, then you better know about the security risks of #wearables . 10 things: http:// bit.ly/2o6lJKs #IoT pic.twitter.com/Nqn0GNz6E5","#wearables #IoT","2017-04-04 20:32:05"
"Majority of SMEs Lack Confidence in Security Postures https:// goo.gl/1HPJ1P #Cyber #Wearables pic.twitter.com/AUQCyml86k","#Cyber #Wearables","2017-04-04 20:31:41"
"Adopting Wearables with Enterprise Technology Solutions. #wearables #internetofthings #ERP https:// goo.gl/D241fO pic.twitter.com/r6GRiLvtr6","#wearables #internetofthings #ERP","2017-04-04 20:30:33"
"The use of #wearables may make it possible to cut rates of serious #trauma and readmission. http:// bit.ly/2kaPtU7 #mobile #health","#wearables #trauma #mobile #health","2017-04-04 20:26:00"
"Smart textiles #wearables https:// youtu.be/8MPh2yhhqEc","#wearables","2017-04-04 20:15:24"
"Thanks for the mention, @eMarketer ! http:// ow.ly/uoia30ayXcG #wearables #wearabletech #IoT #bigdata","#wearables #wearabletech #IoT #bigdata","2017-04-04 20:09:32"
"#Wearables for #contactlesspayments will be around soon. See the top 5: http:// bit.ly/2o3O7NH #fashiontech #wristbands #activitytrackers pic.twitter.com/1Kp0mrvOpO","#Wearables #contactlesspayments #fashiontech #wristbands #activitytrackers","2017-04-04 20:05:48"
"Top 10 Smart Dresses We Want To Buy Right Now https:// goo.gl/JHpwqA #FashionTech #Wearables pic.twitter.com/erwtCraRcf","#FashionTech #Wearables","2017-04-04 20:03:47"
"#epatient17 @NorCalHIMSS #SanJose @thetechmuseum @VSee #telehealth #kiosks #chroniccaremanagement #wearables #eldercare #wellness #mhealth pic.twitter.com/Or9gAGguBG","#epatient17 #SanJose #telehealth #kiosks #chroniccaremanagement #wearables #eldercare #wellness #mhealth","2017-04-04 19:52:43"
"Top 10 Smart Dresses We Want To Buy Right Now https:// goo.gl/JHpwqA #FashionTech #Wearables pic.twitter.com/QYWbTVoPU0","#FashionTech #Wearables","2017-04-04 19:49:11"
"Here's why #ING swapped client lunches for gym trips and gave smart watches out #wearables #fintech http:// read.bi/2nE30Tr @BIUK_Finance","#ING #wearables #fintech","2017-04-04 19:46:39"
"Wearables and improved mortality - is there a link? #lifeinsurance #wearables https:// lnkd.in/deY-anw","#lifeinsurance #wearables","2017-04-04 19:46:03"
"#ValueBasedCare could pave the way to #Blockchain adoption http:// bit.ly/2o68bOW #EHR #Wearables #HealthIT pic.twitter.com/GipzTRYZOZ","#ValueBasedCare #Blockchain #EHR #Wearables #HealthIT","2017-04-04 19:45:25"
"#testing #wearables @Rachel28barber sneaky photographer (drinking tea & eating jaffa cakes) whilst @grankin73 does the work! #RPE #veryhard pic.twitter.com/bC0PKejKGj","#testing #wearables #RPE #veryhard","2017-04-04 19:44:30"
"Gadgets To Keep You Fit And Healthy | @Forbes http:// bit.ly/2nUASxP #IoT #Wearables #HealthTech #Health pic.twitter.com/CuLHqSQeR5","#IoT #Wearables #HealthTech #Health","2017-04-04 19:43:03"
"The benefits of supplying employees with #wearables http:// ow.ly/fdKm30auL8h","#wearables","2017-04-04 19:40:18"
"Most of Us Don't Need a Fitness Tracker http:// buff.ly/2nYnAR5 #wearables #iot #m2m","#wearables #iot #m2m","2017-04-04 19:39:01"
"9 of the Best Fake Gadgets of 2017 http:// ift.tt/2oyoCVh #Wearables","#Wearables","2017-04-04 19:34:54"
"Revolar Instinct: a discreet wearable device for your safety http:// ift.tt/2nU6VfT #Wearables","#Wearables","2017-04-04 19:34:53"
"Parexel: wearable data collection creates sponsor efficiencies http:// ift.tt/2oys8ij #Wearables","#Wearables","2017-04-04 19:34:53"
"Osterhout Design Group intros new wearable goggles for hazmat workers http:// ift.tt/2nU24LE #Wearables","#Wearables","2017-04-04 19:34:53"
"Casio to use Microsoft technologies in smartwatches with new patent licensing deal http:// ift.tt/2oydho7 #Wearables","#Wearables","2017-04-04 19:34:52"
"VivaLnk Announces FDA 510(k) Clearance and General Availability for eSkin Wearable http:// ift.tt/2nTVfcL #Wearables","#Wearables","2017-04-04 19:34:52"
"VivaLnk's medical-grade eSkin wearable, Fever Scout, goes on sale http:// ift.tt/2oyswgX #Wearables","#Wearables","2017-04-04 19:34:51"
"After Surprise Profits, Blackberry Targets Wearable & Medical Software http:// ift.tt/2nTVHIj #Wearables","#Wearables","2017-04-04 19:34:51"
"#Google Glass Didn't Disappear. You Can Find It On The Factory Floor #Wearables #enterprise #manufacturing @AGCOcorp http:// n.pr/2nQrR9w","#Google #Wearables #enterprise #manufacturing","2017-04-04 19:32:26"
"Scientists Are Developing a Contact Lens That Tells You When You're Sick http:// buff.ly/2oU5WLN #wearables #iot #m2m","#wearables #iot #m2m","2017-04-04 19:29:08"
"Lensta Kit : Turn #iPhone Into #Camera & Wear It https:// goo.gl/9FZWMS #photography #photographykit #camera #cameralens #lens #wearables pic.twitter.com/3TuTZkQBF3","#iPhone #Camera #photography #photographykit #camera #cameralens #lens #wearables","2017-04-04 19:25:11"
"How @IBMWatsonHealth , @Medtronic & @Novartis Are Bringing The Future of #mHealth #Wearables Near You: http:// buff.ly/2nYnQQ3 #digitalhealth pic.twitter.com/3VUceLsJLe","#mHealth #Wearables #digitalhealth","2017-04-04 19:24:04"
"These neuroscience #wearables are used to alter users brain/body communications. http:// bit.ly/2okfksO","#wearables","2017-04-04 19:16:00"
"Deal: LG Watch Style Smartwatch for just $179 - 4/4/17 http:// ift.tt/2oyWD7J #Wearables #Smartwatch","#Wearables #Smartwatch","2017-04-04 19:09:41"
"Microsoft signs patent deal with Casio for smartwatch technologies http:// ift.tt/2oVYJuX #Wearables #Smartwatch","#Wearables #Smartwatch","2017-04-04 19:09:41"
"Next Apple Watch could have standalone mobile connectivity http:// ift.tt/2ozalY7 #Wearables #Smartwatch","#Wearables #Smartwatch","2017-04-04 19:09:40"
"Casio to use Microsoft technologies in smartwatches with new patent licensing deal http:// ift.tt/2oW9dKN #Wearables #Smartwatch","#Wearables #Smartwatch","2017-04-04 19:09:40"
"Children Smart Watch Market Research Report Now Available at Research Corridor http:// ift.tt/2oyZe1k #Wearables #Smartwatch","#Wearables #Smartwatch","2017-04-04 19:09:39"
"Wearable Fitness Tracker Alerts Woman To Dangerous Health Condition http:// ift.tt/2oyWAc3 #Wearables #Smartwatch","#Wearables #Smartwatch","2017-04-04 19:09:38"
"This Smart Watch Aims To Be Completely Modular http:// ift.tt/2oWhqhT #Wearables #Smartwatch","#Wearables #Smartwatch","2017-04-04 19:09:37"
""" Wearables are an increasingly valuable tool in drug development."" http:// bit.ly/2dc022A #Wearables #pharma #DigitalHealth #IoT","#Wearables #pharma #DigitalHealth #IoT","2017-04-04 19:03:01"
"Car Commerce Tracker: Investment Activity http:// ift.tt/2nTVmFb #activitytracker #wearables","#activitytracker #wearables","2017-04-04 19:02:41"
"Most of Us Don't Need a Fitness Tracker http:// ift.tt/2oyjgt3 #activitytracker #wearables","#activitytracker #wearables","2017-04-04 19:02:40"
"Innovative #Apparel Show 2017 becomes more international - http:// ow.ly/YzJ030ayBZt #textiles #wearables pic.twitter.com/Rk2czqJvAh","#Apparel #textiles #wearables","2017-04-04 19:00:30"
"Boston University looks for insights to Alzheimer's from wearables http:// bit.ly/2mlGX4b via @rww #health #wearables","#health #wearables","2017-04-04 18:55:15"
"Corporate Wellness Programs Get Boost From Wearables http:// buff.ly/2lkCRai #wearables #wearabletech #wellness","#wearables #wearabletech #wellness","2017-04-04 18:51:00"
"LG Watch-Style Android Smartwatch http:// ift.tt/2n7MM92 #smartwatch #wearables","#smartwatch #wearables","2017-04-04 18:46:51"
"How #wearables influence the future of #Mobile Apps? http:// buff.ly/2kkZgp0 #iPhone #watch #Fitbit #Fitness pic.twitter.com/vd6w7zY2Ju","#wearables #Mobile #iPhone #watch #Fitbit #Fitness","2017-04-04 18:46:02"
"Tech challenge could produce next big wearable tech http:// snip.ly/x1q3x #fitness #fittech #fitnesstech #startups #wearables","#fitness #fittech #fitnesstech #startups #wearables","2017-04-04 18:34:43"
"#BlackBerry turns its eye to #wearable technology and #medicaldevice http:// bit.ly/2oVU6Rs #wearables #digitalhealth pic.twitter.com/B7TI3OGPwI","#BlackBerry #wearable #medicaldevice #wearables #digitalhealth","2017-04-04 18:34:39"
"Revolar Instinct: a discreet wearable device for your safety http:// ift.tt/2nTHACv #wearables #iot","#wearables #iot","2017-04-04 18:31:34"
"GTX Corp Reports 2016 Financial Results and Business Overview http:// ift.tt/2nYNPqi #wearables #iot","#wearables #iot","2017-04-04 18:31:34"
"Parexel: wearable data collection creates sponsor efficiencies http:// ift.tt/2nTOyHU #wearables #iot","#wearables #iot","2017-04-04 18:31:33"
"Casio to use Microsoft technologies in smartwatches with new patent licensing deal http:// ift.tt/2nYQJvx #wearables #iot","#wearables #iot","2017-04-04 18:31:32"
"VivaLnk Announces FDA 510(k) Clearance and General Availability for eSkin Wearable http:// ift.tt/2nTMjEi #wearables #iot","#wearables #iot","2017-04-04 18:31:32"
"VivaLnk's medical-grade eSkin wearable, Fever Scout, goes on sale http:// ift.tt/2nYSB7e #wearables #iot","#wearables #iot","2017-04-04 18:31:31"
"After Surprise Profits, Blackberry Targets Wearable & Medical Software http:// ift.tt/2nTOzLY #wearables #iot","#wearables #iot","2017-04-04 18:31:30"
"""It's been a real help when I received the #EmbraceWatch . It's a real #lifesaver !"" - C. Baker #Epilepsy #wearables #tech #EpilepsyAwareness","#EmbraceWatch #lifesaver #Epilepsy #wearables #tech #EpilepsyAwareness","2017-04-04 18:30:22"
"Low Cost Affordability Driving Growth in Indian Wearable Market http:// snip.ly/xazm4 #fitness #fittech #fitnesstech #startups #wearables","#fitness #fittech #fitnesstech #startups #wearables","2017-04-04 18:28:14"
"Rad! Cancer-fighting cap that stops tumors from growing https:// qz.com/948526 via @qz @katherineefoley #wearables","#wearables","2017-04-04 18:22:12"
"When Design Meets Tech: The VR MILD Headset. #VR #Wearables #Tech #VRMild #Headset http:// bit.ly/2nzVok3 by @_VRrOOm_ pic.twitter.com/7NY6Psyhhp","#VR #Wearables #Tech #VRMild #Headset","2017-04-04 18:22:04"
"THE FUTURE OF SAFETY SENSORS IS HERE http:// buff.ly/2nYYZeU #wearables #workplacesafety #connectedworker #IoT Ft #EWTS17 sponsor @upskillio pic.twitter.com/oZWJXOAuVL","#wearables #workplacesafety #connectedworker #IoT #EWTS17","2017-04-04 18:21:44"
"Scientists Are Developing a Contact Lens That Tells You When You're Sick http:// flip.it/JzghoD #IoT #wearables #eHealth","#IoT #wearables #eHealth","2017-04-04 18:19:20"
"#Wearables | Best fitness trackers 2017: Fitbit, Garmin, Misfit, Withings and more http:// dlvr.it/NpHQ3h | @Wareable pic.twitter.com/db3fhOPo9S","#Wearables","2017-04-04 18:19:11"
"Microsoft signs patent deal with Casio for smartwatch technologies http:// ift.tt/2oVM2Ad #smartwatch #wearables","#smartwatch #wearables","2017-04-04 18:16:35"
"Next Apple Watch could have standalone mobile connectivity http:// ift.tt/2oyCQ8s #smartwatch #wearables","#smartwatch #wearables","2017-04-04 18:16:35"
"Casio to use Microsoft technologies in smartwatches with new patent licensing deal http:// ift.tt/2oVMwGC #smartwatch #wearables","#smartwatch #wearables","2017-04-04 18:16:34"
"Children Smart Watch Market Research Report Now Available at Research Corridor http:// ift.tt/2oyIjfq #smartwatch #wearables","#smartwatch #wearables","2017-04-04 18:16:34"
"Wearable Fitness Tracker Alerts Woman To Dangerous Health Condition http:// ift.tt/2oyO4JV #smartwatch #wearables","#smartwatch #wearables","2017-04-04 18:16:33"
"This Smart Watch Aims To Be Completely Modular http:// ift.tt/2oVOw1o #smartwatch #wearables","#smartwatch #wearables","2017-04-04 18:16:32"
"Microsoft to combine own tech with Casio smartwatches http:// ift.tt/2oyIkA0 #smartwatch #wearables","#smartwatch #wearables","2017-04-04 18:16:32"
"We want to help you bring your custom soft sided #wearables or carrying #cases to market: http:// ow.ly/4iDj30avCvR","#wearables #cases","2017-04-04 18:10:22"
"Holy cow! @shape_scale visualizes your fat loss & muscle gains in 3D! #IoT #wearables http:// queue.vip/eYSLRmF https:// youtu.be/W7doB0msqMw","#IoT #wearables","2017-04-04 18:09:30"
"Consumers love tracking their steps via @fitbit . But how do #wearables actually affect the #health of patients? http:// bit.ly/2o5XhZB pic.twitter.com/3pvtwvYOIu","#wearables #health","2017-04-04 18:09:16"
"Holy cow! @shape_scale visualizes your fat loss & muscle gains in 3D! #IoT #wearables http:// queue.vip/T6CwZy8 https:// youtu.be/W7doB0msqMw","#IoT #wearables","2017-04-04 18:05:42"
"How patients share their @fitbit data with their HCPs via @WebMD & @MMMnews #cmievo #wearables #infographic http:// ow.ly/rzCx30axNP4","#cmievo #wearables #infographic","2017-04-04 18:05:15"
"As fashion plays more of a role, brands are hopping onto the #wearables bandwagon. http:// bit.ly/2oyBdHP @MichaelKors @Fossil @xiaomi","#wearables","2017-04-04 18:05:01"
"#getRocketbook : #Rocketbook Wave intelligent reusable notebook https:// goo.gl/1izhGb #SmartNotebook #Rocketbook #edtech #tech #wearables pic.twitter.com/BXZBaXfZU5","#getRocketbook #Rocketbook #SmartNotebook #Rocketbook #edtech #tech #wearables","2017-04-04 18:00:55"
"Monitor and check the vital signs of your loved ones remotely*. With a tap. #wearables #helo #toshiba #technology http:// gerri.helo.life","#wearables #helo #toshiba #technology","2017-04-04 18:00:25"
"Fitness tracker clues woman in to life-threatening condition @CNN http:// cnn.it/2nBAGRK #wearables #savinglives","#wearables #savinglives","2017-04-04 18:00:06"
"#Infographic : The physician view on #patients ' data. #Doctors #survey #Wearables @WebMD http:// bit.ly/2nAsm4z pic.twitter.com/ieoTgThfhZ","#Infographic #patients #Doctors #survey #Wearables","2017-04-04 18:00:04"
"This rugged AR eyewear is similar to Google Glass but won't break http:// ift.tt/2oxOMYb #Google #Wearables","#Google #Wearables","2017-04-04 17:51:25"
"Are #Wearables the Right Fit for Your #Warehouse ? http:// buff.ly/2nYOKr7 #smartglasses #logistics #enterprise","#Wearables #Warehouse #smartglasses #logistics #enterprise","2017-04-04 17:45:10"
". @PAREXEL leverages #wearables and sensor #tech to transform clinical trial data collection http:// bit.ly/2n6eWB5","#wearables #tech","2017-04-04 17:35:08"
"Border-guard dogs set to get smart collars to monitor their health http:// dailym.ai/2ouQA4g #wearables","#wearables","2017-04-04 17:30:52"
"Amazing story! #Wearables needs more stories like this, less about how the industry is suffering. I see apple watches and fitbits everywhere","#Wearables","2017-04-04 17:23:15"
"Karl Lagerfeld On Fashion And Technology http:// goo.gl/IF7fum #FashionTech #Wearables #Fashion #Futuristic #Technology pic.twitter.com/ad9h4XDeba","#FashionTech #Wearables #Fashion #Futuristic #Technology","2017-04-04 17:16:19"
"#Wearables | The biggest wearable and smart home crowdfunding campaigns of all time http:// dlvr.it/NpG2Fn | @Wareable pic.twitter.com/AqJ3c5qcXb","#Wearables","2017-04-04 17:16:10"
"#tapdo_io : #tapdo fingerprint button https:// goo.gl/3ENgJr #wearabletech #wearables #smartbutton #IoT pic.twitter.com/QT1OpOOO8B","#tapdo_io #tapdo #wearabletech #wearables #smartbutton #IoT","2017-04-04 17:15:23"
"10 Wearable Tech Startups Disrupting The Fashion Industry http:// goo.gl/uPhEhf #FashionTech #Wearables #Fashion pic.twitter.com/UD9078wCwH","#FashionTech #Wearables #Fashion","2017-04-04 17:13:11"
"#Value -based care could pave way for #blockchain adoption in #health . #IT #payer #security #finance #EHR #wearables https:// goo.gl/1RS9Jg","#Value #blockchain #health #IT #payer #security #finance #EHR #wearables","2017-04-04 17:10:01"
"#wearables Senior Care and Wearables - http:// DABCC.com http:// bit.ly/2nAt1SC","#wearables","2017-04-04 17:05:22"
"#wearables Microsoft and Casio strike up wearable partnership - let's speculate ... - Wareable http:// bit.ly/2nAmaZB","#wearables","2017-04-04 17:05:21"
"New Product Development: 5 Steps To Bring Your Idea To Market #manufacturing #sewing #wearables http:// ow.ly/Em5w30avCnb","#manufacturing #sewing #wearables","2017-04-04 17:01:08"
"This health and fitness startup is now a Harvard case study http:// buff.ly/2nWrmuh #wearables","#wearables","2017-04-04 16:57:08"
"The Benefits of Health Technology [Infographic] [by @SGFinTech ] #HealthTech #Insurtech #HealthCare #DigitalHealth #Wearables #BigData #IoT pic.twitter.com/s3qSQXC42T","#HealthTech #Insurtech #HealthCare #DigitalHealth #Wearables #BigData #IoT","2017-04-04 16:36:11"
"#Wearables : 3 faves of 2017 (so far) http:// bit.ly/2nQEIqa | #Tech #Fashion #Fitness pic.twitter.com/rIZ6tVu16f","#Wearables #Tech #Fashion #Fitness","2017-04-04 16:31:18"
"Plenary sessions going on now! #AR #VR #MR and the #future of #wearables Houston Ballroom IV-VII #spar3d17","#AR #VR #MR #future #wearables #spar3d17","2017-04-04 16:21:26"
"Most of Us Don't Need a Fitness Tracker http:// dlvr.it/NpDjsf #healthandfitness #wearables","#healthandfitness #wearables","2017-04-04 16:15:26"
"Most of Us Don't Need a Fitness Tracker https:// goo.gl/fb/YLsZ8p #healthandfitness #wearables #fitnesstrackers #apple #google #fibit","#healthandfitness #wearables #fitnesstrackers #apple #google #fibit","2017-04-04 16:12:24"
"Infiniti launches a startup lab in Toronto to focus on IoT and smart cities https:// goo.gl/rQUHv1 #Wearables #IoT pic.twitter.com/Uc1Lpc3IQl","#Wearables #IoT","2017-04-04 16:06:07"
"Very nice article on smartwatches Got to know many things i didnt know. Thanks a lot @FlipkartStories u deserve a loud appalause #Wearables pic.twitter.com/QOgdVt6Jg0","#Wearables","2017-04-04 16:01:33"
"Have you met Gemma yet? The mini wearable microcontroller from @adafruit http:// ow.ly/bQuX30awT2p #adafruit #wearables pic.twitter.com/TzHMCtIgIR","#adafruit #wearables","2017-04-04 16:01:15"
"Some interesting speakers on #wearables and e-textiles for health tech lined up at #MEDPACK2017 on May 18th. http:// ow.ly/LJCB30axJhm","#wearables #MEDPACK2017","2017-04-04 16:00:49"
"How to Force Quit #Apps in #WatchOS3 on #AppleWatch . #Wearables http:// bit.ly/2oTvWqL","#Apps #WatchOS3 #AppleWatch #Wearables","2017-04-04 15:58:12"
"The WT | Wearable Technologies Picnic is Back! http:// ift.tt/2oxq2zw #wearables","#wearables","2017-04-04 15:57:04"
"How #Nike and #UnderArmour Became #BigData Businesses | @Forbes http:// ow.ly/KTUh306gRux #Wearables #IoT #CX pic.twitter.com/ADfvlpE4RE","#Nike #UnderArmour #BigData #Wearables #IoT #CX","2017-04-04 15:55:12"
"Wearables : The next big thing in payments? http:// ow.ly/qlG030axzC4 #FinTech #payments #wearables","#FinTech #payments #wearables","2017-04-04 15:55:09"
"#Medical #Wearables : Adhesive polymer materials serve multiple roles http:// buff.ly/2nzkm3J pic.twitter.com/udOZ2RPOo8","#Medical #Wearables","2017-04-04 15:33:04"
"These #wearables by @snap40 will be trialled by @NHSEngland to constantly monitor patients http:// bit.ly/2me4YZl #Health #IoT #Innovation","#wearables #Health #IoT #Innovation","2017-04-04 15:16:45"
"Camiseta Lilypad, transmisor 315 MHz con #Arduino , encoder y teclado #wearables https:// youtu.be/fwoBD3aL7Lw","#Arduino #wearables","2017-04-04 15:15:21"
"#Poll :Airlines can deploy #wearables for #aviation upkeep -when will this become the next big thing in #engineering ? http:// bit.ly/2nFdsK9","#Poll #wearables #aviation #engineering","2017-04-04 15:14:52"
"Also #MadeInMexico : Lifesaving #Devices http:// bit.ly/2nAfz25 #medicaldevice #wearables #digitalhealth #Mexico pic.twitter.com/ArD3RlGcQa","#MadeInMexico #Devices #medicaldevice #wearables #digitalhealth #Mexico","2017-04-04 15:13:12"
"Abode's DIY security system has an option for every home video - CNET https:// goo.gl/I6JSfP #Wearables #IoT pic.twitter.com/xEfGaFfx7z","#Wearables #IoT","2017-04-04 15:13:11"
"#Wearables Market Growth Shifting To #Smartwatches http:// buff.ly/2ohqi2j #IoT #Digital pic.twitter.com/IR3Exd0Bib","#Wearables #Smartwatches #IoT #Digital","2017-04-04 15:08:04"
"FashNerd | Can Smart Rings Be More Than Just Another Notifications Device? http:// 10ng.co/sRingsa #SmartRing #Wearables #Report @Motiv pic.twitter.com/7D4FzJ3nEm","#SmartRing #Wearables #Report","2017-04-04 15:06:10"
"Extend your #AndroidWear watch's #battery life with these quick #tips . http:// bit.ly/2oTpeAY #Wearables pic.twitter.com/7BCrkk2TiW","#AndroidWear #battery #tips #Wearables","2017-04-04 15:04:01"
"Senior Care and Wearables - http:// bit.ly/2oUR8wu #heathcareIT #Wearables via @getlua","#heathcareIT #Wearables","2017-04-04 15:03:18"
"Interesting article on how the rise of #wearables has led to new privacy concerns http:// bit.ly/2o6YMqH via @itproportal","#wearables","2017-04-04 15:01:38"
"Top 10 Insurtech Trends for 2017 http:// bit.ly/2nzNKWU #wearables #AI #IoT #innovation #blockchain #privacy @LetsTalkPaymnts @amitTwitr pic.twitter.com/iEtfsDc6Cw","#wearables #AI #IoT #innovation #blockchain #privacy","2017-04-04 14:57:41"
