"Scarcity is one of the most powerful human influencers. Learn how to leverage this in your #marketing : http:// bit.ly/2cCvvjG #scarcity","#marketing #scarcity","2017-04-06 00:47:19"
"Fuel Scarcity Looms As Tanker Drivers Begin Indefinite Strike Monday http:// tinyurl.com/mwm8nbp #FuelScarcity #Nigeria #NUPENG","#FuelScarcity #Nigeria #NUPENG","2017-04-05 18:16:12"
"okay ba yung ayaw ko maligo dahil nasa laundry lahat ng towel namen hahaha huhu #SinongMagaadjust #Scarcity","#SinongMagaadjust #Scarcity","2017-04-05 14:10:55"
"#Uniqueness and #scarcity work together like Batman and Robin. Do you have it? http:// snip.ly/WPZx","#Uniqueness #scarcity","2017-04-05 13:41:26"
"NEW Briefing Released on #Water #Scarcity , Quality, and Regulations In the #US : http:// buff.ly/2p0bPXY","#Water #Scarcity #US","2017-04-05 13:40:24"
"Fuel Scarcity Looms As Tanker Drivers Begin Indefinite Strike Monday http:// tinyurl.com/mwm8nbp #FuelScarcity #Nigeria #NUPENG","#FuelScarcity #Nigeria #NUPENG","2017-04-05 08:08:34"
"If place #labor at center of #economics models (as political Keynesianism does); cannot by definition be scarce. #Scarcity rules real world","#labor #economics #Scarcity","2017-04-05 02:59:11"
"Scarcity is one of the most powerful human influencers. Learn how to leverage this in your #marketing - http:// bit.ly/2cpHlKB #scarcity pic.twitter.com/Cz3cihfzKM","#marketing #scarcity","2017-04-05 01:40:22"
"We need to stop thinking in terms of #Scarcity and start thinking in terms of #Abundance . http:// fb.me/wUhoRJDs","#Scarcity #Abundance","2017-04-04 22:57:52"
"Fuel Scarcity Looms As Tanker Drivers Begin Indefinite Strike Monday http:// tinyurl.com/mwm8nbp #FuelScarcity #Nigeria #NUPENG","#FuelScarcity #Nigeria #NUPENG","2017-04-04 20:00:19"
"Capitalism fabricates #Scarcity #ThereIsPlentyOfFood","#Scarcity #ThereIsPlentyOfFood","2017-04-04 17:55:55"
