"""As we get older our social networks can shrink to nobody"" - @buddy_hub @#RSAengage #agingpopulation #techforgood #socialtech pic.twitter.com/cganvN0boq","#RSAengage #agingpopulation #techforgood #socialtech","2017-04-03 20:42:25"
"Indian leader worried abt #CPEC Pak abt kidney n pelting stones China abt #slowingeconomy .Japan abt #agingpopulation . USA busy #Tweeting","#CPEC #slowingeconomy #agingpopulation #Tweeting","2017-04-03 07:32:33"
"Is an Aging Asia a $20 Trillion Risk or Opportunity? #agingpopulation #asia #livinglonger http://www. brinknews.com/ufM","#agingpopulation #asia #livinglonger","2017-03-29 10:16:06"
"#SelfDrivingCars Could Be Boon for Aged, After Initial Hurdles. https:// nyti.ms/2nHiObg #autonomouscars #health #mobility #agingpopulation","#SelfDrivingCars #autonomouscars #health #mobility #agingpopulation","2017-03-26 18:37:55"
"Since 2016, Japan sold more diapers for old people than for babies. The aging population Mayhem is real. #agingpopulation","#agingpopulation","2017-03-24 15:29:37"
"By 2050, the number of people aged 80+ will triple. We will serve them & alleviate malnutrition 4 #agingpopulation #nationalnutritionmonth pic.twitter.com/pj5h7rhaxt","#agingpopulation #nationalnutritionmonth","2017-03-23 18:58:00"
"How increasing #agingpopulation rates are affecting home healthcare & how they are supported financially http:// bit.ly/2dnjZsW pic.twitter.com/sPBL9xUCaL","#agingpopulation","2017-03-22 17:50:21"
"If you were a world leader, how would you deal with #AgingPopulation ? Play on The end game? http:// ow.ly/wvmd30a4iy8 pic.twitter.com/swwh4Bxjyc pic.twitter.com/dzfFEXKnIM","#AgingPopulation","2017-03-21 18:05:15"
"Gov needs to stop wasting time tilting at windmills & provide for our elderly which we are all rapidly becoming #Agingpopulation","#Agingpopulation","2017-03-21 13:03:10"
"If you were a world leader, how would you deal with #AgingPopulation ? Play on The end game? http:// ow.ly/wvmd30a4iy8 pic.twitter.com/MMxkAnkDn3","#AgingPopulation","2017-03-20 14:00:31"
"#Physician shortage could hit 100K by 2030 #patientpopulation #agingpopulation via @FierceHealth http:// dell.to/2mT3dUW pic.twitter.com/7ByiZAwNi7","#Physician #patientpopulation #agingpopulation","2017-03-17 19:25:01"
"Es interesante pensar que con #AgingPopulation (sin entrar en divagues tipo inmortalidad o singularity) este ratio => 1.","#AgingPopulation","2017-03-13 00:25:48"
"no- it's been in demographics for years/Demographers lauded more young people/immigrants to USA b/c #agingPopulation","#agingPopulation","2017-03-12 23:45:17"
"Thanks NST for featuring our projects in your life and times section #NST #agingpopulation #SDG11 #livinglibrary pic.twitter.com/AboPQofRcq","#NST #agingpopulation #SDG11 #livinglibrary","2017-03-11 08:41:54"
"Robots might be saving the world from a demographic disaster http:// buff.ly/2mpkhBp via @BIUK_Finance #agingpopulation pic.twitter.com/VFWwsEbojJ","#agingpopulation","2017-03-10 20:34:01"
"#VW showcases a new #selfdrivingcar , Sedric. The possibilities for #agingpopulation are exciting! http:// ow.ly/RzC7309Krb8","#VW #selfdrivingcar #agingpopulation","2017-03-10 18:55:05"
"It is time to take action on a #dementia strategy to ensure the future is manageable. #agingpopulation http:// ow.ly/LXjD309vge8 @CathNews","#dementia #agingpopulation","2017-03-05 23:30:23"
"What is your strategy to ensure the innovators of tomorrow have a voice in your #smartcity vision? #agingpopulation http:// buff.ly/2mTvhV2 pic.twitter.com/hviPBwgJ81","#smartcity #agingpopulation","2017-03-05 09:07:01"
"Medical prices, #agingpopulation to speed up health spending growth http:// ow.ly/qsX1309u1v0 #seniorcare #healthcare pic.twitter.com/nRqMCgC4t3","#agingpopulation #seniorcare #healthcare","2017-03-02 15:01:14"
"Medical prices, #agingpopulation to speed up health spending growth http:// ow.ly/qsX1309u1v0 #seniorcare #healthcare pic.twitter.com/T0IBAOyDTM","#agingpopulation #seniorcare #healthcare","2017-03-02 15:01:14"
"#NFFN is meeting late tonight to study #agingpopulation . Hope everyone at the @SenateCA Social is having a great time #SenCA pic.twitter.com/Nmem8oUfKE","#NFFN #agingpopulation #SenCA","2017-03-02 02:55:26"
"Topics: #Diversity #HumanRights #Veterans #Finance #C6 #S231 #Indigenous #AgingPopulation Schedule http:// ow.ly/4mKlax #SenCA #cdnpoli pic.twitter.com/r1wgVVN7jm","#Diversity #HumanRights #Veterans #Finance #C6 #S231 #Indigenous #AgingPopulation #SenCA #cdnpoli","2017-03-01 14:01:22"
"that or with a bit of luck the thing will wipe my arse when I'm old.. #AgingPopulation","#AgingPopulation","2017-02-28 22:00:26"
"3 Minutes With: Mike Mancuso, Executive Director at SOD Center talks about #NewHousing #AgingPopulation #Development http:// hubs.ly/H06tgjG0 pic.twitter.com/hiDgO4NMAj","#NewHousing #AgingPopulation #Development","2017-02-28 17:20:02"
"Topics: #Indigenous #AgingPopulation #Finance #LowCarbon #S203 Full schedule: http:// ow.ly/FsE6309kSGP #SenCA #cdnpoli pic.twitter.com/fWb1gbE1C6","#Indigenous #AgingPopulation #Finance #LowCarbon #S203 #SenCA #cdnpoli","2017-02-28 13:45:19"
"Rehab robotics field promises to return control, mobility to #agingpopulation http:// ow.ly/ad1U309f7do ... http:// fb.me/3KqJ7vgFG","#agingpopulation","2017-02-27 19:30:25"
"Rehab robotics field promises to return control, mobility to #agingpopulation http:// ow.ly/ad1U309f7do #eldercare #elder #law","#agingpopulation #eldercare #elder #law","2017-02-27 19:30:20"
"Rehab robotics field promises to return control, mobility to #agingpopulation http:// ow.ly/ad1U309f7do #eldercare","#agingpopulation #eldercare","2017-02-26 09:00:31"
"Rehab robotics field promises to return control, mobility to #agingpopulation http:// ow.ly/ad1U309f7do #eldercare","#agingpopulation #eldercare","2017-02-26 09:00:31"
"How Will Long Island Care For Its Rapidly #AgingPopulation ? http://www. tinyurl.com/gugyvqv #eldercare","#AgingPopulation #eldercare","2017-02-25 23:55:21"
"How Will Long Island Care For Its Rapidly #AgingPopulation ? http://www. tinyurl.com/gugyvqv #eldercare","#AgingPopulation #eldercare","2017-02-25 23:55:21"
"With labor shortage in an #agingpopulation , #immigrant -shy #Japan is luring #foreign #workers http:// ecoti.in/39PN2Y via @economictimes","#agingpopulation #immigrant #Japan #foreign #workers","2017-02-24 15:50:06"
"Considering a role as caregiver for an aging relative? Great article on how to prepare #caregivers #agingpopulation http:// hubs.ly/H06rc4L0 pic.twitter.com/1mY7i1WFow","#caregivers #agingpopulation","2017-02-24 13:55:02"
"If life expectancy is set to rise significantly as reported, we must adjust & plan. #future #pensions #retirementplanning #agingpopulation","#future #pensions #retirementplanning #agingpopulation","2017-02-24 12:35:03"
"Learn how to minimise muscle loss and optimise the health of your patients aged over 65 #agingpopulation >> http:// bit.ly/2l5ZwIc","#agingpopulation","2017-02-23 04:00:09"
"#agingpopulation #accessibilityfeatures iOS: https:// goo.gl/5xHVZd Android: https:// goo.gl/XhNVS5 Windows: https:// goo.gl/7r6GEZ","#agingpopulation #accessibilityfeatures","2017-02-21 19:02:54"
"Totally sick of older people being blamed for ""failure"" of #NHS . Convenient to blame #AgingPopulation","#NHS #AgingPopulation","2017-02-21 10:37:50"
"We need to start planning from now on as our cities will become an #agingpopulation https:// shar.es/19EuEM #health #science #SDGs","#agingpopulation #health #science #SDGs","2017-02-20 07:02:06"
"Restaurants are slowly beginning to cater to the #agingpopulation who have #dysphagia : http:// buff.ly/2lH2vaF pic.twitter.com/hVtQ24M14b","#agingpopulation #dysphagia","2017-02-15 13:15:02"
"Why does #Denmark & #nordic mkts rank #1 for #agingpopulation #pensions & #retirement . Where does your country rank? http:// bit.ly/2l3WUvd pic.twitter.com/leNRcbu3MN","#Denmark #nordic #1 #agingpopulation #pensions #retirement","2017-02-14 14:19:20"
"Can't fight #agingpopulation #demographics https:// lnkd.in/eVtN9mt #careeradvice #jobsearch #growthindustry #babyboomers #silentgeneration","#agingpopulation #demographics #careeradvice #jobsearch #growthindustry #babyboomers #silentgeneration","2017-02-13 17:52:35"
"U.K. Pensioners Overtake Working Family Incomes for First Time #agingpopulation http:// bloom.bg/2lAtJTi","#agingpopulation","2017-02-13 12:10:04"
"#Agingpopulation is a time bomb. It's time to think where we are heading http:// ow.ly/boQX308S3L2 via @PlaceMakersLLC #aging pic.twitter.com/k2iLrPvECz","#Agingpopulation #aging","2017-02-10 16:00:42"
"Understand likely implications of the #agingpopulation for your organisation & #learninganddevelopment strategy. http:// ow.ly/dvgX308FJb6","#agingpopulation #learninganddevelopment","2017-02-06 10:30:43"
"Asia must find innovative ways to sustain economic expansion, and provide better support for its #agingpopulation http:// bit.ly/2j85V4w pic.twitter.com/RfSSHQ1ihq","#agingpopulation","2017-02-02 01:01:09"
"Jeez. Someone clearly doesn't understand demographics. #c4news #AgingPopulation","#c4news #AgingPopulation","2017-02-01 21:02:40"
"#Aging America to Stifle Growth in America via @Barrons #agingpopulation http:// ow.ly/fkHA308nZ20 pic.twitter.com/IQ8nk8m19E","#Aging #agingpopulation","2017-02-01 06:00:36"
"#Aging America to Stifle Growth in America via @Barrons #agingpopulation http:// ow.ly/fkHA308nZ20 pic.twitter.com/TjjPppI5mr","#Aging #agingpopulation","2017-02-01 06:00:36"
"As the population lives longer the number of people living with sight loss, hearing loss or both is rising #agingpopulation #sensory","#agingpopulation #sensory","2017-01-30 15:32:00"
"@SFU Hope #mycanada2067 will be senior-friendly, and services for older adults will be better. #gerontology #agingpopulation #Canada150","#mycanada2067 #gerontology #agingpopulation #Canada150","2017-01-29 23:45:48"
"What is your strategy to ensure the innovators of tomorrow have a voice in your #smartcity vision? #agingpopulation http:// buff.ly/2iShKdX pic.twitter.com/fKkUa9dMFC","#smartcity #agingpopulation","2017-01-29 20:18:02"
"Addressing the nursing shortages for an #agingpopulation http:// ow.ly/Q55s308pS0J Can #IoT and #homeautomation ease the burden? #K4Connect","#agingpopulation #IoT #homeautomation #K4Connect","2017-01-28 22:55:09"
"My Wish: U.S. Government Policies Reflecting Our #Aging Society via @Forbes #agingpopulation http:// ow.ly/PPF1308nZ0U pic.twitter.com/b9rQn2hreA","#Aging #agingpopulation","2017-01-28 12:00:50"
"My Wish: U.S. Government Policies Reflecting Our #Aging Society via @Forbes #agingpopulation http:// ow.ly/PPF1308nZ0U pic.twitter.com/K6uYeZDWyD","#Aging #agingpopulation","2017-01-28 12:00:50"
"@LifeSpanNetwork weighs in on future of #SeniorCare under new Administration, #AgingPopulation and trends. http:// hubs.ly/H0612__0","#SeniorCare #AgingPopulation","2017-01-27 20:04:08"
"#Canada beckons #internationalstudents with a path to #citizenship as part of a plan to offset an #agingpopulation . https:// nyti.ms/2jCy1VW","#Canada #internationalstudents #citizenship #agingpopulation","2017-01-27 09:24:36"
"As awesome as a new hospital would be, glad to see some thought to being put in a LTC. #openbeds #moreprocedures #agingpopulation","#openbeds #moreprocedures #agingpopulation","2017-01-24 03:38:18"
"#Walkability and #Urbanism is equally important for retirement communities! http:// ow.ly/Fjsy308gPtZ #agingpopulation","#Walkability #Urbanism #agingpopulation","2017-01-23 22:30:26"
"What is your strategy to ensure innovators of tomorrow have a voice in your #smartcity vision? #agingpopulation #hbr http:// buff.ly/2iShKdX pic.twitter.com/mqxyJfRU2v","#smartcity #agingpopulation #hbr","2017-01-23 20:18:02"
"#Pensions are underfunded, individual savings are inadequate to meet future needs. #agingpopulation . #mendthegap http:// bit.ly/2k8zLpA pic.twitter.com/tEbKWQ7PYr","#Pensions #agingpopulation #mendthegap","2017-01-20 16:56:58"
"#Tech sees opportunity in #agingpopulation . http:// ow.ly/5dqP308aA0x","#Tech #agingpopulation","2017-01-20 12:00:46"
""" #Agingpopulation is the key driver - Public, private & individuals, all have to work together to address the issue"" @JAPortalatin #wef17","#Agingpopulation #wef17","2017-01-18 07:43:59"
"Moral is kids: no point is paying tax all your life because this will obviously happen to you too in future. #Nhs #AgingPopulation","#Nhs #AgingPopulation","2017-01-15 20:03:13"
"@SkyNews what a disgrace, no-1 will admit #massmigration has massively stressed #nhs instead its British ' #agingpopulation ' #alloutpolitics","#massmigration #nhs #agingpopulation #alloutpolitics","2017-01-13 11:44:28"
"Roadshow #G4ASg @grants4apps for #AgingPopulation and #MedicationAdherence in Singapore, Huiping and Gavin pic.twitter.com/W9X8k4zOUo","#G4ASg #AgingPopulation #MedicationAdherence","2017-01-12 04:00:57"
"Home Renovations for the Golden Years #renos #agingpopulation http:// ow.ly/jYfQ307JhYJ","#renos #agingpopulation","2017-01-11 16:30:58"
"Battle between the old and the older,over a seat,now happening only in Singapore! #agingpopulation #childishfools #olderdoesntmeanmatured","#agingpopulation #childishfools #olderdoesntmeanmatured","2017-01-11 09:24:09"
"Investments in #education are important for #agingpopulation countries #agingcountires pic.twitter.com/XUD843rY5C","#education #agingpopulation #agingcountires","2017-01-09 13:05:37"
"With #AgingPopulation , Endometrial #Ablation Market will grows at a healthy CAGR http:// ow.ly/2K7R307J1FC","#AgingPopulation #Ablation","2017-01-06 20:05:16"
"What does an #agingpopulation mean for #US #housing ? http:// jll.link/60178Olm7 via @BDCNetwork","#agingpopulation #US #housing","2017-01-05 15:15:00"
"Ailing Vermont Town Pins Hopes on Mideast Refugees http:// nyti.ms/2hJiOU8 #refugees #agingpopulation #demography","#refugees #agingpopulation #demography","2017-01-05 13:39:03"
"Geriatrics: Smart #technology prepares to ace the popularity test http:// buff.ly/2iXFgXv via @managedcaremag #agingpopulation pic.twitter.com/2Sa7mtp9tk","#technology #agingpopulation","2017-01-05 09:16:54"
"In a #ResourceBasedEconomy , it will be much easier to take care of an aging and retired population. #agingpopulation #revolution #RBE","#ResourceBasedEconomy #agingpopulation #revolution #RBE","2017-01-04 20:40:21"
"Wow! Almost another year! I have met so many wonderful people. I was able to serve some of our aging population #elders #AgingPopulation","#elders #AgingPopulation","2016-12-31 05:01:56"
"Their stories matter, they matter. Without our elders we would not exist. Thank you to our great elders! #elders #seniors #AgingPopulation","#elders #seniors #AgingPopulation","2016-12-31 05:01:48"
"It'll be worse next year #agingpopulation #demographics","#agingpopulation #demographics","2016-12-27 20:36:31"
"#demographics #agingpopulation The coming years will be like 2016 celebrity obits on steroids.","#demographics #agingpopulation","2016-12-27 20:33:29"
"The #AgingPopulation was ignored in the latest Presidential election but could be demographic that unifies the US. http:// ow.ly/bi8z307tGTB","#AgingPopulation","2016-12-27 18:55:41"
"As #China 's young ppl head to #cities , #olderpeople find new appeal in 'old age' homes http:// fw.to/OBDqqFf #caregiving #agingpopulation","#China #cities #olderpeople #caregiving #agingpopulation","2016-12-27 17:22:21"
"To support an #agingpopulation , how do you remake a #city to be "" #agefriendly '? http:// fw.to/2D4o4GD #olderadults #Manchester #UK","#agingpopulation #city #agefriendly #olderadults #Manchester #UK","2016-12-26 18:17:17"
"#ICYMI : #groupbenefits costs to spike 8% next year due to #specialtydrugs and #agingpopulation @AonHewittCA http:// ow.ly/NNvW307p8Oh pic.twitter.com/e9RFaTGmrz","#ICYMI #groupbenefits #specialtydrugs #agingpopulation","2016-12-24 16:01:13"
"Big Squeeze Creates Crisis For An Ageing Population. #AgingPopulation http:// ow.ly/uCxC307b9VT pic.twitter.com/DbzFyPV1E7","#AgingPopulation","2016-12-24 06:00:46"
"Big Squeeze Creates Crisis For An Ageing Population. #AgingPopulation http:// ow.ly/uCxC307b9VT pic.twitter.com/1Kba1Bm0Vk","#AgingPopulation","2016-12-24 06:00:45"
"Is your #workplace ready for an #agingpopulation ?Creative Until You Die: 10, 90 & Older Who Refuse to Quit https:// goo.gl/xNdm4z","#workplace #agingpopulation","2016-12-20 14:52:20"
"#Harvard : Will #SeniorHousing keep up as #AgingPopulation soars? http:// buff.ly/2gU8FFr","#Harvard #SeniorHousing #AgingPopulation","2016-12-18 21:16:02"
"Officials Considering Ways To Cater To Growing Senior Citizen Population#Agingpopulation #Seniorliving http:// ow.ly/5G1W30722WZ pic.twitter.com/HyNjVk3gv6","#Agingpopulation #Seniorliving","2016-12-18 12:01:04"
"Officials Considering Ways To Cater To Growing Senior Citizen Population#Agingpopulation #Seniorliving http:// ow.ly/5G1W30722WZ pic.twitter.com/WS5eJb67C4","#Agingpopulation #Seniorliving","2016-12-18 12:01:04"
"When you get on the bus to go to work and your literally the youngest person on it #busChallenge #agingpopulation #olderforyounger","#busChallenge #agingpopulation #olderforyounger","2016-12-17 12:37:45"
"Action Needed On State's Aging Population#Agingpopulation via @JournalAdvocate http:// ow.ly/Ie8B30721U4 pic.twitter.com/wXtXKxhK1T","#Agingpopulation","2016-12-17 06:00:42"
"Action Needed On State's Aging Population#Agingpopulation via @JournalAdvocate http:// ow.ly/Ie8B30721U4 pic.twitter.com/Gkjd5MIhjc","#Agingpopulation","2016-12-17 06:00:42"
"""'More and more people' looking for #barrier -free homes"" via @CBCNews #RealEstate #accessibility #AgingPopulation #Demographics #AgeInPlace","#barrier #RealEstate #accessibility #AgingPopulation #Demographics #AgeInPlace","2016-12-16 17:40:01"
"New Harvard report http:// bit.ly/2hAKego projections and implications of #agingpopulation on #housing pic.twitter.com/GAEaUXE0UW","#agingpopulation #housing","2016-12-16 17:13:19"
"#uniqanumber of the week: 1 percent: Austria's low economic growth potential without reform according to @IMFNews #agingpopulation","#uniqanumber #agingpopulation","2016-12-14 10:47:13"
"Playgrounds For An Aging Population. #Aging #Elderly #Agingpopulation via via @WSJ http:// ow.ly/E9O7306JJB8 pic.twitter.com/UwLzZnKi5K","#Aging #Elderly #Agingpopulation","2016-12-10 12:01:20"
"Playgrounds For An Aging Population. #Aging #Elderly #Agingpopulation via via @WSJ http:// ow.ly/E9O7306JJB8 pic.twitter.com/fVT1ZhKTxj","#Aging #Elderly #Agingpopulation","2016-12-10 12:01:20"
"Great thinkers on #aging discuss the #agingpopulation & challenges we need to tackle http:// nexav.org/2httW4I via @NextAvenue #olderadults","#aging #agingpopulation #olderadults","2016-12-09 17:46:36"
"#Mercer Antonis Christidis discussing real challenges of #agingpopulation . pic.twitter.com/glmbIahoe1","#Mercer #agingpopulation","2016-12-06 09:59:16"
"#FutureAging Brilliant presentations addressing growing #agingpopulation in #healthcare #environments transport food @utsdab @ChinaTsinghua pic.twitter.com/8rgAt1tmlb","#FutureAging #agingpopulation #healthcare #environments","2016-12-04 12:44:04"
"Beijing Global Design Innovation Lab: #FutureAging UTS @utsdab @ChinaTsinghua collaboration #research #design #healthcare #agingpopulation pic.twitter.com/4Tp7SqCTxC","#FutureAging #research #design #healthcare #agingpopulation","2016-12-04 12:40:09"
"Adult playgrounds popping up across U.S. to promote #physicalactivity & improve #mentalhealth of #agingpopulation http:// on.wsj.com/2gyCLxd pic.twitter.com/rWNJZw5Gde","#physicalactivity #mentalhealth #agingpopulation","2016-12-02 00:00:02"
"To be an #inclusive society & with an #agingpopulation , shouldn't #inclusivedesign be valued as highly as #eco in #sustainability ? #askriba","#inclusive #agingpopulation #inclusivedesign #eco #sustainability #askriba","2016-12-01 23:11:36"
"Large number of social enterprise startups are started by over 60s! - Sue Siegel #WISH2016 #agingpopulation #aging #healthypopulation .","#WISH2016 #agingpopulation #aging #healthypopulation","2016-11-30 09:46:39"
"One goal of rehab #therapy is to help you return to daily life safely. What else you can expect: http:// bit.ly/2gggGmz #agingpopulation pic.twitter.com/b8ZcuZHRM2","#therapy #agingpopulation","2016-11-29 18:51:55"
"Plan with the #agingpopulation in mind to ensure successful #driverlesscars http:// on.wsj.com/2fywfag @WSJ @localmotors @IBMAccess #CES2017","#agingpopulation #driverlesscars #CES2017","2016-11-29 18:01:23"
"China #dementia rates expected to triple over next 30 years due to #agingpopulation https:// tgam.ca/2fsFkkU pic.twitter.com/hdL9Kqea7Z","#dementia #agingpopulation","2016-11-29 14:00:04"
"Design Council launches new scheme to improve lives of older people #agingpopulation http:// bit.ly/2geVSvV https:// lnkd.in/d8B4uRR","#agingpopulation","2016-11-29 13:41:22"
"Majority of old people attending to farms in this country. #notnew #agingpopulation #youthsincities #stillgoingstrong","#notnew #agingpopulation #youthsincities #stillgoingstrong","2016-11-29 11:56:26"
"Research immersion #FutureAging lab in Beijing @utsdab @ChinaTsinghua collaboration #agingpopulation #empathy pic.twitter.com/9kbEClninB","#FutureAging #agingpopulation #empathy","2016-11-29 04:13:26"
"How technology is easing care for an #AgingPopulation in Thailand http:// telus.my/Gf78Hj pic.twitter.com/03TrYV1jI6","#AgingPopulation","2016-11-28 23:15:19"
"Off to Helsinki to speak at the Digital Silver Conference #digitalsolutions #agingpopulation #innovation #slush16 pic.twitter.com/3N2C2xWd7R","#digitalsolutions #agingpopulation #innovation #slush16","2016-11-28 13:10:48"
"Only 10 days left until the #IBenc Final Conference, launching a groundbreaking tool improving homecare for the EU's #agingpopulation #IBenC pic.twitter.com/7oXZwXqpdF","#IBenc #agingpopulation #IBenC","2016-11-28 10:34:00"
"If you were a world leader, how would you deal with #AgingPopulation ? Play on The end game? http:// ow.ly/QeR0306xsGr pic.twitter.com/PO1kEFoMC2","#AgingPopulation","2016-11-26 12:05:06"
"If you were a world leader, how would you deal with #AgingPopulation ? Play on The end game? http:// ow.ly/m7yN306rOpX pic.twitter.com/sUmqNRcDmc","#AgingPopulation","2016-11-26 11:00:58"
"The Other Health Crisis: Taking Care of An #AgingPopulation http:// buff.ly/2fETFXr via @ivn pic.twitter.com/pTPTCZ3F0s","#AgingPopulation","2016-11-25 22:12:04"
"The Other Health Crisis: Taking Care of An #AgingPopulation http:// buff.ly/2fEPr1T via Independent Voter https:// lnkd.in/dFQSuuN","#AgingPopulation","2016-11-24 12:17:46"
"Japan faces unusual consequence of aging population - increases in crime: http:// n.pr/2gdJA7c #agingpopulation #economics","#agingpopulation #economics","2016-11-23 18:27:01"
"Walk, jog, or dance: It's all good for the aging brain via @nytimeswell http:// buff.ly/1S5hTv1 #activeaging #agingpopulation #brainhealth pic.twitter.com/grMur1lsEu","#activeaging #agingpopulation #brainhealth","2016-11-23 17:37:09"
"2016 news that is +++ for the #agingpopulation http:// huff.to/2gbXSln","#agingpopulation","2016-11-23 06:31:57"
"Trying to keep my head on straight with so much social media. Feeling like an old head, but I'm not even 30... #agingpopulation","#agingpopulation","2016-11-22 23:30:08"
"#Aging in the Mirror. http:// bit.ly/2geUSIr #activeaging #agingpopulation #seniors @parade","#Aging #activeaging #agingpopulation #seniors","2016-11-22 22:27:23"
"The aging brain benefits from... distraction? #aging #agingpopulation #brain #neuroscience http:// bit.ly/2fmmirg","#aging #agingpopulation #brain #neuroscience","2016-11-22 20:38:56"
"Another challenge to #Japan 's #agingpopulation is the rise in #crime committed by #olderadults https:// n.pr/2eLvIA0 via @NPR","#Japan #agingpopulation #crime #olderadults","2016-11-22 16:15:04"
"China's work force shrinks by 20 million within 5 years via @ChinaPlusNews #agingpopulation http:// buff.ly/2gBAxi1 pic.twitter.com/lsCCs5TbmH","#agingpopulation","2016-11-22 04:41:02"
"More than 10 million people in their 50's in the #workforce #SouthKorea #AgingPopulation http:// bit.ly/2ga04JV pic.twitter.com/BSWBJGoDEf","#workforce #SouthKorea #AgingPopulation","2016-11-22 03:40:01"
"Seniors are untapped resources during #emergency . Not all are #vunerability #CDNdrr #agingpopulation","#emergency #vunerability #CDNdrr #agingpopulation","2016-11-21 20:30:57"
"Even with an #agingpopulation , new study reveals #US #dementia rates are dropping http:// nyti.ms/2eYS0zC via @nytimes #aging #Alzheimers","#agingpopulation #US #dementia #aging #Alzheimers","2016-11-21 19:41:29"
"Challenge of increasing frailty in #agingpopulation http:// buff.ly/2gpJA5t via @scoopnz","#agingpopulation","2016-11-19 03:10:00"
"~ Heard abt #AgingPopulation in #Europe #USA maybe elsewhere in #TheWest . Some truth: Native Europeans = Fewer Children","#AgingPopulation #Europe #USA #TheWest","2016-11-18 21:55:50"
"Virginia in the future is going to look like Florida today. #agingpopulation #VAGHC #millennials","#agingpopulation #VAGHC #millennials","2016-11-17 15:39:25"
"Coalition for Seniors presentation nursing students NBCC tomorrow #agingpopulation #ageismseniors #sterotype #healthcare #cdnhealth","#agingpopulation #ageismseniors #sterotype #healthcare #cdnhealth","2016-11-16 04:29:48"
"Community consultation aging & Long Term Care the future of NB#agingpopulation #seniorscarematters","#agingpopulation #seniorscarematters","2016-11-16 00:02:13"
"Professor Sir Keith Porter a new thinking perspective on trauma #agingpopulation @AsoAirAmbulance #AAAConf2016 #Horizon session ... pic.twitter.com/UszpxtnZMp","#agingpopulation #AAAConf2016 #Horizon","2016-11-14 17:09:07"
"Preparing for What's Needed for an #AgingPopulation https:// shar.es/1IlVnS via @ajmc_journal #aging #care #activeaging #Transformation","#AgingPopulation #aging #care #activeaging #Transformation","2016-11-11 02:10:23"
"What will be the needs in each phase of life? #agingpopulation will demand new healthcare svcs & products not contemplated. #DKVHealth4Good","#agingpopulation #DKVHealth4Good","2016-11-10 13:08:04"
"The ""silver tsunami"" - more people over the age of 65 than under the age of 15. #healthcarechallenges #agingpopulation #healthachieve","#healthcarechallenges #agingpopulation #healthachieve","2016-11-07 16:23:03"
"@UMHcaring How to Tap the Enormous Potential of an #AgingPopulation http:// pri.ml/6AJILASW via yahoo pic.twitter.com/bu3eCXOscd","#AgingPopulation","2016-11-05 21:01:57"
"#Digital #technology set to help an #agingpopulation http:// bit.ly/2dLXyNt #healthtech #healthcare","#Digital #technology #agingpopulation #healthtech #healthcare","2016-11-04 08:58:00"
"Canada's aging population is a threat to our #healthcare - but not in the way you think http:// ow.ly/djwE305MRsS #agingpopulation","#healthcare #agingpopulation","2016-11-02 22:55:09"
"Preparing for What's Needed for an #Aging Population https:// shar.es/1IHWN0 via @ajmc_journal #agingpopulation #activeaging #icaanews","#Aging #agingpopulation #activeaging #icaanews","2016-10-31 02:43:37"
"The Gray Gender Gap: Older #Women Are Likelier to Go It Alone http:// nyti.ms/2dDBzVN #aging #agingpopulation #NYTimes @nytimes #activeaging","#Women #aging #agingpopulation #NYTimes #activeaging","2016-10-31 02:41:02"
"The Silver Age: China's Aging Population - http:// go.shr.lc/2ehF7kV via @CKGSB #agingpopulation #economy #aging #china #seniors","#agingpopulation #economy #aging #china #seniors","2016-10-31 02:32:06"
"Are You Aware of the Challenges That the Growing Population of Elderly is Creating? #agingpopulation #seniorcare http:// ow.ly/hyEY305qSVN pic.twitter.com/qMz7xfTpuO","#agingpopulation #seniorcare","2016-10-30 09:00:51"
"Are You Aware of the Challenges That the Growing Population of Elderly is Creating? #agingpopulation #seniorcare http:// ow.ly/hyEY305qSVN pic.twitter.com/0Mv29HU6uP","#agingpopulation #seniorcare","2016-10-30 09:00:50"
"The future of senior care could be paying your friends and family http:// buff.ly/2e7fjCJ via @qz #AgingPopulation","#AgingPopulation","2016-10-28 13:30:33"
"The Silver Age: China's #AgingPopulation via @CKGSB http:// buff.ly/2eOGOkE pic.twitter.com/sDvugH9ZYL","#AgingPopulation","2016-10-27 19:51:04"
"#MortgageRates Today, Tuesday, Oct. 25: Up Slightly; #AgingPopulation Faces Challenges in Aging Homes http:// ow.ly/E9zG505Q5ZG","#MortgageRates #AgingPopulation","2016-10-27 02:00:39"
"The future of senior care could be paying your friends and family http:// buff.ly/2eNxtJG via @qz #AgingPopulation","#AgingPopulation","2016-10-27 00:57:01"
"The future of senior care could be paying your friends and family http:// buff.ly/2dFq82N via @qz #AgingPopulation","#AgingPopulation","2016-10-26 18:34:01"
"The Silver Age: China's #AgingPopulation via @CKGSB http:// buff.ly/2f5xSfV pic.twitter.com/pfjBOJLtYu","#AgingPopulation","2016-10-26 03:10:04"
"Obamacare will be repealed and replaced under Mr. Trump. #affordable #healthcare #physicians #family #Regional #states #agingpopulation","#affordable #healthcare #physicians #family #Regional #states #agingpopulation","2016-10-24 01:08:56"
"Find out how your #business can adapt to an #AgingPopulation within the workplace here http:// bit.ly/2eeAAeI pic.twitter.com/Hvdfa4jVjc","#business #AgingPopulation","2016-10-21 12:45:53"
"The Invisible Revolution: How Aging Is Quietly Changing America. #aging #agingpopulation http:// ow.ly/4byH305bHQv pic.twitter.com/TxfsIEb4CY","#aging #agingpopulation","2016-10-21 06:01:00"
"The Invisible Revolution: How Aging Is Quietly Changing America. #aging #agingpopulation http:// ow.ly/4byH305bHQv pic.twitter.com/rQ85cLzkOr","#aging #agingpopulation","2016-10-21 06:00:59"
"Scientists May Have Identified the Protein That Controls Aging. #aging #agingpopulation http:// ow.ly/9mFF305bHm9 pic.twitter.com/k2YBuc5Vfn","#aging #agingpopulation","2016-10-20 12:01:44"
"Scientists May Have Identified the Protein That Controls Aging. #aging #agingpopulation http:// ow.ly/9mFF305bHm9 pic.twitter.com/6NwnM2bOG3","#aging #agingpopulation","2016-10-20 12:01:44"
"Great turnout to the discussion on #agingpopulation #agefriendlycities @BelgradeTheatre @AgeUK_Coventry pic.twitter.com/sOgHeETuGY","#agingpopulation #agefriendlycities","2016-10-19 11:54:08"
"There's An Upcoming Rise in Indonesia's #AgingPopulation , Will It Impact the Future of #HealthCare ? https:// goo.gl/MD8RW6 #USINDODailyNews","#AgingPopulation #HealthCare #USINDODailyNews","2016-10-19 11:51:50"
"Sir Keith Porter - the changing face of major trauma - Silver trauma is on the increase @LifeCon999 #happeningnow #agingpopulation","#happeningnow #agingpopulation","2016-10-18 15:15:08"
"Will #retailers lose retiring boomers to experiences? #babyboomers RetailWire http:// ow.ly/hy0X30532lQ #agingpopulation #seniors","#retailers #babyboomers #agingpopulation #seniors","2016-10-17 16:45:38"
"I believe that you cannot win by #socialmedia alone. You have to get out there and press the flesh! #agingpopulation #cbrm","#socialmedia #agingpopulation #cbrm","2016-10-17 04:44:31"
"Skilled immigrants wasting their talents in Canada | Calgary Herald http:// ow.ly/iFkb3055DSI #labourshortage #agingpopulation pic.twitter.com/KsuwqzFkrH","#labourshortage #agingpopulation","2016-10-13 17:40:39"
"Good to see this question being asked. http:// buff.ly/2dB4GJO #design #future #ageingpopulation #agingpopulation pic.twitter.com/URY474PrW9","#design #future #ageingpopulation #agingpopulation","2016-10-10 09:35:10"
"#AboutTheFlowofGenerations in #Japan #Tokyo ""Taller Than the Trees"" http:// nyti.ms/2dICBSJ #NotToBeMissed #Documentary #AgingPopulation","#AboutTheFlowofGenerations #Japan #Tokyo #NotToBeMissed #Documentary #AgingPopulation","2016-10-08 19:50:36"
"Taiwan plans to amend Long-term Care Services Act, encouraging private sector investment. http:// bit.ly/2dP73b4 #agingpopulation pic.twitter.com/EOa8hc23xr","#agingpopulation","2016-10-08 03:15:06"
"Agree; we will have more to do than ever before. #Infrastructure #ClimateChange #Fracking #StudentDebt #AgingPopulation","#Infrastructure #ClimateChange #Fracking #StudentDebt #AgingPopulation","2016-10-06 04:35:31"
"Mentor #movement in America. Why More and More People Are Eager to #Mentor ? #agingpopulation #work http:// nexav.org/2cGqjFV via @NextAvenue","#movement #Mentor #agingpopulation #work","2016-10-05 16:28:16"
"What a great initiative! #IntergenerationalLiving #QualityHousing #AgingPopulation http:// to.pbs.org/2doiGXR via @NewsHour","#IntergenerationalLiving #QualityHousing #AgingPopulation","2016-10-04 02:41:34"
"Can a #robot 'baby' satisfy an older #childless person in #aging #Japan ? http:// reut.rs/2dABn8p via @Reuters #agingpopulation #technology","#robot #childless #aging #Japan #agingpopulation #technology","2016-10-03 16:54:32"
"Older, diverse populations will be a 'demographic gift' in the US http:// nexav.org/2doREir via @NextAvenue #agingpopulation #diversity","#agingpopulation #diversity","2016-10-03 16:33:39"
"By 2030, the #agingpopulation in #Asia will increase by 70 percent & #healthcare costs will sharply rise http://www. voanews.com/a/3531578.html #aging","#agingpopulation #Asia #healthcare #aging","2016-09-30 16:32:19"
"British people living over 100 quadruples http:// buff.ly/2dbdmH6 via @FT #agingpopulation pic.twitter.com/Rsq4wsSSZ3","#agingpopulation","2016-09-30 15:17:02"
"8 in 10 people worry that aging societies means higher healthcare costs: http:// buff.ly/2cLuSzF #agingpopulation #healthcareaccess pic.twitter.com/Sb0zPf4zU4","#agingpopulation #healthcareaccess","2016-09-27 19:09:05"
"#Quality2016 Singapore- similar population to Scotland but different density! Similar healthcare challenges though #agingpopulation pic.twitter.com/WVJjDpL3ke","#Quality2016 #agingpopulation","2016-09-27 04:04:25"
"60% of the worlds population lives in Asia. How can we use our Asian creative #diaspora potential to solve aging challenges? #agingpopulation","#diaspora #agingpopulation","2016-09-26 15:40:53"
"""34% of the European population will be over 65 in the next 20 years"" #agingpopulation #europe #retirement by Greg Shaw","#agingpopulation #europe #retirement","2016-09-24 16:09:57"
".@LincolnshireHC #careportal will transform #healthcare for dispersed and #agingpopulation using #HealthShare http:// buff.ly/2cm37MR","#careportal #healthcare #agingpopulation #HealthShare","2016-09-22 17:47:10"
"What kind of #health workforce will be needed to serve Canada's #agingpopulation ? http:// ow.ly/5xu7304jS0v","#health #agingpopulation","2016-09-21 04:30:41"
"Chart: More than 1 in 4 Japanese people are over 65 #AgingPopulation #ESGThematic http:// bloom.bg/2cWq5zK via @business","#AgingPopulation #ESGThematic","2016-09-19 13:14:55"
"I think OAPs rich enough to pay income tax should pay National Insurance instead of the tax. #agingpopulation #fundtheNHS","#agingpopulation #fundtheNHS","2016-09-16 10:14:14"
"funny we've had a lot of aging talk this week #agingpopulation @leanneoconnor17 would you agree","#agingpopulation","2016-09-15 20:56:42"
"Feeling old and lonely in China? http:// ow.ly/J5Ik3047VPj Just sue your kids! #agingpopulation pic.twitter.com/lky2SAF70C","#agingpopulation","2016-09-12 22:05:21"
"#Swans sing before dying. Should humans #sing about #agingpopulation #aging or just croak? https:// globalhealthsquare.blogspot.com pic.twitter.com/YMGCUGzY3b","#Swans #sing #agingpopulation #aging","2016-09-08 23:09:58"
"Who is in Charge of Your Health? #babyboomers #agingpopulation #healthcare @AARPadvocates @AARPRI_TheFeed pic.twitter.com/cPrw85EKpD","#babyboomers #agingpopulation #healthcare","2016-09-08 18:47:26"
"Simple ideas for combating #loneliness as we grow older: http:// bit.ly/2clGZYc #agingpopulation #infographic pic.twitter.com/A6K98uEDzu","#loneliness #agingpopulation #infographic","2016-09-08 18:00:14"
"@GreaterSudbury #agingpopulation decline of paper services such as @sudburydotcom Affects ability to communicate with seniors not online","#agingpopulation","2016-09-08 16:06:07"
"@GreaterSudbury #agingpopulation moved comm. To caf for quieter environment to discuss. Awesome.","#agingpopulation","2016-09-08 15:47:23"
"@GreaterSudbury #agingpopulation oh. Put in communication pillar. No surprise there as that's my specialty","#agingpopulation","2016-09-08 15:25:41"
"@GreaterSudbury #agingpopulation great turnout by various social groups, police and city services! Should be a nice input session","#agingpopulation","2016-09-08 15:17:21"
"@GreaterSudbury #agingpopulation many seniors here. If I'm struggling, so are they to hear. 1/4 Sudburians have hearing loss","#agingpopulation","2016-09-08 15:14:50"
"@GreaterSudbury #agingpopulation sound quality poor due to no microphone. Thanks to city and CHHA for notetaker. Awesome","#agingpopulation","2016-09-08 15:13:44"
"@GreaterSudbury #agingpopulation I'm here representing accessibility and nothing here on hearing loss. Must address!","#agingpopulation","2016-09-08 15:12:15"
"@GreaterSudbury #agingpopulation talking about pillar groups for this discussion","#agingpopulation","2016-09-08 15:11:06"
"@GreaterSudbury #agingpopulation Kirwan says closing schools being repurposed to service older adults. Looking forward to dialogue","#agingpopulation","2016-09-08 15:09:10"
"@GreaterSudbury here at #agingpopulation for Sudbury to review strategies Bob kirwan speaking now.","#agingpopulation","2016-09-08 15:08:02"
"Failure to prepare for an #AgingPopulation could cost China. by Nikkei Asian Review http:// buff.ly/2bYlNp8 pic.twitter.com/wvwI77WMLq","#AgingPopulation","2016-09-08 04:16:01"
"Help manage lifes everyday decisions with #WatsonIoT #Cognitive for #agingpopulation #IFA16 https:// ibm.biz/BdraTU #IFA2016 #IBMelectronics","#WatsonIoT #Cognitive #agingpopulation #IFA16 #IFA2016 #IBMelectronics","2016-09-05 13:44:58"
"Structural factors are poised to reduce #Germany CA surplus http:// bloom.bg/2bBy9jZ via @business #demography #agingpopulation","#Germany #demography #agingpopulation","2016-09-03 14:28:00"
"Canadian health care professionals calling for more resources to take care of our #agingpopulation http:// ow.ly/Pk1Y303IMcr @TorontoStar","#agingpopulation","2016-09-02 16:31:26"
"Unifor #long term care initiative#across country#support for members#agingpopulation #needed#messagegovernment","#long #across #support #agingpopulation #needed #messagegovernment","2016-09-01 16:33:59"
"Coalition for Seniors soon to release home care initiative for NB #government #adopt #agingpopulation #seniorscarematters","#government #adopt #agingpopulation #seniorscarematters","2016-09-01 16:00:38"
"Long term care across the country , system fragmented,national program needed#seniors #agingpopulation","#seniors #agingpopulation","2016-09-01 15:21:07"
"McMaster prof Parminder Raina named to CCA panel on the #transportationneeds of an #agingpopulation . http:// bit.ly/2coZ2Nz @Scienceadvice","#transportationneeds #agingpopulation","2016-08-30 20:04:55"
"Over 4yrs to May 2016, AUS added 584k extra jobs with 228k (41%) of these were in health care #AgingPopulation #GovernmentDebt","#AgingPopulation #GovernmentDebt","2016-08-30 07:48:52"
"Using #tech to keep an #AgingPopulation connected to community http:// telus.my/db11k5 pic.twitter.com/9wp2JaMsGJ","#tech #AgingPopulation","2016-08-25 23:15:12"
"How an #AgingPopulation Will Completely Upend the Finance Industry http:// buff.ly/2bReRMI via @markets","#AgingPopulation","2016-08-23 23:00:00"
"Great talk about the #AgingPopulation in #SouthAustralia by @bernardsalt from @kpmgaustralia at @ceda_news event: https:// youtu.be/1C0PWeoY4gE","#AgingPopulation #SouthAustralia","2016-08-23 01:31:32"
"The CMA thinks Ottawa needs to provide a financial ""top-up"" of $1.6 billion annually. #cdnhealth #agingpopulation http:// ow.ly/ZthA303sPEf","#cdnhealth #agingpopulation","2016-08-23 01:00:55"
"Can you answer any questions, Mitch? #factcheck #agingpopulation","#factcheck #agingpopulation","2016-08-22 14:27:31"
"Dunno if that's the way to go about it http:// dlvr.it/LVkJm4 #Denmark #agingpopulation #sex","#Denmark #agingpopulation #sex","2016-08-18 13:38:10"
"We're seeing growth in the area of health and service assistance, mostly due to an #agingpopulation and the need for #childcare - Sue Beitz","#agingpopulation #childcare","2016-08-16 23:20:01"
"10 ways each community can help prepare the UK for the #ecomonical impacts of the #agingpopulation http:// goo.gl/Pzcs0N","#ecomonical #agingpopulation","2016-08-15 13:35:16"
"Jesus the Lawrence Welk Show is still on PBS here and they apologized that it was being pulled from broadcast in September. #agingpopulation","#agingpopulation","2016-08-15 00:49:59"
"Celebrating the birthday of a friend who is 91 today. A few years ago I went to six 100th birthday parties in one year. #AgingPopulation","#AgingPopulation","2016-08-12 12:53:07"
"Looking to downsize and simplify in an easy-living home http:// ow.ly/CGAb3036veo #SeniorLiving #RealEstateAdvice #AgingPopulation","#SeniorLiving #RealEstateAdvice #AgingPopulation","2016-08-10 23:00:58"
"Looking to downsize and simplify in an easy-living home http:// ow.ly/CGAb3036veo #SeniorLiving #RealEstateAdvice #AgingPopulation","#SeniorLiving #RealEstateAdvice #AgingPopulation","2016-08-10 15:35:06"
"TY for housing article addressing needs of an #agingpopulation !","#agingpopulation","2016-08-08 23:55:15"
"japanese architects explore living and aging collectively #collectivespaces #design #agingpopulation http:// bit.ly/2aZ4k0y","#collectivespaces #design #agingpopulation","2016-08-07 21:59:41"
"The economic benefit of employing people over 55 #agingpopulation http:// ow.ly/C5mU302Ngvl","#agingpopulation","2016-08-02 03:25:07"
"9 Best Stocks to #Invest in the #AgingPopulation http:// buff.ly/2apDKfW","#Invest #AgingPopulation","2016-08-01 17:22:01"
"Interesting that Nordic countries are acknowledging the need for new types of education among their #agingpopulation http:// buff.ly/2axkZrr","#agingpopulation","2016-07-29 09:22:36"
"What is ""blended work"" and how could it keep older employees working? http:// bit.ly/29TN0uK #agingpopulation","#agingpopulation","2016-07-28 10:15:23"
"#LosAngeles faces new challenges as its population gets older http:// bit.ly/2akNsQX @AshleyMirone @hcassistance #agingpopulation","#LosAngeles #agingpopulation","2016-07-24 18:42:58"
"Why are so many countries suddenly nationalistic? http:// ow.ly/FyIa100fmA7 #agingpopulation","#agingpopulation","2016-07-23 13:30:39"
"Canada's prisons watchdog sounds alarm on demographic shift behind bars http://www. cbc.ca/1.3430396 #AgingPopulation #PrisonReform","#AgingPopulation #PrisonReform","2016-07-22 13:49:45"
"What is ""blended work"" and how could it keep older employees working? http:// bit.ly/29TN0uK #agingpopulation","#agingpopulation","2016-07-22 10:05:15"
"Why do GOPs think they have to shout to get message across? #agingpopulation #RNCinCLE","#agingpopulation #RNCinCLE","2016-07-22 02:06:05"
"Analyzing ""blended work"" as a bridge between traditional workplace employment and #retirement http:// bit.ly/29TN0uK #agingpopulation","#retirement #agingpopulation","2016-07-21 17:25:16"
"Strong global partnerships will help us learn & better anticipate ways to adjust to an #agingpopulation http:// huff.to/297F8mj","#agingpopulation","2016-07-20 13:13:08"
"#ICYMI : As #Canada 's population age, who will care for the #caregiver ? #agingpopulation http:// ow.ly/502R30222FT pic.twitter.com/lXAf96Z1kR","#ICYMI #Canada #caregiver #agingpopulation","2016-07-17 01:00:54"
"Not sure if it has to do with the topic, but everybody is shouting in the microphone #isaforum2016 #agingpopulation","#isaforum2016 #agingpopulation","2016-07-14 10:06:38"
"Retirement and seniors important for the province, but unfortunately, there is push-back to address policies for justice. #agingpopulation","#agingpopulation","2016-07-09 13:27:48"
"Estate planning for the aging population is super critical http:// ow.ly/j3vZ301Y1n4 #babyboomers #agingpopulation #estateplanning","#babyboomers #agingpopulation #estateplanning","2016-07-06 20:25:11"
"Glofend Technologies, early stage #startup working to address challanges of #agingpopulation #doorstep crime","#startup #agingpopulation #doorstep","2016-07-06 20:11:50"
"Few young doctors are training to care for the U.S. elderly http:// n.pr/1UcHP64 via @NPR #elderlycare #agingpopulation","#elderlycare #agingpopulation","2016-07-05 22:50:10"
"As the #agingpopulation grows, #affordablehousing is the glue that holds everything together http:// fw.to/MCeOaaE #housing #olderadults","#agingpopulation #affordablehousing #housing #olderadults","2016-07-01 17:15:46"
"Less than 35 years population in India is ~3 times the population of USA. strengthen the now to strengthen tomorrow #youth #agingpopulation","#youth #agingpopulation","2016-07-01 14:50:09"
"look forward to engaging with you further. #aging #AAL #ageing #agingpopulation #healthcaretech #startup #IoT #tech","#aging #AAL #ageing #agingpopulation #healthcaretech #startup #IoT #tech","2016-06-30 21:50:10"
"@robdelaney @CameronMoulene @joshgroban @AdamJoshDotCom @Cgroban #agingpopulation pic.twitter.com/qjX8ZcqPNZ","#agingpopulation","2016-06-30 20:06:34"
"#Women & #olderadults represent more than 50 percent of Japan's #workforce http:// benzinga.com/z/8170206 via @benzinga #agingpopulation #work","#Women #olderadults #workforce #agingpopulation #work","2016-06-30 16:47:55"
"Asia is far from powerless in mitigating the negative fiscal impact of an #agingpopulation http:// buzz.mw/b1g3u_f pic.twitter.com/EfclOZRnFd","#agingpopulation","2016-06-30 16:01:14"
"#agingpopulation & even drug trials can benefit greatly from #telemedicine http:// ow.ly/rB5j301Lids","#agingpopulation #telemedicine","2016-06-30 02:00:49"
"#singaporeans r talkg abt 29-Jun-16: http:// goo.gl/hAfKtU #brexit #asean #elderly #agingpopulation","#singaporeans #brexit #asean #elderly #agingpopulation","2016-06-29 07:11:22"
"The world is #aging : In 2050, 1 in 3 will be over 56 and 1 in 10 will be over 80. #FactFriday #agingpopulation pic.twitter.com/U7Hl9TGmdP","#aging #FactFriday #agingpopulation","2016-06-24 19:31:24"
"U18 may not vote. Here's a reason why retired people should not vote either: pic.twitter.com/CwBvy2bwXN #AgingPopulation #Nothing2Loose #Brexit","#AgingPopulation #Nothing2Loose #Brexit","2016-06-24 18:30:09"
"Also watch UK get flooded with their own pasty pensioners that leeched their retired ass off of EU countries #agingpopulation","#agingpopulation","2016-06-24 14:20:16"
"People blaming the elderly for #Brexit . #AgingPopulation . Blame the middle aged for not having enough kids!! lol pic.twitter.com/GZWSOTEBoK","#Brexit #AgingPopulation","2016-06-24 12:07:16"
"~66% of the under 50s voted to #remain . ~58% of the over 50s voted to #leave . #AgingPopulation #EUref","#remain #leave #AgingPopulation #EUref","2016-06-24 11:03:06"
"65% of voters were over 60 #agingpopulation","#agingpopulation","2016-06-24 08:16:44"
"NIA report looks at #demographic , #health & socioeconomic trends associated with growth of #agingpopulation . http:// j.mp/28QajEj","#demographic #health #agingpopulation","2016-06-23 23:00:16"
"#Slovenia needs reforms to address #AgingPopulation : government institute http:// reut.rs/28SZldW via @Reuters #Europe","#Slovenia #AgingPopulation #Europe","2016-06-23 15:13:34"
"#Calgary continuing with plans to build an #agefriendly city http:// ow.ly/D7dE301hW97 #agingpopulation #olderadults @calgarysun @WHO","#Calgary #agefriendly #agingpopulation #olderadults","2016-06-22 16:31:19"
"Check out #agingPopulation impacting #expat benefit plans: http:// goo.gl/gQ51ew http:// goo.gl/dpKuTV pic.twitter.com/J0jBuUhcsN","#agingPopulation #expat","2016-06-17 19:32:28"
"@JordanFrick17 Seems like he'd be into this stay today. More adult diapers are sold in Japan than baby diapers #AgingPopulation #SamHarris","#AgingPopulation #SamHarris","2016-06-10 23:28:37"
"The Coming Cross-Border #Travel Explosion by 2025. #agingpopulation #China https:// lnkd.in/es-QJ2x","#Travel #agingpopulation #China","2016-06-10 21:49:40"
"#Home health equip is becoming vital with #agingpopulation . Learn abt our 60-watt ME Series. http:// goo.gl/jAzjQG pic.twitter.com/t1sZlEE2vx","#Home #agingpopulation","2016-06-10 16:39:01"
"""Activists urge action as more seniors face eviction"" @CTVMontreal http:// ow.ly/OKYe300Wsm0 #housingcrisis #agingpopulation","#housingcrisis #agingpopulation","2016-06-09 16:31:11"
"""Open borders"" is not a policy. But the right immigration policies can provide vital opportunities for economic growth #agingpopulation","#agingpopulation","2016-06-09 02:32:33"
"Gallant cabinet shuffle will it move to a vision #nbpoli #agingpopulation #seniorscare","#nbpoli #agingpopulation #seniorscare","2016-06-06 23:18:30"
"Wau masjid umar al khattan ada shuttle dr parkimg masjid #agingpopulation","#agingpopulation","2016-06-05 15:11:14"
". @UK_CW Will 'foundations for the future' tackle #accessibility & #inclusivedesign in #ukhousing ? #flexibility #disability #agingpopulation","#accessibility #inclusivedesign #ukhousing #flexibility #disability #agingpopulation","2016-06-03 11:00:27"
"it doesn't & never will, the demographics should pretty much explain that. #AgingPopulation still has largest voting block","#AgingPopulation","2016-06-01 20:07:30"
"The #agingpopulation and how the #globalhealthcommunity can prepare for its growth. #populationhealth http:// j.mp/1RNiYB4","#agingpopulation #globalhealthcommunity #populationhealth","2016-06-01 18:00:05"
"Lots more letters from the Queen, via @clairevmadden #EduTechAU #WritersCramp #AgingPopulation #AgingWorkforce pic.twitter.com/Jw1YaVljvi","#EduTechAU #WritersCramp #AgingPopulation #AgingWorkforce","2016-05-31 01:15:32"
"The economics of an #AgingPopulation http:// telus.my/euqHxj via @h_chartier @Richrecaphealth pic.twitter.com/p9qtuK91jl","#AgingPopulation","2016-05-27 22:45:15"
"Cities are increasingly adapting to older populations. http:// bit.ly/1U9tV1e #AgingPopulation #CityDesign","#AgingPopulation #CityDesign","2016-05-27 14:57:18"
"Inflammation May Hold Key to Cognitive Decline in Alzheimer's Disease http:// flip.it/4ojA- #agingpopulation","#agingpopulation","2016-05-26 15:48:46"
"the upcoming pension crush ""could be even worse than most people believe"" http:// bit.ly/1XtWThJ @ProSyn #pensions #agingpopulation","#pensions #agingpopulation","2016-05-24 18:20:27"
"#agingpopulation what happens to the retirement plan if properties lose their value? #ukhousing","#agingpopulation #ukhousing","2016-05-24 09:55:38"
"#Japan 's #health ministry reports 2015 fertility rate was 21-year high; trend could lift #agingpopulation burdens: http:// m.nbr.org/1TFWUOp","#Japan #health #agingpopulation","2016-05-23 21:10:13"
"What is Aging Life Care Month? Find out! http:// bit.ly/1TZiKLv #AgingPopulation #aginglifecare pic.twitter.com/dRdl4SzLMR","#AgingPopulation #aginglifecare","2016-05-18 16:47:28"
"What is Aging Life Care Month? Find out! http:// bit.ly/1TZiKLv #AgingPopulation #aginglifecare pic.twitter.com/I63esqfIhv","#AgingPopulation #aginglifecare","2016-05-18 16:46:46"
"#AgingPopulation Atlantic premiers want federal health funding to reflect needs of aging region http:// ow.ly/tziE300ibnu #RealEstateNews","#AgingPopulation #RealEstateNews","2016-05-17 21:35:09"
"#AgingPopulation Atlantic premiers want federal health funding to reflect needs of aging region http:// ow.ly/tziE300ibnu #RealEstateNews","#AgingPopulation #RealEstateNews","2016-05-17 18:30:16"
"An #agingpopulation will be affected in all kind of different ways: http:// s.swissin.fo/cpOqJ0m pic.twitter.com/Z349UQ9vUm","#agingpopulation","2016-05-17 14:51:59"
"Its OK we all say that. #agingpopulation","#agingpopulation","2016-05-16 01:01:33"
"@newbalance : A comment from an elderly customer: price tags/sizes too small; cant read them. Maybe consider changes for our #agingpopulation","#agingpopulation","2016-05-13 05:17:50"
"Suggested reading: #Drug -DeviceCombinations: Are They Appropriate for the #AgingPopulation ?... http:// fb.me/5PcdaSyYO","#Drug #AgingPopulation","2016-05-06 20:25:21"
"@CRTeditor @uscensusbureau **wow** what a day when you realize you don't fall into any of the categories. #agingpopulation #care","#agingpopulation #care","2016-04-27 01:41:50"
"34% of the US population (currently 323 million) is at least age 50 @uscensusbureau #over50 #agingpopulation #uhohsocialsecurity","#over50 #agingpopulation #uhohsocialsecurity","2016-04-15 15:02:30"
"Living longer is one big reason we see a rise in #cancer rates in Canada #agingpopulation http:// ow.ly/ZWjlB","#cancer #agingpopulation","2016-04-11 23:35:17"
"I'm starting to research investment opportunities in Nursing Homes / Assisted Living facilities in China. #AgingPopulation #OnlyOneChild","#AgingPopulation #OnlyOneChild","2016-04-11 03:21:53"
"Young people no longer outnumber older people. #agingpopulation population shifts #shapingthefuture","#agingpopulation #shapingthefuture","2016-04-11 02:30:11"
"America is facing a shortage of primary-care doctors http:// ow.ly/10hBkT #AgingPopulation #LivingLonger #News","#AgingPopulation #LivingLonger #News","2016-04-10 21:01:46"
"#Agingpopulation and growing #healthcare costs drive #telehealth adoption http:// buff.ly/1XjIYsL #telemedicine #IoT pic.twitter.com/5l2F6ZANcH","#Agingpopulation #healthcare #telehealth #telemedicine #IoT","2016-04-07 19:26:34"
"@mrsinisterlefty @NancyCLeblanc @trapdinawrpool Electric truck fleet. There is a future. #AgingPopulation #jobs","#AgingPopulation #jobs","2016-04-03 23:21:14"
"#Finnish service for #senior citizens takes gold in #Japan - http:// tinyurl.com/zr3nonn via @goodnewsfinland #servicedesign #agingpopulation","#Finnish #senior #Japan #servicedesign #agingpopulation","2016-03-31 23:54:18"
"Why #Robots are the future of #ElderCare http:// ow.ly/103oyg #AgingPopulation pic.twitter.com/CCtvbIzt0R","#Robots #ElderCare #AgingPopulation","2016-03-30 14:01:28"
"Why #Robots are the future of #ElderCare http:// ow.ly/103oyg #AgingPopulation pic.twitter.com/TVqeGkCLjA","#Robots #ElderCare #AgingPopulation","2016-03-30 13:01:14"
"Do you have a project idea with an aging population focus? http:// ow.ly/104Abq @BIGN #agingpopulation","#agingpopulation","2016-03-30 11:35:06"
"David Letterman is unrecognizable 1 year after #retirement . #health #aging #agingpopulation http:// goo.gl/bgdRZ2 pic.twitter.com/vpAjUX9ONr","#retirement #health #aging #agingpopulation","2016-03-24 16:36:29"
"Japan's ageing population offers a silver lining: http:// ow.ly/ZNCyd #agingpopulation #elderlycare #liveincare","#agingpopulation #elderlycare #liveincare","2016-03-24 08:45:17"
"PCAST touts #telehealth , #wearable sensors as key to keeping #agingpopulation connected http:// sco.lt/6KbDcX #forahelthyme1","#telehealth #wearable #agingpopulation #forahelthyme1","2016-03-23 21:52:01"
"Where have all the Geriatricians gone? http:// ow.ly/ZQIfO #agingpopulation","#agingpopulation","2016-03-23 16:55:15"
"@edwardp @GVCC @JSadikKhan in her book what was removed was replaced elsewhere. #agingpopulation","#agingpopulation","2016-03-23 04:17:51"
"@David_Cameron @lbc who created the baloney of the #AgingPopulation in Europe and the need for non-EU citizens to replace us. Poppycock","#AgingPopulation","2016-03-22 01:18:52"
"Should You Sell Your Home When You Retire? Pro & Cons http:// ow.ly/ZDn71 #RealEstateAdvice #AgingPopulation #REALTORS","#RealEstateAdvice #AgingPopulation #REALTORS","2016-03-18 01:00:35"
"Should You Sell Your Home When You Retire? Pro & Cons http:// ow.ly/ZDna9 #RealEstateAdvice #AgingPopulation #REALTORS","#RealEstateAdvice #AgingPopulation #REALTORS","2016-03-17 22:05:12"
"Setting the scene @GrahamEllis247 Scotland will be the best country in the World #frailtyfife #agingpopulation pic.twitter.com/uD59ZTGi3e","#frailtyfife #agingpopulation","2016-03-17 11:07:15"
"How can #accountablecare help your hospital prepare for the #agingpopulation ? http:// bit.ly/1lguSLa #healthIT #patientexperience","#accountablecare #agingpopulation #healthIT #patientexperience","2016-03-15 18:15:12"
"It used to be ""how do we engage the millennials""; now ""how do we engage the elderly"" #agingpopulation #iocaring #SXSW","#agingpopulation #iocaring #SXSW","2016-03-15 17:28:05"
"Challenge: convert a world built by/for the young into one that supports & engages those living 100+ years. #sxsw2016 #agingpopulation","#sxsw2016 #agingpopulation","2016-03-15 17:19:26"
"burden of #NCD #agingpopulation so we need innovative #disruptivethinking , MBS/PBS reform(at), not just throw more at health #auspol","#NCD #agingpopulation #disruptivethinking #auspol","2016-03-15 13:18:15"
"Look to #healthcare for #emergingmarkets #growth ? http:// ow.ly/ZlrYE #AgingPopulation pic.twitter.com/v3Nv45OqXB","#healthcare #emergingmarkets #growth #AgingPopulation","2016-03-11 15:42:08"
"just passed a few stations.. and the whole row of passengers gave up all their seats to elderly passengers.. #agingpopulation","#agingpopulation","2016-03-11 06:36:47"
"#Retirements #agingpopulation cause #nursing shortage http:// ow.ly/ZiwDY","#Retirements #agingpopulation #nursing","2016-03-10 22:40:23"
"#Retirements #agingpopulation cause #nursing shortage http:// ow.ly/ZgJu7","#Retirements #agingpopulation #nursing","2016-03-10 03:40:13"
"On a stopover & watching CNN: last 2 commercials were for erectial dysfunction and free catheter samples. #agingpopulation #boomerTV","#agingpopulation #boomerTV","2016-03-10 01:44:50"
"#Retirements #agingpopulation cause #nursing shortage http:// ow.ly/ZdzkY","#Retirements #agingpopulation #nursing","2016-03-09 01:10:20"
