"Learn about the first U.S. #offshore #windfarm set to go online in Rhode Island. #GreenEnergy ... http:// autode.sk/2nHJhlG pic.twitter.com/PFeVSFRrCZ","#offshore #windfarm #GreenEnergy","2017-04-05 01:44:28"
"#GreenEnergy stupid policies scaring business away from #Canada especially Alberta http:// bit.ly/2aqLR8D","#GreenEnergy #Canada","2017-04-05 01:21:23"
"India headed for a #greenenergy revolution: harvard scientist http:// upflow.co/l/HIIT pic.twitter.com/dj3H4faTeR","#greenenergy","2017-04-05 01:17:53"
"Another beautiful customer system. If you have a tile roof, no one can give you a better looking option. #solar #solarpower #greenenergy pic.twitter.com/GHvXC6cvNS","#solar #solarpower #greenenergy","2017-04-05 01:07:08"
"Il @ConsorzioCinsa oggi in visita alla Fondazione @FBKcom per un nuovo progetto di ricerca #circulareconomy #GreenEnergy @Dadoimpe pic.twitter.com/trdf58SfEb","#circulareconomy #GreenEnergy","2017-04-05 01:02:58"
"When Wall Street is supporting electric cars/ #GreenEnergy , that is good news. Shows the public cares. https:// nyti.ms/2nCOeMQ @TeslaMotors","#GreenEnergy","2017-04-05 00:38:47"
"#France to construct roads that power themselves. #greenenergy http:// bit.ly/23wQen2","#France #greenenergy","2017-04-05 00:35:50"
"The only way to #WorldPeace is investing in #education , investing in #GreenEnergy , and #EradicatingPoverty . #WakeUp","#WorldPeace #education #GreenEnergy #EradicatingPoverty #WakeUp","2017-04-05 00:14:13"
"I wonder if enough Sith Lords could replace fossil fuels with their force lightning. #GreenEnergy #StarWars pic.twitter.com/d5S31CmuPp","#GreenEnergy #StarWars","2017-04-04 23:59:32"
"Survey: Majority of Businesses Will Continue Commitment to Sustainability Under Trump http:// dlvr.it/NpPBxd #greenenergy","#greenenergy","2017-04-04 23:37:07"
"#Sustainable #windfarm #GreenEnergy #EnvironmentalImpact #Environment #Design #Tech http:// autode.sk/2nGRM0A pic.twitter.com/Hq6N6pGoI4","#Sustainable #windfarm #GreenEnergy #EnvironmentalImpact #Environment #Design #Tech","2017-04-04 23:30:14"
"#World is embracing #GreenEnergy projects as they surge to new highs http:// bit.ly/1t4AsVN","#World #GreenEnergy","2017-04-04 23:15:26"
"""Gems of Opportunity"" Bladeless #WindTurbine #Concept as #GreenEnergy based on the #Dyson Air Multiplier Fan... http:// fb.me/1htFMYds2","#WindTurbine #Concept #GreenEnergy #Dyson","2017-04-04 23:15:11"
"Fully #renewable system is cheapest option in #Iran http://www. windpowermonthly.com/article/1426844 #MiddleEast #greenenergy #sustainability #environment","#renewable #Iran #MiddleEast #greenenergy #sustainability #environment","2017-04-04 23:05:48"
"As a premier local installer, we offer customized systems specifically designed for your home! Dividend Now #Texas #GreenEnergy #solar pic.twitter.com/E956eStHwV","#Texas #GreenEnergy #solar","2017-04-04 22:30:57"
"#SocialMedia Strategies For #GreenEnergy Mining Companies http:// rite.ly/jWP9 pic.twitter.com/mhRJatoXNj","#SocialMedia #GreenEnergy","2017-04-04 22:18:59"
"#solarpanels #FreeSolar #GreenEnergy #FreeEnergy How To Get Free Solar For Your #House >> http:// bit.ly/1qo2cCH pic.twitter.com/1Q8Fw0IcRf","#solarpanels #FreeSolar #GreenEnergy #FreeEnergy #House","2017-04-04 22:01:51"
"Join us for our joint session with Power Africa @USAID on #greenenergy finance in #Africa at 16:45 #SEforALLforum http:// ow.ly/zeti30axPAG pic.twitter.com/9hHA4fWucd","#greenenergy #Africa #SEforALLforum","2017-04-04 22:00:53"
"GreenEnergy Investments. ROI capped at 42%. Flexible exit strategy. Options end 28th April #Greenenergy #renewables http:// greenenergyhighroi.gr8.com / pic.twitter.com/CGyBzmdVNZ","#Greenenergy #renewables","2017-04-04 21:45:00"
"GreenEnergy Investments. ROI capped at 42%. Flexible exit strategy. Options end 28th April #Greenenergy #renewables http:// greenenergyhighroi.gr8.com / pic.twitter.com/6stdD83oQk","#Greenenergy #renewables","2017-04-04 21:45:00"
"Extremely efficient: provides 3-4 BTUs of electricity & Heat Energy for 5 BTUs of fuel #greenenergy #biomassgoo .gl/9bgQbE","#greenenergy #biomassgoo","2017-04-04 21:39:51"
"#GreenEnergy stupid policies scaring business away from #Canada especially Alberta http:// bit.ly/2aqLR8D","#GreenEnergy #Canada","2017-04-04 21:39:24"
"#Tesla surpasses #Ford in trading. #Apple unveils new 100% green energy HQ. @realDonaldTrump increases #coal & #oil production. #GreenEnergy","#Tesla #Ford #Apple #coal #oil #GreenEnergy","2017-04-04 21:21:02"
"Diamonds and graphite. What a pair! #solar #solarpower #greenenergy #solartoday http:// fb.me/1Vaegnz6T","#solar #solarpower #greenenergy #solartoday","2017-04-04 21:02:56"
"A 'bionic leaf' could help feed the world http:// dlvr.it/NpLNWZ #greenenergy","#greenenergy","2017-04-04 20:52:04"
"Innovative Roll Up Solar Panels http:// dld.bz/e9d7P #innovation #invention #solarpower #cleantech #greenenergy pic.twitter.com/dtszHLS460","#innovation #invention #solarpower #cleantech #greenenergy","2017-04-04 20:36:00"
"Ground-breaking discussions re #communityenergy @trentbasinnews latest residents' meeting tonight #greenenergy pic.twitter.com/bpVThBVnku","#communityenergy #greenenergy","2017-04-04 20:23:07"
"From Black Bags to Green Gas: how Rubbish could Heat our Homes https:// is.gd/bnbOMZ #greenenergy","#greenenergy","2017-04-04 20:23:00"
"Green Energy is our future. #GreenEnergy #climatechange #RealTime @billmaher pic.twitter.com/1NkSXf7p50","#GreenEnergy #climatechange #RealTime","2017-04-04 20:19:48"
"Berkeley Engineers Catch Waves for Clean Energy #cleanenergy #greenenergy #disrupt #tech #breakingnews http:// bit.ly/2ozljg3 pic.twitter.com/32nWDqs5zb","#cleanenergy #greenenergy #disrupt #tech #breakingnews","2017-04-04 20:07:16"
"#RenewableEnergy : do you really need it? This will help you decide! #GreenEnergy #environment http://www. altprofits.com","#RenewableEnergy #GreenEnergy #environment","2017-04-04 19:40:18"
"The harsh #reality of #ElectricCars #GreenEnergy that is #NotGreen #Energy https:// youtu.be/17xh_VRrnMU","#reality #ElectricCars #GreenEnergy #NotGreen #Energy","2017-04-04 19:16:51"
"#World is embracing #GreenEnergy projects as they surge to new highs http:// bit.ly/1t4AsVN","#World #GreenEnergy","2017-04-04 19:11:28"
"Solar-powered Seattle home makes eco-friendly look good http:// ow.ly/klIi30al1jq @Curbed #solar #realestate #home #ecofriendly #greenenergy","#solar #realestate #home #ecofriendly #greenenergy","2017-04-04 19:01:44"
"Will finish watching later, but definitely worth a retweet. Thanks for posting. #GreenEnergy","#GreenEnergy","2017-04-04 18:58:16"
"Now recruiting #youth ages 16-24 for BYA's 5-week #GreenEnergy Corps program! Starts Tues. 4/18. #Berkeley #EastBay #BayArea #GreenJobs pic.twitter.com/HHoRaqP8XX","#youth #GreenEnergy #Berkeley #EastBay #BayArea #GreenJobs","2017-04-04 18:53:09"
"Our Pro-Felt range of high performance bituminous felt products are manufactured using 100% #GreenEnergy http:// bit.ly/18hbtnI pic.twitter.com/suRaZWUw5h","#GreenEnergy","2017-04-04 18:42:01"
"We talked to Cassis Bistro about why they choose Bullfrog Power for their #greenenergy #reduceyourforkprint ... http:// fb.me/8J3rGvxjG","#greenenergy #reduceyourforkprint","2017-04-04 18:21:43"
"Dera Sacha Sauda not just advocates the use of #GreenEnergy but executes it aptly","#GreenEnergy","2017-04-04 18:19:09"
"Beauty of #GreenEnergy . #Windenergy . This is the final result of the tremendous effort of team work ! We are grown now. @kpenergy pic.twitter.com/mVNuwvMwin","#GreenEnergy #Windenergy","2017-04-04 18:10:48"
"#greenenergy Run of river hydro is the greenest energy there is. It has the highest energy return on energy invested http:// bit.ly/2nVbQPI","#greenenergy","2017-04-04 18:05:55"
"In #hartford these students In a class by themselves.... A new #greenenergy project to help a village a world away. @FOX61News at 5 #hope61 pic.twitter.com/FQGjNzRtE9","#hartford #greenenergy #hope61","2017-04-04 18:01:02"
"Putting the finishing touch! This customer is now a proud owner of a 1kW system #energyindependence #greenenergy #GMcEnergy #Portmorepines pic.twitter.com/LISbkpB0IM","#energyindependence #greenenergy #GMcEnergy #Portmorepines","2017-04-04 17:56:18"
"@heraldscotland asks whether #greenenergy can boost the #scottish #economy . What do you think? #lowcarbon #green http:// ow.ly/rSGD30avc0D pic.twitter.com/djzcDYUQrz","#greenenergy #scottish #economy #lowcarbon #green","2017-04-04 17:50:25"
"#China embraces #GreenEnergy with logic and pragmatism http:// bit.ly/1W8aCvZ","#China #GreenEnergy","2017-04-04 17:41:03"
"How Conservatives Are Attacking Green Tech #greenenergy #cleanenergy Read Here: http:// dld.bz/fxVMu pic.twitter.com/wonWJv4PDv","#greenenergy #cleanenergy","2017-04-04 17:31:39"
"We make sure your building is safe & comfortable & compliant with current regulations. #GreenEnergy http:// ow.ly/vZXL30aqENF pic.twitter.com/SKvJJFJcs9","#GreenEnergy","2017-04-04 17:01:42"
"Congrats #PEIScienceFair Tech Dev runner up Matt for his #greenenergy project - Using renewable energy to power your vehicle pic.twitter.com/GmyFMGyjfz","#PEIScienceFair #greenenergy","2017-04-04 16:40:10"
"For out on the windy moors... http:// ow.ly/1X9k30axPt7 #windpower #alternativeenergy #greenenergy pic.twitter.com/LfTLyRkdWC","#windpower #alternativeenergy #greenenergy","2017-04-04 16:35:10"
"1.3 billion people with no access to electricity? We can do better! #electricityforall #greenenergy #waterotor ... http:// fb.me/4mSIciOkG","#electricityforall #greenenergy #waterotor","2017-04-04 16:20:15"
"#China takes pragmatic approach to #GreenEnergy http:// bit.ly/1W8aCvZ","#China #GreenEnergy","2017-04-04 16:00:11"
"Sadiq Khan showing his green side today. Top man. Great leader for London #Labour #airpollution #LondonIsOpen #GreenEnergy","#Labour #airpollution #LondonIsOpen #GreenEnergy","2017-04-04 15:54:37"
"Our re-usable & re-washable #furnace air filters last 10 years, saving you money and protecting the planet! #HVAC #GreenEnergy","#furnace #HVAC #GreenEnergy","2017-04-04 14:50:26"
"#India , #UK to set up 240 mn pound fund for #greenenergy http:// bit.ly/2o5pXlh","#India #UK #greenenergy","2017-04-04 14:44:55"
"India, UK to set up 240 mn pound fund for #greenenergy projects http:// mybs.in/2UUrgNf pic.twitter.com/GMlvO8talV","#greenenergy","2017-04-04 14:41:55"
"#India - #UK set up joint fund for #greenenergy http:// ow.ly/FkcH30ay0gz #Business #PowerSector pic.twitter.com/hhMEctPl9U","#India #UK #greenenergy #Business #PowerSector","2017-04-04 14:13:50"
"Technical superiority&system flexibility #greenenergy #biomass http:// goo.gl/9bgQbE contact me about finders fee pic.twitter.com/rkG6iHLReU","#greenenergy #biomass","2017-04-04 14:11:35"
"It's Time We LINK Up to Plants!!! #GreenEnergy Let's Save The World! GO! https:// instagram.com/p/BSdjQPxgf4b/","#GreenEnergy","2017-04-04 13:51:09"
"GreenEnergy Investments. ROI capped at 42%. Flexible exit strategy. Options end 28th April #Greenenergy #renewables http:// greenenergyhighroi.gr8.com /","#Greenenergy #renewables","2017-04-04 13:44:01"
"GreenEnergy Investments. ROI capped at 42%. Flexible exit strategy. Options end 28th April #Greenenergy #renewables http:// greenenergyhighroi.gr8.com /","#Greenenergy #renewables","2017-04-04 13:44:00"
"Yeah! #solar #power #solarpower #greenenergy #duurzaamheid #wakawaka @frunsprefysiotherapie.nl https://www. instagram.com/p/BSdjYYcDclS/","#solar #power #solarpower #greenenergy #duurzaamheid #wakawaka","2017-04-04 13:28:32"
"#China embraces #GreenEnergy with logic and pragmatism http:// bit.ly/1W8aCvZ","#China #GreenEnergy","2017-04-04 11:27:30"
"#GreenEnergy , local development - #HopefieldWindFarm directs some of its revenue to local education: http:// ow.ly/AT8X309Tgja pic.twitter.com/PwKzq2m3Xb","#GreenEnergy #HopefieldWindFarm","2017-04-04 11:00:48"
"Love #tech #innovation + enjoy outdoors, #sport and #travel ? Check this one out! http:// stepcharge.com #GreenEnergy #Sustainability","#tech #innovation #sport #travel #GreenEnergy #Sustainability","2017-04-04 10:54:12"
"Alternagy stocks a wide range of products to help you live green. To switch visit our website at http://www. alternagy.co.za #Solar #GreenEnergy pic.twitter.com/8XZLk7uVR8","#Solar #GreenEnergy","2017-04-04 10:45:11"
"#GreenEnergy stupid policies scaring business away from #Canada especially Alberta http:// bit.ly/2aqLR8D","#GreenEnergy #Canada","2017-04-04 10:45:06"
"#France to construct roads that power themselves. #greenenergy http:// bit.ly/23wQen2","#France #greenenergy","2017-04-04 10:39:53"
"@c40cities Financing Sustainable Cities - new business models to invest in #cities #infrastructure #GreenEnergy pic.twitter.com/OGJG0MA9S9","#cities #infrastructure #GreenEnergy","2017-04-04 10:39:13"
"What are the prospects for low-carbon growth in Africa? New blog #CEAfrica #greenenergy http:// buff.ly/2oTNBP4 pic.twitter.com/ur47aQ8Dcy","#CEAfrica #greenenergy","2017-04-04 10:30:21"
"Ease of transport & reduced fuel transport costs #greenenergy #biomass finder's fee pic.twitter.com/GkDeBROwZZ","#greenenergy #biomass","2017-04-04 10:27:33"
"Fancy taking your business green? Try a #greenenergy contract http:// hubs.ly/H065nT-0","#greenenergy","2017-04-04 10:10:13"
"The pipeline will be undetected with no pipe bridges, so we can keep visual #beauty of the area intact. #hydro #greenenergy #argyll pic.twitter.com/q5eoBhZlNJ","#beauty #hydro #greenenergy #argyll","2017-04-04 10:05:52"
"It's great to see someone care and acknowledge our habits as humans need to change. #renewableenergy #GreenEnergy #globalwarming","#renewableenergy #GreenEnergy #globalwarming","2017-04-04 10:01:24"
"Gorgeous smart #solar umbrellas can even make drinking water: http:// bit.ly/2nSv5ZS @thinkphi #Green #WaterPurification #GreenEnergy pic.twitter.com/zBsdLw2ZzA","#solar #Green #WaterPurification #GreenEnergy","2017-04-04 10:00:40"
"I think what we all have to do is make this big leap towards #renewables . Josh Fox #GreenEnergy #quote http://www. altprofits.com","#renewables #GreenEnergy #quote","2017-04-04 09:40:09"
"Ah, ok. Thanks. I'm from Denmark where this whole climate change denial thing is very hard to fully comprehend. #greenenergy #climatechange","#greenenergy #climatechange","2017-04-04 09:23:50"
"This ""Waterotor"" can harvest #greenenergy in water currents as low as 20 mph. http:// ow.ly/az8O30axc5k","#greenenergy","2017-04-04 09:00:20"
"#France to construct roads that power themselves. #greenenergy http:// bit.ly/23wQen2","#France #greenenergy","2017-04-04 08:53:30"
"How Aries Clean Technology is improving sustainability in America http:// bit.ly/2nW5iQ9 #Sustainability #GreenEnergy #cleanenergy pic.twitter.com/GjWWOkD0xA","#Sustainability #GreenEnergy #cleanenergy","2017-04-04 08:30:50"
"#SolarPower simply works this way. #GoSolar #SolarDubai #SolarUAE #RenewableEnergy #NavitasDwc #EcoFriendly #GreenEnergy pic.twitter.com/SjhhmHyAJb","#SolarPower #GoSolar #SolarDubai #SolarUAE #RenewableEnergy #NavitasDwc #EcoFriendly #GreenEnergy","2017-04-04 08:03:48"
"Labor gives birth to ideas. Jim Rohn http:// bit.ly/1p2WGW9 #entrepreneur #success #leadership #workfromhome #prosperity #greenenergy","#entrepreneur #success #leadership #workfromhome #prosperity #greenenergy","2017-04-04 07:57:12"
"The time is running out! Think about ways to change to #RenewableEnergy . #GreenEnergy #environment http://www. altprofits.com","#RenewableEnergy #GreenEnergy #environment","2017-04-04 07:40:09"
"Advantages of Green Energy https:// is.gd/FZ0nWv #greenenergy","#greenenergy","2017-04-04 06:56:09"
"#SocialMedia Strategies For #GreenEnergy Mining Companies http:// rite.ly/jWP9 pic.twitter.com/oGBqzkKlec","#SocialMedia #GreenEnergy","2017-04-04 05:42:04"
"This #turbine can harvest #GreenEnergy in water currents as slow as 2 mph. http:// read.bi/2nSigyp via @bi_video #renewableenergy #Canadian","#turbine #GreenEnergy #renewableenergy #Canadian","2017-04-04 04:27:05"
"It looks like you have a beautiful family. Dont you want them to have clean air land & water? #renewableenergy #GreenEnergy #cleanenergy","#renewableenergy #GreenEnergy #cleanenergy","2017-04-04 03:05:52"
"It looks like you have a beautiful family. Dont you want them to have clean air land & water? #renewableenergy #GreenEnergy #cleanenergy","#renewableenergy #GreenEnergy #cleanenergy","2017-04-04 03:05:24"
"The #solarpanels of Dub Architects' The Edge are featured in today's #DailyPhoto . http:// ow.ly/OcqB30avWPK #Edmonton #YEG #YEGdt #GreenEnergy pic.twitter.com/geZJsHr1oj","#solarpanels #DailyPhoto #Edmonton #YEG #YEGdt #GreenEnergy","2017-04-04 02:30:20"
"A Super Cool Roof Solution to being Hot in the City https:// is.gd/qw1Wra #greenenergy #greentech","#greenenergy #greentech","2017-04-04 02:16:58"
"#France to construct roads that power themselves. #greenenergy http:// bit.ly/23wQen2","#France #greenenergy","2017-04-04 01:39:48"
"Will be decades before people forget #Obama spent the money but not on any shovel ready jobs. #GreenEnergy #Solyndra #FilibusterThat","#Obama #GreenEnergy #Solyndra #FilibusterThat","2017-04-04 01:08:04"
