"Maryland economy wins big with Clean Energy Jobs Act - @Wind_Systems http:// buff.ly/2nQZpT1 #windpower #windworks pic.twitter.com/3AMsniAnPz","#windpower #windworks","2017-04-05 01:52:03"
"Acting on how much #windpower is available from 4-8pm improves #sustainability .","#windpower #sustainability","2017-04-05 01:02:18"
"#WindPower : New Tool Helps African Countries Find the Best Sites for Renewable Energy Projects ... https:// goo.gl/JVBsWa","#WindPower","2017-04-05 00:59:11"
"#WindPower : PJM study quantifies wind's value for building a reliable resilient power system ... https:// goo.gl/16A99c","#WindPower","2017-04-05 00:58:10"
"#WindPower : Will ESAs Mark The End Of Coal Power ... https:// goo.gl/PqbL1w","#WindPower","2017-04-05 00:57:08"
"#WindPower : Trump may threaten Iowa's burgeoning wind energy industry ... https:// goo.gl/OK7a3n","#WindPower","2017-04-05 00:55:05"
"#WindPower : NRDC Wind And Solar Tax Credits Bringing 'Huge Gains' To U S Economy ... https:// goo.gl/ehVWKg","#WindPower","2017-04-05 00:54:04"
"#WindPower : Rocky Mountain Power plans for more wind solar & transmission lines ... https:// goo.gl/hK6ur7","#WindPower","2017-04-05 00:53:02"
"#WindPower : Rocky Mountain Power plans major wind turbine expansion ... https:// goo.gl/zzHcAh","#WindPower","2017-04-05 00:52:00"
"Grade4 Ss adding their #windpower electrical systems to @TomorrowlandEES community. #STEAM @EES_Mustangs #Boone2020 @LEGO_Education #STEMed pic.twitter.com/yIZPgbFxYE","#windpower #STEAM #Boone2020 #STEMed","2017-04-05 00:38:29"
"#Windpower provided enough energy for 136% of Scottish households last month http:// buff.ly/2o03ZzU","#Windpower","2017-04-04 23:56:11"
"#Windpower champions: local students take home prizes at @Google Wind Challenge - @GdaleSentinel http:// buff.ly/2ovMXun pic.twitter.com/zyYCEnNW7Q","#Windpower","2017-04-04 23:52:12"
"Who knows something about Russian #windpower support model ? http:// buff.ly/2nYVvZZ pic.twitter.com/dLK6ijpPoy","#windpower","2017-04-04 23:10:01"
"One of those nights in North Dakota! Sometimes you just have to sit and take it all in. #Greatfull for #Windpower Photo by Rafal Pan pic.twitter.com/H2FIuQXXyT","#Greatfull #Windpower","2017-04-04 23:03:05"
"#WindPower : GE wind turbines selected for 250 MW Texas wind power project ... https:// goo.gl/qYtjv3","#WindPower","2017-04-04 23:02:02"
"NREL dedicates new R&D facility focused on critical composite materials manufacturing breakthroughs for #WindPower - http:// bit.ly/2nwoFO1","#WindPower","2017-04-04 22:45:08"
". @PacifiCorp announced big plans today that would bring more #windpower to the western US pic.twitter.com/VeoDD2AdE5","#windpower","2017-04-04 22:05:21"
"@Totaro says next gen wind tech to get $36.9 billion R&D by 2026 https:// goo.gl/I0tkHP #windpower #windindustry","#windpower #windindustry","2017-04-04 22:00:03"
"If Michael Polsky is Chicago's king of #windpower , this guy is at least the duke http:// bit.ly/2oFDfmK","#windpower","2017-04-04 21:59:46"
"MAKE: Vestas was the top turbine supplier in 2016 http:// sbne.ws/r/wGbo #windpower #renewableenergy","#windpower #renewableenergy","2017-04-04 21:56:10"
"Here's proof #AmericaInnovates : technological improvements have cut #windpower costs 66% over the last 7 yrs pic.twitter.com/zXVKMDaP5W","#AmericaInnovates #windpower","2017-04-04 21:38:35"
"What do you need to know about #windpower ? @AWEA pic.twitter.com/kikiwcbEhA","#windpower","2017-04-04 21:30:35"
"#WindPower : Is tidal power finally coming of age ... https:// goo.gl/hmbMbe","#WindPower","2017-04-04 21:18:40"
"#WindPower : The rural renewable power renaissance ... https:// goo.gl/OOWyr0","#WindPower","2017-04-04 21:17:39"
"#WindPower : ND lawmakers accuse PTC of 'wreaking havoc' on coal sector ... https:// goo.gl/k7sNCr","#WindPower","2017-04-04 21:16:37"
"#WindPower : Gamesa & Siemens Merger Finalized Siemens Acquires Mentor Graphics ... https:// goo.gl/ZSBwRE","#WindPower","2017-04-04 21:15:35"
"U.S. Vigrin Islands to ditch their diesels for propane. Are wind turbines far behind? https:// goo.gl/d7yZjk #windpower #windindustry pic.twitter.com/6bZWKtAZa8","#windpower #windindustry","2017-04-04 21:15:02"
"#WindPower : Nations progressing towards Renewable Energy with Wind Power ... https:// goo.gl/ekurhF","#WindPower","2017-04-04 21:14:33"
"#WindPower : GE Powered Texas Wind Farm Grabs Financing ... https:// goo.gl/7UMhKc","#WindPower","2017-04-04 21:13:31"
"#WindPower : GE turbines selected for 250 MW Texas wind power project ... https:// goo.gl/1ym6SQ","#WindPower","2017-04-04 21:12:29"
"#WindPower : Scotland Sets Massive New Wind Power Record In March Meeting 136 Of Households' Needs ... https:// goo.gl/KCcVnV","#WindPower","2017-04-04 21:11:28"
"#WindPower : Last month wind power provided enough energy for 136 of Scottish households ... https:// goo.gl/9nMyAT","#WindPower","2017-04-04 21:10:25"
"#Windpower smashes records worldwide: http:// ow.ly/Q97330ayq0p #tuesdaymativation #renewableenergy","#Windpower #tuesdaymativation #renewableenergy","2017-04-04 21:00:45"
"#WindPower Smashes Records Worldwide http:// fb.me/6CqqIjfq8","#WindPower","2017-04-04 20:41:32"
"GE-Powered #Texas Wind Farm Grabs Financing: http:// j.mp/2nUcomI via @NAWindpower #windenergy #windpower","#Texas #windenergy #windpower","2017-04-04 20:39:16"
"Arizona-based TPI Composites notches another #wind blade agreement with @Gamesa_Official - http:// bit.ly/2oFnsEs #windpower","#wind #windpower","2017-04-04 20:32:57"
"Nordsee One offshore wind project begins generating power. Photo from earlier. https:// goo.gl/xvvBhP #windpower #offshore pic.twitter.com/1rJccQJgRw","#windpower #offshore","2017-04-04 20:30:01"
"Rocky Mountain Power unveils big plans for #wind , #solar & transmission in the Mountain States http:// bit.ly/2o6A89j #windpower @RMP_Utah pic.twitter.com/eRUPlP1Mbo","#wind #solar #windpower","2017-04-04 20:04:49"
"NREL dedicates new R&D facility focused on critical composite materials manufacturing breakthroughs for #WindPower - http:// bit.ly/2nwoFO1 pic.twitter.com/65MSDKz0VM","#WindPower","2017-04-04 20:00:03"
"@Antaira Technologies intros new Ethernet switches https:// goo.gl/4Sy1yw #windpower #ethernet pic.twitter.com/dmJ292jIr5","#windpower #ethernet","2017-04-04 19:45:02"
"@noturbine when will people figure out that #windpower is the opposite of green.","#windpower","2017-04-04 19:39:08"
"#WindPower : UCM Badamsha Wind Power Plant 200 MW Kazakhstan ... https:// goo.gl/gvAh1c","#WindPower","2017-04-04 19:13:00"
"#WindPower : Wind power offers new opportunities in West Texas ... https:// goo.gl/Yo8Oel","#WindPower","2017-04-04 19:11:59"
"#WindPower : Wind Power Plants in occupied territories of Western Sahara ... https:// goo.gl/2SOVYi","#WindPower","2017-04-04 19:10:57"
"As Trump/Trudeau push pipelines, #WindPower Smashes Records Worldwide http:// buff.ly/2oypybI #climate #energy #renewables #go100re pic.twitter.com/FPOwdYRNdA","#WindPower #climate #energy #renewables #go100re","2017-04-04 19:03:02"
"Our protective coatings & adhesives in windmills help make windfarms even more sustainable #Windpower #renewableenergy #windturbine pic.twitter.com/MjRymoejWK","#Windpower #renewableenergy #windturbine","2017-04-04 19:00:39"
"Its official! Gamesa and Siemens are merged. I propose Gamemens. You? https:// goo.gl/ISqlhT #windpower #windindustry pic.twitter.com/vHpWiWdp54","#windpower #windindustry","2017-04-04 19:00:03"
"Interesting read: #Windpower records set in Scotland and India #renewableenergy #windturbine http:// ow.ly/nU8V30ayjv6 pic.twitter.com/ViOD8Zldv1","#Windpower #renewableenergy #windturbine","2017-04-04 18:55:08"
"#India Added 5,400 MW #WindPower In 2016-17, Exceeding Its 4,000 MW Target http:// buff.ly/2oV0Y1y pic.twitter.com/jV2P9kVyg0","#India #WindPower","2017-04-04 18:33:08"
"pretty but windy day out in texas #windpower pic.twitter.com/sbeuEjHGEs","#windpower","2017-04-04 18:09:00"
"Installation of foundations at Galloper #windfarm completed two months early http:// ow.ly/X95Y30ayHiH #offshore #windpower","#windfarm #offshore #windpower","2017-04-04 18:04:17"
"#Windpower fact of the day: By cutting pollution, wind farms saved America $7.3 billion in health care costs in 2015. pic.twitter.com/GByLgfZUqp","#Windpower","2017-04-04 18:03:12"
"Acting on how much #windpower is available from 4-8pm improves #sustainability . pic.twitter.com/hLVWfuLvWP","#windpower #sustainability","2017-04-04 18:01:19"
"Curious concept: Green finance as the next driver of growth. https:// goo.gl/Rkdr66 #windpower #windindustry pic.twitter.com/Umx9gazXkm","#windpower #windindustry","2017-04-04 17:59:01"
"Let's hope they make the positive dent we need https:// snapm.uk/2neVjlF @XcelEnergyMN #windpower pic.twitter.com/4ki8pBrS7s","#windpower","2017-04-04 17:56:08"
"A youth #wind turbine design challenge is coming to @AWEA WINDPOWER 2017 next month - http:// bit.ly/2oy2lqB #windpower @KidWind_Project pic.twitter.com/xiZvYCAtbv","#wind #windpower","2017-04-04 17:51:41"
"North Carolina offshore #wind hailed as job creator. http:// ow.ly/kv7m30apEzZ #windpower #renewables pic.twitter.com/Pmhx3OB9cE","#wind #windpower #renewables","2017-04-04 17:45:29"
"@K2Managment advises on 196-MW wind farm in Lone Star state https:// goo.gl/AePWyc #windpower #Texas","#windpower #Texas","2017-04-04 17:15:00"
"#Utility #wind rush set to strengthen as low prices allow resource to spread across nation- @utilitydive http:// bit.ly/2mm8ntF #windpower","#Utility #wind #windpower","2017-04-04 17:00:01"
"Great wind and cleaner/cheaper power, brings another corporate buyer. #WindPower to power @7Eleven in #Texas http:// buff.ly/2nYlQHi pic.twitter.com/3xqAafYKcm","#WindPower #Texas","2017-04-04 16:41:26"
"Great wind and cleaner/cheaper power, brings another corporate buyer. #WindPower to power @7Eleven in #Texas http:// buff.ly/2nYuCVR pic.twitter.com/Mfa88WitsW","#WindPower #Texas","2017-04-04 16:41:26"
"#WindPower records set in #Scotland and #India https:// pocket.co/sMXUKX","#WindPower #Scotland #India","2017-04-04 16:40:19"
"Award finalists selected for Wind Energy Update O&M Dallas conference https:// goo.gl/srv3Dg #windpower #windindustry","#windpower #windindustry","2017-04-04 16:38:01"
"For out on the windy moors... http:// ow.ly/1X9k30axPt7 #windpower #alternativeenergy #greenenergy pic.twitter.com/LfTLyRkdWC","#windpower #alternativeenergy #greenenergy","2017-04-04 16:35:10"
"These states are doubling down on transmission for #windpower and #corporate buyers - via #theBRC 's new report: http:// ow.ly/50Wh30axiVc pic.twitter.com/XJQO1jN3vX","#windpower #corporate #theBRC","2017-04-04 16:30:39"
". @GErenewables -powered #wind farm in Haskell County, Texas, grabs financing - http:// bit.ly/2o5GxSj #windpower pic.twitter.com/PSGAbfnjU3","#wind #windpower","2017-04-04 16:27:21"
"#Scotland now at the forefront of #RenewableEnergy developments. #ScotRef #Brexit #WindPower #California #Under2coalition pic.twitter.com/iQHY1W9u4U","#Scotland #RenewableEnergy #ScotRef #Brexit #WindPower #California #Under2coalition","2017-04-04 16:12:03"
"Kansas #WindFarm Developers Optimistic About Market | #Kansas News | @usnews http:// buff.ly/2nVNpkB #windpower","#WindFarm #Kansas #windpower","2017-04-04 16:09:06"
"NREL and Giner validate performance of electrolyzers for H2 storage of excess #WindPower #SolarPower in @ESIFLabs - http:// bit.ly/2orsrr8 pic.twitter.com/rm9Cv0KEq2","#WindPower #SolarPower","2017-04-04 16:00:06"
"The merger of Gamesa and Siemens Wind Power becomes effective | @Gamesa_Official #WindPower http:// ow.ly/VFYR30ayb9G","#WindPower","2017-04-04 15:37:39"
"Germany makes some #hydrogen from #wind . Real #sustainability ! #renewables #renewableenergy #windpower #windenergy https:// jak.sn/2n7b96J","#hydrogen #wind #sustainability #renewables #renewableenergy #windpower #windenergy","2017-04-04 15:33:02"
"Babu: Andhra Pradesh targets 4,000MW of #windpower and 5,000MW of #Solar by 2019","#windpower #Solar","2017-04-04 15:32:42"
"#Windpower becoming more prevalent around the world; records set in Scotland & India http:// ow.ly/bpUr30ayabe pic.twitter.com/ABMzVO7Lxg","#Windpower","2017-04-04 15:30:46"
"An app that helps technicians troubleshoot wind turbines! http:// turbinerunner.com #wind #windpower #windenergy pic.twitter.com/VS75f49O7n","#wind #windpower #windenergy","2017-04-04 15:30:05"
"Emerging#fossilfuel alternatives such as #windpower & #solarpower are starting to limit growth in #oil demand. http:// wartsila.smh.re/0Zl pic.twitter.com/69UsJe4OVb","#fossilfuel #windpower #solarpower #oil","2017-04-04 15:21:19"
"#WindPower : NTPC makes wind energy debut commissions first project in Gujarat ... https:// goo.gl/JYLgXQ","#WindPower","2017-04-04 14:48:04"
"#WindPower : BT strikes USD 230m wind PPA in Scotland ... https:// goo.gl/1imi17","#WindPower","2017-04-04 14:47:01"
"#WindPower : TPI to make Gamesa rotor blades in Turkey ... https:// goo.gl/HRJhk5","#WindPower","2017-04-04 14:46:00"
"#WindPower : 7 Eleven Signs 8 Year Agreement with TXU Energy for Local Wind Power ... https:// goo.gl/rFWzMu","#WindPower","2017-04-04 14:44:58"
"Oil companies are investing in offshore wind http:// ow.ly/ZJJR30axeZv #renewableenergy #windpower","#renewableenergy #windpower","2017-04-04 14:35:09"
"Silent Spring: Then and Now http:// bit.ly/2nBBE0e #windpower #birds #eagles @MaryKayBarton","#windpower #birds #eagles","2017-04-04 14:25:01"
". @tvo compares role of #distributivejustice & #community #benefitsharing in #windpower dev in #Ontario & #NovaScotia http:// bit.ly/2nzK7Dw","#distributivejustice #community #benefitsharing #windpower #Ontario #NovaScotia","2017-04-04 14:00:02"
"We had plenty of #solarpower and #windpower Saturday thru Monday, but increased fossil fuel consumption is forecast for the next two days. pic.twitter.com/9KyiTci3Ty","#solarpower #windpower","2017-04-04 13:52:21"
"#WindPower : National Grid calls for storage law change ... https:// goo.gl/FM53Gm","#WindPower","2017-04-04 13:39:27"
"#alternativeenergy #windpower #thefuture #puertorico #visitpuertorico @Naguabo, Puerto Rico https://www. instagram.com/p/BSdfN1pALUO/","#alternativeenergy #windpower #thefuture #puertorico #visitpuertorico","2017-04-04 12:52:07"
"#WindPower : Nils Ferber's Wind Power ... https:// goo.gl/oCT7iN","#WindPower","2017-04-04 12:47:43"
"#WindPower : ConEd must make case to PUC over NorthWestern view on wind power costs ... https:// goo.gl/2b3uSX","#WindPower","2017-04-04 12:46:42"
"Bild des Tages #Energiewende #Energie #windpower #windenergy pic.twitter.com/Nr4CDMPe7x","#Energiewende #Energie #windpower #windenergy","2017-04-04 12:45:43"
"#WindPower : Wind to power 7 Eleven stores in Texas ... https:// goo.gl/O1PxDq","#WindPower","2017-04-04 12:45:41"
"#WindPower : THDCIL commissions its 2nd Wind Power Project of 63 MW at Dwarka Gujarat ... https:// goo.gl/pwhuue","#WindPower","2017-04-04 11:44:27"
"Switch to alternative #energy - it's easy if you do it smart. #SolarEnergy #WindPower #geothermal http://www. altprofits.com","#energy #SolarEnergy #WindPower #geothermal","2017-04-04 11:40:10"
"Great to be working with @SmithBrosPower on the Hallburn project http:// bit.ly/2nzip6u #renews #hallburn #windpower #RenewableEnergy","#renews #hallburn #windpower #RenewableEnergy","2017-04-04 11:13:46"
"#WindPower : Renewables bring 43 9 of Spain's power in March ... https:// goo.gl/mxqSe7","#WindPower","2017-04-04 10:52:30"
"#WindPower : Solar and wind set new record in Germany in March ... https:// goo.gl/dcY8PQ","#WindPower","2017-04-04 10:51:29"
"Check out the new story page of Siemens Gamesa Renewable Energy: http://www. gamesacorp.com/siemensgamesa #windpower","#windpower","2017-04-04 10:41:59"
"Emerging#fossilfuel alternatives such as #windpower & #solarpower are starting to limit growth in #oil demand. http:// wartsila.smh.re/0ZG pic.twitter.com/xoG6D6zLdR","#fossilfuel #windpower #solarpower #oil","2017-04-04 10:11:12"
"#WindPower : Bodangora wind farm powers on ... https:// goo.gl/REHgQU","#WindPower","2017-04-04 09:59:49"
"Uttarakhand does not appear anywhere in producing #windpower . Centre and state must pay attention.","#windpower","2017-04-04 08:40:56"
"#Windpower records set in Scotland and India https:// yhoo.it/2o3GB4Y via @YahooNews #renewableenergy #windturbine pic.twitter.com/KRe1riHSua","#Windpower #renewableenergy #windturbine","2017-04-04 08:35:08"
"China to Launch Green Certificates in Renewable Energy Sector #windpower #cleanenergy pic.twitter.com/f5nuB03RxJ http:// ow.ly/xZiK30axeli","#windpower #cleanenergy","2017-04-04 08:25:03"
"#WindPower : 7 Eleven turns to wind power for hundreds of Texas c stores ... https:// goo.gl/BvUv74","#WindPower","2017-04-04 07:42:26"
"RT @green4EMA RT for #renewables : ""Wind Power Smashes Records Worldwide"" http:// rbl.ms/2nP7NlD #windpower","#renewables #windpower","2017-04-04 07:20:16"
"Yes! Illinois county panel OKs new wind farm | @mywebtimes http:// buff.ly/2nV5f7i #windpower #windenergy #windworks","#windpower #windenergy #windworks","2017-04-04 06:59:00"
"#WindPower : Office Hours Why hasn't solar power become wildly popular ... https:// goo.gl/4Yg8ip","#WindPower","2017-04-04 06:46:26"
"#WindPower : How Will Offshore Wind Power Get to Grid ... https:// goo.gl/WPXPM1","#WindPower","2017-04-04 06:45:24"
"#WindPower : Wind Power and Andrew's Law ... https:// goo.gl/D4ToH0","#WindPower","2017-04-04 06:22:09"
"#Windpower in California is currently at 12.8% of total demand.","#Windpower","2017-04-04 05:02:16"
"#WindPower : SunEdison Inc SUNEQ Warns Restructuring Efforts May Fail With New Lawsuit ... https:// goo.gl/NER5pB","#WindPower","2017-04-04 04:44:58"
"#WindPower : Transforming Customer Experience Through Innovation and Technology ... https:// goo.gl/ejv5W0","#WindPower","2017-04-04 04:18:32"
"Raising #energyawareness to conserve usage from 4-8pm when #windpower is low.","#energyawareness #windpower","2017-04-04 04:02:15"
"In 2016, five states generated more than 20 percent of their electricity from #WindPower - http:// bit.ly/2mkIkPz via @PwrEngineering","#WindPower","2017-04-04 03:25:00"
"RT for #renewables : ""Wind Power Smashes Records Worldwide"" http:// rbl.ms/2nP7NlD #windpower","#renewables #windpower","2017-04-04 03:18:53"
"#WindPower : wind power integration into the distribution network ... https:// goo.gl/jBqEUK","#WindPower","2017-04-04 02:54:55"
"Forget coal. This is how to revive rural America. #USA #WindPower http:// bit.ly/2nR8YRK pic.twitter.com/pMdSmIw1N3","#USA #WindPower","2017-04-04 02:49:46"
"Forget coal. This is how to revive rural America. #USA #WindPower http:// bit.ly/2nR8YRK pic.twitter.com/4CNtDsc20c","#USA #WindPower","2017-04-04 02:49:46"
"#ERCOT #wind blows another #windpower record! 16,141 MW Friday night; ~39.5% of total #Texas #power demand at time http:// ow.ly/HLKt30axe4f","#ERCOT #wind #windpower #Texas #power","2017-04-04 02:38:27"
"Wind Energy War On The High Plains VIDEO: https:// youtu.be/Ef6bb-S1CLo #bioenergy #renewableenergy #windpower #renewables","#bioenergy #renewableenergy #windpower #renewables","2017-04-04 02:35:04"
"Winds of change #EnergyPolicy , #PowerWatchIndia , #WindPower https:// wp.me/p5paCD-1JN pic.twitter.com/wzO5RISY6B","#EnergyPolicy #PowerWatchIndia #WindPower","2017-04-04 02:31:27"
"@AWEA An app that helps technicians troubleshoot wind turbines! http:// turbinerunner.com #windpower #windenergy pic.twitter.com/dyZEFJrvqa","#windpower #windenergy","2017-04-04 02:27:18"
"+20 #Wind #WindEnergy #WindPower #WindPowerPlant = Non-Organic #RenewableEnergy = #FuelFreeFuelForever & #WindAsEVFuel #EVsRidingTheWind","#Wind #WindEnergy #WindPower #WindPowerPlant #RenewableEnergy #FuelFreeFuelForever #WindAsEVFuel #EVsRidingTheWind","2017-04-04 02:11:26"
"Acting on how much #windpower is available from 4-8pm improves #sustainability .","#windpower #sustainability","2017-04-04 02:02:15"
"As Trump Bows Out, States Set to Fill Void on Climate Change http:// buff.ly/2nzJaZi #solarpower #windpower pic.twitter.com/lQxfXommTa","#solarpower #windpower","2017-04-04 02:00:10"
"Not high priority issue--1/3 of U.S. electricity could be generated from #windpower using <1/3 space of U.S. golf courses.","#windpower","2017-04-04 01:56:19"
"#WindPower : VIDEO First Wind Powered Robotic Waste Sorting System Installed in Sweden ... https:// goo.gl/1wP5yM","#WindPower","2017-04-04 01:44:15"
"Red Lion launches scalable Graphite Edge Controller for extreme environs https:// goo.gl/dbGXz1 #windpower #windenergy pic.twitter.com/9ynG0n8pL4","#windpower #windenergy","2017-04-04 01:40:00"
"Had a strong storm pass threw. Also brought a lot of wind with it. They said it was Severe. #weather #westcoast #windpower","#weather #westcoast #windpower","2017-04-04 01:29:35"
"@Moog intros more reliable pitch system which promises a lower cost of energy https:// goo.gl/o4iEcU #windpower #windenergy pic.twitter.com/F1sXqsVHtW","#windpower #windenergy","2017-04-04 00:50:01"
"K2 Management advises on 196-MW Texas wind farm https:// goo.gl/AePWyc #windpower #windenergy pic.twitter.com/s7uAVjyPWH","#windpower #windenergy","2017-04-04 00:15:00"
"How U.S. #windpower sector is building momentum, driving economic benefits | @GreentechMedia http:// buff.ly/2oiZzVR pic.twitter.com/MrB5yh60jT","#windpower","2017-04-03 23:52:05"
"#windpower . There goes a families drinking water. Its a matter of time we are all drinking from the plastic water bottle..","#windpower","2017-04-03 23:50:26"
"ESS wins seabid clearance project for 588-MW Beatrice Offshore wind project https:// goo.gl/O7NIwP #windpower #offshore pic.twitter.com/Y8hdO0bBn4","#windpower #offshore","2017-04-03 23:30:01"
"#WindPower : Wind PPA Brings Iron Mountain's Data Centers To 100 Renewables ... https:// goo.gl/e3Oy1y","#WindPower","2017-04-03 23:00:35"
"Here's a great (French) article on us in this month's issue of @utiliterre ! #windenergy #windpower http:// bit.ly/2nC7fyB pic.twitter.com/ssnzVCBp2a","#windenergy #windpower","2017-04-03 22:49:06"
"Gamesa and Siemens finalize merger http:// sbne.ws/r/wFxi #windpower","#windpower","2017-04-03 22:44:05"
"RT Go2MattPhillips: The power of old and new. #LPinPortugal #windpower pic.twitter.com/GlzUTjpbBU","#LPinPortugal #windpower","2017-04-03 22:26:22"
"RT Go2MattPhillips: The power of old and new. #LPinPortugal #windpower pic.twitter.com/fAivu3OaFH","#LPinPortugal #windpower","2017-04-03 22:23:22"
"RT Go2MattPhillips: The power of old and new. #LPinPortugal #windpower pic.twitter.com/zHZfSwweV3","#LPinPortugal #windpower","2017-04-03 22:21:50"
"RT @Go2MattPhillips : The power of old and new. #LPinPortugal #windpower pic.twitter.com/bMex7y5HHA","#LPinPortugal #windpower","2017-04-03 22:20:08"
"#WindPower : India adds record wind power capacity of 5400 MW in 2016 17 ... https:// goo.gl/XmdqaA","#WindPower","2017-04-03 22:11:11"
"China to Launch Green Certificates in Renewable Energy Sector http:// buff.ly/2oPHxXJ #windpower #cleanenergy pic.twitter.com/Z2NJRE4YBm","#windpower #cleanenergy","2017-04-03 22:00:43"
"Duke Energy uses IdentiFlight camera detection system to protect eagles in Wyoming https:// goo.gl/TzdzAl #windpower #wildlife pic.twitter.com/wt9BVWV0Wd","#windpower #wildlife","2017-04-03 22:00:02"
"RT @CleanChoice As wind energy grows, 248,000 related jobs by 2020 possible | @AWEA http:// results.pm/2oBqFEK #windpower #windworks","#windpower #windworks","2017-04-03 21:52:05"
"@Gamesa_Official and @Siemens merger is now effective: http:// bit.ly/2nBU6Wm #windpower pic.twitter.com/TgD2t3jzNQ","#windpower","2017-04-03 21:24:25"
"Tiny big #WindPower #AlternativeEnergy #WindTurbine #EnvironmentalConservation #RenewableEnergy #Windmill ... http:// EyeEm.com/p/103241592","#WindPower #AlternativeEnergy #WindTurbine #EnvironmentalConservation #RenewableEnergy #Windmill","2017-04-03 21:23:41"
"#WindPower : Trump Climate Policy Fires Up Power Company War ARCH AR ... https:// goo.gl/FpejAt","#WindPower","2017-04-03 21:22:45"
"#WindPower : Siemens Wind Gamesa merger becomes effective today ... https:// goo.gl/wucsmI","#WindPower","2017-04-03 21:21:44"
"#WindPower : Gamesa and Siemens merger is now effective ... https:// goo.gl/lR6lR8","#WindPower","2017-04-03 21:20:42"
"@Ergodyne intros Chill-its cooling arm sleeves https:// goo.gl/1UWYgY #windpower #windindustry pic.twitter.com/NocomVJPqx","#windpower #windindustry","2017-04-03 21:15:01"
"Broad coalition asks Congress to invest in America's electricity grid - Into the Wind http:// buff.ly/2nrUoPI #windpower pic.twitter.com/9tGZoLesev","#windpower","2017-04-03 21:05:31"
"Find out how #ultracapacitors can support continued innovation in the growing #WindPower industry: http:// buff.ly/2nBAeCS pic.twitter.com/IOWQWryIoT","#ultracapacitors #WindPower","2017-04-03 20:40:02"
"Factoring risk into power generation decisions, just in case https:// goo.gl/CSlVVW #windpower #windindustry pic.twitter.com/3xjE8LIwVR","#windpower #windindustry","2017-04-03 20:30:02"
"Doing good and talk about it: Improving lifetime of components, reducing wear and improving efficiency in #windpower #pellet #biogas #motors pic.twitter.com/54Bxg6cbAA","#windpower #pellet #biogas #motors","2017-04-03 20:14:50"
"GB #windpower producing 4.3% of demand. Turn off an unwanted light - particularly 4-8pm if wind is light. #energy pic.twitter.com/zCmY3l5LQU","#windpower #energy","2017-04-03 20:01:16"
"Slurpees & Budweiser-- made with #windpower : http:// bit.ly/2nwMNyE @AnheuserBusch @7eleven pic.twitter.com/J7YGMXBg3i","#windpower","2017-04-03 19:54:34"
"2003 @TeslaMotors is now worth more than 1903 @Ford #Ford #Tesla Will #GreenEnergy be the next boom? #solar #windpower #ElectricCar","#Ford #Tesla #GreenEnergy #solar #windpower #ElectricCar","2017-04-03 19:44:31"
"@Vestas wins 148-MW wind order in Texas https:// goo.gl/9m7Z03 #windpower #windindustry pic.twitter.com/jHrSfnhpMX","#windpower #windindustry","2017-04-03 19:38:39"
"Report: Wind helps keep Iowa #electricity rates low http:// buff.ly/2oitA87 via @SmartBrief #windpower #windenergy pic.twitter.com/nkCcXEjptS","#electricity #windpower #windenergy","2017-04-03 19:29:01"
"First power achieved at Northland's Nordsee One #offshorewind project in the North Sea - http:// bit.ly/2nx00HJ #wind #windpower pic.twitter.com/btVfnKTrE6","#offshorewind #wind #windpower","2017-04-03 19:27:33"
"#CapeWind project hit a wall after 15 yrs, but developers see water-based wind boost in U.S. power mix. http:// bit.ly/2nBDdfm #windpower","#CapeWind #windpower","2017-04-03 19:12:02"
"#WindPower : Brick giant signs renewable power deal with Dong ... https:// goo.gl/9s6niA","#WindPower","2017-04-03 19:09:08"
"#WindPower : Kansas wind farm developers optimistic about market ... https:// goo.gl/eu9bHi","#WindPower","2017-04-03 19:08:07"
"#WindPower : Congestion poses risk for US wind PPAs RMI warns ... https:// goo.gl/73dH36","#WindPower","2017-04-03 19:07:05"
"#WindPower : Auctions offer options for offshore wind in Poland ... https:// goo.gl/f0avmK","#WindPower","2017-04-03 19:06:03"
"#WindPower : 7 Eleven to run Texas stores on wind power ... https:// goo.gl/jBsPg3","#WindPower","2017-04-03 19:05:02"
"#WindPower : 7 Eleven Signs Big Wind Power Agreement In Texas ... https:// goo.gl/rCWZmU","#WindPower","2017-04-03 19:04:00"
"@moventasgears wins major @iberdrola service tender in Europe: http:// bit.ly/2oC4fn9 #windpower #gearbox pic.twitter.com/YNg75HAKlQ","#windpower #gearbox","2017-04-03 18:43:10"
"#Windpower fact of the day: >86% of U.S. wind generating capacity is in Republican Congressional districts. #windworks pic.twitter.com/BTohx2dJ17","#Windpower #windworks","2017-04-03 18:03:02"
"10 fun facts about #renewable #energy http:// ow.ly/z60430avo53 #windpower #biomass pic.twitter.com/1NVcIGu3KR","#renewable #energy #windpower #biomass","2017-04-03 18:00:56"
"What % of energy produced is #windpower","#windpower","2017-04-03 17:57:39"
"A fresh look at the resources needed for different power sources #nuclearpower #solarpower #windpower #hydropower #coal #gas #gastech #Oil pic.twitter.com/kMoEvSWJP3","#nuclearpower #solarpower #windpower #hydropower #coal #gas #gastech #Oil","2017-04-03 17:50:12"
"http:// ow.ly/u3AF30aw71X #BT -another company to go 100% #Renewable by #2020. #Renewables are Scotland's biggest source of #power . #WindPower","#BT #Renewable #2020 #Renewables #power #WindPower","2017-04-03 17:47:36"
". @Siemens_Energy and @Gamesa_Official complete wind merger. Full article: http:// bit.ly/2otJ0Hh #windpower pic.twitter.com/aW71Xi9QO3","#windpower","2017-04-03 17:44:28"
"My new favorite video #renewables #reducereuserecycle #windpower #green #windenergy #renewableenergy #smartissexy #totallyturbine #win","#renewables #reducereuserecycle #windpower #green #windenergy #renewableenergy #smartissexy #totallyturbine #win","2017-04-03 17:44:15"
"10 Days to #ENRAOE ! @DeepwaterWind CEO Chris van Beek is Top 25 Newsmaker for 1st US offshore wind farm http:// bit.ly/2nBDMWC #windpower","#ENRAOE #windpower","2017-04-03 17:32:09"
"10 Days to #ENRAOE ! @DeepwaterWind CEO Chris van Beek is Top 25 Newsmaker for 1st US offshore wind farm http:// bit.ly/2nBDMWC #windpower","#ENRAOE #windpower","2017-04-03 17:32:07"
"10 Days to #ENRAOE ! @DeepwaterWind CEO Chris van Beek is Top 25 Newsmaker for 1st US offshore wind farm http:// bit.ly/2nBDMWC #windpower","#ENRAOE #windpower","2017-04-03 17:32:07"
"10 Days to #ENRAOE ! @DeepwaterWind CEO Chris van Beek is Top 25 Newsmaker for 1st US offshore wind farm http:// bit.ly/2nBDMWC #windpower","#ENRAOE #windpower","2017-04-03 17:32:06"
"10 Days to #ENRAOE ! @DeepwaterWind CEO Chris van Beek is Top 25 Newsmaker for 1st US offshore wind farm http:// bit.ly/2nBDMWC #windpower","#ENRAOE #windpower","2017-04-03 17:32:06"
"10 Days to #ENRAOE ! @DeepwaterWind CEO Chris van Beek is Top 25 Newsmaker for 1st US offshore wind farm http:// bit.ly/2nBDMWC #windpower","#ENRAOE #windpower","2017-04-03 17:32:06"
"10 Days to #ENRAOE ! @DeepwaterWind CEO Chris van Beek is Top 25 Newsmaker for 1st US offshore wind farm http:// bit.ly/2nBDMWC #windpower","#ENRAOE #windpower","2017-04-03 17:32:05"
"10 Days to #ENRAOE ! @DeepwaterWind CEO Chris van Beek is Top 25 Newsmaker for 1st US offshore wind farm http:// bit.ly/2nBDMWC #windpower","#ENRAOE #windpower","2017-04-03 17:32:05"
"10 Days to #ENRAOE ! @DeepwaterWind CEO Chris van Beek is Top 25 Newsmaker for 1st US offshore wind farm http:// bit.ly/2nBDMWC #windpower","#ENRAOE #windpower","2017-04-03 17:32:05"
"10 Days to #ENRAOE ! @DeepwaterWind CEO Chris van Beek is Top 25 Newsmaker for 1st US offshore wind farm http:// bit.ly/2nBDMWC #windpower","#ENRAOE #windpower","2017-04-03 17:32:05"
"10 Days to #ENRAOE ! @DeepwaterWind CEO Chris van Beek is Top 25 Newsmaker for 1st US offshore wind farm http:// bit.ly/2nBDMWC #windpower","#ENRAOE #windpower","2017-04-03 17:32:04"
"10 Days to #ENRAOE ! @DeepwaterWind CEO Chris van Beek is Top 25 Newsmaker for 1st US offshore wind farm http:// bit.ly/2nBDMWC #windpower","#ENRAOE #windpower","2017-04-03 17:32:01"
"#India added 5,400 MW #windpower capacity in last #fiscal http:// ow.ly/zgIS30auTN5 #India #Industry #PowerSector pic.twitter.com/phbfZ4Gr8X","#India #windpower #fiscal #India #Industry #PowerSector","2017-04-03 17:25:10"
"More corporate #wind action: @7eleven signs big #windpower agreement in Texas with @txuenergy - http:// bit.ly/2nwmgBp pic.twitter.com/k0BJzARt6N","#wind #windpower","2017-04-03 17:13:35"
"#WindPower : Can solar and wind take a page from oil and gas ... https:// goo.gl/LM3vq4","#WindPower","2017-04-03 17:05:44"
"RT @AWEA Editorial: How much energy from renewables? | @hutchleader http:// buff.ly/2nTELEC #windpower #windenergy #windworks","#windpower #windenergy #windworks","2017-04-03 17:05:22"
"#WindPower : Tenders and markets insight from a global wind and PV developer ... https:// goo.gl/lhE2QK","#WindPower","2017-04-03 17:04:43"
"#WindPower : Yorkshire power engineers chosen for Hallburn Wind Farm scheme ... https:// goo.gl/Ya8Zhf","#WindPower","2017-04-03 17:03:41"
"#WindPower : EURO POWER Prompt prices rebound on tighter supply ... https:// goo.gl/qzRE6d","#WindPower","2017-04-03 17:02:39"
"#WindPower : Iron Mountain commits to 100 renewable energy with new wind project ... https:// goo.gl/b6slM8","#WindPower","2017-04-03 17:01:38"
"#WindPower : Vestas back on top says Make ... https:// goo.gl/b48NDq","#WindPower","2017-04-03 17:00:36"
"#WindPower : Gamesa formally merges with Siemens Wind Power ... https:// goo.gl/GmUxwv","#WindPower","2017-04-03 16:59:34"
"RT @NAWindpower : #Gamesa , meet Siemens; #Siemens , meet Gamesa. The big #windpower merger is now official - http:// j.mp/2nAEGSk","#Gamesa #Siemens #windpower","2017-04-03 16:49:06"
"Late to work. Stopping at @7eleven for #coffee and #breakfast . With @TXUEnergy , most #Texas stores going #windpower . http:// buff.ly/2oQCTce","#coffee #breakfast #Texas #windpower","2017-04-03 16:48:22"
"Late to work. Stopping at @7eleven for #coffee and #breakfast . With @TXUEnergy , most #Texas stores going #windpower . http:// buff.ly/2oQzYjt","#coffee #breakfast #Texas #windpower","2017-04-03 16:48:21"
"Late to work. Stopping at @7eleven for #coffee and #breakfast . With @TXUEnergy , most #Texas stores going #windpower . http:// buff.ly/2oQMgsj","#coffee #breakfast #Texas #windpower","2017-04-03 16:48:21"
"#Windpower takes to the seas | @FortuneMagazine http:// buff.ly/2nARVDe #offshorewind","#Windpower #offshorewind","2017-04-03 16:45:35"
"Editorial: An unproductive attempt to tie #TVA hands http:// memne.ws/2nsmJ7H @memphisnews #windpower","#TVA #windpower","2017-04-03 16:40:33"
"India adds a record 5,400 MW of #windpower in 2016-17, surpasses 4,000 MW target @mnreindia @MinOfPower pic.twitter.com/KOPVBgJkMe","#windpower","2017-04-03 16:36:58"
"Ever wonder what happens to a wind turbine at the end of its life? Find out: http:// buff.ly/2mofc9w #windpower #windworks","#windpower #windworks","2017-04-03 16:28:01"
"India records 5,400 MW of #windpower capacity in 2016-17, record production helps country blow past 31 GW-mark http:// bit.ly/2orRQoM","#windpower","2017-04-03 16:17:00"
"#India added 5,400 MW wind power capacity in last fiscal http:// ow.ly/lpbx30auSRT #Business #WindPower pic.twitter.com/udMbayIxrV","#India #Business #WindPower","2017-04-03 16:10:16"
"The #Kansas #wind never stops. Why should the Kansas #windpower industry? http:// buff.ly/2nyuJEN pic.twitter.com/zYioKiN6kB","#Kansas #wind #windpower","2017-04-03 16:09:04"
"'This is how you invest in rural America today and tomorrow' #windrelatedjobs #rural #windpower via @TomCKiernan http:// bit.ly/2othd9i pic.twitter.com/I8zxPCmQDP","#windrelatedjobs #rural #windpower","2017-04-03 15:58:38"
"#Smartmeters the way to a new age of clean, #renewableenergy #energy #windpower #solar @SmartEnergyGB The Ecologist http:// bit.ly/2nODhsh pic.twitter.com/7iLZVf5bxG","#Smartmeters #renewableenergy #energy #windpower #solar","2017-04-03 15:43:18"
"The #Kansas #wind never stops. Why should the Kansas #windpower industry? http:// buff.ly/2nyIX8M pic.twitter.com/olyNzqsUGO","#Kansas #wind #windpower","2017-04-03 15:35:02"
"#windpower records set in Scotland and India http:// cnb.cx/2nvRZCP","#windpower","2017-04-03 15:34:53"
"Gamesa, meet Siemens; Siemens, meet Gamesa. The big #windpower merger is now official - http:// bit.ly/2otmQo5 @Gamesa_Official @Siemens pic.twitter.com/DxVTCDZ1uC","#windpower","2017-04-03 15:29:04"
"#WindPower : Renova may close sale of Brazilian wind complex on Monday report ... https:// goo.gl/FDEMNn","#WindPower","2017-04-03 15:00:28"
"#WindPower : CLEAN POWER PLAN Regulators still planning for CO2 cuts despite Trump's order ... https:// goo.gl/0UeSOQ","#WindPower","2017-04-03 14:59:26"
"#WindPower : Smith Brothers helps power new Cumbrian wind farm ... https:// goo.gl/BcCyBH","#WindPower","2017-04-03 14:58:24"
"#WindPower : Siemens AG Siemens drives implementation of Vision 2020 with Mentor Graphics acquisition and ... https:// goo.gl/5w9gwk","#WindPower","2017-04-03 14:57:22"
"#WindPower : BRIEF THDC India Ltd commissions 2nd wind power project at Dwarka ... https:// goo.gl/hXuj2Q","#WindPower","2017-04-03 14:56:20"
"makin' watts in OK: http:// russnorman.com/port2.html @EDPRenewables #windpower #Nikon #photography #realDonaldTrump","#windpower #Nikon #photography #realDonaldTrump","2017-04-03 14:55:58"
"#WindPower : Scotland sets new wind power record ... https:// goo.gl/pu5Epe","#WindPower","2017-04-03 14:55:18"
"Maybe the modern life should adapt to #nature and #owls . It would be more reasonable, in many ways, for example concerning the #windpower .","#nature #owls #windpower","2017-04-03 14:10:04"
"#WindPower : The merger of Gamesa and Siemens Wind Power becomes effective ... https:// goo.gl/mgvgvW","#WindPower","2017-04-03 14:05:48"
"RT @AWEA http:// ow.ly/3she30adRdD #Windpower fact of the day: 21 states now produce more than 5% of their electricity from wind energy. pic.twitter.com/LpW8xf5AJI","#Windpower","2017-04-03 14:01:36"
"RT @AWEA #Windenergy takes flight in heart of Texas oil country http:// buff.ly/2mKv1MP #windpower #windworks pic.twitter.com/rq3r5lApgq","#Windenergy #windpower #windworks","2017-04-03 14:01:26"
"India sets another record in #RenewableEnergy ; overachieves the target for #WindPower capacity. https:// goo.gl/1YHZOZ","#RenewableEnergy #WindPower","2017-04-03 13:49:39"
"Lots of sunshine and #windpower will make your energy supply exceptionally clean from 10 to 6 today, #California . http://www. sabreez.com pic.twitter.com/tAKSQ4Snfg","#windpower #California","2017-04-03 13:43:27"
"#WindPower records set in Scotland and India #SustainableEnergy #renewables #wind #windenergy http:// cnb.cx/2nvRZCP","#WindPower #SustainableEnergy #renewables #wind #windenergy","2017-04-03 13:16:20"
"Europe #windpower plans are soaring, but costs are not http:// bit.ly/2nQG1Yj","#windpower","2017-04-03 13:10:03"
"#WindPower : Why Donald Trump Will Fail to Make Good on One of His Biggest Campaign Promises ... https:// goo.gl/MG7gcJ","#WindPower","2017-04-03 12:49:13"
"#WindPower : Why Is Trump Ignoring These Good Heartland Jobs ... https:// goo.gl/VGH3Tg","#WindPower","2017-04-03 12:48:12"
"#WindPower : India adds record 5 4 GW of wind power in FY17 ... https:// goo.gl/IdvqSg","#WindPower","2017-04-03 12:47:10"
"#WindPower : Viewpoint Time for hunger and creativity ... https:// goo.gl/EX3SC0","#WindPower","2017-04-03 12:46:09"
"Ready to turn challenges into opportunities, with our customers & partners worldwide: Siemens #WindPower & #Gamesa http:// sie.ag/2nHaszP pic.twitter.com/c7pleVwl4Z","#WindPower #Gamesa","2017-04-03 12:30:07"
"#WindPower : Private Sector Investment Finance Tsetsii Wind Farm Project in Mongolia Wins Prize at the ... https:// goo.gl/mgEjtu","#WindPower","2017-04-03 11:50:56"
"#WindPower : Eneco acquires Eni Belgium plans more investments in solar and wind ... https:// goo.gl/IHIcIw","#WindPower","2017-04-03 11:49:55"
"India achieved a record #windpower capacity addition of 5400 MW in FY 2016-17. http:// buff.ly/2oPKFmu pic.twitter.com/1ezuCgSzJ5","#windpower","2017-04-03 11:49:51"
"Yessssssssssss !!!! #emobility #renewableenergy #solar #windpower","#emobility #renewableenergy #solar #windpower","2017-04-03 11:05:14"
"#WindPower : Germany's 332 MW Nordsee One wind farm sends 1st power ... https:// goo.gl/KljvAj","#WindPower","2017-04-03 10:56:00"
"#WindPower : Maine Voices Lawmakers should allow Maine Aqua Ventus to move forward ... https:// goo.gl/ecqbnm","#WindPower","2017-04-03 10:54:59"
"#WindPower : MNRE registers record wind power of 5400 MW in 2016 17 ... https:// goo.gl/qfJYqS","#WindPower","2017-04-03 10:53:57"
"#WINDPOWER http:// fb.me/2s8TapRTt","#WINDPOWER","2017-04-03 10:35:27"
"Learn about our technology on #WindPower http:// oawturbine.com","#WindPower","2017-04-03 10:05:03"
"#WindPower : Record capacity addition of wind power in India ... https:// goo.gl/dsdpuv","#WindPower","2017-04-03 09:49:33"
"Gujarat is the best location for #windpower energy in India","#windpower","2017-04-03 09:36:04"
"#WindPower by #States in #India : #Gujarat (5259 MW) 2nd only to #TN (7879 MW); and ahead of #Maharashtra (4771 MW) & #Rajasthan (4294 MW). pic.twitter.com/u0a9rpCoa0","#WindPower #States #India #Gujarat #TN #Maharashtra #Rajasthan","2017-04-03 09:07:57"
"#WindPower : MNRE adds 5400 in wind power capacity ... https:// goo.gl/fQJsp6","#WindPower","2017-04-03 08:49:13"
"#India added 5,400 MW of #WindPower in #FY17 - https:// goo.gl/ZEE4yM pic.twitter.com/bDZGBlHIvb","#India #WindPower #FY17","2017-04-03 08:42:43"
"Retweeted Doordarshan News ( @DDNewsLive ): Government sets record in #windpower capacity addition;Renewable... http:// fb.me/15nCgTyxm","#windpower","2017-04-03 08:23:05"
"#India adds record wind power capacity of 5,400MW in 2016-17 http:// buff.ly/2nyFYxj #WindPower #RenewableEnergy pic.twitter.com/kFdUHgU0vQ","#India #WindPower #RenewableEnergy","2017-04-03 08:00:41"
"#WindPower : PTC Energy Commissions Wind Power Projects In AP Karnataka ... https:// goo.gl/9iyxXT","#WindPower","2017-04-03 07:46:04"
"Government sets record in #windpower capacity addition;Renewable Energy Ministry added over 5400 MW in 2016-17 against the target of 4000 MW","#windpower","2017-04-03 07:31:01"
"#India added 5,400 MW #windpower capacity in last #fiscal http:// ow.ly/zgIS30auTN5 #India #Industry #PowerSector pic.twitter.com/aHl9owHQgt","#India #windpower #fiscal #India #Industry #PowerSector","2017-04-03 07:08:59"
"#India now has the 4th highest #windPower capacity in the world, aims to increase capacity to 60,000 MW by 2022","#India #windPower","2017-04-03 07:01:57"
"#Windpower , solar, other groups to Congress: Expand U.S. electrical infrastructure - @NAWindpower http:// buff.ly/2oqAaGN pic.twitter.com/WV0EDeVOta","#Windpower","2017-04-03 06:59:02"
"#India added 5,400 MW wind power capacity in last fiscal http:// ow.ly/lpbx30auSRT #Business #WindPower pic.twitter.com/neWxGuAcUD","#India #Business #WindPower","2017-04-03 06:48:49"
"Retweeted Doordarshan News ( @DDNewsLive ): Government sets record in #windpower capacity addition;Renewable... http:// fb.me/2OPwW7Mes","#windpower","2017-04-03 05:44:19"
"Government sets record in #windpower capacity addition;Renewable Energy Ministry added over 5400 MW in 2016-17 against the target of 4000 MW pic.twitter.com/IgS87He86Q","#windpower","2017-04-03 05:27:19"
"#WindPower : As Trump attacks the air land and water strong opinions emerge Feedback ... https:// goo.gl/Ic8n8w","#WindPower","2017-04-03 04:42:59"
"#ACLU @Greenpeace @sierrs14 @greenpeaceusa No jobs are worth the risks to our Environment...PERIOD... #SolarPower #WindPower @BeyondCoal","#ACLU #SolarPower #WindPower","2017-04-03 03:12:51"
"#ACLU @Greenpeace @sierrs14 @greenpeaceusa No jobs are worth the risks to our Environment...PERIOD... #SolarPower #WindPower","#ACLU #SolarPower #WindPower","2017-04-03 03:11:35"
"#Windpower in California is currently at 12.2% of total demand.","#Windpower","2017-04-03 03:02:14"
"El Sosneado Wind Farm is receiving a US $ 70 million investment. #WindPower #Mendoza #energy pic.twitter.com/I2zDlgdlzb","#WindPower #Mendoza #energy","2017-04-03 03:00:22"
"#WindPower : The Re Emergence of Wind Power ... https:// goo.gl/r95NlJ","#WindPower","2017-04-03 02:45:26"
"Construction to commence on Bodangora wind farm in NSW http:// bit.ly/2nuhTqx via @AustralianM #renewableenergy #windpower pic.twitter.com/bkoB4Uhax5","#renewableenergy #windpower","2017-04-03 02:20:04"
"Acting on how much #windpower is available from 4-8pm improves #sustainability .","#windpower #sustainability","2017-04-03 02:02:13"
"Raising #energyawareness to conserve usage from 4-8pm when #windpower is low.","#energyawareness #windpower","2017-04-03 01:02:13"
"#WindPower : Attappadi tribals to get a slice of NHPC wind farm's profit pie ... https:// goo.gl/Ebq2mM","#WindPower","2017-04-03 00:51:15"
"#Windpower helping IA, KS utilities lower rates for consumers, says Moody's. #ARenewableAmerica #entry","#Windpower #ARenewableAmerica #entry","2017-04-03 00:15:10"
"Interesting facts about Wind Power https:// is.gd/7B9bgq #greenenergy #windpower","#greenenergy #windpower","2017-04-02 23:29:05"
"#WindPower : India adds 5400MW in FY2016 17 ... https:// goo.gl/klJ98Y","#WindPower","2017-04-02 23:15:07"
"Al-Babtain to set up wind power company http:// bit.ly/2ntExz7 #windpower #Riyadh pic.twitter.com/LP3O4sMp3j","#windpower #Riyadh","2017-04-02 23:00:04"
"WTF!? Jailtime for having a small wind turbine? Let Orono this is dumb. #windpower #100percentRenewableisDoable http:// fb.me/5WlzGlbCB","#windpower #100percentRenewableisDoable","2017-04-02 22:36:55"
"#WindPower #sustainable https:// youtu.be/3qqifEdqf5g http:// fb.me/7AWAgzd11","#WindPower #sustainable","2017-04-02 22:17:24"
"#WindPower : The Kansas wind never stops Why should the Kansas wind industry ... https:// goo.gl/wc3nh4","#WindPower","2017-04-02 21:38:52"
"#WindPower : India added 5400 MW of wind power in FY17 ... https:// goo.gl/O7vuzZ","#WindPower","2017-04-02 21:37:50"
"GB #windpower producing 4.4% of demand. Unplug charged up laptops and phones 4-8pm. #climate #energy pic.twitter.com/8LR1q75e9y","#windpower #climate #energy","2017-04-02 21:01:14"
"Yes. #eco #windpower #renewable #energy @Netherlands https://www. instagram.com/p/BSZMwzMlczU/","#eco #windpower #renewable #energy","2017-04-02 20:53:55"
"Could a Wind Turbine Be Coming to a Bridge Near You? https:// is.gd/yUOdGn #windpower","#windpower","2017-04-02 20:35:06"
"RT @AWEA http:// ow.ly/I3Q130adOcE Wind technician training grows at New Mexico College - @NAWindpower http:// buff.ly/2mumL38 #windpower pic.twitter.com/yEep4lNILA","#windpower","2017-04-02 20:01:01"
"#NaturalGas and #Windpower are the Lowest-Cost Generation Tech for Much of the U.S., @UTAustin Research Shows http:// buff.ly/2opLaHl","#NaturalGas #Windpower","2017-04-02 19:57:02"
"#NaturalGas and #Windpower are the Lowest-Cost Generation Tech for Much of the U.S., @UTAustin Research Shows http:// buff.ly/2opT5Er","#NaturalGas #Windpower","2017-04-02 19:57:02"
"#NaturalGas and #Windpower are the Lowest-Cost Generation Tech for Much of the U.S., @UTAustin Research Shows http:// buff.ly/2opOT7M","#NaturalGas #Windpower","2017-04-02 19:57:00"
"#NaturalGas and #Windpower are the Lowest-Cost Generation Tech for Much of the U.S., @UTAustin Research Shows http:// buff.ly/2opOaDC","#NaturalGas #Windpower","2017-04-02 19:57:00"
"GB #windpower producing 4.4% of demand. Turn off an unwanted light - particularly 4-8pm if wind is light. #energy pic.twitter.com/sy71MfLM3V","#windpower #energy","2017-04-02 19:01:12"
"#WindPower : THDC India commissions 63 Megawatt wind power project in Gujarat ... https:// goo.gl/LN80zP","#WindPower","2017-04-02 18:54:17"
"Wind turbine has no moving parts. #windpower #alternativeenergy #expeditionelectric http:// fb.me/3sMROteVH","#windpower #alternativeenergy #expeditionelectric","2017-04-02 17:20:10"
"Growth/corporate purchasers. @RockyMtnInst reports on rise of #windpower for buyers in #SouthwestPowerPool ( @SPPorg ). http:// buff.ly/2opJtd4","#windpower #SouthwestPowerPool","2017-04-02 17:05:09"
"Raising #energyawareness to conserve usage from 4-8pm when #windpower is low. pic.twitter.com/4f9ofrDuew","#energyawareness #windpower","2017-04-02 17:01:13"
"#WindPower : SJVN surpasses the MoU targets in power generation says MD ... https:// goo.gl/1uqJyg","#WindPower","2017-04-02 16:57:12"
"#Storm #WindPower #RainyDays Wish this rain spread peace instead of disaster. #India pic.twitter.com/hw5VUsgyNG","#Storm #WindPower #RainyDays #India","2017-04-02 16:30:23"
"Al-Babtain to set up wind power company http:// bit.ly/2ntExz7 #windpower #Riyadh pic.twitter.com/TVGXLjZVnT","#windpower #Riyadh","2017-04-02 15:43:04"
"Reinventing Fire: Heating a city with #PV & #windpower with #heatpumps is a combination made in heaven #GreenGrowth http:// europeanenergy.dk/en/eegs/","#PV #windpower #heatpumps #GreenGrowth","2017-04-02 15:24:51"
"#WindPower : NLC to double lignite mining capacity to 62 15 MTPA by 2025 ... https:// goo.gl/TmfrOJ","#WindPower","2017-04-02 13:09:06"
"#WindPower : Wind power capacity addition in 2016 17 put at 5400 MW ... https:// goo.gl/LLbjwF","#WindPower","2017-04-02 13:08:05"
"India adds 5400 mw #windpower capacity against target of 4000 mw http:// mybs.in/2UUqkgo #TransformingIndia #renewableenergy pic.twitter.com/NUX3PAXDJA","#windpower #TransformingIndia #renewableenergy","2017-04-02 12:45:57"
"True or false? Wind is an insignificant power source. Learn the answer & more important facts about #WindPower here: https:// goo.gl/FXExk2 pic.twitter.com/S9Lh0xtaPH","#WindPower","2017-04-02 12:39:01"
"#WindPower : Climate change whales and wind energy ... https:// goo.gl/Je6hz8","#WindPower","2017-04-02 11:42:36"
"India's #WindPower sector sets a new record. Adds 5000MW in FY17 - highest in past decade http:// mybs.in/2UUqkgo","#WindPower","2017-04-02 10:52:17"
"NYT OP-ED: #Climate #Progress , With or Without #Trump http:// nyti.ms/2nYsaz0 #ParisAgreement #cleanenergy #solarpower #windpower #DumpTrump","#Climate #Progress #Trump #ParisAgreement #cleanenergy #solarpower #windpower #DumpTrump","2017-04-02 09:46:51"
"#WindPower : Proposed removal of wind credits unfair ... https:// goo.gl/A49WIE","#WindPower","2017-04-02 09:41:14"
"#WindPower : PTC Energy commissions wind projects in Karnataka Andhra ... https:// goo.gl/TrBfru","#WindPower","2017-04-02 09:40:13"
"The power of old and new. #LPinPortugal #windpower pic.twitter.com/MN4h9pjNUI","#LPinPortugal #windpower","2017-04-02 09:01:40"
"#WindPower : An unproductive attempt to tie TVA hands ... https:// goo.gl/ZGWR8c","#WindPower","2017-04-02 08:42:09"
"#WindPower : Dueling plans to deliver more power ... https:// goo.gl/BR0crt","#WindPower","2017-04-02 06:21:27"
"#WindPower : COMMENTARY It's time for serious discussion about energy ... https:// goo.gl/xvnQYC","#WindPower","2017-04-02 06:20:26"
"don't be mislead. All pipelines leak because the ground shifts. It will poison the water. #solarpower #windpower #renewables","#solarpower #windpower #renewables","2017-04-02 06:07:42"
"#WindPower : Boiler glitch forces shut down of 1000 Megwatt Vallur power plant in TN ... https:// goo.gl/EJsFEG","#WindPower","2017-04-02 05:18:04"
"Raising #energyawareness to conserve usage from 4-8pm when #windpower is low.","#energyawareness #windpower","2017-04-02 05:02:10"
"1000 year old windmills still working today. #Iranthebeautiful #windpower https:// youtu.be/3qqifEdqf5g","#Iranthebeautiful #windpower","2017-04-02 03:59:29"
"#WindPower : Wind rural booster ... https:// goo.gl/K7ePy1","#WindPower","2017-04-02 03:25:12"
"#WindPower : How Wynne's hydro disaster could have been avoided ... https:// goo.gl/TZqSW5","#WindPower","2017-04-02 02:36:42"
"Acting on how much #windpower is available from 4-8pm improves #sustainability .","#windpower #sustainability","2017-04-02 02:02:10"
"MT @ClimateCentral An increase in #windpower in the U.S. is decreasing need for #fossilfuels http:// buff.ly/2oi9rip #SustainableSaturday","#windpower #fossilfuels #SustainableSaturday","2017-04-02 00:50:47"
"#NewYork #RoadTrip #OnTheRoadAgain #WindTurbine #WindPower #PureEnergy #NY #NYS #NewYorkState #Neoyorquino #NuevaYork #NewYorker pic.twitter.com/QxpW5AiOtD","#NewYork #RoadTrip #OnTheRoadAgain #WindTurbine #WindPower #PureEnergy #NY #NYS #NewYorkState #Neoyorquino #NuevaYork #NewYorker","2017-04-01 23:54:46"
"I need a wind turbine to power my house #windpower How much is your wind turbine?","#windpower","2017-04-01 22:14:11"
"harnessing the wind. #windpower #oklahoma #spring #35n #lovetouring @Scenic Turnout Oklahoma https://www. instagram.com/p/BSWw2MTjX46/","#windpower #oklahoma #spring #35n #lovetouring","2017-04-01 22:11:30"
"GB #windpower producing 4.4% of demand. Turn off an unwanted light - particularly 4-8pm if wind is light. #energy pic.twitter.com/zA1oF8XSCI","#windpower #energy","2017-04-01 21:01:11"
"@POTUS @realDonaldTrump @VP @SpeakerRyan #Trump #trumpregrets #Ryan #TrumpLies #impeachment #environment #cleanpowerplan #Solar #windpower pic.twitter.com/bHaeIwhH5y","#Trump #trumpregrets #Ryan #TrumpLies #impeachment #environment #cleanpowerplan #Solar #windpower","2017-04-01 20:59:50"
"#WindPower : Why the Global Mining Industry is Embracing Renewables ... https:// goo.gl/t4xrde","#WindPower","2017-04-01 20:32:03"
"RT @AWEA http:// ow.ly/SMwR30a9Lsv #Windpower fact of the day: U.S. wind power avoids the carbon pollution of 28 million cars. #windworks pic.twitter.com/cSQRhiWs21","#Windpower #windworks","2017-04-01 20:01:12"
"RT @AWEA http:// ow.ly/kJy630adNUX With 5 states In '20% and Up' Club, #windpower thrives in rural U.S. - @NAWindpower http:// buff.ly/2nimWgU pic.twitter.com/fRFtDBwYWg","#windpower","2017-04-01 20:01:11"
"Could a Wind Turbine Be Coming to a Bridge Near You? https:// is.gd/yUOdGn #windpower","#windpower","2017-04-01 19:01:10"
"#WindPower : NLC logs higher mining and power output ... https:// goo.gl/i0DcXq","#WindPower","2017-04-01 18:16:25"
"#WindPower : THDCIL commissions 63 MW wind power project in Gujarat ... https:// goo.gl/2niVz1","#WindPower","2017-04-01 18:15:23"
"Raising #energyawareness to conserve usage from 4-8pm when #windpower is low. pic.twitter.com/GAwYKsPRVB","#energyawareness #windpower","2017-04-01 18:01:10"
"#Iowa Group Underscores Low Power Prices For The #Wind -Rich State http:// j.mp/2otCzkd (via @NAWindpower ) #windpower #windenergy #energy","#Iowa #Wind #windpower #windenergy #energy","2017-04-01 17:19:05"
"#CO Independent Infrasonic Investigations: Golden West Wind Facility, El Paso County, CO http:// dlvr.it/Nn12K5 #windpower","#CO #windpower","2017-04-01 17:18:05"
"Acting on how much #windpower is available from 4-8pm improves #sustainability . pic.twitter.com/Om4mVYFFz6","#windpower #sustainability","2017-04-01 17:01:10"
"How Wind Power can save America https:// is.gd/OFUEyw #greentech #windpower","#greentech #windpower","2017-04-01 16:53:30"
"Courtenay Wind Farm, ND #Vestas V100 #windpower by Rafael Pan pic.twitter.com/oW2RgaC5QB","#Vestas #windpower","2017-04-01 15:52:16"
"#WindPower : New era of dirty air ... https:// goo.gl/GEydHd","#WindPower","2017-04-01 15:43:26"
"#WindPower : Exclusive Enercon raises the bar ... https:// goo.gl/Q7oEtu","#WindPower","2017-04-01 14:02:04"
"Mykonos windmills Greece use #windpower to grind agricultural produces since 16th century. #WindergyIndia2017 . Visit windergy.in pic.twitter.com/OnRBdcVrgK","#windpower #WindergyIndia2017","2017-04-01 13:28:31"
"Emerging#fossilfuel alternatives such as #windpower & #solarpower are starting to limit growth in #oil demand. http:// wartsila.smh.re/0Wl","#fossilfuel #windpower #solarpower #oil","2017-04-01 13:08:12"
"#WindPower : Russia offers to Japan to build power plant on Kuril Islands media ... https:// goo.gl/xOxE3T","#WindPower","2017-04-01 12:49:41"
"#WindPower : General Court no likelihood of confusion between figurative 'e' marks for certain energy related ... https:// goo.gl/YHg1Ur","#WindPower","2017-04-01 12:48:39"
"http:// bit.ly/1wHM2F1 register for #security & #sustainability forum #climatechange #renewableenergy #solar #windpower #sustainable #news pic.twitter.com/S6FCISkZxe","#security #sustainability #climatechange #renewableenergy #solar #windpower #sustainable #news","2017-04-01 12:37:22"
"#WindPower : Letter Three words for Muskrat Falls ... https:// goo.gl/EoTt3f","#WindPower","2017-04-01 11:47:24"
"#WindPower : EDITORIAL April 1 Climate plan won't make coal great again ... https:// goo.gl/eJjHBf","#WindPower","2017-04-01 11:46:23"
"how if wire selenoid broking at stator n rotor #windpower solutions","#windpower","2017-04-01 06:51:49"
"#OutOfTheDarknessN2TheLight #solarpower #solarenergy #windpower #renewableenergy","#OutOfTheDarknessN2TheLight #solarpower #solarenergy #windpower #renewableenergy","2017-04-01 06:20:40"
"#WindPower : Port to tap solar wind power ... https:// goo.gl/JxV9F8","#WindPower","2017-04-01 04:51:08"
"#Chile scales back 2017 #electricity tender #renewables #windpower @Windpower _m @AndresReboll @minenergia @cne_chile http://www. windpowermonthly.com/article/1429186","#Chile #electricity #renewables #windpower","2017-04-01 04:37:58"
"#Windpower in California is currently at 13.2% of total demand.","#Windpower","2017-04-01 04:02:07"
"#WindPower : Liberals the party of the centre Turnbull ... https:// goo.gl/nvroGL","#WindPower","2017-04-01 03:47:45"
"American #windpower already supports 100,000 US jobs, and a lot more are on the way: http:// bit.ly/2nftZIo by @AWEA","#windpower","2017-04-01 03:20:08"
"#WindPower : UK benchmarking scheme looks to international waters ... https:// goo.gl/ljFQih","#WindPower","2017-04-01 02:50:45"
"#WindPower : Northern Power Systems Announces Fourth Quarter and Full Year 2016 Results ... https:// goo.gl/uN1sIW","#WindPower","2017-04-01 02:18:59"
"#WindPower : Governments must get behind 'promising' offshore wind IEA ... https:// goo.gl/3bbMjC","#WindPower","2017-04-01 02:17:58"
"#WindPower : Clean energy much potential but lack pricing mechanism ... https:// goo.gl/jsCbXH","#WindPower","2017-04-01 02:16:57"
"Oklahoma is kicking butt with #windpower | @cleanenergyorg http:// buff.ly/2on7iiz #windenergy #windworks pic.twitter.com/OEhS0MbepY","#windpower #windenergy #windworks","2017-04-01 01:52:04"
"Leader Elizabeth Burdock fosters U.S. offshore wind growth https:// goo.gl/5ZjB6N #windpower #windindustry pic.twitter.com/4jgxt2bAHC","#windpower #windindustry","2017-04-01 01:50:00"
"Raising #energyawareness to conserve usage from 4-8pm when #windpower is low.","#energyawareness #windpower","2017-04-01 01:02:08"
"Despite how Trump tries, ya can't stop progress. #windpower #southerncalifornia https://www. instagram.com/p/BSUfFsAg-_g/","#windpower #southerncalifornia","2017-04-01 00:58:02"
"National Grid proposes to bring 1,200 MW from Canada https:// goo.gl/1ILbzi #windpower #transmission pic.twitter.com/LHw2OUBUmG","#windpower #transmission","2017-04-01 00:45:01"
"#WindPower : Frix Ending an unsustainable credit ... https:// goo.gl/w1XvZ6","#WindPower","2017-04-01 00:38:54"
"#Windpower could generate quarter-million new jobs by 2020 in U.S. alone, + econ impact of $85 billion http:// buff.ly/2omHgvQ pic.twitter.com/6nyb32tA5w","#Windpower","2017-03-31 23:52:08"
"@Trelleborg successfully completes wet testing of NjordGuard https:// goo.gl/3Bc2cG #windpower #windindustry pic.twitter.com/9wNcwHyqUW","#windpower #windindustry","2017-03-31 23:50:00"
"INVELOX: The new face of Wind Power https:// is.gd/8fXPsT #greentech #windenergy #windpower","#greentech #windenergy #windpower","2017-03-31 22:58:36"
"#WindPower : 12 17 Billion Wind Turbine Composites Material Market 2017 Global Forecast to 2021 ... https:// goo.gl/bdhJhw","#WindPower","2017-03-31 22:52:20"
"#WindPower : Vestas Snatches Another Top Wind OEM Title In Slow Year For China ... https:// goo.gl/IhNX8u","#WindPower","2017-03-31 22:51:18"
"A spar buoy for turbines out of polymer concrete might last 100 yrs, 4 turbine gens https:// goo.gl/Sz04s9 #windpower #windindustry pic.twitter.com/5rtYnrJGDr","#windpower #windindustry","2017-03-31 22:30:02"
"As wind energy grows, 248,000 related jobs by 2020 possible | @AWEA http:// buff.ly/2oiXZQM #windpower #windworks pic.twitter.com/Ka8c6X5EoC","#windpower #windworks","2017-03-31 22:03:22"
"Can a wind turbine throw ice? Inded it can. https:// goo.gl/ee0iOu #windpower #windindustry pic.twitter.com/zNSz3JdEQy","#windpower #windindustry","2017-03-31 21:45:00"
"RT #windpower @windenergy Fun fact of the day: Wind turbine technician is now the fastest-growing profession in the U.S. #windworks @AWEA pic.twitter.com/D6uHm3sJSb","#windpower #windworks","2017-03-31 21:42:35"
"#Siemens to supply #onshore #windpower for 24,000 households in #France : http:// sie.ag/2nCjL2f #Futuren pic.twitter.com/2PJSyeVjfm","#Siemens #onshore #windpower #France #Futuren","2017-03-31 21:35:08"
"Danish activists demonstrate against #Siemens #Denmark #WindPower illegal investments in occupied #WesternSahara ... http:// fb.me/SDAdHUpf","#Siemens #Denmark #WindPower #WesternSahara","2017-03-31 21:17:52"
"BOEM seeing #offshorewind action In U.S. Northeast - @NAWindpower http:// buff.ly/2oE8a1Q #windpower pic.twitter.com/8BNYcof7f3","#offshorewind #windpower","2017-03-31 21:05:03"
"#WindPower : First power at Nordsee 1 ... https:// goo.gl/rm8oJA","#WindPower","2017-03-31 21:02:54"
"Good Energy Sources #WindPower From DONG Energys Westermost Rough http:// buff.ly/2o7zqJD","#WindPower","2017-03-31 21:02:00"
"#WindPower : Eneco to invest more in renewables after purchase of Eni Belgium ... https:// goo.gl/VucSp5","#WindPower","2017-03-31 21:01:52"
"GE to supply three 6-MW Haliade 150 offshore wind turbines for Fujian Xinghua Gulf demo project in China #WindPower http:// ow.ly/PAaC30akq9N pic.twitter.com/PNW6syOViO","#WindPower","2017-03-31 21:01:31"
"Raising #energyawareness to conserve usage from 4-8pm when #windpower is low. pic.twitter.com/rfz1Ucovby","#energyawareness #windpower","2017-03-31 21:01:08"
"#WindPower : Siemens confirms French deal ... https:// goo.gl/vKTjHo","#WindPower","2017-03-31 21:00:51"
"GE to supply three, 6-MW Haliade offshore turbines for demo in china https:// goo.gl/4ozQRW #windpower #windindustry pic.twitter.com/IdMLU9x2Hr","#windpower #windindustry","2017-03-31 21:00:02"
"#WindPower : Clean Power Worldwide Has Doubled in 10 Years ... https:// goo.gl/QvBds7","#WindPower","2017-03-31 20:59:49"
"#WindPower : New Report Shows How To Boost Safety Of Offshore Wind Technicians ... https:// goo.gl/EtJMs4","#WindPower","2017-03-31 20:58:48"
"#WindPower : New report Innovations in horizontal & vertical axis wind turbines ... https:// goo.gl/LCqgS6","#WindPower","2017-03-31 20:57:46"
"#WindPower : Enel's 400 MW Cimarron Bend Wind Farm Powers Up In Kansas ... https:// goo.gl/bkM7mg","#WindPower","2017-03-31 20:56:45"
"#WindPower : RMI releases report on rise of wind power for buyers in South West Power Pool ... https:// goo.gl/zVTYO1","#WindPower","2017-03-31 20:55:43"
"In a slow year for China, @Vestas snatches another top #wind turbine OEM title - http:// bit.ly/2nnNVVc #windpower @consult_MAKE pic.twitter.com/XrPd0mYWSb","#wind #windpower","2017-03-31 20:48:58"
"Check out Bachmann's new GMP232 grid measurement & monitoring module for #windpower : http:// bit.ly/2nnNj1R pic.twitter.com/A0rG75IRGs","#windpower","2017-03-31 20:40:19"
"Over 17,000 Iowa wind related jobs possible by 2020, says Navigant https:// goo.gl/YRdpGw #windpower #windindustry pic.twitter.com/yaQ9Y7TRLW","#windpower #windindustry","2017-03-31 20:15:01"
"RT @AWEA http:// ow.ly/EGGb30a9eyT Strong growth pushes world #windpower close to 500 GW | @windpower _m http:// buff.ly/2mO1KwJ #windenergy pic.twitter.com/DHs7caKfjN","#windpower #windenergy","2017-03-31 20:01:45"
"#ND #SD Assessing Spring Direct Mortality to Avifauna from Wind Energy Facilities in the Dakotas http:// dlvr.it/NmfVp8 #windpower","#ND #SD #windpower","2017-03-31 19:31:09"
