"#SustainableEnergy #cleanenergy #hightechnology #hightech #automation #sustainable #renewables #wehavethetechnology #technologyrevolution pic.twitter.com/euTnv3922t","#SustainableEnergy #cleanenergy #hightechnology #hightech #automation #sustainable #renewables #wehavethetechnology #technologyrevolution","2017-04-05 01:59:26"
"#Automation https:// lnkd.in/fnFCbyM","#Automation","2017-04-05 01:57:17"
"See our latest #Richmond , VA #job and click to apply: Production Manager - Operations Manager - http:// bit.ly/2ozxslU #power #automation","#Richmond #job #power #automation","2017-04-05 01:54:52"
"@ObjectSecurity , The Security Policy Automation Company. http:// buff.ly/2odMcGj #Security #Automation","#Security #Automation","2017-04-05 01:50:03"
"@JohnKasich announces task force to look to the future on how to embrace #technology and #automation in #Ohio #OHSOTS","#technology #automation #Ohio #OHSOTS","2017-04-05 01:45:35"
"OpenPMF ensures security policies are manageable. Learn more: http:// bit.ly/2mNoptD #cybersecurity #automation","#cybersecurity #automation","2017-04-05 01:45:05"
"""Folks, this change is coming...let's accept it, not fear it...Act, not react"" #robotics #automation #OHSOTS","#robotics #automation #OHSOTS","2017-04-05 01:42:45"
"Our World of Automation Networking party is until 7! Come connect with #automation leaders & taste food from around the world #Automate2017 pic.twitter.com/Ef8f647ENy","#automation #Automate2017","2017-04-05 01:40:29"
"Join the ABB team! See our latest #job opening here: http:// bit.ly/2ozAYwi #power #automation #Sales #Cincinnati , OH #Hiring","#job #power #automation #Sales #Cincinnati #Hiring","2017-04-05 01:33:25"
"#IoT , #AI , and #Automation are Coming: What is the Future of Public Procurement http:// buff.ly/2oFyolu | #govcon","#IoT #AI #Automation #govcon","2017-04-05 01:33:01"
"Manage #data migration efficiently w/ Trianz DataVision+, award-winning data testing #automation platform > Get Demo http:// goo.gl/KmHfkw pic.twitter.com/RPFO6qPqx8","#data #automation","2017-04-05 01:30:33"
"@AutomationMag : 3 technologies set to disrupt EAM, IoT, machine learning & mobility http:// bit.ly/2mIv46X #conditionmonitoring #automation pic.twitter.com/6aD1hoK2FA","#conditionmonitoring #automation","2017-04-05 01:30:03"
"V. excited to be working on an upcoming #exhibition on the convergence of #art and #automation","#exhibition #art #automation","2017-04-05 01:25:06"
"Eight Industries That AI Will Change Forever #AI #IoT #SMB #healthcare #automation http:// bit.ly/2oArmBg pic.twitter.com/1cTinoYhB4","#AI #IoT #SMB #healthcare #automation","2017-04-05 01:24:17"
"Why #Marketing #Automation is Important ? /blog/2017/03/28/why-marketing- automation -is-important/","#Marketing #Automation","2017-04-05 01:23:50"
"Australia needs to prepare for #automation by #reskilling workers http:// bit.ly/2nBmusN","#automation #reskilling","2017-04-05 01:21:00"
"Los Angeles CA USA - Lead Software QA Engineer - Mobile #Automation - Through the application... http:// twib.in/l/LR5Rk6B86BMR #CAREER #WORK #JOB","#Automation #CAREER #WORK #JOB","2017-04-05 01:15:27"
"[iCXM News] Intelligent CXM or CRM? Updates on Anexinet, InsideSales, Pegasystems - https:// goo.gl/H0gAXU - #Automation pic.twitter.com/hdNQF1ibN4","#Automation","2017-04-05 01:13:40"
"The Future Of #Marketing #Automation In A Big Data World via @CIOonline http:// cnsns.us/2nQHfjP pic.twitter.com/s3La7rYRZn","#Marketing #Automation","2017-04-05 01:10:10"
"Tips on picking the Right #Marketing #Automation system: http:// bit.ly/2nHkRca #CRM","#Marketing #Automation #CRM","2017-04-05 01:09:59"
"OpenPMF uses your existing information to Simplify Policy Automation . http:// buff.ly/2odOOnC #Security #Automation","#Security #Automation","2017-04-05 01:05:05"
"#Marketing #Automation Innovations for 2017 via @bloominari http:// buff.ly/2oxnKzX pic.twitter.com/aUqfgKp5jv","#Marketing #Automation","2017-04-05 01:04:01"
"Marketing Automation , What is it and Why you should use it http:// bit.ly/2fcZzyz #marketing #automation #website pic.twitter.com/PPS3jQuiuh","#marketing #automation #website","2017-04-05 01:01:29"
"Interested in a #job in #Cincinnati , OH? This could be a great fit: http:// bit.ly/2ozrO3a #power #automation #Sales #Hiring","#job #Cincinnati #power #automation #Sales #Hiring","2017-04-05 01:01:23"
"@ObjectSecurity , The Security Policy Automation Company. http:// buff.ly/2omeGen #Security #Policy #Automation","#Security #Policy #Automation","2017-04-05 01:01:09"
"2 Months Free Social Media Scheduling (this is what I use) http:// bit.ly/2nFdkwU #smm #marketing #automation","#smm #marketing #automation","2017-04-05 01:00:41"
"5 Ways To Boost The Impact Of Your #Marketing #Automation via @Forbes http:// buff.ly/2nQyS9S pic.twitter.com/zk6QsDHlJ4","#Marketing #Automation","2017-04-05 01:00:24"
"#automation pic.twitter.com/g9AHJsalMy","#automation","2017-04-05 00:58:34"
"Strict #database regulatory compliance in finance is preventing the adoption of #automation . http:// bit.ly/2ovWiTA #Linux #Oracle #DevOps pic.twitter.com/uwW2rrLhC6","#database #automation #Linux #Oracle #DevOps","2017-04-05 00:52:17"
"Strict #database regulatory compliance in finance is preventing the adoption of #automation . http:// bit.ly/2ow4VO1 #Linux #Oracle #DevOps pic.twitter.com/YVeMuh7KQJ","#database #automation #Linux #Oracle #DevOps","2017-04-05 00:52:17"
"Strict #database regulatory compliance in finance is preventing the adoption of #automation . http:// bit.ly/2nRK7gN #Linux #Oracle #DevOps pic.twitter.com/WfwaNcHINL","#database #automation #Linux #Oracle #DevOps","2017-04-05 00:52:17"
"Let's talk about cloud solutions at - #AWSSummit #Sydney #strutdigital #CloudComputing #automation @davidcheal @zacklevy @TimBradey pic.twitter.com/vYngORHqhy","#AWSSummit #Sydney #strutdigital #CloudComputing #automation","2017-04-05 00:47:49"
"#Automation will make the connection between people and labor much less consistent. Many people will spend their entire lives never working.","#Automation","2017-04-05 00:46:45"
"You're getting tons of leads but NO #SALES ? This could be your answer. http:// alvin-lindsay.com #automation pic.twitter.com/JYNC8hOuoC","#SALES #automation","2017-04-05 00:43:08"
"The Technology Part to Your Content #Marketing Plan via @razorsocial http:// buff.ly/2owZ6zm #automation","#Marketing #automation","2017-04-05 00:41:07"
"Article: How HSBC is charting the 'tough road' to cloud-first. #cloud #automation #datacenter http:// buff.ly/2ot8Z0M pic.twitter.com/CnCXQigRDk","#cloud #automation #datacenter","2017-04-05 00:39:03"
"When things go wrong in an automated world, would we still know what to do? http:// ow.ly/isDn30a8AUK #AI #robots #automation #tech","#AI #robots #automation #tech","2017-04-05 00:35:07"
"Want to work in #CrystalSprings , MS? View our latest opening: http:// bit.ly/2ozcHXo #power #automation #Engineering #Job #Jobs #Hiring","#CrystalSprings #power #automation #Engineering #Job #Jobs #Hiring","2017-04-05 00:34:36"
"How Revenue Forecasting System can help? http:// buff.ly/2g6y9vx #revenue #tech #IoT #automation #BigData #IT pic.twitter.com/RifT6fvKF2","#revenue #tech #IoT #automation #BigData #IT","2017-04-05 00:34:02"
"#AutomationLab has the tools to get your #business to the top of Google! http:// bit.ly/2mM4lLG pic.twitter.com/IBiXxWzLuY","#AutomationLab #business","2017-04-05 00:30:38"
"Phoneta thanks for following WMH on Twitter! https:// twitter.com/PhonetaUK Visit http://www. wmh-uk-ltd.com for more information #food #automation","#food #automation","2017-04-05 00:24:18"
"6 Skills CEOs Will Need in the Age of #Automation | http:// hubs.ly/H06KBQP0 #futureofwork #leadership #tech #leadershipdevelopment","#Automation #futureofwork #leadership #tech #leadershipdevelopment","2017-04-05 00:22:00"
"#automation #subtweeting pic.twitter.com/aEviM5okTT","#automation #subtweeting","2017-04-05 00:21:14"
"B2B Social Media Magic: 3 Ways to Connect with Your Customers #email #marketing #lead #generation #automation http:// buff.ly/2nZvRUZ","#email #marketing #lead #generation #automation","2017-04-05 00:21:06"
"Does your #P2P #automation pitch have these 3 ingredients for proving #ROI ? http:// bit.ly/2nHmiaz pic.twitter.com/0wQMGJYeAb","#P2P #automation #ROI","2017-04-05 00:20:19"
"Automating A Complex Field Service Operation https:// shar.es/1EXuP2 #fieldservice #automation","#fieldservice #automation","2017-04-05 00:15:11"
"3 Ways #Marketing #Automation Changed My Life http:// buff.ly/2ngIpVD via @B2Community pic.twitter.com/7YRPSbi4IS","#Marketing #Automation","2017-04-05 00:14:02"
"How Robots and A.I. Are Revolutionizing the Tax Season - https:// goo.gl/VsyoYa - #Automation","#Automation","2017-04-05 00:12:59"
"#Webinar Replay - Learn how leading #RPA are performing and what to expect next: http:// ow.ly/FWms3091IQn #Automation","#Webinar #RPA #Automation","2017-04-05 00:10:13"
"OpenPMF ensures security policies are manageable. Learn more: http:// bit.ly/2nY0Dxq #cybersecurity #automation","#cybersecurity #automation","2017-04-05 00:08:01"
"This #job might be a great fit for you: Senior Internal Auditor - http:// bit.ly/2o6nGDt #power #automation #Accounting #Cary , NC #Hiring","#job #power #automation #Accounting #Cary #Hiring","2017-04-05 00:07:49"
"Application Release Automation : Egovernment Program #applicationreleaseautomation #FreeDownload #Free #Giveaway http:// buff.ly/2o4zv0M pic.twitter.com/cmkLNNkL6C","#applicationreleaseautomation #FreeDownload #Free #Giveaway","2017-04-05 00:03:07"
"HP Application Automation Tools 5.1.0.1-beta http:// j.mp/1bBDSEr #Cloudbees #JenkinsHpApplicationAutomationToolsPlugin","#Cloudbees #JenkinsHpApplicationAutomationToolsPlugin","2017-04-05 00:02:41"
"Manual tasks exist in every industry. Thankfully, so do #automation opportunities: http:// ow.ly/lw2t30aj3a1 #RPA pic.twitter.com/BTBwkr6eBQ","#automation #RPA","2017-04-05 00:01:11"
"As #ecommerce continues to surge, the case for #automation is now too compelling to ignore. http:// bit.ly/1HDmwYE","#ecommerce #automation","2017-04-05 00:01:06"
"Udemy Automate the Boring Stuff with Python Programming http:// bit.ly/2ejtCb1 #Python #programming #webdev #automation","#Python #programming #webdev #automation","2017-04-05 00:00:47"
"#Mobility and configurability top list for #T &E #automation @PayStream #expenses http:// bit.ly/2oSoqwf pic.twitter.com/JTkrAXU5NS","#Mobility #T #automation #expenses","2017-04-05 00:00:39"
"There is a cost to #Automation , we need to make it work for everyone by @BillDavidow . #HBR #jobs https:// lnkd.in/fzbHZgi","#Automation #HBR #jobs","2017-04-05 00:00:04"
"How tariffs affect the balanced forces of supply, demand and profit http:// bit.ly/2otLEw9 #PAuto #automation #engineering pic.twitter.com/9XziyGFVdr","#PAuto #automation #engineering","2017-04-04 23:52:18"
"Regional Engineering Manager opportunity in Albany, OR. #Engineering #manager #automation #Jobs http://www. conceptsystemsinc.com","#Engineering #manager #automation #Jobs","2017-04-04 23:50:03"
"Sales Engineer opportunity in Charlotte, NC for SE Territory! #Sales #automation #CharlotteNC http://www. conceptsystemsinc.com","#Sales #automation #CharlotteNC","2017-04-04 23:48:28"
"#Ikea is getting into #home #automation with a new #smart #hub @cgartenberg http:// ow.ly/aZqo30aipqG","#Ikea #home #automation #smart #hub","2017-04-04 23:45:20"
"Benefiting from a Unified IT Business Management Platform http:// dlvr.it/NpPJnX #GuestBloggers #automation","#GuestBloggers #automation","2017-04-04 23:44:45"
"#Mobility and configurability top list for #T &E #automation @PayStream #expenses http:// bit.ly/2nBBdly pic.twitter.com/GSnT3K1o2X","#Mobility #T #automation #expenses","2017-04-04 23:41:04"
"See our latest #Denver , CO #job and click to apply: Regional Sales Manager - Western Region - http:// bit.ly/2njXy7V #power #automation","#Denver #job #power #automation","2017-04-04 23:40:59"
"4 free outdoor security cameras with qualifying outdoor design! http:// goo.gl/HsHcwn #Houston #home #automation","#Houston #home #automation","2017-04-04 23:32:44"
"#Mobility and configurability top list for #T &E #automation @PayStream #expenses http:// bit.ly/2n8HWIy pic.twitter.com/3xhcghSlXb","#Mobility #T #automation #expenses","2017-04-04 23:30:22"
"#HR , #Recruitment , #Automation and #GlobalTalent - https:// goo.gl/OdBEbI An overview of #HRUSeattle and where we're headed. @GlobalHRU pic.twitter.com/i6bDXKngTF","#HR #Recruitment #Automation #GlobalTalent #HRUSeattle","2017-04-04 23:30:12"
"OpenPMF Security Policy Automation http:// buff.ly/2oEwPE8 #security #automation #cybersecurity","#security #automation #cybersecurity","2017-04-04 23:28:04"
"#Marketing #Automation & Content: A Perfect Match | via @HuffingtonPost http:// buff.ly/2oxqVrq pic.twitter.com/G9aHX3PzIa","#Marketing #Automation","2017-04-04 23:26:04"
"#IoT , #AI , and #Automation are Coming: What is the Future of Public Procurement http:// buff.ly/2oFBG8d | #govcon","#IoT #AI #Automation #govcon","2017-04-04 23:26:00"
"#Automate2017 Busy booth action over at Quebec-based @Robotiq_Inc #mfg #automation #cobots by #AutomationMag pic.twitter.com/RNf1susJCi","#Automate2017 #mfg #automation #cobots #AutomationMag","2017-04-04 23:23:34"
"embedded world 2017: Functional test automation with Squish http:// buff.ly/2oPiBzy #automation #embedded #embeddeddesign #embedded","#automation #embedded #embeddeddesign #embedded","2017-04-04 23:23:00"
"Come&say hi to us today @awscloud #AWSSummit #Sydney @strutdigital #strutdigital #CloudComputing #automation @davidcheal @zacklevy pic.twitter.com/7Xl9f6J7y9","#AWSSummit #Sydney #strutdigital #CloudComputing #automation","2017-04-04 23:21:29"
"Why the best #emailmarketing happens when you don't hit send: http:// mklnd.com/2bC9iOK #automation","#emailmarketing #automation","2017-04-04 23:19:02"
"Zero Red Flags + Low Cost + No Contract > http:// ift.tt/1IloNpL #TwitterAutomation What else do you need?","#TwitterAutomation","2017-04-04 23:15:09"
"Home Automation : Home Automation #homeautomation #FreeDownload #Free #Giveaway http:// buff.ly/2ohs3fJ pic.twitter.com/0Im2jotBqW","#homeautomation #FreeDownload #Free #Giveaway","2017-04-04 23:14:04"
"Artificial Intelligence Will Require New Laws, Attorneys Say - https:// goo.gl/ovbpV7 - #Automation","#Automation","2017-04-04 23:11:42"
"To really help US workers, we should invest in robots http:// buff.ly/2nBcSxl #globalization #automation #research #investment pic.twitter.com/SHckiJjFqP","#globalization #automation #research #investment","2017-04-04 23:11:12"
"Are you a Sharpspring User? Join us in the #Sharpspring Users Group on FB. #automation #inboundmarketing http:// bit.ly/2gBz7E7 pic.twitter.com/S8REAia4Lk","#Sharpspring #automation #inboundmarketing","2017-04-04 23:11:08"
"We're #hiring ! Read about our latest #job opening here: Sales Manager - http:// bit.ly/2np9ipC #power #automation #Sales #LasVegas , NV","#hiring #job #power #automation #Sales #LasVegas","2017-04-04 23:08:58"
"Why #HR Pros Need to Embrace #Automation http:// buff.ly/2nZUy3i via @HRTechWeekly #hrtech #futureofhr #AI","#HR #Automation #hrtech #futureofhr #AI","2017-04-04 23:07:01"
"#Automate2017 Busy booth action over at Quebec-based @Robotiq_Inc #mfg #automation #cobots pic.twitter.com/8G7tsgMnfc","#Automate2017 #mfg #automation #cobots","2017-04-04 23:04:56"
"Impact of #Automation and #AI on Jobs http:// wef.ch/2opFmKj #technology #artificialintelligence #robotics @wef pic.twitter.com/MlEeUHVH3t","#Automation #AI #technology #artificialintelligence #robotics","2017-04-04 23:04:01"
"Checkout the virtual tour #apps #appstore #growthautomation Pyze Growth Marketing Automation https:// tour.pyze.com pic.twitter.com/r9hiDksofh","#apps #appstore #growthautomation","2017-04-04 23:02:18"
"How a producer doubled the production of unpacked pancakes http:// bit.ly/2fAuDIp #hygiene #automation pic.twitter.com/7GxXN1QOco","#hygiene #automation","2017-04-04 23:01:14"
"Smart Home #Automation for Beginners http:// ow.ly/bbcj30awrvn via @AskMen pic.twitter.com/qAu56yuoBa","#Automation","2017-04-04 23:01:06"
"Workflow Ubiquity: Why Vendors are so Bad at Enabling #Automation http:// buff.ly/2nGwhgU #Banking #DevOps pic.twitter.com/GEkRwbBZZh","#Automation #Banking #DevOps","2017-04-04 23:01:00"
"8 #Marketing #Automation Mistakes You Might be Making And What To Do About it, via @InboundRocket http:// bit.ly/2nWoVrG #sales pic.twitter.com/J3fCVFCoyS","#Marketing #Automation #sales","2017-04-04 23:00:19"
"The ""love of people"" is no longer good enough to survive in #HR http:// j.mp/2nYQhgL #TalentManagement #Talent #AI #automation pic.twitter.com/U2XtFN0hbd","#HR #TalentManagement #Talent #AI #automation","2017-04-04 22:54:02"
"OpenPMF Security Policy Automation http:// buff.ly/2odFu2V #security #automation #cybersecurity","#security #automation #cybersecurity","2017-04-04 22:53:18"
"Renting? Protect Your Family With A Smart Security System http:// hubs.ly/H06VfSj0 #renting #smartsecurity #IoT #cameras #automation #DIY","#renting #smartsecurity #IoT #cameras #automation #DIY","2017-04-04 22:52:33"
