"In Today's News - Lenovo, Apple, Rackspace, Amazon, Alphabet and Palit http:// eepurl.com/cJKVfn #SSD #Cloudstorage #Datacenter #MacPro","#SSD #Cloudstorage #Datacenter #MacPro","2017-04-05 00:40:06"
"We're excited to announce we've been named a Top 10 #CloudStorage Solution Provider by Cloud Technology Insights http:// bit.ly/2nyv2CQ pic.twitter.com/YuobNQMe3L","#CloudStorage","2017-04-04 22:52:34"
"Cloud Storage: An Introduction To Cloud Computing #cloudstorage #FreeDownload #Free #Giveaway http:// buff.ly/2o8xxwh pic.twitter.com/r5G4zFRS4F","#cloudstorage #FreeDownload #Free #Giveaway","2017-04-04 18:59:02"
"Use the #Cloud ? Avoid making the 5 common #CloudStorage mistakes read more here to understand what it involves http:// bit.ly/2o6jIxH","#Cloud #CloudStorage","2017-04-04 18:33:20"
"Check out our latest blog article here: http:// bit.ly/2c19RDb #msp #mcsp #cloud #IaaS #cloudstorage pic.twitter.com/Kx5sZySlcP","#msp #mcsp #cloud #IaaS #cloudstorage","2017-04-04 18:02:15"
"#HIPAA compliant #FileSharing & #CloudStorage . Request a free demo here: http:// goo.gl/pFBneu","#HIPAA #FileSharing #CloudStorage","2017-04-04 17:52:58"
"Cloud Storage: Cloud Computing #cloudstorage #FreeDownload #Free #Giveaway http:// buff.ly/2ojZVeK pic.twitter.com/80jScZWF7i","#cloudstorage #FreeDownload #Free #Giveaway","2017-04-04 16:00:15"
"Our Blog this month is about #CloudStorage - where to bung those files! Please share :) http://www. ethicalit.net/blogs.php","#CloudStorage","2017-04-04 15:50:13"
"Cloud Storage: Quality Of Service Differentiated Cloud Storage #cloudstorage #FreeDownload #Free #Giveaway http:// buff.ly/2o8UWOm pic.twitter.com/O7K2s3fetz","#cloudstorage #FreeDownload #Free #Giveaway","2017-04-04 11:00:08"
"Bands Of Clouds http:// bit.ly/2nvpMfq via @ForbesTech #cloudstorage #elasticapplicationstorage #backupandrecovery #activearchivestorage","#cloudstorage #elasticapplicationstorage #backupandrecovery #activearchivestorage","2017-04-04 10:11:00"
"Send Large Files Free upto 100GB - Transfer, Share and Tr http:// bit.ly/2jegdEo #apps #cloudstorage #resources #sendlargefilesfree #tech","#apps #cloudstorage #resources #sendlargefilesfree #tech","2017-04-04 09:16:33"
"Cloud Storage: Quality Of Service Differentiated Cloud Storage #cloudstorage #FreeDownload #Free #Giveaway http:// buff.ly/2of5ybq pic.twitter.com/yO9xIbLi3K","#cloudstorage #FreeDownload #Free #Giveaway","2017-04-04 09:00:30"
"Cloud Storage: Quality Of Service Differentiated Cloud Storage #cloudstorage #FreeDownload #Free #Giveaway http:// buff.ly/2nKBmHm pic.twitter.com/xitAdAsyZO","#cloudstorage #FreeDownload #Free #Giveaway","2017-04-04 08:51:02"
"#DEDICATEDSERVERS Incredibly Powerfull Servers Are Now Affordable. #Cloudstorage #Privatecloud https:// goo.gl/P30xUR pic.twitter.com/aZZUTqUuLg","#DEDICATEDSERVERS #Cloudstorage #Privatecloud","2017-04-04 08:38:27"
"#VMware takes aim at enterprise hybrid #cloud http:// flip.it/EOy4DY #CloudStorage #CloudComputing #Amazon #virtualization #VMs #zdnet #US","#VMware #cloud #CloudStorage #CloudComputing #Amazon #virtualization #VMs #zdnet #US","2017-04-04 06:30:38"
"Why object storage is the perfect match for M&E data growth: http:// bit.ly/2odaGzy #objectstorage #cloudstorage pic.twitter.com/RHAnx6Jsq6","#objectstorage #cloudstorage","2017-04-04 05:22:01"
"Cloud Storage: An Introduction To Cloud Computing #cloudstorage #FreeDownload #Free #Giveaway http:// buff.ly/2ozcoYD pic.twitter.com/gh13gxUj5Y","#cloudstorage #FreeDownload #Free #Giveaway","2017-04-04 01:21:01"
"Big Data and the Storage Challenges in Media Companies https:// goo.gl/eNnYst #challenges #cloudstorage #Media pic.twitter.com/KhFrBlh4vt","#challenges #cloudstorage #Media","2017-04-04 00:28:25"
"Bands Of Clouds https:// goo.gl/mFv62L #Supercomputer #OracleDatabase #Applicationsoftware #ZFS #Cloudstorage pic.twitter.com/tewjnwXp8k","#Supercomputer #OracleDatabase #Applicationsoftware #ZFS #Cloudstorage","2017-04-04 00:21:07"
"Bands Of Clouds https:// goo.gl/wiDqjY #Supercomputer #OracleDatabase #Applicationsoftware #ZFS #Cloudstorage pic.twitter.com/IO0BKx3Fi4","#Supercomputer #OracleDatabase #Applicationsoftware #ZFS #Cloudstorage","2017-04-04 00:21:06"
"#FileCloud offers significant margins to #ManagedServiceProviders ( #MSP ) #CloudStorage #SaaS pic.twitter.com/SKjE8lOrrV","#FileCloud #ManagedServiceProviders #MSP #CloudStorage #SaaS","2017-04-03 23:12:51"
"RT @cloud_speaker : --->Free<--- #cloud storage: buyer beware! http:// ow.ly/tzNn30asAxN #cloud_storage #cloudstorage","#cloud #cloud_storage #cloudstorage","2017-04-03 23:05:12"
"Understanding The True Cost Of Your CapEx Storage Purchase https:// goo.gl/ezdSVF #cloudstorage #opex #capex #Cios pic.twitter.com/AF580zIErQ","#cloudstorage #opex #capex #Cios","2017-04-03 20:54:27"
"Cloud Storage: An Introduction To Cloud Computing #cloudstorage #FreeDownload #Free #Giveaway http:// buff.ly/2o8xD6U pic.twitter.com/lF6S5G0Hax","#cloudstorage #FreeDownload #Free #Giveaway","2017-04-03 20:23:02"
"Cloud Storage: Quality Of Service Differentiated Cloud Storage #cloudstorage #FreeDownload #Free #Giveaway http:// buff.ly/2o5g6N4 pic.twitter.com/O81ou7tCzx","#cloudstorage #FreeDownload #Free #Giveaway","2017-04-03 19:13:09"
"HPE memory pool can continue application performance improvements: @Forbes http:// bit.ly/2nzNmcm #objectstorage #cloudstorage pic.twitter.com/06QkpEQJbO","#objectstorage #cloudstorage","2017-04-03 19:04:01"
"RT @HITExchange : #HIPAA compliant #cloudstorage seen through @Scott_HighTech 's son's records http:// bit.ly/2gGgnjq @SearchHealthIT","#HIPAA #cloudstorage","2017-04-03 17:50:10"
"Send Large Files Free upto 100GB - Transfer, Share and Tr http:// bit.ly/2jegdEo #apps #cloudstorage #resources #sendlargefilesfree #tech","#apps #cloudstorage #resources #sendlargefilesfree #tech","2017-04-03 17:34:55"
"Cloud Storage Solutions: What's a #Cloud Container? http:// hubs.ly/H06XLYN0 by @Millennia_Tech #CloudContainer #CloudStorage","#Cloud #CloudContainer #CloudStorage","2017-04-03 17:00:04"
"Cloud Storage: An Introduction To Cloud Computing #cloudstorage #FreeDownload #Free #Giveaway http:// buff.ly/2nw6oR1 pic.twitter.com/gM8JdMb0ap","#cloudstorage #FreeDownload #Free #Giveaway","2017-04-03 15:02:06"
"Lock in a smarter & more Reliable Storage Solution for life | 1 TB Cloud Storage http:// buff.ly/2oaJAJq #cloudstorage #datastorage","#cloudstorage #datastorage","2017-04-03 13:14:04"
"Cloud Storage: Quality Of Service Differentiated Cloud Storage #cloudstorage #FreeDownload #Free #Giveaway http:// buff.ly/2ndcEwc pic.twitter.com/VY7BqcUyJd","#cloudstorage #FreeDownload #Free #Giveaway","2017-04-03 13:06:02"
"Cloud Storage: Quality Of Service Differentiated Cloud Storage #cloudstorage #FreeDownload #Free #Giveaway http:// buff.ly/2o5qQLD pic.twitter.com/2GHo2aCJH2","#cloudstorage #FreeDownload #Free #Giveaway","2017-04-03 12:59:01"
"Hard drives have a life span. Don't risk losing your files. Let #EARE back up your data. #BackUp #CloudData #cloudstorage #cloudcomputing pic.twitter.com/LOu1tFkMCJ","#EARE #BackUp #CloudData #cloudstorage #cloudcomputing","2017-04-03 12:37:12"
"Cloud Storage: Quality Of Service Differentiated Cloud Storage #cloudstorage #FreeDownload #Free #Giveaway http:// buff.ly/2ndxcVa pic.twitter.com/WYUACR3QjK","#cloudstorage #FreeDownload #Free #Giveaway","2017-04-03 11:04:02"
"Cloud Storage: Cloud Computing #cloudstorage #FreeDownload #Free #Giveaway http:// buff.ly/2ok5xG2 pic.twitter.com/U2hQu26aLq","#cloudstorage #FreeDownload #Free #Giveaway","2017-04-03 10:55:03"
"Cloud Storage: Quality Of Service Differentiated Cloud Storage #cloudstorage #FreeDownload #Free #Giveaway http:// buff.ly/2mLtZA8 pic.twitter.com/Bl2myaOPqm","#cloudstorage #FreeDownload #Free #Giveaway","2017-04-03 10:49:01"
"Why do I insist on receiving #paperwork ? One reason when client needs it to claim warranty. #cloudstorage #xeromagic","#paperwork #cloudstorage #xeromagic","2017-04-03 08:37:58"
"Cloud Storage: An Introduction To Cloud Computing #cloudstorage #FreeDownload #Free #Giveaway http:// buff.ly/2obL2eN pic.twitter.com/grLTXo8201","#cloudstorage #FreeDownload #Free #Giveaway","2017-04-03 07:52:03"
"Solusi Penyimpanan File Penting Bagi Mahasiswa | #CloudStorage http:// bit.ly/2o0XmO6 - http:// bit.ly/2o0XmO6 pic.twitter.com/g7ZBSciwn9","#CloudStorage","2017-04-03 06:37:10"
"Solusi Penyimpanan File Penting Bagi Mahasiswa | #CloudStorage http:// bit.ly/2o0XmO6 - http:// bit.ly/2o0XmO6 pic.twitter.com/A2c3iCpuiQ","#CloudStorage","2017-04-03 06:37:08"
"New video only shows a front end UI; we know nothing about what #Bitcache uses as backend. No mention of #decentralized #cloudstorage","#Bitcache #decentralized #cloudstorage","2017-04-03 05:57:01"
"Cloud Explorer 10 released with better @Minio support. https://www. linux-toys.com/?p=1330 #cloud #storage #cloudstorage #cloudcomputing","#cloud #storage #cloudstorage #cloudcomputing","2017-04-03 00:07:26"
"Unlimited #OneDrive #Storage Limit Now Being Cut #cloud #cloudcomputing #cloudstorage #freestorage #microsoft ... http:// fb.me/AtRvA403","#OneDrive #Storage #cloud #cloudcomputing #cloudstorage #freestorage #microsoft","2017-04-03 00:06:17"
"Send Large Files Free upto 100GB - Transfer, Share and Tr http:// bit.ly/2jegdEo #apps #cloudstorage #resources #sendlargefilesfree #tech","#apps #cloudstorage #resources #sendlargefilesfree #tech","2017-04-02 23:02:47"
"Introducing Cloud Explorer 10 https://www. linux-toys.com/?p=1330 #cloud #storage #cloudstorage #cloudcomputing","#cloud #storage #cloudstorage #cloudcomputing","2017-04-02 22:20:02"
"Protect, access & backup your data with 1TB Cloud Storage For LIFETIME from Zoolz http:// buff.ly/2odNBxa #datastorage #cloudstorage pic.twitter.com/Goi5QqP3GZ","#datastorage #cloudstorage","2017-04-02 22:00:40"
"Cloud Storage: Quality Of Service Differentiated Cloud Storage #cloudstorage #FreeDownload #Free #Giveaway http:// buff.ly/2oeRM8u pic.twitter.com/X8GO1RCFU0","#cloudstorage #FreeDownload #Free #Giveaway","2017-04-02 20:31:01"
"""Hybrid Cloud Storage Affordability"" https:// goo.gl/6SXqP2 #Hybrid #storageflexibility #hybridcloud #CloudStorage pic.twitter.com/k9UMWoy10Y","#Hybrid #storageflexibility #hybridcloud #CloudStorage","2017-04-02 18:42:24"
"Cloud Storage: Quality Of Service Differentiated Cloud Storage #cloudstorage #FreeDownload #Free #Giveaway http:// buff.ly/2o98DNb pic.twitter.com/qSWtcmOs7O","#cloudstorage #FreeDownload #Free #Giveaway","2017-04-02 16:10:01"
"Cloud Storage: Quality Of Service Differentiated Cloud Storage #cloudstorage #FreeDownload #Free #Giveaway http:// buff.ly/2ndFFYi pic.twitter.com/PM1gmes6kq","#cloudstorage #FreeDownload #Free #Giveaway","2017-04-02 15:41:03"
"#Data demands vary. Scale in the #cloud with our #cloudstorage services http:// buff.ly/2nNi9ol","#Data #cloud #cloudstorage","2017-04-02 14:09:07"
"Cloud Storage: Quality Of Service Differentiated Cloud Storage #cloudstorage #FreeDownload #Free #Giveaway http:// buff.ly/2of5bxo pic.twitter.com/tZndLwWfn4","#cloudstorage #FreeDownload #Free #Giveaway","2017-04-02 11:04:01"
"Cloud Storage: Quality Of Service Differentiated Cloud Storage #cloudstorage #FreeDownload #Free #Giveaway http:// buff.ly/2o5pdNV pic.twitter.com/ByZwPuYrRn","#cloudstorage #FreeDownload #Free #Giveaway","2017-04-02 10:27:01"
"""The biggest challenge is to identify and track down the processes and figure out how to..."" http:// bit.ly/29kBfcg #cloudstorage #dropbox","#cloudstorage #dropbox","2017-04-02 09:16:28"
"Cloud Storage: Quality Of Service Differentiated Cloud Storage #cloudstorage #FreeDownload #Free #Giveaway http:// buff.ly/2ndBqfp pic.twitter.com/l5yChG8s4V","#cloudstorage #FreeDownload #Free #Giveaway","2017-04-02 09:01:02"
"#UniKeep Cloud Storage Binder - Turquoise Blue https:// goo.gl/CDP0I3 #CloudStorage #GiftIdeas #MadeinUSA","#UniKeep #CloudStorage #GiftIdeas #MadeinUSA","2017-04-02 07:08:33"
"Hear from CEO @nnahum on our Intelligent Software-Defined Cloud Storage #ZadaraCloud #CloudStorage http:// bit.ly/2nOVjKu pic.twitter.com/La2FNoFwqI","#ZadaraCloud #CloudStorage","2017-04-01 22:53:02"
"Send Large Files Free upto 100GB - Transfer, Share and Tr http:// bit.ly/2jegdEo #apps #cloudstorage #resources #sendlargefilesfree #tech","#apps #cloudstorage #resources #sendlargefilesfree #tech","2017-04-01 21:23:53"
"Stop battling. Start clouding. Which #Cloudstorage is right for you? http:// tinyurl.com/z2n48t3 #Smallbiz #TeamCollaboration #cloudsecurity pic.twitter.com/MfTLX5OSLp","#Cloudstorage #Smallbiz #TeamCollaboration #cloudsecurity","2017-04-01 18:20:01"
"What do you really own in the digital world? - Chances are, if it is saved... http:// tinyurl.com/pte3k33 #assets #BruceWillis #cloudstorage","#assets #BruceWillis #cloudstorage","2017-04-01 13:22:53"
"Check this article for few of the best #cloudstorage #services you should try instead of Dropbox. http:// ow.ly/h1Re30aowOV pic.twitter.com/dg4S2FSNKM","#cloudstorage #services","2017-04-01 11:30:22"
"In Today's News - Facebook, Dell, Toshiba, ADATA, IBM, and Cloudera http:// eepurl.com/cJbPML #Cloudstorage #SSD #VR #AprilFools #Optane","#Cloudstorage #SSD #VR #AprilFools #Optane","2017-04-01 00:23:34"
"Sync your Synology NAS to DreamHost's DreamObjects: http:// bit.ly/2gDvybt #CloudStorage #WorldBackupDay pic.twitter.com/Y3s7Umnelw","#CloudStorage #WorldBackupDay","2017-04-01 00:05:04"
"@Oracle Unveils #Cloud Converged #Storage to Help Organizations Bridge On-Premises and Oracle #CloudStorage - http:// ow.ly/nL7b30asmml","#Cloud #Storage #CloudStorage","2017-03-31 23:52:32"
"A New Chapter for #WorldBackupDay - Be sure to backup your data! via @antonioromeoemc | http:// ln.is/NC3il | #CloudStorage #InfoSec","#WorldBackupDay #CloudStorage #InfoSec","2017-03-31 23:00:32"
"A New Chapter for #WorldBackupDay - Be sure to backup your data! via @antonioromeoemc | http:// owl.li/K8cz30arzXZ | #CloudStorage #InfoSec","#WorldBackupDay #CloudStorage #InfoSec","2017-03-31 23:00:31"
"AWS vs. Azure: Comparing #CloudStorage Options http:// hubs.ly/H06SSb10 by @netapp #CTO pic.twitter.com/19TSGPLDzn","#CloudStorage #CTO","2017-03-31 22:55:30"
"AWS vs. Azure: Comparing #CloudStorage Options http:// hubs.ly/H06SS9-0 by @netapp #CTO pic.twitter.com/m8eHvQLjgb","#CloudStorage #CTO","2017-03-31 22:54:43"
"AWS vs. Azure: Comparing #CloudStorage Options http:// hubs.ly/H06SSb00 by @netapp #CTO pic.twitter.com/5PbeojpsE8","#CloudStorage #CTO","2017-03-31 22:54:35"
"AWS vs. Azure: Comparing #CloudStorage Options http:// hubs.ly/H06SSb40 by @netapp #CTO pic.twitter.com/kwMz5j2qgy","#CloudStorage #CTO","2017-03-31 22:54:05"
"AWS vs. Azure: Comparing #CloudStorage Options http:// hubs.ly/H06SSb30 by @netapp #CTO pic.twitter.com/IvlzmMk38z","#CloudStorage #CTO","2017-03-31 22:54:04"
"AWS vs. Azure: Comparing #CloudStorage Options http:// hubs.ly/H06SS9Z0 by @netapp #CTO pic.twitter.com/8f0e950NyH","#CloudStorage #CTO","2017-03-31 22:54:02"
"AWS vs. Azure: Comparing #CloudStorage Options http:// hubs.ly/H06SS9_0 by @netapp #CTO pic.twitter.com/LVNCUpiMcF","#CloudStorage #CTO","2017-03-31 22:52:34"
"AWS vs. Azure: Comparing #CloudStorage Options http:// hubs.ly/H06SSb20 by @netapp #CTO pic.twitter.com/I5SIG4Xojv","#CloudStorage #CTO","2017-03-31 22:52:10"
"A New Chapter for #WorldBackupDay - Be sure to backup your data! via @antonioromeoemc | http:// owl.li/K8cz30arzXZ | #CloudStorage #InfoSec","#WorldBackupDay #CloudStorage #InfoSec","2017-03-31 22:45:10"
"A New Chapter for #WorldBackupDay - Be sure to backup your data! via @antonioromeoemc | http:// owl.li/K8cz30arzXZ | #CloudStorage #InfoSec","#WorldBackupDay #CloudStorage #InfoSec","2017-03-31 20:55:07"
". @BoxHQ vs. @Dropbox which #CloudStorage is the best fit for your company? http:// bit.ly/2ohQxsf","#CloudStorage","2017-03-31 20:30:16"
"TG Press @CloudStorageTT | #Oracle #cloudstorage embraces #ZFS #Storage Appliance | @smworldbigdata quote | read -> http:// bit.ly/2opM1Vz pic.twitter.com/bVD2tlwZGr","#Oracle #cloudstorage #ZFS #Storage","2017-03-31 20:25:31"
"How #CloudComputing Affects Mac and #Windows - http:// bit.ly/2ojzLcp #cloud #cloudstorage pic.twitter.com/KWQOeo9eR7","#CloudComputing #Windows #cloud #cloudstorage","2017-03-31 20:03:00"
"Send Large Files Free upto 100GB - Transfer, Share and Tr http:// bit.ly/2jegdEo #apps #cloudstorage #resources #sendlargefilesfree #tech","#apps #cloudstorage #resources #sendlargefilesfree #tech","2017-03-31 19:48:47"
"Protect, access & backup your data with 1TB Cloud Storage For LIFETIME from Zoolz http:// buff.ly/2odIz3w #datastorage #cloudstorage pic.twitter.com/1ugMTS4Mbq","#datastorage #cloudstorage","2017-03-31 19:18:02"
"Remember to backup all of those files! #WorldBackUpDay #FlashDrive #CloudStorage #Phone #Computer #Contacts pic.twitter.com/9s6O59CAXk","#WorldBackUpDay #FlashDrive #CloudStorage #Phone #Computer #Contacts","2017-03-31 19:00:03"
"""Your company is billed on a monthly basis only for the amount of storage you actually use."" http:// bit.ly/2cDUsZD #cloudstorage #opex pic.twitter.com/AOhL5BN7FW","#cloudstorage #opex","2017-03-31 18:42:20"
"#WorldBackupDay is a reminder to always keep a 2nd copy of important files - backup photos, videos, docs and emails to #CloudStorage Today! pic.twitter.com/LU5JukyN27","#WorldBackupDay #CloudStorage","2017-03-31 16:05:15"
"Cloud Storage: Cryptographic Cloud Storage_2015-09-25_12-47-44 #cloudstorage #FreeDownload #Free #Giveaway http:// buff.ly/2ngv0No pic.twitter.com/XW1VdtosLi","#cloudstorage #FreeDownload #Free #Giveaway","2017-03-31 15:39:01"
"New #blog post by @ms5joseph ! Do these future OneDrive features meet enterprise file storage needs? #cloudstorage http:// ow.ly/Q1z930apUGv","#blog #cloudstorage","2017-03-31 15:00:57"
"#Oracle #cloudstorage embraces ZFS Storage Appliance http:// ow.ly/4dgU30aoXxI","#Oracle #cloudstorage","2017-03-31 13:00:46"
"Cloud Storage: Possession In Multi-cloud Storage #cloudstorage #FreeDownload #Free #Giveaway http:// buff.ly/2mA9RAS pic.twitter.com/Cq5DQsLVmp","#cloudstorage #FreeDownload #Free #Giveaway","2017-03-31 11:08:02"
"Cloud Storage: The State Of Cloud Storage #cloudstorage #FreeDownload #Free #Giveaway http:// buff.ly/2mZDhUa pic.twitter.com/UAFGIa2X8v","#cloudstorage #FreeDownload #Free #Giveaway","2017-03-31 09:47:15"
"Send Large Files Free upto 100GB - Transfer, Share and Tr http:// bit.ly/2jegdEo #apps #cloudstorage #resources #sendlargefilesfree #tech","#apps #cloudstorage #resources #sendlargefilesfree #tech","2017-03-31 07:59:27"
"@TTstorageCarol dishes the dope on @Oracle #cloudstorage ZFS Storage Appliance http:// bit.ly/2nlugF3 @SearchStorageTT","#cloudstorage","2017-03-31 05:53:03"
"#HIPAA compliant #cloudstorage seen through Scott_HighTech's son's records http:// bit.ly/2gGgnjq SearchHealthIT","#HIPAA #cloudstorage","2017-03-31 01:24:39"
"#HIPAA compliant #cloudstorage seen through @Scott_HighTech 's son's records http:// bit.ly/2gGgnjq @SearchHealthIT","#HIPAA #cloudstorage","2017-03-31 01:22:01"
"#HIPAA compliant #cloudstorage seen through @Scott_HighTech 's son's records http:// bit.ly/2gGgnjq @SearchHealthIT","#HIPAA #cloudstorage","2017-03-31 01:22:00"
"In Today's News-Oracle, Dell, WD, Transcend, Nintendo, and Samsung http:// eepurl.com/cI1nwD #SSD #NVMe #Cloudstorage #DataCenter #Nintendo","#SSD #NVMe #Cloudstorage #DataCenter #Nintendo","2017-03-31 00:38:58"
"""Best Cloud Backup Tools "" https:// goo.gl/YseVF8 on @LinkedIn #Cloudstorage , #Online #Backup , #VirtualStorage , #Internet #Tools","#Cloudstorage #Online #Backup #VirtualStorage #Internet #Tools","2017-03-30 23:38:52"
"What is #CloudComputing and #Cloudstorage ? #Cloud http:// hubs.ly/H06Sch80 by @bt_uk pic.twitter.com/FynGNQQ03n","#CloudComputing #Cloudstorage #Cloud","2017-03-30 22:52:16"
"Dammit, now #ransomware can get my #cloudstorage too? Is nothing sacred anymore......!!!!????? #cyberthreats http:// buff.ly/2o7aWjm","#ransomware #cloudstorage #cyberthreats","2017-03-30 21:59:00"
"Cloud Storage: Quality Of Service Differentiated Cloud Storage #cloudstorage #FreeDownload #Free #Giveaway http:// buff.ly/2o58vOm pic.twitter.com/5vZujYFSrY","#cloudstorage #FreeDownload #Free #Giveaway","2017-03-30 21:37:01"
"Security is a TOP priority for company files. This IT Pro says @ShareFile excels at this. #CloudStorage #SysAdmin http:// bit.ly/1U4cYII pic.twitter.com/gimNR5KsWP","#CloudStorage #SysAdmin","2017-03-30 21:15:09"
"How to Maximize Savings With #HybridCloud . Read more: http:// bit.ly/2nzUS7h #datastorage #CloudStorage #RemoteOffice #BranchOffice pic.twitter.com/hW2qrxZgfU","#HybridCloud #datastorage #CloudStorage #RemoteOffice #BranchOffice","2017-03-30 19:31:04"
"Cloud Storage: An Introduction To Cloud Computing #cloudstorage #FreeDownload #Free #Giveaway http:// buff.ly/2ohOTny pic.twitter.com/00Xv59k1CV","#cloudstorage #FreeDownload #Free #Giveaway","2017-03-30 19:07:06"
"Staying Up During Downtime...Outages don't need to happen to your business: https:// goo.gl/R1ykQ8 #Cloudstorage #CDN #Outage #LLNW pic.twitter.com/jLoGgq6RNF","#Cloudstorage #CDN #Outage #LLNW","2017-03-30 16:34:58"
"Cloud Storage: An Introduction To Cloud Computing #cloudstorage #FreeDownload #Free #Giveaway http:// buff.ly/2o8xpwH pic.twitter.com/lkpMTMO2vz","#cloudstorage #FreeDownload #Free #Giveaway","2017-03-30 15:11:16"
"Send Large Files Free upto 100GB - Transfer, Share and Tr http:// bit.ly/2jegdEo #apps #cloudstorage #resources #sendlargefilesfree #tech","#apps #cloudstorage #resources #sendlargefilesfree #tech","2017-03-30 12:09:41"
"Cloud Storage: Cryptographic Cloud Storage_2015-09-25_12-47-44 #cloudstorage #FreeDownload #Free #Giveaway http:// buff.ly/2nOC6LK pic.twitter.com/qWVcChMLIW","#cloudstorage #FreeDownload #Free #Giveaway","2017-03-30 11:04:04"
"Cloud Storage: Cryptographic Cloud Storage_2015-09-25_12-47-44 #cloudstorage #FreeDownload #Free #Giveaway http:// buff.ly/2o1hM74 pic.twitter.com/8pNIFv3pVm","#cloudstorage #FreeDownload #Free #Giveaway","2017-03-30 10:05:01"
"Cloud Storage: Cryptographic Cloud Storage_2015-09-25_12-47-44 #cloudstorage #FreeDownload #Free #Giveaway http:// buff.ly/2n1fuTM pic.twitter.com/ubTAbms8rt","#cloudstorage #FreeDownload #Free #Giveaway","2017-03-30 09:05:02"
"IBM to remove complexity around #CloudStorage service tiers http:// ow.ly/Xs6430amffV","#CloudStorage","2017-03-30 08:45:13"
"Upload/Download large files fast and secure with http:// Transferum.com .Start with #50GB #free account #RETWEET #cloudstorage #IT","#50GB #free #RETWEET #cloudstorage #IT","2017-03-30 07:01:01"
"Cloud Storage: Cryptographic Cloud Storage_2015-09-25_12-47-44 #cloudstorage #FreeDownload #Free #Giveaway http:// buff.ly/2nOGSJf pic.twitter.com/x13vNeFavq","#cloudstorage #FreeDownload #Free #Giveaway","2017-03-30 07:00:24"
"Cloud Storage: Quality Of Service Differentiated Cloud Storage #cloudstorage #FreeDownload #Free #Giveaway http:// buff.ly/2ntIANP pic.twitter.com/0JheRj80M7","#cloudstorage #FreeDownload #Free #Giveaway","2017-03-30 04:42:02"
"The enterprise moves to the #cloud ; bringing #email , #sales , #marketing , #finance data to #cloudstorage . http:// bit.ly/2mfNvzy pic.twitter.com/tpsjhE1YsH","#cloud #email #sales #marketing #finance #cloudstorage","2017-03-30 01:01:03"
"In Today's News - AWS, Intel, Samsung, Miscrosoft, Huawei, and TRENDFOCUS http:// eepurl.com/cIN-MD #3DNAND #SSD #Cloudstorage #NVMe #IoT","#3DNAND #SSD #Cloudstorage #NVMe #IoT","2017-03-30 00:24:27"
"http:// MyCloudMyCloud.Com #DomainSale #GoDaddyAuctions #CloudStorage #CloudBackup #MyCloud #Android #Backup #PrivateAccess #PrivateCloud #PC","#DomainSale #GoDaddyAuctions #CloudStorage #CloudBackup #MyCloud #Android #Backup #PrivateAccess #PrivateCloud #PC","2017-03-30 00:16:41"
"@gridscaleio #IaaS aus Deutschland mit #Rechenzentren in Frankfurt - intuitives GUI und 100% #SLA bei https:// gridscale.io #cloudstorage","#IaaS #Rechenzentren #SLA #cloudstorage","2017-03-29 23:20:46"
"#OneNationOneTax #gstbill #GST likewise #digital #DigitalMarketing #cloudcomputing #cloudstorage under 1 roof @gurutransferapp @makeinindia","#OneNationOneTax #gstbill #GST #digital #DigitalMarketing #cloudcomputing #cloudstorage","2017-03-29 21:46:24"
"Cloud Storage: An Introduction To Cloud Computing #cloudstorage #FreeDownload #Free #Giveaway http:// buff.ly/2ohMtW3 pic.twitter.com/NHXPZN1RuM","#cloudstorage #FreeDownload #Free #Giveaway","2017-03-29 21:00:22"
"Send Large Files Free upto 100GB - Transfer, Share and Tr http:// bit.ly/2jegdEo #apps #cloudstorage #resources #sendlargefilesfree #tech","#apps #cloudstorage #resources #sendlargefilesfree #tech","2017-03-29 20:45:57"
"18 free #cloudstorage options - http:// bit.ly/2eCnRFe pic.twitter.com/TLG7Kb9Qq0","#cloudstorage","2017-03-29 19:13:55"
"Cloud Storage: Possession In Multi-cloud Storage #cloudstorage #FreeDownload #Free #Giveaway http:// buff.ly/2nfC9O3 pic.twitter.com/b5WjWFvP3x","#cloudstorage #FreeDownload #Free #Giveaway","2017-03-29 19:11:07"
"@PaulSalopek So any lifeform with short lifespan is doomed? Yet, its DNA is here for millenia just like data in #cloudstorage","#cloudstorage","2017-03-29 18:40:36"
"New @IBMcloud storage pricing model intended to simplify the service http:// bit.ly/2nN0TAv #cloudstorage pic.twitter.com/hV4tEbiOEA","#cloudstorage","2017-03-29 18:22:02"
"Cloud Storage: Possession In Multi-cloud Storage #cloudstorage #FreeDownload #Free #Giveaway http:// buff.ly/2nldppp pic.twitter.com/NqmpABghlr","#cloudstorage #FreeDownload #Free #Giveaway","2017-03-29 17:57:01"
"Cloud Storage: Possession In Multi-cloud Storage #cloudstorage #FreeDownload #Free #Giveaway http:// buff.ly/2nN2m9f pic.twitter.com/LegfUeDlxz","#cloudstorage #FreeDownload #Free #Giveaway","2017-03-29 17:08:06"
"Cloud Storage: The State Of Cloud Storage #cloudstorage #FreeDownload #Free #Giveaway http:// buff.ly/2mZyDWu pic.twitter.com/bKdZxeU1Ws","#cloudstorage #FreeDownload #Free #Giveaway","2017-03-29 15:57:15"
"Cloud Storage: Cryptographic Cloud Storage_2015-09-25_12-47-44 #cloudstorage #FreeDownload #Free #Giveaway http:// buff.ly/2nORp7l pic.twitter.com/TQFaXuiDIo","#cloudstorage #FreeDownload #Free #Giveaway","2017-03-29 15:45:04"
"Discounts Galore! Click here to view our updated pricing! http:// bit.ly/2mMf2hd #Discount #Vembu #CloudStorage pic.twitter.com/Rv3Mls7NUW","#Discount #Vembu #CloudStorage","2017-03-29 15:22:02"
"Cloud Storage: The State Of Cloud Storage #cloudstorage #FreeDownload #Free #Giveaway http:// buff.ly/2mZAFFN pic.twitter.com/iQlKKxHepc","#cloudstorage #FreeDownload #Free #Giveaway","2017-03-29 15:03:08"
"Yes, Ransomware Can Encrypt Your Cloud Storage http:// bit.ly/2nv39cJ #Security #CloudStorage #Ransomware pic.twitter.com/qrI78uHq0l","#Security #CloudStorage #Ransomware","2017-03-29 15:03:01"
"Cloud Storage: Possession In Multi-cloud Storage #cloudstorage #FreeDownload #Free #Giveaway http:// buff.ly/2nNh8Nw pic.twitter.com/iU9z4P3qJx","#cloudstorage #FreeDownload #Free #Giveaway","2017-03-29 14:53:01"
"Cloud Storage: The State Of Cloud Storage #cloudstorage #FreeDownload #Free #Giveaway http:// buff.ly/2nfo9UG pic.twitter.com/4pqTcYR64n","#cloudstorage #FreeDownload #Free #Giveaway","2017-03-29 14:11:01"
"#Workload Mobility: Staying Compatible Across Clouds http:// hubs.ly/H06P_mK0 by @netapp #cloudstorage pic.twitter.com/5Egb1Nrq1Y","#Workload #cloudstorage","2017-03-29 14:03:05"
"#Workload Mobility: Staying Compatible Across Clouds http:// hubs.ly/H06P_mM0 by @netapp #cloudstorage pic.twitter.com/7uL0ujFPFs","#Workload #cloudstorage","2017-03-29 14:03:04"
"#Workload Mobility: Staying Compatible Across Clouds http:// hubs.ly/H06P_mL0 by @netapp #cloudstorage pic.twitter.com/eqqwy8OXp8","#Workload #cloudstorage","2017-03-29 14:03:03"
"Cloud Storage: Cloud Storage And Data Security #cloudstorage #FreeDownload #Free #Giveaway http:// buff.ly/2mVok5q pic.twitter.com/8EoEZSXrSl","#cloudstorage #FreeDownload #Free #Giveaway","2017-03-29 14:01:35"
"I love my hubby! He had me giggling at Walmart last night! #mycloud #cloudstorage pic.twitter.com/R8N4q3tpOB","#mycloud #cloudstorage","2017-03-29 13:39:01"
"Cloud Storage: The State Of Cloud Storage #cloudstorage #FreeDownload #Free #Giveaway http:// buff.ly/2nMBFS8 pic.twitter.com/2E1LMKIr1z","#cloudstorage #FreeDownload #Free #Giveaway","2017-03-29 13:08:02"
"Cloud Storage: Quality Of Service Differentiated Cloud Storage #cloudstorage #FreeDownload #Free #Giveaway http:// buff.ly/2ndB1tm pic.twitter.com/QydkbX0ugr","#cloudstorage #FreeDownload #Free #Giveaway","2017-03-29 11:50:01"
"Cloud Storage: Cryptographic Cloud Storage_2015-09-25_12-47-44 #cloudstorage #FreeDownload #Free #Giveaway http:// buff.ly/2n1f8MX pic.twitter.com/jv5pWr3gYJ","#cloudstorage #FreeDownload #Free #Giveaway","2017-03-29 10:29:01"
"Cloud Storage: Cryptographic Cloud Storage_2015-09-25_12-47-44 #cloudstorage #FreeDownload #Free #Giveaway http:// buff.ly/2ngCjVp pic.twitter.com/hQ1thGHZNA","#cloudstorage #FreeDownload #Free #Giveaway","2017-03-29 09:56:01"
"Today @BaseMediaCloud & BeBop discuss the next revolution of media & entertainment in #cloudstorage in this #webinar http:// ow.ly/kUzN30a9yto","#cloudstorage #webinar","2017-03-29 09:45:12"
"#Azure vs #AWS :Comparing Services for Your #CloudDatabase http:// flip.it/DNhzMu #Amazon #Microsoft #CloudComputing #CloudStorage #technews","#Azure #AWS #CloudDatabase #Amazon #Microsoft #CloudComputing #CloudStorage #technews","2017-03-29 07:29:13"
"#UniKeep Cloud Storage Binder - Turquoise Blue https:// goo.gl/0HlsfN #CloudStorage #MadeinUSA #Shopping","#UniKeep #CloudStorage #MadeinUSA #Shopping","2017-03-29 07:16:28"
"Cloud Storage: Possession In Multi-cloud Storage #cloudstorage #FreeDownload #Free #Giveaway http:// buff.ly/2n2bdRb pic.twitter.com/3nfv1IctUj","#cloudstorage #FreeDownload #Free #Giveaway","2017-03-29 06:57:01"
"New versions of files are automatically created every time you upload. Roll back whenever you need. #CloudStorage #backup #YDF pic.twitter.com/v3reTaZV1e","#CloudStorage #backup #YDF","2017-03-29 06:16:09"
"Send Large Files Free upto 100GB - Transfer, Share and Tr http:// bit.ly/2jegdEo #apps #cloudstorage #resources #sendlargefilesfree #tech","#apps #cloudstorage #resources #sendlargefilesfree #tech","2017-03-29 03:53:13"
"It's one thing to scan all of your #documents , but storing them is another thing entirely. We'll help with #cloudstorage .","#documents #cloudstorage","2017-03-29 02:45:04"
"Cloud Storage: The State Of Cloud Storage #cloudstorage #FreeDownload #Free #Giveaway http:// buff.ly/2nf62hr pic.twitter.com/erbrLXnE3F","#cloudstorage #FreeDownload #Free #Giveaway","2017-03-29 01:29:03"
"In Today's News - Intel, Samsung, Facebook, AWS, and Microsoft http:// eepurl.com/cICu0f #SSD #Xpoint #3DNAND #Datacenter #Cloudstorage #IoT","#SSD #Xpoint #3DNAND #Datacenter #Cloudstorage #IoT","2017-03-29 00:10:29"
"Send Large Files Free upto 100GB - Transfer, Share and Tr http:// bit.ly/2jegdEo #apps #cloudstorage #resources #sendlargefilesfree #tech","#apps #cloudstorage #resources #sendlargefilesfree #tech","2017-03-28 23:40:01"
"What are the pros and cons of #cloudstorage when it comes to your #rental business? http:// ln.is/AQKCU #landlo ... by #TransUnionSM pic.twitter.com/bWJngivGzl","#cloudstorage #rental #landlo #TransUnionSM","2017-03-28 22:52:58"
"What are the pros and cons of #cloudstorage when it comes to your #rental business? http:// buff.ly/2oqTD9N #landlords pic.twitter.com/wCmIQhQRmc","#cloudstorage #rental #landlords","2017-03-28 22:33:02"
"BIGLOBE leverages Scality RING to serve over 3 million email accounts: http:// bit.ly/2nMRoBi #objectstorage #cloudstorage pic.twitter.com/nYVXDkvC1B","#objectstorage #cloudstorage","2017-03-28 21:28:01"
"Cloud Storage: Possession In Multi-cloud Storage #cloudstorage #FreeDownload #Free #Giveaway http:// buff.ly/2nN5m5I pic.twitter.com/VSvwqj6QQ6","#cloudstorage #FreeDownload #Free #Giveaway","2017-03-28 20:37:08"
"Cloud Storage: The State Of Cloud Storage #cloudstorage #FreeDownload #Free #Giveaway http:// buff.ly/2nflvy8 pic.twitter.com/bCE0viKO62","#cloudstorage #FreeDownload #Free #Giveaway","2017-03-28 20:29:01"
"#AmazonWebServices starts offering free cloud storage and computing for Alexa skills. http:// buff.ly/2o4YaCo #CloudStorage #Alexa #AWS","#AmazonWebServices #CloudStorage #Alexa #AWS","2017-03-28 20:27:08"
"Cloud Storage: Possession In Multi-cloud Storage #cloudstorage #FreeDownload #Free #Giveaway http:// buff.ly/2nl5DvN pic.twitter.com/Iz7QEA96n0","#cloudstorage #FreeDownload #Free #Giveaway","2017-03-28 18:01:40"
"Cloud Storage: Possession In Multi-cloud Storage #cloudstorage #FreeDownload #Free #Giveaway http:// buff.ly/2nNh8gu pic.twitter.com/zccC6peZRA","#cloudstorage #FreeDownload #Free #Giveaway","2017-03-28 17:59:02"
"Cloud Storage: The State Of Cloud Storage #cloudstorage #FreeDownload #Free #Giveaway http:// buff.ly/2nfbzoe pic.twitter.com/HmMl4nc1Sb","#cloudstorage #FreeDownload #Free #Giveaway","2017-03-28 16:10:03"
"CAS Cloud provides a complete audit of any changes made to your records #CloudStorage #CASdoThat #GDPR .... http:// fb.me/3t22kCyzi","#CloudStorage #CASdoThat #GDPR","2017-03-28 16:01:27"
"CAS Cloud provides a complete audit of any changes made to your records #CloudStorage #CASdoThat #GDPR . http:// bit.ly/2dNFL5K pic.twitter.com/XOXdB2xkR2","#CloudStorage #CASdoThat #GDPR","2017-03-28 16:01:24"
"Cloud Storage: Quality Of Service Differentiated Cloud Storage #cloudstorage #FreeDownload #Free #Giveaway http:// buff.ly/2ndwwiF pic.twitter.com/0nfhc8uqb3","#cloudstorage #FreeDownload #Free #Giveaway","2017-03-28 15:25:03"
"@SeattlePacific on their way to equip themselves technically with enterprise content management ( #ECM ) initiatives related to #cloudstorage .","#ECM #cloudstorage","2017-03-28 15:00:20"
"#AWS vs. #Azure : Comparing #CloudStorage Options >> http:// hubs.ly/H06SRdZ0 by @netapp #EnterpriseIT pic.twitter.com/UKHbwjuu6S","#AWS #Azure #CloudStorage #EnterpriseIT","2017-03-28 14:01:35"
"#AWS vs. #Azure : Comparing #CloudStorage Options >> http:// hubs.ly/H06SRd-0 by @netapp #EnterpriseIT pic.twitter.com/QjlPx8p32d","#AWS #Azure #CloudStorage #EnterpriseIT","2017-03-28 14:01:34"
"#AWS vs. #Azure : Comparing #CloudStorage Options >> http:// hubs.ly/H06SRdY0 by @netapp #EnterpriseIT pic.twitter.com/ap7cdcwxyN","#AWS #Azure #CloudStorage #EnterpriseIT","2017-03-28 14:01:06"
"#AWS vs. #Azure : Comparing #CloudStorage Options >> http:// hubs.ly/H06SRdW0 by @netapp #EnterpriseIT pic.twitter.com/V0dijVDyK6","#AWS #Azure #CloudStorage #EnterpriseIT","2017-03-28 14:01:06"
"#AWS vs. #Azure : Comparing #CloudStorage Options >> http:// hubs.ly/H06SRdX0 by @netapp #EnterpriseIT pic.twitter.com/bHQMK9Rnm3","#AWS #Azure #CloudStorage #EnterpriseIT","2017-03-28 14:01:05"
"#AWS vs. #Azure : Comparing #CloudStorage Options >> http:// hubs.ly/H06SRd_0 by @netapp #EnterpriseIT pic.twitter.com/FQddmbqBB5","#AWS #Azure #CloudStorage #EnterpriseIT","2017-03-28 14:01:04"
"#AWS vs. #Azure : Comparing #CloudStorage Options >> http:// hubs.ly/H06SRdV0 by @netapp #EnterpriseIT pic.twitter.com/8jjx75xmXJ","#AWS #Azure #CloudStorage #EnterpriseIT","2017-03-28 14:01:04"
"Cloud Storage: The State Of Cloud Storage #cloudstorage #FreeDownload #Free #Giveaway http:// buff.ly/2nMQDaL pic.twitter.com/EKabBMrObv","#cloudstorage #FreeDownload #Free #Giveaway","2017-03-28 12:57:02"
"Cloud Storage: Cloud Storage And Data Security #cloudstorage #FreeDownload #Free #Giveaway http:// buff.ly/2nI5YJM pic.twitter.com/sITFFjTAGy","#cloudstorage #FreeDownload #Free #Giveaway","2017-03-28 11:56:04"
"Cloud Storage: Cloud Storage And Data Security #cloudstorage #FreeDownload #Free #Giveaway http:// buff.ly/2mVsg6z pic.twitter.com/pQbRVG5nIi","#cloudstorage #FreeDownload #Free #Giveaway","2017-03-28 11:04:05"
"For @Azure Premium Storage, how are users billed? http:// bit.ly/2j11hFu #cloudstorage","#cloudstorage","2017-03-28 10:17:00"
"Cloud Storage: Cloud Storage And Data Security #cloudstorage #FreeDownload #Free #Giveaway http:// buff.ly/2nc5pVM pic.twitter.com/dbfBIBqpME","#cloudstorage #FreeDownload #Free #Giveaway","2017-03-28 10:01:01"
"94% of managers say their business security has improved after adopting cloud applications. #Security #Cloud #Cloudstorage pic.twitter.com/raY1hYbaQu","#Security #Cloud #Cloudstorage","2017-03-28 09:46:46"
"Cloud Storage: Cloud Storage And Data Security #cloudstorage #FreeDownload #Free #Giveaway http:// buff.ly/2nI5ELd pic.twitter.com/YUhkobJFQz","#cloudstorage #FreeDownload #Free #Giveaway","2017-03-28 09:01:06"
"""Big Data and the Storage Challenges in Media Companies"" https:// goo.gl/eNnYst #challenges #cloudstorage #Media pic.twitter.com/norNiLafg2","#challenges #cloudstorage #Media","2017-03-28 06:44:15"
"#CloudNow #CloudStorage #CloudEvolution #BestPerformance Tintri #VM -Level-Storage http:// ow.ly/k1pm309WoSW","#CloudNow #CloudStorage #CloudEvolution #BestPerformance #VM","2017-03-28 06:14:12"
"Send Large Files Free upto 100GB - Transfer, Share and Tr http:// bit.ly/2jegdEo #apps #cloudstorage #resources #sendlargefilesfree #tech","#apps #cloudstorage #resources #sendlargefilesfree #tech","2017-03-28 04:27:27"
"@Google invests in hybrid #cloudstorage company Avere Systems http:// buff.ly/2nZLJ7z","#cloudstorage","2017-03-28 01:52:15"
"Just published a new article: Big Data and the Storage Challenges in Media Companies https:// goo.gl/eNnYst #challenges #cloudstorage pic.twitter.com/Kfqu6omJ6T","#challenges #cloudstorage","2017-03-28 00:28:14"
"In Today's News - IBM, Transcend, Intel, Microsoft, Toshiba, and Tencent http:// eepurl.com/cIqk_b #HDD #SSD #Cloudstorage #Dataceneter","#HDD #SSD #Cloudstorage #Dataceneter","2017-03-28 00:25:35"
"18 free cloud storage options - http:// klou.tt/sb70ci0ny2p8 #CloudComputing #CloudStorage","#CloudComputing #CloudStorage","2017-03-27 22:30:27"
"Congratulations! @ZadaraStorage named to ""Top 10 Cloud Storage Solution Providers"" #ZadaraCloud #CloudStorage http:// bit.ly/2na905a","#ZadaraCloud #CloudStorage","2017-03-27 21:54:32"
"Understanding The True Cost Of Your CapEx Storage Purchase https:// goo.gl/ezdSVF #cloudstorage #opex #capex #Cios pic.twitter.com/Gpvd0j7mqT","#cloudstorage #opex #capex #Cios","2017-03-27 20:54:15"
"Our CEO @MarcFleischmann explains the future of #cloudstorage : http:// bit.ly/2mMkNaI","#cloudstorage","2017-03-27 20:43:00"
"It's good to keep your files in the cloud, but not your head. #cloudstorage #HeadInTheClouds","#cloudstorage #HeadInTheClouds","2017-03-27 20:10:29"
"Check out the Features & Benefits of paubox secure #filesharing and #cloudstorage : http:// goo.gl/pFBneu #security #privacy #HIPAA","#filesharing #cloudstorage #security #privacy #HIPAA","2017-03-27 19:21:37"
"Lock in a smarter & more Reliable Storage Solution for life | 1 TB Cloud Storage http:// buff.ly/2mXbW5h #cloudstorage #datastorage pic.twitter.com/UEvCUZxMq1","#cloudstorage #datastorage","2017-03-27 19:01:27"
"Goodbye @Dropbox , hello @Sync ! Canadian company, better everything, and less $ per year than was paying per month! #cloudstorage #micdrop","#cloudstorage #micdrop","2017-03-27 18:46:54"
"Arkham - A cloud backup service built to give you privacy and peace of mind. #privacy #cloudstorage #encryption https:// arkham.io/#signup","#privacy #cloudstorage #encryption #signup","2017-03-27 17:59:50"
"Cloud Storage: Cloud Storage And Data Security #cloudstorage #FreeDownload #Free #Giveaway http:// buff.ly/2nbSEuD pic.twitter.com/Zn3fjDqIuz","#cloudstorage #FreeDownload #Free #Giveaway","2017-03-27 16:55:03"
". @ZeroStackInc , @NimbleStorage team on new converged #cloudstorage solution. http:// bit.ly/2omWwIw via @Channel_Online","#cloudstorage","2017-03-27 16:31:29"
"Find the right #ovh #cloudstorage solution for you.. http:// ovh.to/B5r33Wv @ITSupportConfessions pic.twitter.com/uefwmDo5G2","#ovh #cloudstorage","2017-03-27 15:33:48"
"#IBM wipes away tiers to join #CloudStorage price wars http:// rite.ly/jqks pic.twitter.com/8W000IaOg4","#IBM #CloudStorage","2017-03-27 14:47:26"
"What is @googlecloud Storage Nearline? http:// bit.ly/1VcJVWy #cloudstorage pic.twitter.com/VQtynBLEgf","#cloudstorage","2017-03-27 14:37:02"
"Cloud Security: 8 Things You Need to Know When Choosing a ... - https://www. cloudwards.net/cloud-security/ #cloudstorage #cloudcomputing","#cloudstorage #cloudcomputing","2017-03-27 14:27:41"
"Cloud Security: 8 Things You Need to Know When Choosing a ... - https://www. cloudwards.net/cloud-security/ #cloudstorage #cloudcomputing","#cloudstorage #cloudcomputing","2017-03-27 14:24:22"
"Each type of #cloudstorage has its pros & cons. Here is how to make the right choice for your business- https:// goo.gl/A01ioI Please Share pic.twitter.com/S8kile7umM","#cloudstorage","2017-03-27 14:12:25"
"Cloud Storage: Cloud Storage And Data Security #cloudstorage #FreeDownload #Free #Giveaway http:// buff.ly/2nbTFTf pic.twitter.com/LqOIT3lfPM","#cloudstorage #FreeDownload #Free #Giveaway","2017-03-27 12:51:01"
"Send Large Files Free upto 100GB - Transfer, Share and Tr http:// bit.ly/2jegdEo #apps #cloudstorage #resources #sendlargefilesfree #tech","#apps #cloudstorage #resources #sendlargefilesfree #tech","2017-03-27 12:43:45"
"Cloud Storage: Cloud Storage And Data Security #cloudstorage #FreeDownload #Free #Giveaway http:// buff.ly/2mZ41oN pic.twitter.com/bFwuMkxqsY","#cloudstorage #FreeDownload #Free #Giveaway","2017-03-27 10:36:01"
". @ZeroStackInc , @NimbleStorage team on new converged #cloudstorage solution. http:// dlvr.it/NkYsGM","#cloudstorage","2017-03-27 09:59:03"
"#Ambicam | Smart Cloud Camera - Best for #SmallBusiness http://www. ambicam.com @TheAmbicam #Cloudcam #Cloud #cctv #cloudstorage pic.twitter.com/bAVeFd5Boq","#Ambicam #SmallBusiness #Cloudcam #Cloud #cctv #cloudstorage","2017-03-27 07:01:53"
"Cloud Storage: Cloud Storage And Data Security #cloudstorage #FreeDownload #Free #Giveaway http:// buff.ly/2nIbdcC pic.twitter.com/qZhEWHsu6V","#cloudstorage #FreeDownload #Free #Giveaway","2017-03-27 07:00:39"
"#Google made an unusual move by investing millions in this Pittsburgh storage startup http:// read.bi/2mRt397 @bi_enterprise #cloudstorage","#Google #cloudstorage","2017-03-27 01:24:17"
"@Synology I have to say I'm thoroughly impressed with this thing. And I've only had it for a few days. Well done!! #CloudStorage #NAS pic.twitter.com/W9oucYitFR","#CloudStorage #NAS","2017-03-26 21:48:27"
"""How to Avoid Cloud Vendor Lock-in"" https:// goo.gl/zVMeHI #Data #cloudstorage #cloudprovider pic.twitter.com/RnO6CdpRvZ","#Data #cloudstorage #cloudprovider","2017-03-26 20:54:12"
"Hybrid #cloudstorage company Avere Systems raises $14 million from Google, Western Digital, others http:// hubs.ly/H06QNtp0 #startup #funding pic.twitter.com/iCfoHzHzVZ","#cloudstorage #startup #funding","2017-03-26 20:20:01"
"New @IBMcloud storage pricing model intended to simplify the service http:// bit.ly/2nN0TAv #cloudstorage pic.twitter.com/iSIkHLpvYb","#cloudstorage","2017-03-26 18:22:02"
"Get #UKCloudDrive cloud backup services right away here - http://www. ukclouddrive.net #onlinebackup #cloudstorage pic.twitter.com/R6Pf0QUosG","#UKCloudDrive #onlinebackup #cloudstorage","2017-03-26 13:32:50"
"Protect, access & backup your data with 1TB Cloud Storage For LIFETIME from Zoolz http:// buff.ly/2ndCjWk #cloudstorage #datastorage #Zoolz","#cloudstorage #datastorage #Zoolz","2017-03-26 12:24:00"
"Send Large Files Free upto 100GB - Transfer, Share and Tr http:// bit.ly/2jegdEo #apps #cloudstorage #resources #sendlargefilesfree #tech","#apps #cloudstorage #resources #sendlargefilesfree #tech","2017-03-26 03:07:03"
"RT @scality : Benefits to the @Cisco UCS S-Series: http:// flip.it/Wxt4Gy #objectstorage #cloudstorage pic.twitter.com/1hnheaGd5P","#objectstorage #cloudstorage","2017-03-26 01:15:40"
"#HomeIsWhereThe_Is #smallbusiness #selfemployed who work from #home in this #fastspeed internet #cloudstorage era pic.twitter.com/aNIw5FqYkf","#HomeIsWhereThe_Is #smallbusiness #selfemployed #home #fastspeed #cloudstorage","2017-03-26 00:42:03"
"1TB Cloud Storage For LIFETIME From Zoolz http:// buff.ly/2mXevnz #cloudstorage #datastorage #zoolz","#cloudstorage #datastorage #zoolz","2017-03-25 22:23:00"
"#Webinar 3/29 w @BaseMediaCloud & BeBop to discuss the next revolution of media & entertainment in #cloudstorage http:// bit.ly/2l2wUSo","#Webinar #cloudstorage","2017-03-25 21:47:05"
"Benefits to the @Cisco UCS S-Series: http:// bit.ly/2nGTItd #objectstorage #cloudstorage pic.twitter.com/dx9gFRCJ4L","#objectstorage #cloudstorage","2017-03-25 20:28:02"
"Are you an enterprise backup ninja? Take our quiz and find out! http:// bit.ly/2nVeQsS #objectstorage #cloudstorage","#objectstorage #cloudstorage","2017-03-25 18:26:06"
"Cloud Storage: Cryptographic Cloud Storage_2015-09-25_12-47-44 #cloudstorage #FreeDownload #Free #Giveaway http:// buff.ly/2n1fnYm pic.twitter.com/fNEyAzXsfq","#cloudstorage #FreeDownload #Free #Giveaway","2017-03-25 14:36:01"
"#AWS is giving a 10% service credit to us-east-1 S3 users for last month's outage #cloudstorage http:// ow.ly/hIzT30afxR6","#AWS #cloudstorage","2017-03-25 14:15:05"
"How to choose the best free cloud storage service for you. http:// bit.ly/2nyTwLN @googledrive @Dropbox @onedrive #cloudstorage #EU60 pic.twitter.com/oEQBaC2E3O","#cloudstorage #EU60","2017-03-25 14:04:21"
"#UniKeep Cloud Storage Binder - Turquoise Blue https:// goo.gl/DnzUy1 #CloudStorage #Shopping #MadeinUSA","#UniKeep #CloudStorage #Shopping #MadeinUSA","2017-03-25 06:12:51"
"VOD demand grows with older viewers, up 24% in the 4th quarter of 2016 compared to 2015 @MediaPost http:// bit.ly/2nMCISK #cloudstorage pic.twitter.com/EpuorD7ojJ","#cloudstorage","2017-03-25 04:58:04"
"@Google invests in hybrid #cloudstorage company Avere Systems http:// bit.ly/2nZLJEB","#cloudstorage","2017-03-25 03:33:00"
"Send Large Files Free upto 100GB - Transfer, Share and Tr http:// bit.ly/2jegdEo #apps #cloudstorage #resources #sendlargefilesfree #tech","#apps #cloudstorage #resources #sendlargefilesfree #tech","2017-03-25 02:59:50"
"Thanks for following @1DavidClarke and @InfosecVision Informative tweets about #tech #fintech $ NXS #cryptocurrency #cloudstorage and #CMS","#tech #fintech #cryptocurrency #cloudstorage #CMS","2017-03-25 01:55:52"
"@Google invests in hybrid #cloudstorage company Avere Systems http:// bit.ly/2nZXxXC","#cloudstorage","2017-03-24 23:17:02"
"Cloud Storage: The State Of Cloud Storage #cloudstorage #FreeDownload #Free #Giveaway http:// buff.ly/2nkYkEb pic.twitter.com/Wcv2WbqZEU","#cloudstorage #FreeDownload #Free #Giveaway","2017-03-24 20:17:50"
"Cloud Storage: Possession In Multi-cloud Storage #cloudstorage #FreeDownload #Free #Giveaway http:// buff.ly/2nfC50L pic.twitter.com/cUbk2lfECi","#cloudstorage #FreeDownload #Free #Giveaway","2017-03-24 20:17:50"
"@cioreview talks: Perks of Paying for #CloudStorage http:// ow.ly/mFSY30a5clH","#CloudStorage","2017-03-24 19:20:44"
"The Best #CloudStorage and #FileSharing Services http:// ow.ly/z3eZ30aetcs #OneDrive #SpiderOak #GoogleDrive#iCloud #Box #Dropbox","#CloudStorage #FileSharing #OneDrive #SpiderOak #GoogleDrive #iCloud #Box #Dropbox","2017-03-24 18:52:35"
"TG Press | #IBM to remove complexity around #cloudstorage service tiers | @JeffKatoIT quote | #CloudObjectStorage | http:// bit.ly/2neKqSf pic.twitter.com/xrYA8zzKnd","#IBM #cloudstorage #CloudObjectStorage","2017-03-24 18:03:51"
"http:// dailym.ai/2nLnI78 #cybersecurity #Apple #Bloomberg #Hackers #Ransom #CloudStorage #Internet #Spying #","#cybersecurity #Apple #Bloomberg #Hackers #Ransom #CloudStorage #Internet #Spying #","2017-03-24 17:06:34"
"Wise! Staying abreast #technology & #education is @WVUSD_Tweet through #ECM , document management, #cloudstorage & #web #content management.","#technology #education #ECM #cloudstorage #web #content","2017-03-24 16:25:44"
"IBM wipes away tiers to join cloud storage price wars #IBM #CloudStorage http:// ow.ly/qlUp30abUMe","#IBM #CloudStorage","2017-03-24 16:10:15"
"New @IBMcloud storage pricing model intended to simplify the service http:// bit.ly/2nN0TAv #cloudstorage pic.twitter.com/W5yOB0xFuI","#cloudstorage","2017-03-24 13:22:01"
"IBM Announces New Pricing Model to Change Economics of #CloudStorage http:// ow.ly/WBEP30adgVk #ibminterconnect","#CloudStorage #ibminterconnect","2017-03-24 11:55:10"
"Move,migrate,backup and copy files from one cloud service to another DIRECTLY. We DON'T log anything. #Free #CloudStorage #Dropbox #pcloud","#Free #CloudStorage #Dropbox #pcloud","2017-03-24 10:10:27"
"Cloud Storage: An Introduction To Cloud Computing #cloudstorage #FreeDownload #Free #Giveaway http:// buff.ly/2ncNjFg pic.twitter.com/WuysYheyxg","#cloudstorage #FreeDownload #Free #Giveaway","2017-03-24 09:00:17"
"Send Large Files Free upto 100GB - Transfer, Share and Tr http:// bit.ly/2jegdEo #apps #cloudstorage #resources #sendlargefilesfree #tech","#apps #cloudstorage #resources #sendlargefilesfree #tech","2017-03-24 06:30:04"
"#UniKeep Cloud Storage Binder - Turquoise Blue https:// goo.gl/qmZDHL #CloudStorage #Shopping #MadeinUSA","#UniKeep #CloudStorage #Shopping #MadeinUSA","2017-03-24 05:50:24"
"#HIPAA compliant #FileSharing & #CloudStorage . Request a free demo here: http:// goo.gl/pFBneu","#HIPAA #FileSharing #CloudStorage","2017-03-24 05:41:03"
"The Pros and Cons of #CloudStorage for #Professional YouTubers http:// bit.ly/2ngnRyu #socialmedia #digitalmarketing #videomarketing","#CloudStorage #Professional #socialmedia #digitalmarketing #videomarketing","2017-03-24 03:00:30"
"Cloud #Storage vs #Cloud #Backup | @comparethecloud http:// bit.ly/2eAmExs #CloudStorage #DataBackup #DR pic.twitter.com/DCHnLS3Qml","#Storage #Cloud #Backup #CloudStorage #DataBackup #DR","2017-03-24 02:20:08"
"#PressRelease Zadara Storage Expands Enterprise Storage-as-a-Service in #AWS China w/ Futong @awscloud #CloudStorage http:// bit.ly/2mQbtVv","#PressRelease #AWS #CloudStorage","2017-03-24 01:30:01"
"Send Large Files Free upto 100GB - Transfer, Share and Tr http:// bit.ly/2jegdEo #apps #cloudstorage #resources #sendlargefilesfree #tech","#apps #cloudstorage #resources #sendlargefilesfree #tech","2017-03-24 00:44:34"
"In Today's News - ADATA, Xbox, Lenovo, Tencent, Apple, and TRENDFOCUS! http:// eepurl.com/cHUZeX #NAND #3DNAND #Cloudstorage #Scorpio #IoT","#NAND #3DNAND #Cloudstorage #Scorpio #IoT","2017-03-23 23:34:15"
"#Workload Mobility: Staying Compatible Across Clouds http:// hubs.ly/H06Q0370 by @netapp #cloudstorage pic.twitter.com/OUL1hCFzNO","#Workload #cloudstorage","2017-03-23 23:08:02"
"#FACEandS #CloudStorage - Dropbox vs. Google Drive vs. OneDrive: Which Cloud Storage Is Best for You? http:// buff.ly/2n8xmxT pic.twitter.com/Aiior3z0tI","#FACEandS #CloudStorage","2017-03-23 23:00:21"
"WD 4TB My Cloud Personal Network Attached Storage. #CloudStorage #PersonalStorage #freeshipping #discount http:// buff.ly/2naHxSD pic.twitter.com/0CYypmbYl9","#CloudStorage #PersonalStorage #freeshipping #discount","2017-03-23 22:30:32"
"#Workload Mobility: Staying Compatible Across Clouds http:// hubs.ly/H06Q0_f0 by @netapp #cloudstorage pic.twitter.com/PAHNKE0Y1y","#Workload #cloudstorage","2017-03-23 21:53:09"
"""The opportunity around #cloudstorage is ""enormous,"" and @NetApp is at the center of that conversation"" http:// ow.ly/Xhuc30abOC9 @CenturyLink","#cloudstorage","2017-03-23 21:35:10"
"Recommended cloud storage resources for your toolbox: http:// buff.ly/2nMwzT1 #tech #cloudstorage pic.twitter.com/sU3Y6cBSsE","#tech #cloudstorage","2017-03-23 21:30:06"
"Cloud Storage: Cloud Storage And Data Security #cloudstorage #FreeDownload #Free #Giveaway http:// buff.ly/2nhvuEF pic.twitter.com/CkkvlsF6Dc","#cloudstorage #FreeDownload #Free #Giveaway","2017-03-23 20:02:07"
"#Cloud : Top 100 Influencers and Brands for 2017 http:// buff.ly/2nazDJ4 #cloudcomputing #thecloud #cloudstorage #saas #InfluencerMarketing pic.twitter.com/c2ISxHWfiw","#Cloud #cloudcomputing #thecloud #cloudstorage #saas #InfluencerMarketing","2017-03-23 18:54:05"
"IBM to remove complexity around #cloudstorage service tiers http:// bit.ly/2nN0TAv @IBMcloud pic.twitter.com/X7oxRSWB4W","#cloudstorage","2017-03-23 17:48:38"
"gridscaleio publish new #developer #tutorials . #linux #ssl #typo3 #haproxy #loadbalancing #firewall . https:// gridscale.io #cloudstorage","#developer #tutorials #linux #ssl #typo3 #haproxy #loadbalancing #firewall #cloudstorage","2017-03-23 17:31:25"
"@gridscaleio publish new #developer #tutorials . #linux #ssl #typo3 #haproxy #loadbalancing #firewall . https:// gridscale.io #cloudstorage","#developer #tutorials #linux #ssl #typo3 #haproxy #loadbalancing #firewall #cloudstorage","2017-03-23 17:28:34"
"Cloud Storage Solutions: What's a #Cloud Container? http:// hubs.ly/H06Qdc00 by @Millennia_Tech #CloudContainer #CloudStorage","#Cloud #CloudContainer #CloudStorage","2017-03-23 16:30:01"
"Has #CloudStorage Made Businesses More Vulnerable to #Hacking ? http:// hubs.ly/H05qWng0 pic.twitter.com/R0WjCWv5NW","#CloudStorage #Hacking","2017-03-23 15:38:08"
"#Workload Mobility: Staying Compatible Across Clouds http:// hubs.ly/H06Q0_d0 by @netapp #cloudstorage pic.twitter.com/qCGv6mNwoR","#Workload #cloudstorage","2017-03-23 14:13:10"
"#Backup your data with #UKClouddrive before losing it! Get 1000GB for $9.99/month http://www. ukclouddrive.net #onlinebackup #cloudstorage pic.twitter.com/02d817ivit","#Backup #UKClouddrive #onlinebackup #cloudstorage","2017-03-23 14:02:08"
"Zoolz temporarily offering 2TB of lifetime cloud storage. #cloud #zoolz #cloudstorage #lifetime http:// ow.ly/1NV930aaRXy","#cloud #zoolz #cloudstorage #lifetime","2017-03-23 14:00:44"
