"Let these docs & videos guide you through viewing your SQL Server logs with RDS: http:// amzn.to/2fzZNS4 #CloudComputing pic.twitter.com/imRgTw36ru","#CloudComputing","2017-04-05 01:47:27"
"How to Add Google Drive to Windows Send To menu http:// buff.ly/1zvFtIx #Google #googledrive #windows #drive #howto #cloudcomputing","#Google #googledrive #windows #drive #howto #cloudcomputing","2017-04-05 01:45:15"
"#Serverless explainer: The next generation of #cloud #infrastructure http:// bit.ly/2oUiJy2 #cloudcomputing","#Serverless #cloud #infrastructure #cloudcomputing","2017-04-05 01:45:02"
"VMWare Selling Part of Its Cloud Business #cloudcomputing pic.twitter.com/OCSRgHG1Pt","#cloudcomputing","2017-04-05 01:34:59"
"@EdTech_K12 Here are the 3 #K12 #cloudcomputing concerns still on #edtech leaders' minds: http:// ow.ly/oo5O309VQvw","#K12 #cloudcomputing #edtech","2017-04-05 01:30:39"
"@EdTech_K12 Here are the 3 #K12 #cloudcomputing concerns still on #edtech leaders' minds: http:// ow.ly/oo5O309VQvw","#K12 #cloudcomputing #edtech","2017-04-05 01:30:39"
"#Cloudcomputing next battlefield for tech giants by @muthokimumo via @dailynation http:// bit.ly/2nTVqGQ pic.twitter.com/iXW5NdAFCm","#Cloudcomputing","2017-04-05 01:30:16"
"@AWSCloudANZ #keynote @strutdigital #cloudcomputing #strutdigital #AWSSummit #sydney #devops pic.twitter.com/RIm6tbUsyK","#keynote #cloudcomputing #strutdigital #AWSSummit #sydney #devops","2017-04-05 01:27:28"
"Cloud potential in Asia 'massive' - Xero http:// bit.ly/2a2KyBW #cloudcomputing #IoT #tech #business pic.twitter.com/uyFCVjAu3i","#cloudcomputing #IoT #tech #business","2017-04-05 01:22:04"
"Here we go! #AWSSummit #aws #CloudComputing #devops pic.twitter.com/QRjTiYYtse","#AWSSummit #aws #CloudComputing #devops","2017-04-05 01:20:30"
"5 security risks of #cloudcomputing . Read More Here: https:// goo.gl/QgD2Qq pic.twitter.com/NE7xult3An","#cloudcomputing","2017-04-05 01:15:02"
"Lemonpay lanza el primer pago seguro para la entrega en mano: http:// ift.tt/2oFNxDg . #Cloud #CloudComputing","#Cloud #CloudComputing","2017-04-05 01:13:28"
"Software AG compra Cumulocity para integrar su plataforma cloud de IoT: http:// ift.tt/2n8Fcec . #Cloud #CloudComputing","#Cloud #CloudComputing","2017-04-05 01:13:28"
"Lemonpay lanza el primer pago seguro para la entrega en mano http:// ift.tt/2oFNxDg #cloudcomputing pic.twitter.com/UG7l7Pz7Eh","#cloudcomputing","2017-04-05 01:12:16"
"Software AG compra Cumulocity para integrar su plataforma cloud de IoT http:// ift.tt/2n8Fcec #cloudcomputing pic.twitter.com/2kOTLVXdMb","#cloudcomputing","2017-04-05 01:12:14"
"A Mavic change for Ch9 | Drones Garage http:// ift.tt/2nUUxfl #cloud #cloudcomputing #microsoftazure #iot #devops","#cloud #cloudcomputing #microsoftazure #iot #devops","2017-04-05 01:10:16"
"How Cloud Computing Is Changing the Software Stack http:// dld.bz/fxWx7 #CloudComputing","#CloudComputing","2017-04-05 01:02:48"
"Cloud Computing: Cloud Computing With Mapreduce and Hadoop #cloudcomputing #FreeDownload #Free #Giveaway http:// buff.ly/2onvTnC pic.twitter.com/bsOSzWOXVE","#cloudcomputing #FreeDownload #Free #Giveaway","2017-04-05 01:00:41"
"Come by booth #S20 @AWSSummitANZ to sign up and win free continuous training accounts. #AWSSummit #cloudcomputing pic.twitter.com/wdGR8eXPRL","#S20 #AWSSummit #cloudcomputing","2017-04-05 01:00:03"
"Let's talk about cloud solutions at - #AWSSummit #Sydney #strutdigital #CloudComputing #automation @davidcheal @zacklevy @TimBradey pic.twitter.com/vYngORHqhy","#AWSSummit #Sydney #strutdigital #CloudComputing #automation","2017-04-05 00:47:49"
"Join cStor WED Apr 5 to learn about choosing a cloud access security broker #cloudcomputing #techwiseeducation http:// ow.ly/yNVW30ayZ8o pic.twitter.com/dFoLx8NzuD","#cloudcomputing #techwiseeducation","2017-04-05 00:35:04"
"#CloudComputing Report: China-Based Attacks Targeting MSPs, Cloud Hosts http:// ht.ly/XPiv50aDKYt","#CloudComputing","2017-04-05 00:32:36"
"The #cloud has a lot more potential and the market is going to rapidly grow #BigData #CloudComputing #cloudtalk pic.twitter.com/RtTJZmbxie","#cloud #BigData #CloudComputing #cloudtalk","2017-04-05 00:30:34"
"#Azure vs. #AWS Reviews: New for 2017 http:// okt.to/loF1K7 cc @awscloud @AWS #cloudcomputing #technology","#Azure #AWS #cloudcomputing #technology","2017-04-05 00:27:01"
"It might not be #cloudcomputing , but #diversity is just as essential to #tech as any other priority http:// sttscp.com/2nLSc8H pic.twitter.com/oNrDskx2ES","#cloudcomputing #diversity #tech","2017-04-05 00:12:01"
"Prove your #cloudcomputing knowledge: http:// bit.ly/2oEpe8C","#cloudcomputing","2017-04-05 00:06:00"
"Aspect Software lleva a Europa su plataforma CIC: http:// ift.tt/2o0dZco #Cloud #CloudComputing #TIC","#Cloud #CloudComputing #TIC","2017-04-05 00:04:43"
"Spacemetric elige a Interoute para alojar sus datos espaciales: http:// ift.tt/2nUWMzA #Cloud #CloudComputing #TIC","#Cloud #CloudComputing #TIC","2017-04-05 00:04:42"
"Cisco lidera la lista 'Great Place to Work': http:// ift.tt/2o0sxbT #Cloud #CloudComputing #TIC","#Cloud #CloudComputing #TIC","2017-04-05 00:04:42"
"Akamai adquiere Soasta: http:// ift.tt/2o05T3k #Cloud #CloudComputing #TIC","#Cloud #CloudComputing #TIC","2017-04-05 00:04:36"
"Las ventas de smartphone en mayorista se recuperan en enero y febrero: http:// ift.tt/2o05UnU #Cloud #CloudComputing #TIC","#Cloud #CloudComputing #TIC","2017-04-05 00:04:35"
"#cloud #ERP move requires grasp of different types of #cloudcomputing http:// bit.ly/2oyrAcm via @manufacturingtt #infrastructure","#cloud #ERP #cloudcomputing #infrastructure","2017-04-05 00:02:01"
"#cloud #ERP move requires grasp of different types of #cloudcomputing http:// bit.ly/2oyrAcm via @manufacturingtt #infrastructure","#cloud #ERP #cloudcomputing #infrastructure","2017-04-05 00:02:00"
"All you should know about #CloudComputing { #SaaS #PaaS #Salesforce #makeyourownlane #defstar5 #infographic } pic.twitter.com/1PWjaorEHR","#CloudComputing #SaaS #PaaS #Salesforce #makeyourownlane #defstar5 #infographic","2017-04-05 00:00:47"
"Los 3 mejores discos duros en la nube http:// ow.ly/KE6W30axRcm #CloudComputing pic.twitter.com/qTlVWTTy2H 6","#CloudComputing","2017-04-05 00:00:06"
"Would you like to improve your #Team skills in #cloudcomputing ? We have a solution for you! http:// clda.co/2o4zwRN pic.twitter.com/CdSXMfgLjc","#Team #cloudcomputing","2017-04-05 00:00:03"
"Register for #ONUGSpring17 : http:// bit.ly/2hLImQE Save 30% - Use BIRD30 #devops #cloudcomputing #IT #cloud #sdn #AI #devops #datacenter pic.twitter.com/VWjYeS3Cwl","#ONUGSpring17 #devops #cloudcomputing #IT #cloud #sdn #AI #devops #datacenter","2017-04-05 00:00:01"
"Read more to learn more about #DigitalThread #DigitalTwin & #CloudComputing @Kevin_Jackson @PraimSrl #CloudMusings http:// ow.ly/dTAF30asHju pic.twitter.com/0uenNlRfJJ","#DigitalThread #DigitalTwin #CloudComputing #CloudMusings","2017-04-04 23:40:16"
"Read more to learn more about #DigitalThread #DigitalTwin & #CloudComputing @Kevin_Jackson @PraimSri #CloudMusings http:// ow.ly/dTAF30asHju","#DigitalThread #DigitalTwin #CloudComputing #CloudMusings","2017-04-04 23:40:15"
"Top-Thema des Jahres in der Digitalwirtschaft: #Cloudcomputing http:// buff.ly/2nrgSQP pic.twitter.com/hUQfMAgPmk","#Cloudcomputing","2017-04-04 23:40:04"
"Is CloudMASTER #CloudComputing Certification Like #MCSE or #Network +? http:// bit.ly/2oz0OAJ pic.twitter.com/zAX1Xfy6ti","#CloudComputing #MCSE #Network","2017-04-04 23:37:19"
"Overcome app portability hurdles of containers in #cloudcomputing by @krmarko via @TechTarget http:// bit.ly/2nxhd3x pic.twitter.com/knR8X19Zno","#cloudcomputing","2017-04-04 23:30:19"
"2017 Reverse Vending trained Engineers monitor our UK #ReverseVending installations 24/7 by #telemetry @ReverseVending #CloudComputing #iot pic.twitter.com/CQ1oCM3INf","#ReverseVending #telemetry #CloudComputing #iot","2017-04-04 23:30:18"
"Tackling SYN Flood attacks http:// bit.ly/1R2vxev #SYNflood #cybersecurity #offensivesecurity #CloudComputing #nexpose #cyberattacks pic.twitter.com/s8VFf7Dp3S","#SYNflood #cybersecurity #offensivesecurity #CloudComputing #nexpose #cyberattacks","2017-04-04 23:30:02"
"Come&say hi to us today @awscloud #AWSSummit #Sydney @strutdigital #strutdigital #CloudComputing #automation @davidcheal @zacklevy pic.twitter.com/7Xl9f6J7y9","#AWSSummit #Sydney #strutdigital #CloudComputing #automation","2017-04-04 23:21:29"
"Adoption of #cloudcomputing in education system http:// okt.to/ruRW0z via @ResearchGate @Chetanita pic.twitter.com/hiAwSIaX8R","#cloudcomputing","2017-04-04 23:20:03"
"Congrats #1 Client-Rated @Liebsoft ""Tip Privileged Access Management Platform Vendor"" #InfoSecWorld #CloudComputing #datasecurity #access pic.twitter.com/G6FhVYxiFu","#1 #InfoSecWorld #CloudComputing #datasecurity #access","2017-04-04 23:07:09"
"Momentum mounts for Kubernetes, cloud native - Cloud computing news http:// stfi.re/xedwgyk #cloudcomputing","#cloudcomputing","2017-04-04 23:02:59"
"http:// bit.ly/2nwhMhE #Cloudcomputing has to consider the changing roles of IT professionals","#Cloudcomputing","2017-04-04 23:01:01"
"How to Back Up WhatsApp Chats History to Google Drive http:// bit.ly/1KPoxhi #WhatsApp #GoogleDrive #chats #drive #howto #cloudcomputing","#WhatsApp #GoogleDrive #chats #drive #howto #cloudcomputing","2017-04-04 23:00:19"
"#Whitepaper : IT Starts With Information. http:// bit.ly/1E6UBhB #cloudcomputing #cloudstrategy","#Whitepaper #cloudcomputing #cloudstrategy","2017-04-04 22:52:02"
"As a woman who has worked in #greentech and #cloudcomputing I support #EqualPayDay for #women . Let's not wait 40 years. pic.twitter.com/0tSY0eiLVa","#greentech #cloudcomputing #EqualPayDay #women","2017-04-04 22:49:28"
"#Amazon about to take the #cloud to even greater heights #tech #AWS #storage #cloudcomputing #bigdata #analytics #business #IoT #startups","#Amazon #cloud #tech #AWS #storage #cloudcomputing #bigdata #analytics #business #IoT #startups","2017-04-04 22:48:58"
"4 Dropbox Features you Probably don't Know http:// bit.ly/1JfitiX #dropbox #cloudcomputing #Drive #cloud #Howto","#dropbox #cloudcomputing #Drive #cloud #Howto","2017-04-04 22:45:17"
"How to Better Manage Your Public #Cloud Environment - http:// buff.ly/2oViBy5 #CloudComputing pic.twitter.com/1HbEkGPnvy","#Cloud #CloudComputing","2017-04-04 22:42:02"
"Why #AWS is the #IBM for the #cloudcomputing age http:// ow.ly/Fqmb30axyJV @CIOonline #IaaS #security #stability #CIO #CTO pic.twitter.com/8CA12A6eLy","#AWS #IBM #cloudcomputing #IaaS #security #stability #CIO #CTO","2017-04-04 22:35:15"
"What's New http:// amzn.to/2oX31SL New Quick Start deploys Confluent Platform on the AWS Cloud #AWS #CloudComputing","#AWS #CloudComputing","2017-04-04 22:34:09"
"#CloudComputing has proven to benefit businesses, especially small businesses. Here's what we can do for you! http:// bit.ly/2m1hO1r pic.twitter.com/qORDhSWAHp","#CloudComputing","2017-04-04 22:30:42"
"After 18 years in business, we know Data Center Infrastructure is not one size fits all. #colocation #cloudcomputing http:// ht.ly/Hnsc30azfeb","#colocation #cloudcomputing","2017-04-04 22:30:32"
"by @cioreview : What Future #SDN Holds for Ethernet in Data Centers http:// hubs.ly/H06YYMN0 #DataSolutions #CloudComputing","#SDN #DataSolutions #CloudComputing","2017-04-04 22:30:20"
"Testing Automatic Failover to a Read Replica on Amazon ElastiCache for Redis http:// amzn.to/2n8An4H #AWS #DB #CloudComputing","#AWS #DB #CloudComputing","2017-04-04 22:22:31"
"The #cloudcomputing tentacles continue to grow! #AWS just keeps growing and improving. .","#cloudcomputing #AWS","2017-04-04 22:17:57"
"Security, compliance, credibility, and reliability are key to the benefits of #cloudcomputing : http:// ow.ly/GZqm30ayhhQ pic.twitter.com/spv5ICub7l","#cloudcomputing","2017-04-04 22:00:45"
"Los 3 mejores discos duros en la nube http:// ow.ly/KE6W30axRcm #CloudComputing pic.twitter.com/qTlVWTTy2H 5","#CloudComputing","2017-04-04 22:00:07"
"This is a GREAT writeup and use of #Lambda ! And it's everything I love about #Cloudcomputing and #AWS . Thanks for sharing.","#Lambda #Cloudcomputing #AWS","2017-04-04 21:59:30"
"#IoT infrastructure in space? It may give new meaning to #cloudcomputing . :) Read why the IoT might need satellites. http:// bit.ly/2o6Jhi8 pic.twitter.com/m7sc8mCbzl","#IoT #cloudcomputing","2017-04-04 21:59:04"
"Congrats#1 Client Rated @qualys ""Top Ranked Network Security Vendor"" #InfoSecWorld #datasecurity #CloudComputing #cybersafety #surveillance pic.twitter.com/8vovU7qMRJ","#1 #InfoSecWorld #datasecurity #CloudComputing #cybersafety #surveillance","2017-04-04 21:55:49"
"Earn one of our Cloud Certifications to validate your expertise in managing cloud solutions https:// ter.li/x0mqyh #cloudcomputing pic.twitter.com/cgQfcpIKum","#cloudcomputing","2017-04-04 21:35:16"
"Turbot provides safe landing zones for #cloud teams to migrate #aws workloads effectively http:// bit.ly/2oWBqRy #CloudComputing @awscloud","#cloud #aws #CloudComputing","2017-04-04 21:33:58"
"Here are some fascinating facts on #cloudcomputing https:// goo.gl/tcK9hp pic.twitter.com/pkabMViaZa","#cloudcomputing","2017-04-04 21:30:11"
"Our Services at its best http:// bit.ly/2bhECC4 #cloudcomputing #Apps #WebApps #Salesforce #AWS pic.twitter.com/JZIkmdr5P2","#cloudcomputing #Apps #WebApps #Salesforce #AWS","2017-04-04 21:23:01"
"Who do you think is smarter? Humans or AI? #AI #technology #tech #future #cloud #cloudcomputing #deeplearning http:// bit.ly/2lzR3gs pic.twitter.com/eKsMzsSBZv","#AI #technology #tech #future #cloud #cloudcomputing #deeplearning","2017-04-04 21:15:18"
"1Netscope : VMware Sells Off Cloud Services Business to OVH http:// dlvr.it/NpLf9x #CloudComputing #Deals #OVH pic.twitter.com/1Hsz8QYSR2","#CloudComputing #Deals #OVH","2017-04-04 21:06:24"
"From 0 to 100 K in seconds: instant scale with AWS Lambda http:// amzn.to/2oFrdJL #AWS #Startups #CloudComputing","#AWS #Startups #CloudComputing","2017-04-04 21:04:29"
"5 Reasons You Need to Move Your Business to the Cloud Right Now http:// ow.ly/w12U30az1Ya @Inc #cloudcomputing #... http:// ow.ly/VuYl50aDz92","#cloudcomputing #","2017-04-04 21:00:40"
"DOES #ArtificialIntelligence understand CULTURAL differences? #AI #ioT #cybersecurity #bigdata #prolog #cloudcomputing #singularity pic.twitter.com/yZul1ueJSu","#ArtificialIntelligence #AI #ioT #cybersecurity #bigdata #prolog #cloudcomputing #singularity","2017-04-04 20:56:09"
"Case study: Cloud provider optimizes construction design to achieve 100% uptime SLA. http:// bit.ly/1FYAbEQ #cloudcomputing #cloudstrategy","#cloudcomputing #cloudstrategy","2017-04-04 20:52:02"
"As the #cloudification moves on, #SaaS is expected to grow 20.1% in 2017, reaching $46.3B in revenues. [ #CloudComputing #CIO #EnSW #Cloud ] pic.twitter.com/7eN8EcNF5L","#cloudification #SaaS #CloudComputing #CIO #EnSW #Cloud","2017-04-04 20:50:04"
"You can now assign multiple users to a Task in Microsoft Planner https:// wp.me/p6qHpK-rZK via @onmsft #Microsoft #technology #CloudComputing","#Microsoft #technology #CloudComputing","2017-04-04 20:46:00"
"5 Reasons You Need to Move Your Business to the Cloud Right Now http:// ow.ly/w12U30az1Ya @Inc #cloudcomputing #bigdata pic.twitter.com/OlNMAOC0aB","#cloudcomputing #bigdata","2017-04-04 20:40:17"
"Find the best #cloudcomputing solution for your business at the next #CloudyMondays . Register today: http:// ow.ly/DtDS30arkSG pic.twitter.com/oxTBpohVJR","#cloudcomputing #CloudyMondays","2017-04-04 20:35:07"
"#CloudComputing Channel Marketing: It's Not Sold Until It's Sold at Retail http:// ht.ly/fn3l50aDwld","#CloudComputing","2017-04-04 20:32:13"
"#CloudComputing The Doyle Report: Will a Booming Tech Economy Make It More Difficult to Find Talent to Transfor... http:// ht.ly/5U4050aDwle","#CloudComputing","2017-04-04 20:32:13"
"Priorities for #IT departments #cloudcomputing #security #modernization #AppDev ( #ApplicationDevelopment ) #business #analytics pic.twitter.com/odqaGABPbn","#IT #cloudcomputing #security #modernization #AppDev #ApplicationDevelopment #business #analytics","2017-04-04 20:31:32"
"How #CloudComputing Affects Mac and Windows. http:// bit.ly/2nGrlbj #Cloud pic.twitter.com/vteHc8ECbs","#CloudComputing #Cloud","2017-04-04 20:29:27"
"#AI #bots and #cloudcomputing losing to zenga zenga in #leadership game changer http:// bit.ly/1DdoNBG","#AI #bots #cloudcomputing #leadership","2017-04-04 20:11:18"
"What do IT pros need to know about the rise of cloud computing? #technology #cybersecurity #cloudcomputing http:// hubs.ly/H06D95y0 pic.twitter.com/wtRRT0czW0","#technology #cybersecurity #cloudcomputing","2017-04-04 20:09:53"
"Why assessing cloud-readiness is so important http:// bit.ly/2owQ3Px via @InformationAge #CloudComputing #CloudMigration #Azure pic.twitter.com/hzw4ylMAbW","#CloudComputing #CloudMigration #Azure","2017-04-04 20:05:21"
". @danilop is presenting how to create CI/CD pipelines for #Serverless #AWS apps. Plenty of new ideas for using the power of #CloudComputing pic.twitter.com/j4MqPrbYpb","#Serverless #AWS #CloudComputing","2017-04-04 20:03:26"
"#CloudComputing is changing how #retailers succeed and we're here to guide you to the finish line! http:// bit.ly/2eLY9vd pic.twitter.com/u2PZBTS3Iy","#CloudComputing #retailers","2017-04-04 20:03:09"
"How To Improve Your #Security Posture In The #Cloud http:// buff.ly/2nYzr1m #Data #Encryption #CloudComputing #CyberSecurity #Tech #IoT #IT pic.twitter.com/Y1IdN7KSkA","#Security #Cloud #Data #Encryption #CloudComputing #CyberSecurity #Tech #IoT #IT","2017-04-04 20:00:31"
"Los 3 mejores discos duros en la nube http:// ow.ly/KE6W30axRcm #CloudComputing pic.twitter.com/qTlVWTTy2H 4","#CloudComputing","2017-04-04 20:00:02"
"Google's Espresso networking tech takes SD-WAN to internet scale http:// ift.tt/2nTVHHZ #Cloud #CloudComputing","#Cloud #CloudComputing","2017-04-04 19:42:19"
"6 keys to small and mid-size businesses' #CloudComputing Success! Download the #infographic here http:// ow.ly/mFFW30ayNG6 pic.twitter.com/KjvksMZs6I","#CloudComputing #infographic","2017-04-04 19:40:09"
"What if #EdgeComputing eats #CloudComputing ? #digitaltransformation is more than #pubic or #hybrid @SchneiderES","#EdgeComputing #CloudComputing #digitaltransformation #pubic #hybrid","2017-04-04 19:26:54"
"HHS Aims to Move More Services to the Cloud - http:// buff.ly/2oVuILK #HealthCare #CloudComputing pic.twitter.com/BBGw15OuQy","#HealthCare #CloudComputing","2017-04-04 19:25:04"
"Amazing #Azure opportunity for anyone with background in #microsoft #Cloud #CloudComputing , Want to know more? Follow now for a call back! pic.twitter.com/bAPEeHb6Gj","#Azure #microsoft #Cloud #CloudComputing","2017-04-04 19:13:14"
"App Compatibility with SQL Server on Linux | Data Exposed http:// ift.tt/2nAScon #cloud #cloudcomputing #microsoftazure #iot #devops","#cloud #cloudcomputing #microsoftazure #iot #devops","2017-04-04 19:10:54"
"Bigger Perspective on Big Data in 2017 -Big Data Analytics News http:// bit.ly/2oxx8TZ #BigData #CloudComputing","#BigData #CloudComputing","2017-04-04 19:10:12"
"1Netscope : Google Reveals Espresso, Its Edge Data Center SDN http:// dlvr.it/NpJNbW #CloudComputing #Google #Networking pic.twitter.com/BKKFNgR8zt","#CloudComputing #Google #Networking","2017-04-04 19:07:14"
"How Enterprises Can Deploy Cloud Services More Securely http:// ow.ly/Z2oL30avMNQ #CloudComputing #SaaS","#CloudComputing #SaaS","2017-04-04 19:01:31"
"#aws #lambda 3 http:// buff.ly/2nR9Rtt #ember #csharp #java #windows #linux #bigdata #cloudcomputing #npm #python #google #ember #agile","#aws #lambda #ember #csharp #java #windows #linux #bigdata #cloudcomputing #npm #python #google #ember #agile","2017-04-04 19:00:03"
"At the AWS Pop-up Loft for CodeHappy for #startups ... #CloudComputing pic.twitter.com/Pl8YvP19nX","#startups #CloudComputing","2017-04-04 18:50:35"
"Taming the SaaS security wilderness https:// goo.gl/JSQkia #cloudcomputing #managedservices pic.twitter.com/1MJKolHBbo","#cloudcomputing #managedservices","2017-04-04 18:50:32"
"Learn five ways #machinelearning has influenced modern #cloudcomputing : http:// nvda.ws/2nAJ9DC pic.twitter.com/d5khwOQRb8","#machinelearning #cloudcomputing","2017-04-04 18:50:20"
"The #cloudcomputing industry is leaning more & more toward #machinelearning . 5 reasons why: http:// ow.ly/ki9X30awSJs pic.twitter.com/Et30e0WzDR","#cloudcomputing #machinelearning","2017-04-04 18:50:14"
"#Amazon To Launch #Cloud Region In Sweden With Three #datacenters http:// bit.ly/2oUjfvQ #AWS #CloudComputing #publiccloud","#Amazon #Cloud #datacenters #AWS #CloudComputing #publiccloud","2017-04-04 18:49:53"
"#CloudComputing can help sustain #ruralhealth through continuous innovation & scalable implementation. http:// blog.fogodatacenters.com #hcldr #HITsm pic.twitter.com/bps9iF9Hkq","#CloudComputing #ruralhealth #hcldr #HITsm","2017-04-04 18:49:36"
"#CloudComputing news via @channelbuzzca http:// bit.ly/2n7Ffqp pic.twitter.com/ZpNc0nzJ0S","#CloudComputing","2017-04-04 18:46:06"
"#edgecomputing vs #CloudComputing | @SchneiderElecFR pic.twitter.com/boZFL8Oz3T","#edgecomputing #CloudComputing","2017-04-04 18:45:53"
"Movement to the cloud should be a strategy, not a reaction. #CloudComputing http:// bit.ly/2autjog","#CloudComputing","2017-04-04 18:34:57"
"CloudNativeCon + KubeCon, March 29/20. Berlin https:// goo.gl/LHoXiC #cloudcomputing #bigdata pic.twitter.com/8uVM88VPKK","#cloudcomputing #bigdata","2017-04-04 18:32:53"
"Architecting #Microsoft #Azure for Costs http:// ow.ly/26yW30axEV9 http://www. sysfore.com #Sysfore #Cloud #CloudComputing #CloudTechnology pic.twitter.com/iHvmnbxR0l","#Microsoft #Azure #Sysfore #Cloud #CloudComputing #CloudTechnology","2017-04-04 18:30:31"
"Cloud Social Influencers Power 100 Leaderboard http:// crwd.fr/2j7B6AG #CloudComputing #DataScience pic.twitter.com/aluoR13SYq","#CloudComputing #DataScience","2017-04-04 18:26:10"
"DigitalOcean adds free monitoring to its cloud virtual machines http:// ift.tt/2nYKU0M #Cloud #CloudComputing","#Cloud #CloudComputing","2017-04-04 18:17:55"
"Why is #cloudcomputing one of the most imperative technologies so far? http:// syng.co / #2017 #technology #syngco pic.twitter.com/irSzj0Rxci","#cloudcomputing #2017 #technology #syngco","2017-04-04 18:15:20"
"Getting a grip on your cloud http:// buff.ly/2nYoBbD #cloudcomputing #data pic.twitter.com/3tXkfAGSLP","#cloudcomputing #data","2017-04-04 18:14:10"
"Office excitement as we utilise our shiny new cloud desktops, from the UK to Canada! Thanks to @emaze_org for your help! #cloudcomputing pic.twitter.com/2AsPia4X3Y","#cloudcomputing","2017-04-04 18:10:05"
"It's World Backup Day: Are You Using Cloud Backup Yet? #WorldBackUpDay #cloudcomputing http:// bit.ly/2oyNETS pic.twitter.com/PnJ1kuPjjF","#WorldBackUpDay #cloudcomputing","2017-04-04 18:08:16"
"Now it's fully transparent and I don't even know where my server is. #CloudComputing @QWxleA","#CloudComputing","2017-04-04 18:04:53"
"The cloud's undone business revolution: the embarrassing report http:// stfi.re/ekzxzyk #cloudcomputing","#cloudcomputing","2017-04-04 18:02:27"
". @Navisite + @VMware discuss partnering to elevate the standard for modern corporate #cloudcomputing ... #SEsocial http:// bit.ly/2oyyNsM pic.twitter.com/cHbH6RdjjE","#cloudcomputing #SEsocial","2017-04-04 18:02:04"
"That's a LOT of data! #cloudcomputing pic.twitter.com/Egm8iu8DSJ","#cloudcomputing","2017-04-04 18:02:03"
"Why #hospital #datacenters are moving to the #cloud http:// ow.ly/h4aZ30aqMh1 v/ @healthcaredive #cloudcomputing #hcsm","#hospital #datacenters #cloud #cloudcomputing #hcsm","2017-04-04 18:01:52"
"RT @arjenvanberkum : #CloudComputing , trendy or crucial? | http:// ow.ly/mHZS30aozT0 #Cloud #BI #tech pic.twitter.com/iMAQvJRWpP","#CloudComputing #Cloud #BI #tech","2017-04-04 18:00:30"
"Want to develop your #cloudcomputing skills on the go? Our #iOS and #Android app is for you! Download it here --> http:// clda.co/2o4DppC pic.twitter.com/xkscsNaybv","#cloudcomputing #iOS #Android","2017-04-04 18:00:11"
"Beyond Trust: privilege, vulnerability management available through #Azure http:// bit.ly/2n7ng3I via @networkworld #cloud #CloudComputing","#Azure #cloud #CloudComputing","2017-04-04 18:00:07"
"Los 3 mejores discos duros en la nube http:// ow.ly/KE6W30axRcm #CloudComputing pic.twitter.com/qTlVWTTy2H 3","#CloudComputing","2017-04-04 18:00:07"
"Beyond Trust: privilege, vulnerability management available through #Azure http:// bit.ly/2n7ng3I via @networkworld #cloud #CloudComputing","#Azure #cloud #CloudComputing","2017-04-04 18:00:06"
"Should you use one or more infrastructure-as-a-service provider? #CloudComputing https:// lnkd.in/dkeKuVB","#CloudComputing","2017-04-04 18:00:02"
"Fast Connectvity to Argentina and upwards. http:// bit.ly/2nFR2IR #Cloud #CloudComputing #InternetOfThings #broadband #argentina #wef17 pic.twitter.com/LEAjnyHcgF","#Cloud #CloudComputing #InternetOfThings #broadband #argentina #wef17","2017-04-04 17:58:47"
"To Cloud or Not to Cloud? Key Considerations for Marketers https:// goo.gl/fb/ykxROQ #digitalmarketing #cloudcomputing","#digitalmarketing #cloudcomputing","2017-04-04 17:55:42"
"Here is a great comparison of #CloudComputing and #SaaS http:// ow.ly/pKEu30a4BOF","#CloudComputing #SaaS","2017-04-04 17:55:23"
"Expert tips for managing your #cloud #data http:// ow.ly/oFeq30awf4N via @infoworld #CloudComputing","#cloud #data #CloudComputing","2017-04-04 17:55:16"
"#IoT and #AI in the future of #mobile : what role for #cloudcomputing ? @Andrea_Monaci #Cloud28 + #cloud @cloud28plus http:// ow.ly/msXI309r4kK","#IoT #AI #mobile #cloudcomputing #Cloud28 #cloud","2017-04-04 17:52:29"
"Enter Cloud Suite now available on the Megaport Software Defined Network. http:// bit.ly/2o5SPtT #cloudcomputing","#cloudcomputing","2017-04-04 17:44:55"
"Comment les entreprises utilisent le #cloud et le #BigData en France http:// bit.ly/2nyXwZe @Challenges #CloudComputing #FrenchTech #DSI pic.twitter.com/peX8Mb19ys","#cloud #BigData #CloudComputing #FrenchTech #DSI","2017-04-04 17:36:01"
"Can #cloudcomputing & management consultancies be compatible? Am talking abt the rumoured Oracle & Accenture union: http:// bit.ly/2nXdlwo","#cloudcomputing","2017-04-04 17:31:12"
"What is #hybrid #cloudcomputing ? And what can it bring to the table? #cloud #hybridcloud http:// buff.ly/2oE4ZrC pic.twitter.com/WgmrMbcib5","#hybrid #cloudcomputing #cloud #hybridcloud","2017-04-04 17:27:02"
"#IBM launches #Blockchain services. #cloudcomputing #cognitivecomputing http:// bit.ly/2n7M5wb","#IBM #Blockchain #cloudcomputing #cognitivecomputing","2017-04-04 17:21:20"
"Recent poll shows continued growth in US Manufacturing https:// goo.gl/IPxlV1 what are you seeing? #manufacturing #erp #CloudComputing","#manufacturing #erp #CloudComputing","2017-04-04 17:16:29"
"Understanding #CloudComputing for Your Business http:// buff.ly/2mKshtF pic.twitter.com/vrAaHJYrnB","#CloudComputing","2017-04-04 17:01:15"
"The use of #cloudcomputing has become standard for #businesses . Is it time to use it for everything? via @ZDNet http:// snip.ly/uvby9 pic.twitter.com/Zhi55MtTZQ","#cloudcomputing #businesses","2017-04-04 16:55:11"
"The how, when, and why of #CloudComputing . New article! http:// bit.ly/2oxLAvD","#CloudComputing","2017-04-04 16:47:08"
"A quick overview of #MachineLearning on the future of #cloudComputing . http:// tinyurl.com/lrqj6ft","#MachineLearning #cloudComputing","2017-04-04 16:42:52"
"Google Expands Cloud Partner Program http:// dlvr.it/NpFH7C #CloudComputing #PartnerProgram","#CloudComputing #PartnerProgram","2017-04-04 16:39:17"
"Serverless explainer: The next generation of cloud infrastructure http:// stfi.re/veyyaor #cloudcomputing","#cloudcomputing","2017-04-04 16:02:16"
"Discover The 4 Best Dividend Stocks in #CloudComputing http:// ow.ly/Pmys30ap6js #Business","#CloudComputing #Business","2017-04-04 16:01:53"
"Los 3 mejores discos duros en la nube http:// ow.ly/KE6W30axRcm #CloudComputing pic.twitter.com/qTlVWTTy2H 2","#CloudComputing","2017-04-04 16:00:06"
"It's World Backup Day: Are You Using Cloud Backup Yet? #WorldBackUpDay #cloudcomputing http:// bit.ly/2nFltz3 pic.twitter.com/vY65g0JqQb","#WorldBackUpDay #cloudcomputing","2017-04-04 15:59:13"
"6 Tips to Protect Your Business's Most Important Asset: Your Data - http:// buff.ly/2oV4WqG #CloudComputing #CyberSecurity #SmallBusiness pic.twitter.com/giktCwchSl","#CloudComputing #CyberSecurity #SmallBusiness","2017-04-04 15:58:31"
"CFOs And The Clouded View Of The Past | #CFO #cybersecurity #cloud #cloudcomputing #finance http:// bit.ly/2nFzNaP pic.twitter.com/jYWnp3yQ96","#CFO #cybersecurity #cloud #cloudcomputing #finance","2017-04-04 15:54:58"
"Did you find #TechSavvy candidates for your #ProjectTeam easily? #Digital #CloudComputing #CloudSkills #Data http:// ow.ly/LftZ30ay2TN","#TechSavvy #ProjectTeam #Digital #CloudComputing #CloudSkills #Data","2017-04-04 15:50:12"
"Taming the SaaS security wilderness http:// buff.ly/2owUUjf | #CloudComputing #CloudSecurity #CASB #SaaS","#CloudComputing #CloudSecurity #CASB #SaaS","2017-04-04 15:48:00"
"Scaling Your Desktop Application Streams with Amazon AppStream 2.0 http:// amzn.to/2nFA3X6 #AWS #CloudComputing","#AWS #CloudComputing","2017-04-04 15:47:29"
"3 payroll trends that are likely to continue in 2017 and beyond. #cloudcomputing #mobiletechnology https:// goo.gl/rsfQxE pic.twitter.com/u7cnGd53P0","#cloudcomputing #mobiletechnology","2017-04-04 15:40:17"
"The next move in #cloudcomputing is going public #Connected #Futurism http:// buff.ly/2nXVh57 pic.twitter.com/g2Sb4JajXQ","#cloudcomputing #Connected #Futurism","2017-04-04 15:39:11"
"Bands Of Clouds - Forbes - @thomascoughlin http:// ow.ly/p35h30avuBq #cloudcomputing","#cloudcomputing","2017-04-04 15:35:13"
"Artificial Intelligence, Cloud Computing Keys To Climate Change Challenges #Linux #Cloudcomputing #Ubuntu http:// ow.ly/KV5W30apzii","#Linux #Cloudcomputing #Ubuntu","2017-04-04 15:30:48"
"Earned it! AWS Certified Solution Architect - Professional #AWS #CloudComputing #certification pic.twitter.com/ZXIjeuxNfn","#AWS #CloudComputing #certification","2017-04-04 15:30:10"
"Cloud Computing: A Privacy Manager For Cloud Computing #cloudcomputing #FreeDownload #Free #Giveaway http:// buff.ly/2oy62cu pic.twitter.com/s8A3Z5M4sr","#cloudcomputing #FreeDownload #Free #Giveaway","2017-04-04 15:26:04"
"Bands Of Clouds - Forbes - @thomascoughlin http:// ow.ly/p35h30avuBq #cloudcomputing #cloudnewsinc","#cloudcomputing #cloudnewsinc","2017-04-04 15:25:11"
"5 Ways #MachineLearning Has Influenced The Modern Cloud via @forbes http:// ow.ly/dS7w30axyqk #cloudcomputing #iot #bots #cognitivecomputing pic.twitter.com/kuaYKivTf6","#MachineLearning #cloudcomputing #iot #bots #cognitivecomputing","2017-04-04 15:25:08"
"What Does Reliability Really Mean? - We have all seen the TV commercials from... http:// tinyurl.com/hwqcjnq #CloudComputing #Support #VOIP","#CloudComputing #Support #VOIP","2017-04-04 15:24:19"
"Because of ""Windows as a service,"" you may loose control of our desktop PCs. #CloudComputing #Desktop #Security - http:// zurl.co/DA8R","#CloudComputing #Desktop #Security","2017-04-04 15:23:10"
"Cloud Computing in Everyday Life http:// ow.ly/OWBQ30awEG8 #cloudcomputing @srainess @DevOps_Dad pic.twitter.com/wC6cZgusdQ","#cloudcomputing","2017-04-04 15:20:22"
"Technology shaping the future #cloudcomputing #mobile solutions #internetofthings ( #IoT ) #cognitivecomputing #manufacturing #tech pic.twitter.com/w7KkjcTSAD","#cloudcomputing #mobile #internetofthings #IoT #cognitivecomputing #manufacturing #tech","2017-04-04 15:20:08"
"Good #cloudcomputing supplier 'can give a public authority opportunity to understand what it needs, size up options' http:// buff.ly/2mmUuqh","#cloudcomputing","2017-04-04 15:18:01"
"#CloudComputing is on the tech buzzword bingo card. But here's a quick look at the Good, the Bad and the Ugly. http:// bit.ly/2otvPFy pic.twitter.com/EDQqH6PZkh","#CloudComputing","2017-04-04 15:03:01"
"#MachineLearning is the new proving ground for competitive advantage > http:// ow.ly/bNPL30axTGG by @Irregulars #BigData #CloudComputing","#MachineLearning #BigData #CloudComputing","2017-04-04 15:00:32"
"Want to improve your #cloudcomputing skills? Practice with our quizzes! http:// clda.co/2nYF6Fi pic.twitter.com/HBJZ6rnrN4","#cloudcomputing","2017-04-04 15:00:06"
"RT @CenturyLinkEnt : How to build a flexible and scalable #cloud strategy http:// hubs.ly/H06Y-dQ0 #DataSolutions #CloudComputing","#cloud #DataSolutions #CloudComputing","2017-04-04 15:00:06"
"Should you use one or more infrastructure-as-a-service provider? #CloudComputing https:// lnkd.in/dMTP_VM","#CloudComputing","2017-04-04 15:00:03"
"Code Forward #codefwd conference for IT devs, April 7th, Warsaw. Theme: #cloudcomputing We keep our fingers crossed! http:// codeforward.pl / pic.twitter.com/DZdwMNI6dz","#codefwd #cloudcomputing","2017-04-04 14:54:15"
"Big Companies Want to Move to the #Cloud But Still Have No Idea How http:// klou.tt/13j509ud9vg8d #cloudcomputing pic.twitter.com/1KQQ6fX3IG","#Cloud #cloudcomputing","2017-04-04 14:33:32"
"Big Companies Want to Move to the #Cloud But Still Have No Idea How http:// klou.tt/13j509ud9vg8d #cloudcomputing pic.twitter.com/NwbGJKo5P3","#Cloud #cloudcomputing","2017-04-04 14:30:08"
"REAKING NEWS: @CordisSolutions & @myCloudDoor successfully deployed #myMasterData into @ADVEOGroup #CloudComputing http:// bit.ly/2oxvSAh pic.twitter.com/sXzLygvIKg","#myMasterData #CloudComputing","2017-04-04 14:30:02"
"3 advantages and disadvantages of Public Cloud #hosting : #IoT #cloudcomputing http:// bit.ly/22LeuRV pic.twitter.com/W90heUM0Sf","#hosting #IoT #cloudcomputing","2017-04-04 14:28:25"
". @Dez_blanchfield and I talk #CloudComputing for #IBMInterconnect 2017 Podcast Series ""Talking with @Kevin_Jackson "" http:// buff.ly/2otDZLB pic.twitter.com/wh6jC5dF28","#CloudComputing #IBMInterconnect","2017-04-04 14:27:07"
"#Cloud Infrastructure Market Worth 209.66 Billion USD by 2022 - http:// bit.ly/2aK37IJ #cloudcomputing #ICTspending #bigdata","#Cloud #cloudcomputing #ICTspending #bigdata","2017-04-04 14:25:01"
"Which application types burst best to the public cloud? http:// bit.ly/2nWofCt #CloudComputing #CloudApps #PublicCloud #HybridCloud pic.twitter.com/2tqKSzhjMu","#CloudComputing #CloudApps #PublicCloud #HybridCloud","2017-04-04 14:20:12"
"Cisco lidera la lista 'Great Place to Work': http:// ift.tt/2nXJ0O9 #Cloud #CloudComputing #TIC","#Cloud #CloudComputing #TIC","2017-04-04 14:19:10"
"Contact ASG to learn more! #Cloud #Cloudcomputing #Datacenter #infosec #IT #Technology AWS is moving beyond Iaa... http:// ow.ly/La1150aD2xB","#Cloud #Cloudcomputing #Datacenter #infosec #IT #Technology","2017-04-04 14:17:03"
"The Next #Cloud #Outage Is Coming: What You Can Do To Survive http:// klou.tt/oi0ztmin0rwx #cloudComputing #tech #news","#Cloud #Outage #cloudComputing #tech #news","2017-04-04 14:11:25"
"5 Ways #CloudComputing Increases Productivity http:// buff.ly/2oQuSDQ pic.twitter.com/SJjN6EFrac","#CloudComputing","2017-04-04 14:09:09"
"#startup Antivirus360 .Cloud- #antivirus detection and #downloads in the #Cloud . #cyber #CloudComputing #Security #tech #marketing #branding","#startup #antivirus #downloads #Cloud #cyber #CloudComputing #Security #tech #marketing #branding","2017-04-04 14:03:21"
"Business leaders discuss what's next for the #CloudComputing and what it means for their business. http:// bit.ly/2nETUG2 pic.twitter.com/LYaE07CmIs","#CloudComputing","2017-04-04 14:01:45"
"Things Are Different In #CloudComputing , But How? http:// buff.ly/2n2sUAB pic.twitter.com/wj6BkzDv2j","#CloudComputing","2017-04-04 14:01:27"
"Los 3 mejores discos duros en la nube http:// ow.ly/KE6W30axRcm #CloudComputing pic.twitter.com/qTlVWTTy2H 1","#CloudComputing","2017-04-04 14:00:02"
"La alianza con Beyond Trust aporta mayor seguridad a Azure: http:// ift.tt/2oUvTuX #Cloud #CloudComputing #TIC","#Cloud #CloudComputing #TIC","2017-04-04 13:58:20"
"Microsoft ferme sa plateforme CodePlex et rallie GitHub http:// buff.ly/2nXpXn1 #informatique #CloudComputing","#informatique #CloudComputing","2017-04-04 13:51:00"
"Cloud Computing: Above The Clouds- A Berkeley View Of Cloud Computing #cloudcomputing #FreeDownload #Free #Giveaway http:// buff.ly/2oriY3l pic.twitter.com/aXmcDAMqZa","#cloudcomputing #FreeDownload #Free #Giveaway","2017-04-04 13:50:03"
"Every #business is exposed to the #cloud but only few understand the #risks of #CloudComputing http:// bit.ly/1T91m7V","#business #cloud #risks #CloudComputing","2017-04-04 13:43:01"
"#startup EnterpriseIT .Cloud- #Cloud based #enterprise #IT management. #dashboard #SaaS #CloudComputing #tools #tech #marketing #branding","#startup #Cloud #enterprise #IT #dashboard #SaaS #CloudComputing #tools #tech #marketing #branding","2017-04-04 13:40:40"
". @Dez_blanchfield and I talk #CloudComputing for #IBMInterconnect 2017 Podcast Series ""Talking with @Kevin_Jackson "" http:// buff.ly/2otG9dX pic.twitter.com/Dqb3MeTPCJ","#CloudComputing #IBMInterconnect","2017-04-04 13:36:11"
"Cloud Computing Enters School Arena; Challenges Pile Up. #Linux #Cloudcomputing #Ubuntu http:// ow.ly/rNUZ30apzBQ","#Linux #Cloudcomputing #Ubuntu","2017-04-04 13:30:49"
"Here are 5 CRM Features @ReallySimpleSys you might not know about #crm #cloudcomputing #B2B http:// ow.ly/e0QW30aqJuU","#crm #cloudcomputing #B2B","2017-04-04 13:25:09"
"#CloudComputing , trendy or crucial? | http:// ow.ly/mHZS30aozT0 #Cloud #BI #tech pic.twitter.com/fTdZ2JzU3o","#CloudComputing #Cloud #BI #tech","2017-04-04 13:15:05"
"Top Five Benefits of Using the Cloud for Healthcare http:// bit.ly/2os584f #mhealth #digitalhealth #cloudcomputing pic.twitter.com/GfFsWq4Pkz","#mhealth #digitalhealth #cloudcomputing","2017-04-04 13:15:00"
"Three #PrivateCloud Myths Busted! http:// bit.ly/2nXuu8V #cloud #cloudcomputing","#PrivateCloud #cloud #cloudcomputing","2017-04-04 13:10:50"
"Unified communications deliver integrated VoIP and cloud computing - and more http:// ow.ly/LuDQ309B6Db #CloudComputing","#CloudComputing","2017-04-04 13:10:21"
"Cloud computing and cyber security #cybersecurity #cloudcomputing http:// buff.ly/2oeGsJq","#cybersecurity #cloudcomputing","2017-04-04 13:08:03"
"Security Considerations When Selecting Cloud-Based Software http:// buff.ly/2ov8wLU | #CloudComputing #CloudSecurity","#CloudComputing #CloudSecurity","2017-04-04 13:06:05"
"Modelos de nubes #CloudComputing @UEMC #Salesianos pic.twitter.com/wnfiUvQssr","#CloudComputing #Salesianos","2017-04-04 13:03:52"
"5 reasons small business should be using #CloudComputing > http:// ow.ly/12DG30axTla by @webdesignerdrop #Cloud #nube","#CloudComputing #Cloud #nube","2017-04-04 13:03:02"
"It is very heartwarming to get such amazing feedback from our participants. Learn more - https:// goo.gl/rv7iP1 #CloudComputing #CloudThat pic.twitter.com/cC3mHYubnX","#CloudComputing #CloudThat","2017-04-04 13:00:18"
"Fertigungsunternehmen haben Anwendungen von #Industrie40 noch nicht erkannt http:// bit.ly/2oPNCDJ #Digitalisierung #IoT #CloudComputing","#Industrie40 #Digitalisierung #IoT #CloudComputing","2017-04-04 13:00:02"
"@Fujitsu_Global and @Oracle launch @FujitsuUS_SPARC M12 servers with world's fastest per-Core performance #bigdata #CloudComputing #IoT pic.twitter.com/e5693iE98Y","#bigdata #CloudComputing #IoT","2017-04-04 12:55:59"
"Our NEW blog is out! Share pin & discover articles about #cloudcomputing #AWS #Azure #GoogleCloud #Serverless & more! https:// goo.gl/j07Onl pic.twitter.com/P99Ij1hWza","#cloudcomputing #AWS #Azure #GoogleCloud #Serverless","2017-04-04 12:52:24"
"6 Things Your IT Department Needs To Stop Doing Immediately http:// hubs.ly/H06jfKt0 #cloud #devops #cloudcomputing #devs pic.twitter.com/UhUf1jTBEY","#cloud #devops #cloudcomputing #devs","2017-04-04 12:52:02"
"Software como servicio, plataforma como servicio, infraestructura como servicio! #CloudComputing @UEMC #Salesianos pic.twitter.com/S46ujQlfXo","#CloudComputing #Salesianos","2017-04-04 12:51:00"
"Los 3 mejores discos duros en la nube http:// ow.ly/KE6W30axRcm #CloudComputing pic.twitter.com/qTlVWTTy2H","#CloudComputing","2017-04-04 12:43:51"
"Hoy contamos con la presencia de la @UEMC para hablarnos de #CloudComputing pic.twitter.com/8T9izdczrG","#CloudComputing","2017-04-04 12:37:33"
"Business Intelligence in the #Cloud Is Finally As Smart As Its Name. http:// on.inc.com/2nzmtUd #cloudcomputing #business","#Cloud #cloudcomputing #business","2017-04-04 12:31:39"
"Why #hybridIT is the stepping-stone to the #enterprisecloud http:// ow.ly/zjQy30asp3L @StackTime #hybridcloud #cloudcomputing #security pic.twitter.com/SYA1ItKRtH","#hybridIT #enterprisecloud #hybridcloud #cloudcomputing #security","2017-04-04 12:30:32"
"5 Ways #MachineLearning Has Influenced The Modern #Cloud . http:// bit.ly/2n61qO0 #CloudComputing #IoT #Devops #AI #BigData pic.twitter.com/0ZQUv3ADDO","#MachineLearning #Cloud #CloudComputing #IoT #Devops #AI #BigData","2017-04-04 12:30:08"
"Take a look at our mock-up of #datacenter 2! #cloudcommunity #cloudcomputing #bigdata pic.twitter.com/foNyU5IZlZ","#datacenter #cloudcommunity #cloudcomputing #bigdata","2017-04-04 12:29:59"
"3 Ways to Accelerate Cloud Security Infrastructure. http:// bit.ly/2owIN61 #softwaredevelopment #CloudComputing #CloudSecurity pic.twitter.com/SvHO8ymzGt","#softwaredevelopment #CloudComputing #CloudSecurity","2017-04-04 12:29:02"
"It's World Backup Day: Are You Using Cloud Backup Yet? #WorldBackUpDay #cloudcomputing http:// bit.ly/2oxiITP pic.twitter.com/f5Mz5JhmZI","#WorldBackUpDay #cloudcomputing","2017-04-04 12:27:54"
"Another jaded IT employee. #DataCenters #CloudComputing #IT http:// ift.tt/2nSysxX pic.twitter.com/9oTOD85Xfw","#DataCenters #CloudComputing #IT","2017-04-04 12:26:33"
"Our #developer resources explain how Alibaba Cloud Servers, Storage & Networks work together http:// bit.ly/AlibabaCloudDev #CloudComputing pic.twitter.com/3mwd0mWxni","#developer #CloudComputing","2017-04-04 12:25:35"
"We are in the most exciting period in #tech history says @levie #BoxWorldTour #AI #ArtificialIntelligence #CloudComputing @BoxHQ","#tech #BoxWorldTour #AI #ArtificialIntelligence #CloudComputing","2017-04-04 12:18:54"
"RT @BourseetTrading : 5 Ways #MachineLearning Has Influenced Modern #Cloud #CloudComputing #IoT #Devops #AI #BigData https://www. forbes.com/sites/janakira","#MachineLearning #Cloud #CloudComputing #IoT #Devops #AI #BigData","2017-04-04 12:18:19"
"If you are looking for the ideal #businesssolution , why not talk to us about #Office365 ? http:// wu.to/rMCvNx #CloudComputing","#businesssolution #Office365 #CloudComputing","2017-04-04 12:16:12"
"7 Ways #cloudcomputing helps #SMBs boost their #business . Know how? http:// bit.ly/2oE9ySM #startup #entrepreneur","#cloudcomputing #SMBs #business #startup #entrepreneur","2017-04-04 12:13:06"
"7 Ways #cloudcomputing helps #SMBs boost their #business . Know how? http:// bit.ly/2oTxot3 #startup #entrepreneur","#cloudcomputing #SMBs #business #startup #entrepreneur","2017-04-04 12:10:25"
"7 Ways #cloudcomputing helps #SMBs boost their #business . Know how? http:// bit.ly/2oTxot3 #startup #entrepreneur","#cloudcomputing #SMBs #business #startup #entrepreneur","2017-04-04 12:04:02"
"Box Showcases Cloud Content Management Leadership at Box World Tour Europe, Brings ... http:// ift.tt/2o4VqnZ #cloudcomputing","#cloudcomputing","2017-04-04 11:52:31"
"Amazon announces its first Nordic AWS data centers, coming to Sweden in 2018 http:// ift.tt/2nziUgY #cloudcomputing","#cloudcomputing","2017-04-04 11:52:31"
"CRMNEXT and Netmagic to Offer Cloud- based enterprise CRM infrastructure services http:// ift.tt/2o4W4BB #cloudcomputing","#cloudcomputing","2017-04-04 11:52:30"
"Are terrrorists taking online route to spread terrorism? Know the role of America's cloud computing http:// ift.tt/2o4WTe1 #cloudcomputing","#cloudcomputing","2017-04-04 11:52:30"
"Texas tech sector adds more than 11000 jobs in 2016 http:// ift.tt/2nzovnw #cloudcomputing","#cloudcomputing","2017-04-04 11:52:29"
"Badir and Amazon Global to assist emerging Saudi technology companies http:// ift.tt/2o4W4l5 #cloudcomputing","#cloudcomputing","2017-04-04 11:52:28"
"How mature are you about digital transformation? http:// goo.gl/alerts/yBNyx @tmforumorg #digitaltransformation #cloudcomputing #analytics #IoT","#digitaltransformation #cloudcomputing #analytics #IoT","2017-04-04 11:49:58"
"How mature are you about digital transformation? http:// goo.gl/alerts/yBNyx @tmforumorg #digitaltransformation #cloudcomputing #analytics #IoT","#digitaltransformation #cloudcomputing #analytics #IoT","2017-04-04 11:49:57"
"Another #achievement for Epicor. #Epicor #FFLCompliance Manager wins #cloudcomputing Excellence pic.twitter.com/5pvHoRMZA9","#achievement #Epicor #FFLCompliance #cloudcomputing","2017-04-04 11:45:10"
". @Dez_blanchfield and I talk #CloudComputing for #IBMInterconnect 2017 Podcast Series ""Talking with @Kevin_Jackson "" http:// buff.ly/2omcExq pic.twitter.com/dtOGe3nkvI","#CloudComputing #IBMInterconnect","2017-04-04 11:21:02"
"CIO Research Shows Hybrid #Cloud Model Dominates, Storage and Backup are Top Cloud Use Cases http:// bit.ly/2owBzio #cloudcomputing","#Cloud #cloudcomputing","2017-04-04 11:20:09"
"two days to go #WatchIBMCC Changing the way we connect to applications #CloudComputing #IBMVCC Register now: http:// ibm.biz/Bdi4zk pic.twitter.com/tjoFGsmzeb","#WatchIBMCC #CloudComputing #IBMVCC","2017-04-04 11:17:22"
"Tips for a Trouble-Free Cloud Migration https:// goo.gl/jlOhxb #Cloud #CloudComputing #CloudMigration #bestdevops #Tips pic.twitter.com/2LmGI4wvYU","#Cloud #CloudComputing #CloudMigration #bestdevops #Tips","2017-04-04 11:16:03"
"5 Things You Should Know About #Adobe and #Microsoft Cloud #Partnership http:// goo.gl/GFHS68 #dynamics365 #cloudcomputing #powerbi #azure pic.twitter.com/kI221cgDX2","#Adobe #Microsoft #Partnership #dynamics365 #cloudcomputing #powerbi #azure","2017-04-04 11:12:00"
"Last #ITStrategy roadshow presentation in #Vienna . #CustomerFirst , #CloudComputing , #IaaS , #neverstop pic.twitter.com/uFLxuedPym","#ITStrategy #Vienna #CustomerFirst #CloudComputing #IaaS #neverstop","2017-04-04 11:04:00"
"Los planes de Office 365 Enterprise K1 incorporan nuevas funciones: http:// ift.tt/2owFsnG #Cloud #CloudComputing #TIC","#Cloud #CloudComputing #TIC","2017-04-04 11:03:18"
"""I was used to a world of scarce resources, not of unlimited ones"" Rob Collinson @WTW_ins @WTWcorporate #CloudComputing #capitalmodels pic.twitter.com/3cQ0JhCh3F","#CloudComputing #capitalmodels","2017-04-04 11:02:32"
"#Industrie40 ist keine Zukunftsmusik mehr. #Digitalisierung #IoT #Industrie40 #CloudComputing http:// bit.ly/2oPNCDJ","#Industrie40 #Digitalisierung #IoT #Industrie40 #CloudComputing","2017-04-04 11:00:02"
"""Computer power has been the major limitation in the evolution of #capital models"" Rob Collinson #EADF17 @WTW_ins #CloudComputing #insurance pic.twitter.com/RguEsOKi1f","#capital #EADF17 #CloudComputing #insurance","2017-04-04 10:57:04"
"Cloud technology gives more freedom than ever for remote working http:// ow.ly/JubT30axEsU #remoteworking #cloudtechnology #cloudcomputing pic.twitter.com/K3lGcM8zBR","#remoteworking #cloudtechnology #cloudcomputing","2017-04-04 10:55:04"
"5 ways the cloud will transform your business: http:// ow.ly/UpOg30axF4x #cloudcomputing #cloud pic.twitter.com/21Hh92bwoY","#cloudcomputing #cloud","2017-04-04 10:50:04"
"BREAKING NEWS: @CordisSolutions & @myCloudDoor successfully deployed #myMasterData into @ADVEOGroup http:// ow.ly/3mbz30axBGR #CloudComputing pic.twitter.com/kFpldR1WfP","#myMasterData #CloudComputing","2017-04-04 10:45:07"
"""In 5Y time most #capitalmodels will be using the power of #CloudComputing "" Rob Collison @WTWcorporate #EADF2017 @WTW_ins @WTWrisk pic.twitter.com/4Ba61r9WqU","#capitalmodels #CloudComputing #EADF2017","2017-04-04 10:44:40"
"#IoT and #AI in the future of #mobile : what role for #cloudcomputing @Andrea_Monaci #Cloud28 + #cloud @cloud28plus http:// ow.ly/msXI309r4kK","#IoT #AI #mobile #cloudcomputing #Cloud28 #cloud","2017-04-04 10:37:48"
"@Microsoft @Azure making #IoT compliance easy - http:// goo.gl/alerts/Xgn2R #cloudcomputing #DigitalTransformation #InternetofThings","#IoT #cloudcomputing #DigitalTransformation #InternetofThings","2017-04-04 10:30:02"
"@Microsoft @Azure making #IoT compliance easy - http:// goo.gl/alerts/Xgn2R #cloudcomputing #DigitalTransformation #InternetofThings","#IoT #cloudcomputing #DigitalTransformation #InternetofThings","2017-04-04 10:30:01"
"@Microsoft @Azure making #IoT compliance easy - http:// goo.gl/alerts/Xgn2R #cloudcomputing #DigitalTransformation #InternetofThings","#IoT #cloudcomputing #DigitalTransformation #InternetofThings","2017-04-04 10:30:01"
"Our speaker Maciej Madziala is presenting a case study about @yanosikpl during #cloudcommunity ! #cloudcomputing #Poznan pic.twitter.com/oDVYjK1boZ","#cloudcommunity #cloudcomputing #Poznan","2017-04-04 10:27:31"
"Summer Training Program on #InternetofThings #ArtificialIntellegence #PythonProgramming #Robotics #EmbeddedSystems #CloudComputing #BigData pic.twitter.com/UUP4oDodLR","#InternetofThings #ArtificialIntellegence #PythonProgramming #Robotics #EmbeddedSystems #CloudComputing #BigData","2017-04-04 10:18:54"
"@Google and @amazon , time to catch up with @Azure #Microsoft #Azure #CloudComputing #CloudERP #SummitEMEA17 #MSDynAX #D365 pic.twitter.com/4GQmENh19k","#Microsoft #Azure #CloudComputing #CloudERP #SummitEMEA17 #MSDynAX #D365","2017-04-04 10:12:05"
"#FactOfTheDay Running applications on #Cloud can reduce energy consumption by 30% http://www. sysfore.com #CloudComputing #CloudTechnology pic.twitter.com/gqpohhhWup","#FactOfTheDay #Cloud #CloudComputing #CloudTechnology","2017-04-04 10:05:55"
"#SummitEMEA17 Don't lose continuity - go hybrid. #CloudComputing #Azure pic.twitter.com/GegSkrAl7h","#SummitEMEA17 #CloudComputing #Azure","2017-04-04 10:05:15"
"En Directo - IoT 2017: http:// ift.tt/2nzdAet #Cloud #CloudComputing #TIC","#Cloud #CloudComputing #TIC","2017-04-04 09:58:11"
"Save the Headaches: 5 questions to help you determine the right cloud provider http:// bit.ly/2nEiuqx #HybridCloud #CloudComputing #Cloud","#HybridCloud #CloudComputing #Cloud","2017-04-04 09:55:32"
"This stat from Business Information Center shows that the majority of businesses' top priority when it comes to #CloudComputing is costs. pic.twitter.com/VzMTu8pjBM","#CloudComputing","2017-04-04 09:44:01"
"Every #business is exposed to the #cloud but only few understand the #risks of #CloudComputing http:// bit.ly/1T91m7V","#business #cloud #risks #CloudComputing","2017-04-04 09:43:00"
"#CloudComputing solutions growing in use in #pharma supply chain, #healthcare for patients.. #GS1HCconf pic.twitter.com/5wbsxmwtJj","#CloudComputing #pharma #healthcare #GS1HCconf","2017-04-04 09:42:24"
"CSC and @HPE Services division complete merger to form @DXCTechnology #HelloDXC #Cloud #CloudComputing #IoT http://www. pivotal.iQ pic.twitter.com/0VrZ2m3BrK","#HelloDXC #Cloud #CloudComputing #IoT","2017-04-04 09:41:38"
"Embrace #CloudComputing for your organization; contact SearchNative ---> http:// buff.ly/2osDGDp pic.twitter.com/h4zd815b3o","#CloudComputing","2017-04-04 09:34:07"
"Embrace #CloudComputing for your organization; contact SearchNative ---> http:// buff.ly/2osDGDp pic.twitter.com/TBy2sAKQgw","#CloudComputing","2017-04-04 09:30:17"
"The next new #tech in the Computer age is #CloudComputing where all services/softwares are cloud base #freeITconsult pic.twitter.com/FRXvdy06M6","#tech #CloudComputing #freeITconsult","2017-04-04 09:18:05"
"Ami codeur, la nouvelle #API de #SimpleCRM est disponible: http:// crm-pour-pme.fr/api/doc/home #dev #CRM #cloud #CloudComputing","#API #SimpleCRM #dev #CRM #cloud #CloudComputing","2017-04-04 09:11:35"
". @Dez_blanchfield and I talk #CloudComputing for #IBMInterconnect 2017 Podcast Series ""Talking with @Kevin_Jackson "" http:// buff.ly/2nIkW09 pic.twitter.com/1Tb19jrtpT","#CloudComputing #IBMInterconnect","2017-04-04 09:11:01"
"The Relationship Between Software-Defined Networking #SDN and Cloud Computing http:// wp.me/p3Dcss-2oG #cloudcomputing pic.twitter.com/r90nly0si7","#SDN #cloudcomputing","2017-04-04 09:05:13"
"Free online course on the fundamentals of #cloudcomputing and @IBMBluemix services. Here's what you need: http:// bit.ly/2ojv3M1","#cloudcomputing","2017-04-04 09:00:39"
"Business leaders discuss what's next for the #CloudComputing and what it means for their business: http:// bit.ly/2nEbTMJ pic.twitter.com/h1YzID0ATi","#CloudComputing","2017-04-04 08:50:15"
"#Digital Age #AI #blockchain #CloudComputing #wearables #sharingeconomy http:// buff.ly/2mNfVVv #innovation #Digitaltransformation #CIO pic.twitter.com/Qo1IqmJptX","#Digital #AI #blockchain #CloudComputing #wearables #sharingeconomy #innovation #Digitaltransformation #CIO","2017-04-04 08:41:02"
"Many clouds, one sky! We are taking part as a sponsor in the conference #CloudCommunity2017 in #Poznan :) #CloudComputing pic.twitter.com/Eqm1NHtiCT","#CloudCommunity2017 #Poznan #CloudComputing","2017-04-04 08:38:59"
"Computer networks were designed by engineers, the cloud was designed hy accountants. #CloudComputing #aws","#CloudComputing #aws","2017-04-04 08:34:23"
"What Digital Transformation Is and Is Not - http:// goo.gl/alerts/wL4wv @talkin_cloud #DigitalTransformation #cloudcomputing","#DigitalTransformation #cloudcomputing","2017-04-04 08:30:01"
"What Digital Transformation Is and Is Not - http:// goo.gl/alerts/wL4wv @talkin_cloud #DigitalTransformation #cloudcomputing","#DigitalTransformation #cloudcomputing","2017-04-04 08:30:01"
"What Digital Transformation Is and Is Not - http:// goo.gl/alerts/wL4wv @talkin_cloud #DigitalTransformation #cloudcomputing","#DigitalTransformation #cloudcomputing","2017-04-04 08:30:00"
"It's World Backup Day: Are You Using Cloud Backup Yet? #WorldBackUpDay #cloudcomputing http:// bit.ly/2owyLS1 pic.twitter.com/4lkCHXBNX4","#WorldBackUpDay #cloudcomputing","2017-04-04 08:15:42"
"It's World Backup Day: Are You Using Cloud Backup Yet? #WorldBackUpDay #cloudcomputing http:// bit.ly/2owCyif pic.twitter.com/FNGb8DVWf7","#WorldBackUpDay #cloudcomputing","2017-04-04 08:06:32"
"#ArtificialIntelligence (AI) and #MachineLearning (ML) could be the next big waves in the #cloudcomputing industry. pic.twitter.com/CfJEzlShgk","#ArtificialIntelligence #MachineLearning #cloudcomputing","2017-04-04 07:52:58"
"monads http:// buff.ly/2nR2Ety #javascript #exercise #sports #csharp #java #windows #linux #cloudcomputing #ufc #mma #python #functional","#javascript #exercise #sports #csharp #java #windows #linux #cloudcomputing #ufc #mma #python #functional","2017-04-04 07:45:03"
"How to deal with #DataSecurity Issues in #CloudComputing Visit- http:// bit.ly/2nVIQH3 #DataScience #aws #saas #BigData","#DataSecurity #CloudComputing #DataScience #aws #saas #BigData","2017-04-04 07:40:07"
"Getting a grip on your cloud - http:// goo.gl/alerts/eOUif @ITProPortal @ITPPCloud #cloudcomputing #public #cloud #DigitalTransformation","#cloudcomputing #public #cloud #DigitalTransformation","2017-04-04 07:30:01"
"Getting a grip on your cloud - http:// goo.gl/alerts/eOUif @ITProPortal @ITPPCloud #cloudcomputing #public #cloud #DigitalTransformation","#cloudcomputing #public #cloud #DigitalTransformation","2017-04-04 07:30:01"
"How long will I be able to avoid the cloud? http:// crwd.fr/2ouznot #Cloud #microsoft #CloudComputing pic.twitter.com/fmGUhbH2qt","#Cloud #microsoft #CloudComputing","2017-04-04 07:20:06"
"This Catalyst Can Take NVIDIA to the Cloud http:// ift.tt/2nVRQvV #cloudcomputing","#cloudcomputing","2017-04-04 07:17:18"
"Cloud Foundry Foundation Creates New Cert for Developers http:// ift.tt/2oTtz7i #cloudcomputing","#cloudcomputing","2017-04-04 07:17:18"
"How Microsoft's Intelligent Cloud Segment Has Performed http:// ift.tt/2nVPtJy #cloudcomputing","#cloudcomputing","2017-04-04 07:17:18"
"Survey: Cloud computing has business owners' attention, while cybersecurity concerns tick lower http:// ift.tt/2nVTcXf #cloudcomputing","#cloudcomputing","2017-04-04 07:17:17"
"13 Tools and Resources for First-Time Cloud Users http:// ift.tt/2oTalP1 #cloudcomputing","#cloudcomputing","2017-04-04 07:17:16"
"AASKI buys cloud services provider ConnectSolutions http:// ift.tt/2nVTf5n #cloudcomputing","#cloudcomputing","2017-04-04 07:17:16"
"Rackspace Bets on Multi-Cloud Boom with New Professional Services http:// ift.tt/2oTdwpY #cloudcomputing","#cloudcomputing","2017-04-04 07:17:15"
"Serverless explainer: The next generation of cloud infrastructure http:// ift.tt/2nVVtlp #cloudcomputing","#cloudcomputing","2017-04-04 07:17:15"
"Serverless computing in practice http:// ift.tt/2oTtArS #cloudcomputing","#cloudcomputing","2017-04-04 07:17:15"
"IBM And Watson: Ushering In A New Age Of Computing http:// ift.tt/2nW3KFT #cloudcomputing","#cloudcomputing","2017-04-04 07:17:14"
"Overcome app portability hurdles of containers in cloud computing http:// ift.tt/2oTlbEX #cloudcomputing","#cloudcomputing","2017-04-04 07:17:14"
"Postgres-as-a-Service Now Available on AWS Cloud http:// ift.tt/2oTyqVQ #cloudcomputing","#cloudcomputing","2017-04-04 07:17:13"
"Nano-holes punch a path to photonic computing http:// ift.tt/2nVSE3T #cloudcomputing","#cloudcomputing","2017-04-04 07:17:13"
"MacB Awarded U.S. Army Cloud Computing BOA http:// ift.tt/2oTtyAg #cloudcomputing","#cloudcomputing","2017-04-04 07:17:12"
"Cloud Standards Customer Council Publishes Version 2.0 of Impact of Cloud Computing on ... http:// ift.tt/2nVMrVq #cloudcomputing","#cloudcomputing","2017-04-04 07:17:12"
"Cloud Pioneer Rackspace Adds Services Unit to Ease Migrations http:// ift.tt/2oTcA57 #cloudcomputing","#cloudcomputing","2017-04-04 07:17:12"
"AWS' Jennifer Chronis: Commercial Cloud Works to Offer Security, Scalability to DoD http:// ift.tt/2nVMpwV #cloudcomputing","#cloudcomputing","2017-04-04 07:17:11"
"Badir, Amazon Global in deal to support tech firms http:// ift.tt/2oT5g9t #cloudcomputing","#cloudcomputing","2017-04-04 07:17:11"
"The Oracle Is Projecting 80% Growth In SAAS http:// Margins.Here 's Why. http:// bit.ly/2owaVGw #CloudComputing #SaaS #BluEnt pic.twitter.com/C3lAmiOxGQ","#CloudComputing #SaaS #BluEnt","2017-04-04 07:14:29"
"Five #cloudcomputing habits that will affect organisations in 2017 http:// buff.ly/2nVGLLf #smallbiz #erp #iaas","#cloudcomputing #smallbiz #erp #iaas","2017-04-04 07:03:00"
"Cloudten named Cloud Warrior at the AWS Partner Summit. #AWSSummit #aws #cloudanz #sydneytech #cloudcomputing #awscloudanz pic.twitter.com/DiaIpIymdJ","#AWSSummit #aws #cloudanz #sydneytech #cloudcomputing #awscloudanz","2017-04-04 07:02:07"
"#Cybersecurity and #Privacy Risks of Industry 4.0 | #Industry40 #3DPrint #CloudComputing #Wearables #makeyourownlane #defstar5 pic.twitter.com/RcDiWEVXAm","#Cybersecurity #Privacy #Industry40 #3DPrint #CloudComputing #Wearables #makeyourownlane #defstar5","2017-04-04 07:00:20"
"Fly.io puts middleware in the cloud https:// goo.gl/46jC2O #CloudSolutions #CloudComputing #CloudCareer","#CloudSolutions #CloudComputing #CloudCareer","2017-04-04 06:59:23"
"What's your #Salesforce #Backup #Strategy ? #cloudcomputing #recovery #data #security https:// goo.gl/ufyKY6 pic.twitter.com/9yw1P0ylao","#Salesforce #Backup #Strategy #cloudcomputing #recovery #data #security","2017-04-04 06:55:26"
"SQL Unplugged - March 2017 Edition | SQL Unplugged http:// ift.tt/2o426T3 #cloud #cloudcomputing #microsoftazure #iot #devops","#cloud #cloudcomputing #microsoftazure #iot #devops","2017-04-04 06:45:32"
"Beyond Trust: privilege, vulnerability management available through @Microsoft @Azure - http:// goo.gl/alerts/FPyZp @NetworkWorld #cloudcomputing","#cloudcomputing","2017-04-04 06:37:53"
"Beyond Trust: privilege, vulnerability management available through @Microsoft @Azure - http:// goo.gl/alerts/FPyZp @NetworkWorld #cloudcomputing","#cloudcomputing","2017-04-04 06:37:52"
"#VMware takes aim at enterprise hybrid #cloud http:// flip.it/EOy4DY #CloudStorage #CloudComputing #Amazon #virtualization #VMs #zdnet #US","#VMware #cloud #CloudStorage #CloudComputing #Amazon #virtualization #VMs #zdnet #US","2017-04-04 06:30:38"
"For further info and free consultation, you can contact us at sales@vibicloud.com . #cloudcomputing #ViBiCloud #CloudIndonesia #Indonesia","#cloudcomputing #ViBiCloud #CloudIndonesia #Indonesia","2017-04-04 06:14:04"
"Cloud computing helps to survive & prosper in an increasingly competitive, dynamic marketplace. #cloudcomputing #ViBiCloud #CloudIndonesia","#cloudcomputing #ViBiCloud #CloudIndonesia","2017-04-04 06:12:09"
"4. Remote access, SME can access data and information from anywhere anytime. #cloudcomputing #ViBiCloud #CloudIndonesia #Indonesia","#cloudcomputing #ViBiCloud #CloudIndonesia #Indonesia","2017-04-04 06:09:14"
"3. Pay-as-you-go model, SME can enjoy enterprise level technology which normal IT budget may not be afford. #cloudcomputing #ViBiCloud","#cloudcomputing #ViBiCloud","2017-04-04 06:08:11"
"Looking good team! #googlecloudonboard @sydney @real3wks #BeyondAgile #gcp #cloudcomputing pic.twitter.com/i6Rvlc2ck3","#googlecloudonboard #BeyondAgile #gcp #cloudcomputing","2017-04-04 06:07:19"
"2. Data storage, business gets unlimited data storage from cloud which can be expanded at any given time. #cloudcomputing #ViBiCloud #Indo","#cloudcomputing #ViBiCloud #Indo","2017-04-04 06:06:55"
"#Salesforce serves as training ground for SaaS #startup execs https:// goo.gl/zQt2T9 #SaaS #cloudcomputing #tech pic.twitter.com/EbN8hfD04c","#Salesforce #startup #SaaS #cloudcomputing #tech","2017-04-04 06:05:07"
"#CloudComputing Enters its 2nd Decade It should move away from experimentation and towards implementation http:// gtnr.it/2nUuQxf @kcpanetta pic.twitter.com/jTaTOvoQh0","#CloudComputing","2017-04-04 06:03:09"
"Top 5 Tips to Protect your Dropbox Files http:// buff.ly/1FVnGv1 #Dropbox #internet #cloudcomputing #Drive #cloud","#Dropbox #internet #cloudcomputing #Drive #cloud","2017-04-04 06:00:29"
"Great turnout at this afternoon's AWS Partner Summit in Sydney. We're proud to be a sponsor. #cloudcomputing @AWSCloudANZ #AWSSummit pic.twitter.com/V0TAIPOhAq","#cloudcomputing #AWSSummit","2017-04-04 06:00:02"
"#cloudcomputing #IaaS #PaaS #saas pic.twitter.com/C95XYZYpa8","#cloudcomputing #IaaS #PaaS #saas","2017-04-04 05:55:16"
"1. Reduced cost, cloud computing helps SMEs to reduce CAPEX and OPEX #cloudcomputing #ViBiCloud #CloudIndonesia #Indonesia","#cloudcomputing #ViBiCloud #CloudIndonesia #Indonesia","2017-04-04 05:52:34"
"Advantages of cloud computing for Small and Medium Enterprises: #CloudComputing #ViBiCloud #Indonesia","#CloudComputing #ViBiCloud #Indonesia","2017-04-04 05:51:41"
"Cloud computing can offers many potential benefits to small and medium-sized enterprises (SMEs). #ViBiCloud #CloudComputing #Indonesia","#ViBiCloud #CloudComputing #Indonesia","2017-04-04 05:49:55"
"#pagipagi yuk kita belajar tentang #cloudcomputing bersama #ViBiCloud .","#pagipagi #cloudcomputing #ViBiCloud","2017-04-04 05:47:33"
"#Salesforce serves as training ground for SaaS #startup execs https:// goo.gl/zQt2T9 #SaaS #cloudcomputing #tech pic.twitter.com/flGDDETbKt","#Salesforce #startup #SaaS #cloudcomputing #tech","2017-04-04 05:45:05"
"#CloudComputing enters its second decade http:// okt.to/kEgKzv via @Gartner_inc #cloud #SaaS pic.twitter.com/5fYqCVCwzu","#CloudComputing #cloud #SaaS","2017-04-04 05:15:07"
"EdTech_K12: Here are the 3 #K12 #cloudcomputing concerns still on #edtech leaders' minds: http:// tech.mg/0ZuJA7 #caedchat","#K12 #cloudcomputing #edtech #caedchat","2017-04-04 05:02:23"
"Here are the 3 #K12 #cloudcomputing concerns still on #edtech leaders' minds: http:// tech.mg/0ZuJA7","#K12 #cloudcomputing #edtech","2017-04-04 05:00:32"
"Want to learn more about #GoogleCloud system operations? Watch this course! http:// clda.co/2oQ9COz #cloudcomputing pic.twitter.com/LENG88eDXd","#GoogleCloud #cloudcomputing","2017-04-04 05:00:02"
"Which #COUNTRY will #WIN every #WAR with #ArtificialIntelligence in 2021? #AI #IoT #ioTsecurity #bigdata #CyberSecurity #CloudComputing pic.twitter.com/wJWf4ehTgp","#COUNTRY #WIN #WAR #ArtificialIntelligence #AI #IoT #ioTsecurity #bigdata #CyberSecurity #CloudComputing","2017-04-04 04:47:07"
"#CloudComputing enters its second decade http:// okt.to/kEgKzv via @Gartner_inc #cloud #SaaS pic.twitter.com/5GN6EhsnVx","#CloudComputing #cloud #SaaS","2017-04-04 04:33:04"
"Ip man - http:// buff.ly/2oSkNXe #javascript #exercise #sports #csharp #java #windows #linux #cloudcomputing #ufc #mma #python #cats #dogs","#javascript #exercise #sports #csharp #java #windows #linux #cloudcomputing #ufc #mma #python #cats #dogs","2017-04-04 04:30:02"
"Networks http:// buff.ly/2nUYOBb #ember #csharp #java #windows #linux #bigdata #cloudcomputing #npm #python #google #ember #agile @startup","#ember #csharp #java #windows #linux #bigdata #cloudcomputing #npm #python #google #ember #agile","2017-04-04 04:00:23"
"We're all set up at @AWSCloudANZ #AWSSummit Partner Summit! Come by! #cloudcomputing pic.twitter.com/BX3Ae59cYL","#AWSSummit #cloudcomputing","2017-04-04 04:00:01"
"Want to develop your #Team skills in #cloudcomputing ? Try our solution --> http:// clda.co/2nYJnbE pic.twitter.com/SvK9ZwWTEK","#Team #cloudcomputing","2017-04-04 04:00:01"
"#CloudComputing #Blogger #DigitalMarketing #IaaS #PaaS #ProductManagement #GrowthHacking #SuccessFactor #ITIL #Metrics #BI #SaaSSpeakers #AI pic.twitter.com/gga8WwwVsa","#CloudComputing #Blogger #DigitalMarketing #IaaS #PaaS #ProductManagement #GrowthHacking #SuccessFactor #ITIL #Metrics #BI #SaaSSpeakers #AI","2017-04-04 03:42:02"
"Exploring the #cloud laboratory: #biotechnology and #cloudcomputing http:// okt.to/iA9c9x via @InformationAge #bigdata pic.twitter.com/EQi5DQmaDz","#cloud #biotechnology #cloudcomputing #bigdata","2017-04-04 03:29:06"
"Microsoft Azure pricing continues to plummet while performance increases http:// buff.ly/2nVcbRW #Azure #CloudComputing","#Azure #CloudComputing","2017-04-04 03:28:26"
"aysnc await - http:// buff.ly/2nQURvB #dotnet #javascript #visualstudio #ember #csharp #java #windows #linux #bigdata #cloudcomputing","#dotnet #javascript #visualstudio #ember #csharp #java #windows #linux #bigdata #cloudcomputing","2017-04-04 03:15:07"
"factory pattern - http:// buff.ly/2nV3tDa #dotnet #javascript #visualstudio #ember #csharp #java #windows #linux #bigdata #cloudcomputing","#dotnet #javascript #visualstudio #ember #csharp #java #windows #linux #bigdata #cloudcomputing","2017-04-04 03:15:04"
"Solid - http:// buff.ly/2nV1rmM #dotnet #javascript #visualstudio #ember #csharp #java #windows #linux #bigdata #cloudcomputing #python","#dotnet #javascript #visualstudio #ember #csharp #java #windows #linux #bigdata #cloudcomputing #python","2017-04-04 03:00:36"
"Mediator - http:// buff.ly/2nQXyxa #dotnet #javascript #visualstudio #ember #csharp #java #windows #linux #bigdata #cloudcomputing #python","#dotnet #javascript #visualstudio #ember #csharp #java #windows #linux #bigdata #cloudcomputing #python","2017-04-04 03:00:32"
"El #CloudComputing nos permite tener acceso a programas y aplicaciones sin la necesidad de descargarlos #DiccionarioEmpresarial #SoyFESE pic.twitter.com/i3PUgBIBtj","#CloudComputing #DiccionarioEmpresarial #SoyFESE","2017-04-04 03:00:01"
"Overcome app portability hurdles of containers in #cloudcomputing http:// bit.ly/2ouidud #cloud #security #cybersecurity #infosec","#cloudcomputing #cloud #security #cybersecurity #infosec","2017-04-04 02:42:33"
"#cloudcomputing #security Google Cloud IAM for AWS users http:// bit.ly/2nV253o","#cloudcomputing #security","2017-04-04 02:36:29"
"command pattern - http:// buff.ly/2nQYthe #dotnet #javascript #visualstudio #ember #csharp #java #windows #linux #bigdata #cloudcomputing","#dotnet #javascript #visualstudio #ember #csharp #java #windows #linux #bigdata #cloudcomputing","2017-04-04 02:30:21"
"How #cloudcomputing affects Mac and Windows by David Marshall via @vmblog http:// bit.ly/2ojxnT4 pic.twitter.com/UWhOPoB0cJ","#cloudcomputing","2017-04-04 02:30:14"
"Things Are Different In Cloud Computing, But How? | http:// ow.ly/AcWN30arZnf | #cloudcomputing","#cloudcomputing","2017-04-04 02:20:10"
"#CloudComputing Why machine learning is the new proving ground for competitive advantage http:// ow.ly/OWxn50aClcs","#CloudComputing","2017-04-04 02:03:42"
"Want to develop your #Team skills in #cloudcomputing ? Try our solution --> http:// clda.co/2nYCmHZ pic.twitter.com/lYDFhNreoU","#Team #cloudcomputing","2017-04-04 02:00:02"
"Want to improve your #cloudcomputing skills? Practice with our quizzes! http:// clda.co/2nw2Ltq pic.twitter.com/TSvUDQoDM2","#cloudcomputing","2017-04-04 02:00:01"
"How to Add Google Drive to Windows Send To menu http:// buff.ly/1zvFtIx #Google #googledrive #windows #drive #howto #cloudcomputing","#Google #googledrive #windows #drive #howto #cloudcomputing","2017-04-04 01:45:13"
"#hhs wants 30% of its systems in the #Cloud this year https:// shar.es/1QhtFF via @HealthITNews #cloudcomputing #healthcare #security","#hhs #Cloud #cloudcomputing #healthcare #security","2017-04-04 01:45:01"
"#BigData and #CloudComputing Help #NonProfits Save Lives #PredictiveAnalytics #ML #MachineLearning #ML http:// ow.ly/Heoa30axbir","#BigData #CloudComputing #NonProfits #PredictiveAnalytics #ML #MachineLearning #ML","2017-04-04 01:44:35"
"The only 2 stops you need to make in the #COLLABORATE17 exhibit hall, besides the drink station. @OracleCloud #C17LV #cloudcomputing @IOUG pic.twitter.com/iIXDSfXYVB","#COLLABORATE17 #C17LV #cloudcomputing","2017-04-04 01:42:07"
"Come see Cloudten at the AWS Sydney Summit at PJ Gallaghers from 6pm on April 5th. #sydneytech #DevOps #cloudanz #cloudcomputing pic.twitter.com/mZBdEi3kkr","#sydneytech #DevOps #cloudanz #cloudcomputing","2017-04-04 01:34:13"
"A glimpse into #cloudcomputing by @susiewee via @cioreview http:// bit.ly/2opMTK3 pic.twitter.com/Ha0ssIvVrs","#cloudcomputing","2017-04-04 01:30:09"
"Apache #Hadoop and #BigData on IBM Cloud http:// buff.ly/2mYL4Dz #cloudcomputing pic.twitter.com/3EnzDm2SoI","#Hadoop #BigData #cloudcomputing","2017-04-04 01:20:02"
"5 security risks of #cloudcomputing . Read More Here: https:// goo.gl/QgD2Qq pic.twitter.com/UqjVGvSW8w","#cloudcomputing","2017-04-04 01:15:02"
