"What the Future Holds for Advanced Wireless #SensorTechnology | http:// hubs.ly/H06S15j0 #engineering pic.twitter.com/eFYNQDsNM9","#SensorTechnology #engineering","2017-04-02 06:17:01"
"Where will wireless #sensortechnology take us next? EVERYWHERE! http:// hubs.ly/H06S33Y0 pic.twitter.com/LDuTe9Y0mh","#sensortechnology","2017-04-01 15:02:01"
"What the Future Holds for Advanced Wireless #SensorTechnology | http:// hubs.ly/H06S32Z0 #engineering pic.twitter.com/U9a4PvpTm0","#SensorTechnology #engineering","2017-04-01 06:17:02"
"Where will wireless #sensortechnology take us next? EVERYWHERE! http:// hubs.ly/H06S3450 pic.twitter.com/Hr1mrsHE4d","#sensortechnology","2017-03-31 15:02:02"
"What the Future Holds for Advanced Wireless #SensorTechnology | http:// hubs.ly/H06S1550 #engineering pic.twitter.com/3rGIjzAtfI","#SensorTechnology #engineering","2017-03-31 06:17:02"
"Where will wireless #sensortechnology take us next? EVERYWHERE! http:// hubs.ly/H06S33Z0 pic.twitter.com/416aqfaXBc","#sensortechnology","2017-03-30 15:02:01"
"What the Future Holds for Advanced Wireless #SensorTechnology | http:// hubs.ly/H06S15c0 #engineering pic.twitter.com/isuiML5sck","#SensorTechnology #engineering","2017-03-30 06:17:04"
"What is the best #sensortechnology for measuring the squeeze load to reduce damage, scuffing & breakage? http:// bit.ly/2iWhsXd pic.twitter.com/wlTXRaBtXU","#sensortechnology","2017-03-29 17:02:14"
"Where will wireless #sensortechnology take us next? EVERYWHERE! http:// hubs.ly/H06S3400 pic.twitter.com/4mvgQPzH4c","#sensortechnology","2017-03-29 15:02:02"
"What the Future Holds for Advanced Wireless #SensorTechnology | http:// hubs.ly/H06S1500 #engineering pic.twitter.com/sG0fLLd8DX","#SensorTechnology #engineering","2017-03-28 06:17:01"
"#SmartConditionMonitoring will be explained at our booth A 38 in Hall 2 at #Cebit17 . #SensorTechnology #SmartLiving pic.twitter.com/cHPHHz3i6b","#SmartConditionMonitoring #Cebit17 #SensorTechnology #SmartLiving","2017-03-22 10:40:40"
"#SMT contributed to this @umanitoba @RRC project. #sensortechnology #smartsolutions #balcony #construction Read here: http:// bit.ly/2nEt84b pic.twitter.com/p0Lr04NAri","#SMT #sensortechnology #smartsolutions #balcony #construction","2017-03-21 00:17:00"
"The Tinkerbots Distance Sensor lets your robot react to obstacles. Try it out! #robotics #sensor #IR #sensortechnology #robot #STEM pic.twitter.com/ktbik6bgCj","#robotics #sensor #IR #sensortechnology #robot #STEM","2017-03-20 18:25:22"
"#Interfacetechnology #Humanmachineinterfacedevices #Sensortechnology #Microtechnology #Programmablelogiccontrollers #Automotive pic.twitter.com/hqZ0TQRscd","#Interfacetechnology #Humanmachineinterfacedevices #Sensortechnology #Microtechnology #Programmablelogiccontrollers #Automotive","2017-03-20 17:51:09"
"2/2 @iotcentrum @IoTNewsletter @iotguide @TechThings_IOT #smartkitchen #iot #sensorTechnology #sensor","#smartkitchen #iot #sensorTechnology #sensor","2017-03-18 05:29:41"
"#Monitor your #sleep to protect your #health . #sensortechnology #apnea #seniors #athome http:// bit.ly/2mxi7wD pic.twitter.com/MxEdvXWSOp","#Monitor #sleep #health #sensortechnology #apnea #seniors #athome","2017-03-16 20:12:31"
"How will #smartcontracts and #sensortechnology affect your business? 29.03.17@EcoInnovatory http:// ow.ly/gh2C309KnoC","#smartcontracts #sensortechnology","2017-03-10 16:30:39"
"How will #smartcontracts and #sensortechnology affect your business? 29.03.17@EcoInnovatory http:// ow.ly/gh2C309KnoC","#smartcontracts #sensortechnology","2017-03-10 09:20:08"
"How will #smartcontracts and #sensortechnology affect your business? 29.03.17@EcoInnovatory http:// ow.ly/gh2C309KnoC","#smartcontracts #sensortechnology","2017-03-09 19:00:28"
"Evolution of #IoT playing a crucial role in the #healthcare sector #sensortechnology http:// ow.ly/Zq4i3099Z7N pic.twitter.com/9HmhZxpKSO","#IoT #healthcare #sensortechnology","2017-02-20 07:49:58"
"According to @Frost_Sullivan , #sensortechnology will be used soon to combat security threats: http:// smbz.us/2lkK6T5 #RSAC pic.twitter.com/pr3dCOnqCO","#sensortechnology #RSAC","2017-02-18 18:35:01"
"#DiaGraphIT in @OpenAccessGov on #sensortechnology collaboration with @insight_centre . Page 94: http:// goo.gl/GWdcyC #healthcare pic.twitter.com/Ipmx80xYGx","#DiaGraphIT #sensortechnology #healthcare","2017-02-18 09:12:07"
"#SensorTechnology and #IndustrialInternetofThings Growth | http:// hubs.ly/H05n_4p0 pic.twitter.com/nmkIhP4406","#SensorTechnology #IndustrialInternetofThings","2017-02-09 15:06:11"
"#SensorTechnology and #IndustrialInternetofThings Growth | http:// hubs.ly/H05n_4m0 pic.twitter.com/xkMxZP0uGY","#SensorTechnology #IndustrialInternetofThings","2017-02-05 15:06:03"
"#SensorTechnology #DryChemistry #PredictionModels for Fast, Affordable and Reliable Soil Testing...How does it work? http://www. soilcares.com/en/howitworks/ pic.twitter.com/QjF1qermZ5","#SensorTechnology #DryChemistry #PredictionModels","2017-02-02 15:59:15"
"The largest supermarket chain in the US goes high #tech with #sensortechnology . Via: @pymnts http:// hubs.ly/H063k5D0 pic.twitter.com/XkuwFrfdz3","#tech #sensortechnology","2017-02-01 20:06:15"
". @ProjectBreeze is doing its part to improve #airquality with this beautifully designed sensor #SensorTechnology ... http:// autode.sk/2k9kfNX pic.twitter.com/R4mNBswTNb","#airquality #SensorTechnology","2017-01-27 02:11:32"
"How durable is your #SensorTechnology ? Ours stood up to #HurricaneMatthew ...& never missed a minute's worth of data http:// buff.ly/2j3Op3U . pic.twitter.com/mxLtJrxps0","#SensorTechnology #HurricaneMatthew","2017-01-25 00:46:04"
"#SensorTechnology and #IndustrialInternetofThings Growth | http:// hubs.ly/H05n_4k0 pic.twitter.com/60VR44VmVG","#SensorTechnology #IndustrialInternetofThings","2017-01-14 15:06:03"
"#Toshiba 's #sensortechnology monitors indoor conditions for safe and comfortable environments in the future! http:// bit.ly/2jspEwc","#Toshiba #sensortechnology","2017-01-13 20:20:57"
"#SensorTechnology and #IndustrialInternetofThings Growth | http:// hubs.ly/H05n_4c0 pic.twitter.com/xDr8ioDhFT","#SensorTechnology #IndustrialInternetofThings","2017-01-03 15:06:29"
"#SensorTechnology and #IndustrialInternetofThings Growth | http:// hubs.ly/H05n_4g0 pic.twitter.com/WRJeAfYMyx","#SensorTechnology #IndustrialInternetofThings","2016-12-27 15:06:11"
"#SensorTechnology and #IndustrialInternetofThings Growth | http:// hubs.ly/H05n_4n0 pic.twitter.com/7TLbP1uK1S","#SensorTechnology #IndustrialInternetofThings","2016-12-20 15:06:28"
"#SensorTechnology and #IndustrialInternetofThings Growth | http:// hubs.ly/H05n_4h0 pic.twitter.com/GZQSGKbWnq","#SensorTechnology #IndustrialInternetofThings","2016-12-19 15:06:13"
"#SensorTechnology and #IndustrialInternetofThings Growth | http:// hubs.ly/H05n_4l0 pic.twitter.com/2z9Owwr2JV","#SensorTechnology #IndustrialInternetofThings","2016-12-13 15:07:01"
"GODAN is pleased to welcome @dacom to its partnership network! http:// buff.ly/2gUA7iR #sensortechnology #yieldoptimization","#sensortechnology #yieldoptimization","2016-12-12 20:14:08"
"How #sensortechnology can help detect vehicles in foggy weather #roadtraffic http:// ow.ly/xj79306Vlq7 pic.twitter.com/8fu9kO1dHS","#sensortechnology #roadtraffic","2016-12-08 06:35:44"
"#SensorTechnology and #IndustrialInternetofThings Growth | http:// hubs.ly/H05n_4j0 pic.twitter.com/Bn7uYRJifx","#SensorTechnology #IndustrialInternetofThings","2016-12-06 15:06:07"
"#SensorTechnology and #IndustrialInternetofThings Growth | http:// hubs.ly/H05n_4d0 pic.twitter.com/DolXgXx0S7","#SensorTechnology #IndustrialInternetofThings","2016-12-05 15:06:11"
"@mr_oranski : #SensorTechnology and #IndustrialInternetofThings Growth | http:// j.mp/2g6AJRG http:// j.mp/2g6IhDK","#SensorTechnology #IndustrialInternetofThings","2016-12-01 15:50:15"
"#SensorTechnology and #IndustrialInternetofThings Growth | http:// hubs.ly/H0556cQ0 pic.twitter.com/HLrcfAn9DQ","#SensorTechnology #IndustrialInternetofThings","2016-12-01 15:49:03"
"#SensorTechnology and #IndustrialInternetofThings Growth | http:// hubs.ly/H0556cS0 pic.twitter.com/FMO5Pp44Yu","#SensorTechnology #IndustrialInternetofThings","2016-11-30 15:49:13"
"@IDTechex newest report on #sensortechnology tells: Fully printed sensors will reach $7.6bn revenues by 2027. http:// bit.ly/2gR9Xkk pic.twitter.com/Wg6LuM4zHJ","#sensortechnology","2016-11-29 17:00:10"
"#3Dprinting pir sensor housing #sensortechnology #RepRap #DIY pic.twitter.com/ujAJPAXtO3","#3Dprinting #sensortechnology #RepRap #DIY","2016-11-24 23:06:23"
"#3Dprinting pir housing #sensortechnology #RepRap #DIY pic.twitter.com/TTo26hT6Nv","#3Dprinting #sensortechnology #RepRap #DIY","2016-11-24 23:04:31"
"New: PSENopt II Type 4 #LightGrid . Our experts will be pleased to advise you in hall 9, booth 370 #sps_live #SensorTechnology #sensory pic.twitter.com/3aE9i12bDW","#LightGrid #sps_live #SensorTechnology #sensory","2016-11-23 16:20:20"
"Safe #Interlock & guard locking in one product: PSENmlock. Find out more in hall 9, booth 370. #sps_live #SensorTechnology #Sensory pic.twitter.com/peLYWJg3dG","#Interlock #sps_live #SensorTechnology #Sensory","2016-11-23 16:03:04"
"Small #LightGrid , high level of safety: #PSENopt slim. Get to know the new light barriers at @spsipcdrives ! #sps_live #SensorTechnology pic.twitter.com/8PJy1LXqeP","#LightGrid #PSENopt #sps_live #SensorTechnology","2016-11-23 15:10:06"
"The first Type 3 #LightGrid #PSENopt II for #FingerProtection #HandProtection , Hall 9, booth 370 #SensorTechnology #sps_live pic.twitter.com/OKv0T8kbmn","#LightGrid #PSENopt #FingerProtection #HandProtection #SensorTechnology #sps_live","2016-11-22 15:30:27"
"#SensorTechnology and #IndustrialInternetofThings Growth | http:// hubs.ly/H0556cV0 pic.twitter.com/E43bM7Y4xr","#SensorTechnology #IndustrialInternetofThings","2016-11-20 15:49:01"
"#SensorTechnology and #IndustrialInternetofThings Growth | http:// hubs.ly/H0556cT0 pic.twitter.com/bewFnWArfq","#SensorTechnology #IndustrialInternetofThings","2016-11-19 15:49:02"
"Fujifilm Announces Semiconductor Plant To Improve Quality Control http:// bit.ly/2fhBtD8 #fujifilm #sensortechnology from @frdo25","#fujifilm #sensortechnology","2016-11-16 20:28:18"
"#SensorTechnology Special Edition 2016. Q&A with Benedetto Vigna of Analog and MEMS Group, @ST_World - http:// bit.ly/2fgcVgI pic.twitter.com/1fBX4qVPqh","#SensorTechnology","2016-11-15 17:05:18"
"#SensorTechnology and #IndustrialInternetofThings Growth | http:// hubs.ly/H0556cY0 pic.twitter.com/w9zWOfJyyX","#SensorTechnology #IndustrialInternetofThings","2016-11-13 15:49:01"
"#SensorTechnology and #IndustrialInternetofThings Growth | http:// hubs.ly/H0556cW0 pic.twitter.com/WWxmCuCOS5","#SensorTechnology #IndustrialInternetofThings","2016-11-12 15:49:01"
"#SensorTechnology and #IndustrialInternetofThings Growth | http:// hubs.ly/H0556cP0 pic.twitter.com/7wHzQKePVu","#SensorTechnology #IndustrialInternetofThings","2016-11-06 15:49:01"
"Staying Flexible in High-Pressure Situations #sensorTechnology #flexit http:// buff.ly/2dBnYi2","#sensorTechnology #flexit","2016-11-03 12:52:07"
"#SensorTechnology and #IndustrialInternetofThings Growth | http:// hubs.ly/H04wXM70 pic.twitter.com/n2JU3OsQaO","#SensorTechnology #IndustrialInternetofThings","2016-10-30 03:27:01"
"How durable is your #SensorTechnology ? Ours stood up to #HurricaneMatthew ...& never missed a minute's worth of data http:// bit.ly/hmlft . pic.twitter.com/d0vZYNSWNE","#SensorTechnology #HurricaneMatthew","2016-10-28 20:22:07"
"#SensorTechnology and #IndustrialInternetofThings Growth | http:// hubs.ly/H04wXbh0 pic.twitter.com/dD86aQVP67","#SensorTechnology #IndustrialInternetofThings","2016-10-28 04:27:01"
"Manufacturing co's looking to eliminate #IoT waste & boost efficiency, read on @johnerossman #sensortechnology #AMon http:// bit.ly/2eP1z0R","#IoT #sensortechnology #AMon","2016-10-25 23:28:20"
"How durable is your #SensorTechnology ? Ours stood up to #HurricaneMatthew ...& never missed a minute's worth of data http:// buff.ly/2f0p2PJ . pic.twitter.com/FFl5pDUDhV","#SensorTechnology #HurricaneMatthew","2016-10-25 15:43:04"
"Book in your FREE #physio clinic demo for #ViMove http:// yourphysioplan.com/vimove #physiotherapy #assessment #groundbreaking #sensortechnology","#physio #ViMove #physiotherapy #assessment #groundbreaking #sensortechnology","2016-10-24 14:51:16"
"We are launching a healthcare pilot of BlueBeak, an #IoT #sensortechnology #framework created by #CentricMiami . http:// bit.ly/2duRysX","#IoT #sensortechnology #framework #CentricMiami","2016-10-14 16:03:38"
". @business : Upcoming Mercedes Generation EQ is packed with #sensortechnology : http:// bloom.bg/2e0isZX","#sensortechnology","2016-10-13 18:03:49"
"#SensorTechnology and #IndustrialInternetofThings Growth | http:// hubs.ly/H04wXM30 pic.twitter.com/uxxezj8xlr","#SensorTechnology #IndustrialInternetofThings","2016-10-12 04:27:01"
"We are launching a healthcare pilot of BlueBeak, an #IoT #sensortechnology #framework created by #CentricMiami . http:// bit.ly/2duRysX","#IoT #sensortechnology #framework #CentricMiami","2016-10-10 13:51:39"
"We are launching a healthcare pilot of BlueBeak, an #IoT #sensortechnology #framework created by #CentricMiami . http:// bit.ly/2duRysX","#IoT #sensortechnology #framework #CentricMiami","2016-10-10 13:48:57"
"#SensorTechnology and #IndustrialInternetofThings Growth | http:// hubs.ly/H04wXM50 pic.twitter.com/cF3tE2V759","#SensorTechnology #IndustrialInternetofThings","2016-10-09 04:27:03"
"#SensorTechnology and #IndustrialInternetofThings Growth | http:// hubs.ly/H04wXbf0 pic.twitter.com/2qlVBz1nuo","#SensorTechnology #IndustrialInternetofThings","2016-10-07 04:27:01"
"#SkiResorts Boost #GuestExperience With #SensorTechnology http:// blipsystems.com/ski-resort/ @WheretoSkiandS @elevationout @OnTheSnow @skimagonline","#SkiResorts #GuestExperience #SensorTechnology","2016-10-06 16:24:12"
"#SensorTechnology and #IndustrialInternetofThings Growth | http:// hubs.ly/H04wXbg0 pic.twitter.com/5URWzvGDKN","#SensorTechnology #IndustrialInternetofThings","2016-10-02 04:27:02"
". @technology : Using in-car #sensors to provide real-time #data on the road: http:// bloom.bg/2dffpeF #sensortechnology #predictiveanalytics","#sensors #data #sensortechnology #predictiveanalytics","2016-09-30 19:02:50"
"""Dronie"" picture of employees @TEConnectivity showing TE spirit (: #TEOrangeDay #LifeatTE #drones #sensortechnology #connected pic.twitter.com/oG1hoRKTsE","#TEOrangeDay #LifeatTE #drones #sensortechnology #connected","2016-09-30 17:00:12"
"We are launching a healthcare pilot of BlueBeak, an #IoT #sensortechnology #framework created by #CentricMiami . http:// bit.ly/2duRysX","#IoT #sensortechnology #framework #CentricMiami","2016-09-30 15:28:45"
"Centric Miami Launches Healthcare Pilot of BlueBeak Technology: #IoT #sensortechnology created by #CentricMiami http:// bit.ly/2duRysX","#IoT #sensortechnology #CentricMiami","2016-09-30 15:17:41"
"Centric launches healthcare pilot of BlueBeak, an #IoT #sensortechnology #framework created by #CentricMiami . http:// bit.ly/2duRysX","#IoT #sensortechnology #framework #CentricMiami","2016-09-30 15:16:43"
"We are launching a healthcare pilot of BlueBeak, an #IoT #sensortechnology #framework created by #CentricMiami . http:// bit.ly/2duRysX","#IoT #sensortechnology #framework #CentricMiami","2016-09-29 21:55:54"
"We are launching a healthcare pilot of BlueBeak, an #IoT #sensortechnology #framework created by #CentricMiami . http:// bit.ly/2duRysX pic.twitter.com/jNzLsejiec","#IoT #sensortechnology #framework #CentricMiami","2016-09-29 21:31:09"
"How IoT is changing the fashion retail experience http:// bit.ly/1swcemS #IoT #retail #sensors #sensortechnology","#IoT #retail #sensors #sensortechnology","2016-09-29 18:30:27"
"'Van domme dikke dijken naar slimme dunne dijken'. Floodcontrol IJkdijk eindsymposium vandaag #floodcontrol #livedijk #sensortechnology pic.twitter.com/JK2pgWSR0z","#floodcontrol #livedijk #sensortechnology","2016-09-29 10:06:15"
". @WSJ : UPS delivers medicine by drone in MA: http:// on.wsj.com/2cJsNEd #SupplyChain #SensorTechnology","#SupplyChain #SensorTechnology","2016-09-29 00:01:37"
". @RokeNews demonstrate #sensortechnology for #troops @dstlmod http:// ow.ly/HR76304rWRi pic.twitter.com/RcDYiVFmCe","#sensortechnology #troops","2016-09-22 12:45:13"
"#hatchishiring for a #DCTech #Startup using #BigData #IoT #machinelearning #predictiveanalytics #sensortechnology http:// buff.ly/2c9q32n","#hatchishiring #DCTech #Startup #BigData #IoT #machinelearning #predictiveanalytics #sensortechnology","2016-09-08 00:04:12"
"This #LaborDay , consider how our #SensorTechnology can make the costly & time-consuming traffic counting process much easier.","#LaborDay #SensorTechnology","2016-09-05 15:43:01"
"#Sensortechnology could help mitigate risk for preterm babies #FutureResearch #NIHRat10 http:// ow.ly/iQsj303vvRl pic.twitter.com/eFEUBLqlgD","#Sensortechnology #FutureResearch #NIHRat10","2016-08-27 12:25:20"
"These wireless #earbuds do just about everything! http:// ow.ly/nbfs503tuBJ #tech #sensortechnology #innovation","#earbuds #tech #sensortechnology #innovation","2016-08-15 16:35:12"
"Could #sensortechnology determine the future of the @NFL ? @techcrunch @LarryAlton3 http:// tcrn.ch/28MIsAp pic.twitter.com/BimO2GyxQ5","#sensortechnology","2016-08-09 20:55:29"
"#Sensortechnology can improve #officedesign and improve #teammorale http:// buff.ly/29QOfF4 pic.twitter.com/WXzYVnTBgH","#Sensortechnology #officedesign #teammorale","2016-08-09 00:30:32"
"Prescriptive Maintenance with Wireless #SensorTechnology | http:// hubs.ly/H03y5960 #Machining pic.twitter.com/Dde00DB7nQ","#SensorTechnology #Machining","2016-07-28 14:32:01"
"Could #sensortechnology determine future of #NFL ? @LarryAlton3 @techcrunch http:// tcrn.ch/28MIsAp pic.twitter.com/hbIIKkrgGD","#sensortechnology #NFL","2016-07-24 20:55:16"
"Prescriptive Maintenance with Wireless #SensorTechnology | http:// hubs.ly/H03y5970 #Machining pic.twitter.com/NMdeE8BE0v","#SensorTechnology #Machining","2016-07-21 14:32:01"
"http:// buff.ly/29Seivo Pillar Technologies: the 1st @Wentworth Accelerate #startup to obtain external funding @BostInno #SensorTechnology","#startup #SensorTechnology","2016-07-21 14:15:06"
"Open #PhD #Fellowship in #SensorTechnology at @DLR_de http:// bit.ly/29q8pcK (only in German)","#PhD #Fellowship #SensorTechnology","2016-07-10 16:15:20"
"Prescriptive Maintenance with Wireless #SensorTechnology | http:// hubs.ly/H03y5990 #Machining pic.twitter.com/UBu05j6ocH","#SensorTechnology #Machining","2016-07-10 14:32:01"
"Open #PhD #Fellowship in #SensorTechnology at @DLR_de http:// bit.ly/29q8pcK (only in German)","#PhD #Fellowship #SensorTechnology","2016-07-09 09:05:10"
"Will the Internet of Things be bigger than the Industrial Revolution? http:// read.bi/29oJ6Wp #IoT #sensortechnology via @businessinsider","#IoT #sensortechnology","2016-07-08 20:10:38"
"For your Friday, ""The Chemistry of O2 Sensors"" from The Synergist. http:// bit.ly/29npD7K #sensortechnology #STEM pic.twitter.com/NWfM1RMkoM","#sensortechnology #STEM","2016-07-08 17:00:32"
"Prescriptive Maintenance with Wireless #SensorTechnology | http:// hubs.ly/H03y5930 #Machining pic.twitter.com/ZQf0obJhZO","#SensorTechnology #Machining","2016-07-07 14:32:02"
"Wow, a Wah pedal built in to your Converse! A dream come true for guitarists http:// bit.ly/294TF4d #musicians #sensortechnology","#musicians #sensortechnology","2016-06-29 11:15:17"
"Check out this new revolution in design: #SensorTechnology : http:// bit.ly/1XiMN4z pic.twitter.com/iGf3T7gOaF","#SensorTechnology","2016-06-28 21:03:23"
"There are real men who do not #cloud their #judgement with #suchnonsense such as my #future #investment in #sensortechnology","#cloud #judgement #suchnonsense #future #investment #sensortechnology","2016-06-26 22:18:44"
"Could #SensorTechnology determine the future of the @NFL ? | @TechCrunch http:// ow.ly/cpkX301wOTy","#SensorTechnology","2016-06-22 21:15:19"
"Look at this: @DLR_de offers #PhD #fellowship in #SensorTechnology https:// goo.gl/bT6LeR #interdisciplinary (only in German)","#PhD #fellowship #SensorTechnology #interdisciplinary","2016-06-19 12:01:02"
"#PhD #fellowship in #SensorTechnology at @DLR_de https:// goo.gl/bT6LeR #interdisciplinary (only in German)","#PhD #fellowship #SensorTechnology #interdisciplinary","2016-06-17 16:25:21"
"#SensorTechnology can improve #OfficeDesign and create happier employees http:// buff.ly/1Yp4Rt5 #RETech #CRETech pic.twitter.com/pv4dxjFDcl","#SensorTechnology #OfficeDesign #RETech #CRETech","2016-06-15 22:31:02"
"Open #PhD #fellowship in #SensorTechnology at @DLR_de https:// goo.gl/bT6LeR #interdisciplinary (only in German)","#PhD #fellowship #SensorTechnology #interdisciplinary","2016-06-14 20:35:16"
"#SensorTechnology #AdvanceElectronicsCircuit please be nice to meeee.... #finalexam #4paperlagi","#SensorTechnology #AdvanceElectronicsCircuit #finalexam #4paperlagi","2016-06-11 19:48:19"
"The Police and Swedbank interested in UT expertise. #sensortechnology #facialrecognition #recruitmentsimulations http:// bit.ly/1tgtIEe","#sensortechnology #facialrecognition #recruitmentsimulations","2016-06-08 12:39:07"
"Find out the latest on optical sensors to torque measurement here http:// bit.ly/1tgq7Gb #sensors #torque #sensortechnology #testing","#sensors #torque #sensortechnology #testing","2016-06-08 09:31:31"
"Find the latest on optical sensors for dynamic torque measurement here http:// bit.ly/1UzsegD #sensors #torque #sensortechnology","#sensors #torque #sensortechnology","2016-06-03 09:35:07"
"Lessons Learned from applying #SensorTechnology by @sonjaci via @GlobalCIO http:// fb.me/7OZmWtFHw","#SensorTechnology","2016-05-24 16:02:16"
"New #developments in #technology show promise for those with disabilities #medtech #disability #sensortechnology #eyetracking","#developments #technology #medtech #disability #sensortechnology #eyetracking","2016-05-23 20:00:24"
"#HackRod b4 the rock ate the #wheels #speed #sensor #SensorTechnology #tech #racing #offroad pic.twitter.com/QzsDHgTcVY","#HackRod #wheels #speed #sensor #SensorTechnology #tech #racing #offroad","2016-05-20 22:39:21"
"#GGDT9 con @jacopozenzeri si parla di #robotica #SensorTechnology pic.twitter.com/Waxl0TYwp1","#GGDT9 #robotica #SensorTechnology","2016-05-20 20:50:56"
"#Wearable #Sensor Market Global Forecast to 2020 !! Get PDF Brochure http:// tinyurl.com/qh6j6tj #SensorTechnology pic.twitter.com/rDsdEbZhyR","#Wearable #Sensor #SensorTechnology","2016-05-20 20:09:57"
"Thoughts on combining #drones #dronejournalism #opendata #sensortechnology #BigData from @uclan @_johnmills http:// bit.ly/1TuOSpY","#drones #dronejournalism #opendata #sensortechnology #BigData","2016-04-26 18:29:32"
"New patch can predict heart attack earlier than standard methods #wearables #digitalhealth #sensortechnology http:// ow.ly/4n6NQr","#wearables #digitalhealth #sensortechnology","2016-04-26 16:10:11"
"Stop by and learn more about our new products & services #sensortechnology #motioncontrol ! Hall 9, stand D17. #hm16 pic.twitter.com/gIdhTiVwhx","#sensortechnology #motioncontrol #hm16","2016-04-26 15:20:25"
"#IoT in #healthcare market will grow due to #wearable smart devices & decreasing cost of #SensorTechnology : http:// hubs.ly/H02NZBb0","#IoT #healthcare #wearable #SensorTechnology","2016-04-26 15:01:02"
"#industry40 live + busy at #boschglobal #HM16 today: Hall 7 c18 #software #hardware #sensortechnology pic.twitter.com/gx856ORTw4","#industry40 #boschglobal #HM16 #software #hardware #sensortechnology","2016-04-26 14:43:49"
"Q: What factors are being considered for shaping #wearable #learning ? #IoT #K12 #pedagogy #sensortechnology #Wearablelearning #highered #IoE","#wearable #learning #IoT #K12 #pedagogy #sensortechnology #Wearablelearning #highered #IoE","2016-04-22 23:24:20"
"Q: What factors are being considered for shaping #wearable #learning ? #IoT #K12 #pedagogy #sensortechnology #Wearablelearning ? #highered","#wearable #learning #IoT #K12 #pedagogy #sensortechnology #Wearablelearning #highered","2016-04-19 21:10:45"
"#Bosch Launches 7 New #sensortechnology #IoT Products http:// goo.gl/b4KhOf #technews #technologyfacts #IoT pic.twitter.com/fMUYxozopj","#Bosch #sensortechnology #IoT #technews #technologyfacts #IoT","2016-04-19 19:39:43"
"Reduced service deployments thanks to #safety device diagnostics! #sensor #sensortechnology http:// ow.ly/4mQUsy pic.twitter.com/wURXklbqbA","#safety #sensor #sensortechnology","2016-04-19 14:16:36"
"On 28/04/16 Baumer Electric AG will be presenting an insightful webinar on #sensortechnology . Sign up now for free! http:// bit.ly/1oFbGZ1","#sensortechnology","2016-04-13 10:45:15"
"#SensorTechnology is being used to reduce #Falling among #OlderAdults #ROC http:// ow.ly/106n3E","#SensorTechnology #Falling #OlderAdults #ROC","2016-04-04 16:31:21"
"Why motorsport likes piezoceramic #sensors http:// goo.gl/fb/frN2WN #automotiveelectronics #news #sensortechnology","#sensors #automotiveelectronics #news #sensortechnology","2016-03-30 12:39:51"
"No Bullet No Foul, weekend fun? #sensorTechnology http:// buff.ly/1o2I87g","#sensorTechnology","2016-03-26 19:43:10"
"RT @AnuvaInc : The Power of #IoT : Banks Are Using #Biometrics to Detect Scammers http:// for.tn/1PoRrET #SensorTechnology #InternetofThings","#IoT #Biometrics #SensorTechnology #InternetofThings","2016-03-22 20:45:23"
"The Power of #IoT : Banks Are Using #Biometrics to Detect Scammers http:// for.tn/1PoRrET #SensorTechnology pic.twitter.com/4trG27yflh","#IoT #Biometrics #SensorTechnology","2016-03-22 14:32:23"
"@TEDxSIULavale @Gauravmehta011 #sensortechnology #ideationsunlimited","#sensortechnology #ideationsunlimited","2016-03-05 10:26:09"
"Retweeted TEDxSIULavale ( @TEDxSIULavale ): 'Advancements in #sensortechnology will help in development of... http:// fb.me/2l01qvvPR","#sensortechnology","2016-03-05 10:17:58"
"'Advancements in #sensortechnology will help in development of drones'.: @Gauravmehta011 #TEDxSIULavale #daretoshare","#sensortechnology #TEDxSIULavale #daretoshare","2016-03-05 10:17:36"
"The age of #sensortechnology http:// ow.ly/Z43OX v/ @MouserElecEU pic.twitter.com/5g3DGXOK6H","#sensortechnology","2016-03-05 09:05:17"
"Are You There Gluten? It's Me, NIMA #SensorTechnology http:// ow.ly/YTHiq","#SensorTechnology","2016-03-02 17:55:44"
"#onlineretail #racingpigeons #fintech #smartcalendar #furnituremaker #beer #publishingplatform #sensortechnology https:// lnkd.in/e6DePKj","#onlineretail #racingpigeons #fintech #smartcalendar #furnituremaker #beer #publishingplatform #sensortechnology","2016-03-01 14:37:47"
"Read EAI interview with the head of DelChange, Jonathan Steel, about #eHealth #IoTSystems #SensorTechnology http:// bit.ly/1T8HTWd","#eHealth #IoTSystems #SensorTechnology","2016-02-25 18:01:55"
"A new EAI Interview today! Read @jonathansteel , head of @DelChange , about #eHealth #IoTSystems #SensorTechnology http:// bit.ly/1T8HTWd","#eHealth #IoTSystems #SensorTechnology","2016-02-25 11:00:30"
"""How can technology help deliver better healthcare?' @jonathansteel , CEO @DelChange about #eHealth #sensortechnology http:// bit.ly/1T8HTWd","#eHealth #sensortechnology","2016-02-25 10:00:17"
"#SensorTechnology is making huge profits in the #wellness sector and is pushing further into #medicine acc. to E. Harvey","#SensorTechnology #wellness #medicine","2016-02-18 01:27:14"
"@LNEcanal @FNTVFrance If #scolarbuses 'd been provided with #sensor #sensortechnology #IoT =>reduced probabilityOf #accidentdebus #buscrash","#scolarbuses #sensor #sensortechnology #IoT #accidentdebus #buscrash","2016-02-12 18:21:24"
"Go #Drenthe ! http:// bit.ly/1nuE9RH #innovation #interreg #opfietse #biocomposites #sensortechnology","#Drenthe #innovation #interreg #opfietse #biocomposites #sensortechnology","2016-01-25 21:55:18"
"Get the how-to in this paper, http:// goo.gl/x5TyfJ , from #IntelIT on integrating #IoT #SensorTechnology in the enterprise. @IntelITCenter","#IntelIT #IoT #SensorTechnology","2016-01-05 19:49:21"
"Looking for a compact and low-powered option for imaging? Vayyar's #SensorTechnology is the answer. http:// bit.ly/1Yo8YCu #FutureOfTech","#SensorTechnology #FutureOfTech","2015-12-28 16:26:01"
"Future of #wearables : Functions and uses http:// bit.ly/1IRncKm #wearabletech #wearabletechnology #sensors #sensortech #sensortechnology","#wearables #wearabletech #wearabletechnology #sensors #sensortech #sensortechnology","2015-12-15 07:44:24"
"Finding the Right Custom Magnetic Sensor For Your Application http:// bit.ly/1RAArkD #Littelfuse #sensortechnology pic.twitter.com/BGJ1s8jX2l","#Littelfuse #sensortechnology","2015-12-11 20:52:11"
"Finding the Right Custom Magnetic Sensor For Your Application http:// bit.ly/1NenLKG #Littelfuse #sensortechnology pic.twitter.com/uWZfg1Uplo","#Littelfuse #sensortechnology","2015-12-11 20:52:09"
"Get the how-to in this paper, http:// goo.gl/x5TyfJ , from #IntelIT on integrating #IoT #SensorTechnology in the enterprise. @IntelITCenter","#IntelIT #IoT #SensorTechnology","2015-12-11 19:46:25"
"Ford #SensorTechnology Applied to #Motorcycles for #NewMobility Insights @FordSouthAfrica ... http:// tinyurl.com/hfj4qz2 pic.twitter.com/XBJ08eEbAA","#SensorTechnology #Motorcycles #NewMobility","2015-12-11 08:12:35"
"Chew on this: #SensorTechnology gets gummy, future of #WearableTech by @ACSPublications via @sandroalberti : https:// youtu.be/2HS3-eWpOJY","#SensorTechnology #WearableTech","2015-12-07 12:52:01"
"Shared information across objects = more data via #sensortechnology = better experiences using data pic.twitter.com/gf2fEYVCwW","#sensortechnology","2015-11-10 21:41:01"
""" #sensortechnology being deployed in ways that improve digital space""-- collaborating w/ @intel Edison #cesunveiled pic.twitter.com/qDauFCnPjP","#sensortechnology #cesunveiled","2015-11-10 21:37:10"
"#creativeUK AdTech finished day 1 @NeuroSky talking about quantifying the body & mind through #sensortechnology ! pic.twitter.com/HTzEDSxBua","#creativeUK #sensortechnology","2015-11-10 20:42:02"
"#sensortechnology http:// ift.tt/1jXib87","#sensortechnology","2015-10-30 19:54:53"
"Advanced Materials: Iron skin senses the softest touch. http:// buff.ly/1XEqN1C #sensortechnology @advmater @nature pic.twitter.com/GrpaIpDH81","#sensortechnology","2015-10-30 15:15:15"
"Sensor Technology http:// dg-di.eu/DG/25/7727.htm #SensorTechnology #UnitedKingdom #TacticalStrategic #Report #Corporate #Profit #Loss #MRX","#SensorTechnology #UnitedKingdom #TacticalStrategic #Report #Corporate #Profit #Loss #MRX","2015-10-28 19:53:46"
"Use #sps_live as our official exhibition hashtag #automation #sensortechnology #iot","#sps_live #automation #sensortechnology #iot","2015-10-20 17:32:42"
"#SensorTechnology for #NewYork 's Lake http:// bit.ly/1Nls2hr","#SensorTechnology #NewYork","2015-10-20 12:05:39"
"Download the #NIJJournal ! Topics: #ForensicScience #GangPrevention #SensorTechnology #Standards #GPS #ResearchDesign http:// go.usa.gov/36GuF","#NIJJournal #ForensicScience #GangPrevention #SensorTechnology #Standards #GPS #ResearchDesign","2015-10-09 20:25:40"
"""We have to be able to capture that data on the front end & make it actionable in some way."" @Changedocjim @CHCI #2015HHM #SensorTechnology","#2015HHM #SensorTechnology","2015-10-07 18:36:42"
"Best #Rural #Manufacturing Business @Zettlex #HighTech #Precision #SensorTechnology","#Rural #Manufacturing #HighTech #Precision #SensorTechnology","2015-10-02 18:26:29"
"Use #sps_live as our official exhibition hashtag #automationtechnology #sensortechnology","#sps_live #automationtechnology #sensortechnology","2015-09-10 17:03:39"
"Thanks to #IIoT , the market for #sensortechnology is soaring - @automationworld http:// bit.ly/1NEpv3f","#IIoT #sensortechnology","2015-09-03 23:05:41"
"Tackling #respirationmonitoring with non-contact #sensortechnology http:// bit.ly/1fqZIxF #xethru #radartech pic.twitter.com/TDhZTWa2Ri","#respirationmonitoring #sensortechnology #xethru #radartech","2015-08-20 09:20:01"
"Use #sps_live as our official exhibition hashtag #automationtechnology #sensortechnology #industry40","#sps_live #automationtechnology #sensortechnology #industry40","2015-08-11 17:04:54"
"Make #SensorSystems work for you! Check out this free webinar to learn how - save your spot here: http:// bit.ly/1gIAPPt #SensorTechnology","#SensorSystems #SensorTechnology","2015-08-05 00:16:08"
"#SensorTechnology Can Improve Accuracy of #ProstateCancer Diagnosis. http:// hubs.ly/y0-qw60 #oncology #oncology","#SensorTechnology #ProstateCancer #oncology #oncology","2015-07-31 17:27:49"
"Silk-based functional inks put biosensor data on your fingertips #Innovation #SensorTechnology http:// ow.ly/31SG5s http:// fb.me/7yHUeBTKX","#Innovation #SensorTechnology","2015-07-28 17:50:25"
"#SensorTechnology Can Improve Accuracy of #ProstateCancer Diagnosis. http:// hubs.ly/y0-qw60 via @Healthcanal #oncology","#SensorTechnology #ProstateCancer #oncology","2015-07-25 20:00:05"
"#sensortechnology could allow #fingerprintunlock to unlock #smartphone #android #HTC #Samsung http:// wp.me/p6nz6o-pK pic.twitter.com/hYZCkQdvUF","#sensortechnology #fingerprintunlock #smartphone #android #HTC #Samsung","2015-07-21 16:42:50"
"#Automation Sensation!!! http:// bit.ly/1O5Gp8C @DP_World @SICK_USA #sensors #sensortechnology #terminaloperators pic.twitter.com/fPMq8tOJKR","#Automation #sensors #sensortechnology #terminaloperators","2015-07-15 13:07:00"
"Building Bridges from the #Sensor Level Up to the #Cloud with #SensorTechnology 4.0 http:// bit.ly/1CkIixL via @YouTube #Industry40 #IoT","#Sensor #Cloud #SensorTechnology #Industry40 #IoT","2015-07-06 15:20:06"
"Ik moet vandaag een parkeerkaart kopen ben helemaal stil gevallen tijdens t leren. #sensortechnology","#sensortechnology","2015-07-02 21:03:45"
"#Sensortechnology will transform many aspects of our daily lives writes #mfg journalist Thomas R. Cutler http:// bit.ly/1N5iHcg","#Sensortechnology #mfg","2015-06-24 20:30:11"
"#mfg journalist Thomas R. Cutler predicts #sensortechnology will revolutionize how we live http:// bit.ly/1N5iHcg","#mfg #sensortechnology","2015-06-23 22:30:13"
"1. #Mfg journalist Thomas R. Cutler talks #sensortechnology in new http:// Automationmedia.com http:// bit.ly/1N5iHcg","#Mfg #sensortechnology","2015-06-23 20:30:15"
"@daviddinenberg How is your industry using new #sensortechnology to improve #growing #measurement and #monitoring requirements?","#sensortechnology #growing #measurement #monitoring","2015-06-03 15:44:35"
"#Vicrea @#smartcitynl #Amsterdam . Bezoek onze stand! #SmartCityAwarenessWorkshop #SmartMaps #Sensortechnology #vicreatweet","#Vicrea #smartcitynl #Amsterdam #SmartCityAwarenessWorkshop #SmartMaps #Sensortechnology #vicreatweet","2015-06-03 14:39:42"
"Latest blog I wrote for work about #SmartClothes and #sensortechnology http:// klou.tt/zi3z29nh8l67","#SmartClothes #sensortechnology","2015-06-02 18:00:15"
"#SensorTechnology in automotive security will eventually uplift the Market for Proximity and Displacement Sensors https:// goo.gl/fVog9X","#SensorTechnology","2015-05-26 08:22:49"
"#sensortechnology #Runners #Workout Check out the newest way to monitor heart rate intensity! https:// goo.gl/gBE8Ty","#sensortechnology #Runners #Workout","2015-05-18 13:46:50"
"#NDIR #SensorTechnology suitable and feasible to monitor #CO2Concentrations in naturally ventilated livestock barns http:// sci.fo/44","#NDIR #SensorTechnology #CO2Concentrations","2015-05-18 09:42:49"
"In case you missed it, here is our first newsletter! http:// bit.ly/1Hfl4Yq #biosecurity #sociallistening #foodsecurity #sensortechnology","#biosecurity #sociallistening #foodsecurity #sensortechnology","2015-05-14 13:19:02"
"Great progress! Here we come #VC #Berlin #SensorTechnology #Automotive #insurancetech","#VC #Berlin #SensorTechnology #Automotive #insurancetech","2015-04-30 14:05:36"
"Tech #TechNews #parking #parkIT #sensortechnology Cheaper System to Ease Pain of Parking http:// dlvr.it/9b0GSy","#TechNews #parking #parkIT #sensortechnology","2015-04-28 21:15:06"
"#FDA #wearables #sensortechnology #hightechwearables #digitalhealth https:// lnkd.in/dz-NG6R","#FDA #wearables #sensortechnology #hightechwearables #digitalhealth","2015-03-31 17:28:17"
"Ford Using #SensorTechnology to Help European Drivers Avoid Tickets #speedingticket http:// on.wsj.com/1IzbHmr","#SensorTechnology #speedingticket","2015-03-30 23:42:47"
"AIHA webinar on April 24 to focus on modern direct-reading and sensor technologies: http:// bit.ly/april24webinar #sensortechnology","#sensortechnology","2015-03-23 17:25:33"
"Fulltime position in #SensorTechnology at @UniSiegen http:// bit.ly/1DdWVgm","#SensorTechnology","2015-03-22 13:05:21"
"#Arrow Electronics in new EMEA distribution agreement with #visualplanet : http:// bit.ly/1BZrKsz #touchfoil #sensortechnology","#Arrow #visualplanet #touchfoil #sensortechnology","2015-03-20 11:00:18"
"#SensorTechnology Changes the Impossible into a Reality http:// ow.ly/KxSfk by @KAPommer on @CEA #technology pic.twitter.com/iwgzn0V1DM","#SensorTechnology #technology","2015-03-19 20:00:08"
"Interested in #SensorTechnology ? Apply for this research position @UniSiegen http:// bit.ly/1DdWVgm","#SensorTechnology","2015-03-13 20:41:01"
"Serious Technology, Serious Fun! #Hanze #SensorTechnology http:// youtu.be/LRcF0q7r2zI","#Hanze #SensorTechnology","2015-03-11 14:52:56"
". @AIHA requests proposals for sensor technology #research : http:// bit.ly/sensortechrfp #sensortechnology #RFP","#research #sensortechnology #RFP","2015-03-04 22:19:06"
"@UniSiegen is looking for a Scientist for #SensorTechnology http:// bit.ly/1DdWVgm","#SensorTechnology","2015-02-27 05:40:12"
"Volvo's self-driving car: #sensortechnology at its best ;) http:// read.bi/1vRLojO via @BI_Transport pic.twitter.com/nWtxevoSuR","#sensortechnology","2015-02-21 12:00:02"
"Excellent performance offered in a new range of 19"" rack Mass #Spectrometers from Process Analyser: http:// ow.ly/HyoDA #sensortechnology","#Spectrometers #sensortechnology","2015-02-20 10:37:08"
"Study shows #sensortechnology may help improve accuracy of clinical breast exams http:// medx.cc/343572716 @UWMadison","#sensortechnology","2015-02-19 18:52:05"
"MEMS/Sensors Drive IoT/E Innovation in Europe http:// hubs.ly/y0wh390 #SensorTechnology","#SensorTechnology","2015-02-10 20:53:10"
"Wow can't believe the popcorn button on my new microwave actually works every time with different sized bags! @LGUS #FTW #sensortechnology","#FTW #sensortechnology","2015-02-05 23:31:51"
"Sophisticated sensors replicate human senses http:// hubs.ly/y0t_Dh0 #SensorTechnology pic.twitter.com/yuX0GUaJB0","#SensorTechnology","2015-02-02 22:53:09"
"Smart lighting on rental bikes. #achterlicht #safety #easytofind #sensortechnology #wifinetwork #TEDxZwolle pic.twitter.com/p59MtSy6zf","#achterlicht #safety #easytofind #sensortechnology #wifinetwork #TEDxZwolle","2015-01-28 17:43:57"
"Excellent performance offered in a new range of 19"" rack Mass #Spectrometers from Process Analyser: http:// ow.ly/HyoDA #sensortechnology","#Spectrometers #sensortechnology","2015-01-19 13:34:37"
"MT @dhsummit : Insight by @ucb_news at #DigitalHealthCES #WebMDCES #CES2015 on #pharma #Sensortechnology http:// buff.ly/1yq0Us1 #eHealth","#DigitalHealthCES #WebMDCES #CES2015 #pharma #Sensortechnology #eHealth","2015-01-16 18:04:04"
"@LeBronJames thanks for the follow! Mind a shout out or #RT ? Building our page! Thx! #sensortechnology for sports.","#RT #sensortechnology","2015-01-13 00:45:51"
"RT @dhsummit : Insight by @ucb_news at #DigitalHealthCES #WebMDCES #CES2015 on #pharma #Sensortechnology #Sensors pic.twitter.com/TmnB9xUYvX","#DigitalHealthCES #WebMDCES #CES2015 #pharma #Sensortechnology #Sensors","2015-01-09 16:57:59"
"#fitnesstracker #Sensortechnology accuracy needs to be clearly benchmarked and marketed to create a healthy market #wheatfromchaff #CES2015","#fitnesstracker #Sensortechnology #wheatfromchaff #CES2015","2015-01-09 02:17:26"
"Insight by @ucb_news at #DigitalHealthCES #WebMDCES #CES2015 on #pharma #Sensortechnology #Sensors pic.twitter.com/hkqoplIWNz","#DigitalHealthCES #WebMDCES #CES2015 #pharma #Sensortechnology #Sensors","2015-01-08 18:37:05"
"#mHealth masters: @stevesteinhubl on the cutting edge of #wearable #sensortechnology : http:// bit.ly/1tp8Zgl #HIT #HealthcareIT","#mHealth #wearable #sensortechnology #HIT #HealthcareIT","2014-12-28 23:33:05"
"Creating a smarter city #LED #sensortechnology #smartercity https:// lnkd.in/ePicWTc","#LED #sensortechnology #smartercity","2014-12-15 18:02:01"
"Luc Van den Hove, CEO of @IMEC giving his vision on our future with #sensortechnology At #sensemore @MICVlaanderen pic.twitter.com/qxwCaqzBak","#sensortechnology #sensemore","2014-12-11 17:40:13"
"""Internet of Things search engine wants the world to sell and exchange sensor data"" http:// tinyurl.com/mqnusv6 #IoT #SensorTechnology","#IoT #SensorTechnology","2014-11-28 16:12:38"
"This new range of #Samsung #Microwaves is in store now, ready to take home today. #SensorTechnology #CeramicInterior pic.twitter.com/FiJrtguTA6","#Samsung #Microwaves #SensorTechnology #CeramicInterior","2014-11-23 11:26:27"
"25 billion connected devices by 2020 to build the Internet of Things http:// ow.ly/2QxGRx #iot #sensortechnology #revolution","#iot #sensortechnology #revolution","2014-11-12 03:45:17"
"We have a new range of #Samsung #Microwaves in store now with #SensorTechnology and #CeramicInterior . pic.twitter.com/RjuI5hQurm","#Samsung #Microwaves #SensorTechnology #CeramicInterior","2014-10-22 20:14:57"
"#mobile devices are including more #sensortechnology , so this definitely changes #UX . #Note4 contains 18 sensors, 1 for heart rate #health","#mobile #sensortechnology #UX #Note4 #health","2014-10-22 07:08:59"
"#Robot cheerleading squad showcases #sensortechnology http:// ow.ly/2OtOUr","#Robot #sensortechnology","2014-10-05 19:01:15"
"Smart Cushion Startup Hits Fundraisin Target on Kickstartr #Kickstarter #LorraineLuk #sensortechnology http:// rnj.me/1r837Qe","#Kickstarter #LorraineLuk #sensortechnology","2014-10-03 14:43:19"
"#Kickstarter #LorraineLuk #sensortechnology Smart Cushion Startup Hits Fundraisin Target on Kickstartr http:// j.mp/1yC1gNq","#Kickstarter #LorraineLuk #sensortechnology","2014-10-03 14:41:25"
"#Kickstarter #LorraineLuk #sensortechnology Smart Cushion Startup Hits Fundraisin Target on Kickstartr http:// j.mp/1rDNg1V","#Kickstarter #LorraineLuk #sensortechnology","2014-10-03 13:31:14"
"Smart Cushion Startup Hits Fundraisin Target on Kickstartr #Kickstarter #LorraineLuk #sensortechnology http:// rnj.me/1r7qjhr","#Kickstarter #LorraineLuk #sensortechnology","2014-10-03 12:43:17"
"#Kickstarter #LorraineLuk #sensortechnology Smart Cushion Startup Hits Fundraisin Target on Kickstartr http:// j.mp/1yBRZFe","#Kickstarter #LorraineLuk #sensortechnology","2014-10-03 12:41:58"
"Smart Cushion Startup Hits Fundraising Target on ... #LorraineLuk #SensorTechnology http:// j.mp/1nTaIYA pic.twitter.com/zYeJvSN8Lo","#LorraineLuk #SensorTechnology","2014-10-03 12:35:33"
"#Kickstarter #LorraineLuk #sensortechnology Smart Cushion Startup Hits Fundraisin Target on Kickstartr http:// j.mp/10oiizo","#Kickstarter #LorraineLuk #sensortechnology","2014-10-03 12:31:18"
"Looks like @DwellOnDesign will cover smart homes. Meantime great article http:// is.gd/B1jwxILoo #sensortechnology pic.twitter.com/nTLQyP12kT","#sensortechnology","2014-09-29 23:35:17"
"How to prepare for a world that anticipates every outcome - http:// omkt.co/AABZ2Q #sensorembedded #sensortechnology #networks #innovation","#sensorembedded #sensortechnology #networks #innovation","2014-09-23 17:47:05"
"Careful parking in Melb CBD. Booked 7 minutes before tix ran out but still guilty. #sensortechnology","#sensortechnology","2014-07-29 11:39:16"
"...Technicial Insights Report on #SensorTechnology #Innovations Enabling Quantified-Self #BigPictureAnalytics http:// bit.ly/1nf9eWO","#SensorTechnology #Innovations #BigPictureAnalytics","2014-07-27 15:10:19"
". @CanonWatch debut of 7D Mark II will sport 'revolutionary' #SensorTechnology #BigPictureAnalytics http:// bit.ly/1zJdQZi","#SensorTechnology #BigPictureAnalytics","2014-07-26 14:30:31"
"""Technical Insights Report on #SensorTechnology Innovations Enabling Quantified-Self"" http:// hub.am/VAjptA by @azosensors","#SensorTechnology","2014-07-08 01:51:02"
"#Bigdata meets #POS #identity detection @bluehoundco #sensors #sensortechnology #SaaS","#Bigdata #POS #identity #sensors #sensortechnology #SaaS","2014-07-05 20:14:12"
"30-80% of water pumps installed in Africa fail in their first years. #Sensortechnology is changing this stat: http:// onforb.es/1nY9wPO","#Sensortechnology","2014-07-02 20:40:29"
"Of course! Wearable technology had to feature at #GoogleIO2014 #SensorTechnology #ElectronicsWednesday @Geekulcha @mlabsa @InnovHub","#GoogleIO2014 #SensorTechnology #ElectronicsWednesday","2014-06-25 19:01:52"
"Our #sensortechnology is used in the Porsche Panamera to make driving safer, more comfortable & more fuel efficient http:// youtu.be/wwDyxORTans","#sensortechnology","2014-06-20 14:11:07"
"#Didyouknow vehicle sensors are making life easier in other areas? #Sensortechnology features in fridges & lawnmowers http:// youtu.be/sriLGm20uP8","#Didyouknow #Sensortechnology","2014-06-19 17:53:00"
"the use of #sensortechnology advances yet again http:// wrd.cm/1kSInxG @CNET @nytimestech @BBCTech @sensorsonline @SiemensSensors","#sensortechnology","2014-06-13 14:40:39"
"En veille startups /techno #bigdata #cloudcomputing #smartcities #DataCapture / #sensortechnology , etc for corporate funds #cvfyt #fens2014","#bigdata #cloudcomputing #smartcities #DataCapture #sensortechnology #cvfyt #fens2014","2014-06-12 19:03:51"
"#Bigdata meets #POS #identity detection @bluehoundco #sensors #sensortechnology #SaaS","#Bigdata #POS #identity #sensors #sensortechnology #SaaS","2014-06-05 20:35:10"
"MT @BoschUK : Bosch RO Press Conference today and this year, it's all about #SensorTechnology . #MEMS #BoschROPC http:// bit.ly/1kNu7FO","#SensorTechnology #MEMS #BoschROPC","2014-06-05 14:10:29"
"MT @BoschUK : Bosch RO Press Conference today and this year, it's all about #SensorTechnology . #MEMS #BoschROPC http:// bit.ly/1kNu7FO","#SensorTechnology #MEMS #BoschROPC","2014-06-04 20:27:07"
"MT @BoschUK : Bosch RO Press Conference today and this year, it's all about #SensorTechnology . #MEMS #BoschROPC http:// bit.ly/1kNu7FO","#SensorTechnology #MEMS #BoschROPC","2014-06-04 20:27:07"
"It's the Bosch RO Press Conference today and this year, it's all about #SensorTechnology . #MEMS #BoschROPC http:// bit.ly/1kNu7FO","#SensorTechnology #MEMS #BoschROPC","2014-06-04 16:59:45"
"The power of high precision #tracking - find out what you're missing http:// goo.gl/1s3mOQ #sensortechnology pic.twitter.com/Pir7g6wvly","#tracking #sensortechnology","2014-05-30 18:03:04"
"Watching a video on Industrial Internet. #SensorTechnology #CloudComputing #Electronics #IntellegentInformation . Love this. @Keitu_Tsotetsi","#SensorTechnology #CloudComputing #Electronics #IntellegentInformation","2014-04-25 21:31:15"
"Find out how to make the most of the information at your fingertips! @wssherocks @TLeonidas_WH #EnergyManagement #SensorTechnology","#EnergyManagement #SensorTechnology","2014-04-24 18:35:09"
"The #Future of health care looks bright thanks to #QuantifiedSelf #BigData #SensorTechnology & #HealthApps http:// ow.ly/vK0Tp","#Future #QuantifiedSelf #BigData #SensorTechnology #HealthApps","2014-04-17 08:45:19"
"#BigData #IoT #SensorTechnology is what the @Geekulcha crew is up to today. @king_karime @Hervinho_243 @Keitu_Tsotetsi #ElectronicsWednesday","#BigData #IoT #SensorTechnology #ElectronicsWednesday","2014-04-16 13:55:13"
"Got my @CubeSensors waiting for the data #sensortechnology #remotemonitoring pic.twitter.com/H2jnqyFxfu","#sensortechnology #remotemonitoring","2014-04-02 22:01:13"
"Day 3 at @ArabLab and the stand is now open. Discussing free chlorine measurement in refinery #sensortechnology pic.twitter.com/xVrL39MDNF","#sensortechnology","2014-03-19 07:14:49"
"The Monitored Man http:// nyti.ms/1fla6j2 #sensortechnology #mhealth #remotemonitoring","#sensortechnology #mhealth #remotemonitoring","2014-03-11 23:12:55"
"The new way to take a selfie - http:// goo.gl/alerts/78Bt #gesturecontol #sensortechnology #pointgrab","#gesturecontol #sensortechnology #pointgrab","2014-02-27 18:22:34"
"Jan/Feb cover story http:// bit.ly/1fh1gad #WDD #SensorTechnology @UofC @JohnsHopkins @JohnsHopkins pic.twitter.com/lSvMpH5APd","#WDD #SensorTechnology","2014-02-19 18:23:17"
"#APPLE INC ... #MOBOLIZING TO #FurtherDEVELOP #SensorTECHNOLOGY ..Reportedly looking to #acquire medical products & car making companies","#APPLE #MOBOLIZING #FurtherDEVELOP #SensorTECHNOLOGY #acquire","2014-02-18 01:07:43"
"Check it out.. Marty McFly's Power-lacing Nike shoes: http:// youtu.be/liI1E_ZZV5w via @youtube @Atmel #arduino #BackToTheFuture #sensortechnology","#arduino #BackToTheFuture #sensortechnology","2014-02-17 18:19:03"
"Programming my drone for gps use. See what we can do with this in #agriculture #sensortechnology pic.twitter.com/XLxYBK8VbF","#agriculture #sensortechnology","2014-02-01 20:57:13"
"This former #MarsRover scientist is using #sensortechnology to help those with cognitive impairment. http:// bit.ly/1f14CQB","#MarsRover #sensortechnology","2014-01-21 20:50:17"
"#mhealth #sensortechnology #wearables http:// lnkd.in/dfGm2yN","#mhealth #sensortechnology #wearables","2014-01-21 02:50:26"
"Time to study #sensortechnology","#sensortechnology","2013-12-11 18:55:41"
"BLIP Systems and #Austraffic Join Forces to Fight Traffic #Congestion in #Australia : #Bliptrack #sensortechnology http:// eepurl.com/JMvMP","#Austraffic #Congestion #Australia #Bliptrack #sensortechnology","2013-11-29 14:30:15"
"Let the lecture begin #sensortechnology","#sensortechnology","2013-11-26 02:25:23"
""" @R_rusydi : Nk pecah kepala berfikir #sensortechnology "" esop test ko di? Gd luck uhh..ikhlas dr abe he..haha","#sensortechnology","2013-11-18 18:21:42"
"Nk pecah kepala berfikir #sensortechnology","#sensortechnology","2013-11-18 18:19:48"
"My drink was served by a robot by @HarveyandJohn today #newbartender #smr6 #sensortechnology pic.twitter.com/SUXUcBuwXh","#newbartender #smr6 #sensortechnology","2013-11-16 18:12:57"
"Get ready for test #sensortechnology","#sensortechnology","2013-11-08 07:13:11"
"US #Military testing out #Halo like helmets http:// bit.ly/1gtLsCp #technews #futurism #videogames #sensortechnology","#Military #Halo #technews #futurism #videogames #sensortechnology","2013-11-07 14:55:11"
"Media interest in our #sensortechnology at 01.204A at #AquatechAmsterdam #famous pic.twitter.com/HdOwuKJqhw","#sensortechnology #AquatechAmsterdam #famous","2013-11-07 12:35:38"
"Smile! Your gas pump is scanning you http:// bit.ly/1efRc27 #bigbrother #technews #sensortechnology #surveillance","#bigbrother #technews #sensortechnology #surveillance","2013-11-06 14:54:32"
"New app: disinfection of industrial humidifiers requires accurate ClO2 analysis #wecandothat #sensortechnology #Aquatechamsterdam","#wecandothat #sensortechnology #Aquatechamsterdam","2013-11-05 13:25:07"
"RT @henkpijlman : Prachtige presentatie #sensortechnology bij #hanze hit in Assen. 16 afgestudeerden leveren 4 patenten af! Topopleiding!","#sensortechnology #hanze","2013-10-28 18:00:02"
"Prachtige presentatie #sensortechnology bij #hanze hit in Assen. 16 afgestudeerden leveren 4 patenten af! Topopleiding!","#sensortechnology #hanze","2013-10-28 17:18:06"
"Sense-T Launch event utas #innovation #sensortechnology #smarterdecisions #tasmania http:// instagram.com/p/fhc8BTyqdT/","#innovation #sensortechnology #smarterdecisions #tasmania","2013-10-16 11:16:18"
"Together, #AI #EMRs & #SensorTechnology can illustrate a patient's story & advance pre-emptive and preventative care http:// bit.ly/19EVZYM","#AI #EMRs #SensorTechnology","2013-10-14 21:11:35"
"#sensortechnology #fms #theoryclass http:// instagram.com/p/etFCemLbMW/","#sensortechnology #fms #theoryclass","2013-09-26 02:59:43"
"Terlalu seronok bermain dengam sensor..#GMI#sensortechnology http:// instagram.com/p/d3wrJEHI44/","#GMI #sensortechnology","2013-09-05 10:02:55"
"Esko Aho: Sote-uudistus:""completely crazy idea"" #ICEC2013 #digitalization #sensortechnology #personalmedicine","#ICEC2013 #digitalization #sensortechnology #personalmedicine","2013-08-14 09:21:38"
"Time to get your butt off the couch: Fitness app market to grow 63... http:// bit.ly/1dpWyCD #digitalhealth #sensortechnology cc @gigaom","#digitalhealth #sensortechnology","2013-07-12 12:05:47"
"Cell phone is all set to make its contribution to particulate matter monitoring #iSpex #sensortechnology","#iSpex #sensortechnology","2013-06-17 21:18:19"
"RT @palintest : #LabAfrica - Showcasing #sensortechnology , multi-parameter photometer, compact photometer, electro-chemical instrument","#LabAfrica #sensortechnology","2013-06-10 12:43:01"
"#LabAfrica - Showcasing #sensortechnology , multi-parameter photometer, compact photometer, electro-chemical instrument","#LabAfrica #sensortechnology","2013-06-10 12:42:15"
"@TECHNOFUNDING #crowdfunding is looking for New Creators, #BioTech , #SensorTechnology , #Nanotechnology , #ScientificResearch","#crowdfunding #BioTech #SensorTechnology #Nanotechnology #ScientificResearch","2013-06-04 12:54:24"
"White paper: Linear position sensing in steel mills and metal forming applications. http:// tinyurl.com/m4qqnah #whitepaper #sensortechnology","#whitepaper #sensortechnology","2013-06-03 13:44:22"
"#all #kaput #SensorTechnology http:// instagram.com/p/ZiIrZ3JS7e/","#all #kaput #SensorTechnology","2013-05-20 14:22:33"
"Masterclass Handprothese havo/vwo 4 op 4 en 6 juni #hanze #hit #sensortechnology http:// bit.ly/YpbOfa","#hanze #hit #sensortechnology","2013-05-06 09:48:01"
"Company behind 'digital pill' with embedded chip raises $62.5M http:// goo.gl/fb/5KMGK #tech #technology #digitalhealth #sensortechnology","#tech #technology #digitalhealth #sensortechnology","2013-05-01 19:50:22"
"@BelkinBusiness unveils Echo #sensortechnology for intelligent #naturalresourcemanagement : http:// bit.ly/ZU6iBM","#sensortechnology #naturalresourcemanagement","2013-04-30 19:20:24"
"10 Sensor Innovations driving the #DigitalHealth revolution. http:// on.fb.me/136wmNC #mHealth #Apps #sensortechnology","#DigitalHealth #mHealth #Apps #sensortechnology","2013-04-16 00:01:42"
"50 sensor applications for a smarter world http:// goo.gl/3IexV #sensortechnology #internetofthings #m2m RT @EsmeraldaTop","#sensortechnology #internetofthings #m2m","2013-04-13 18:29:13"
"""50 sensor applications for a smarter world"" http:// bit.ly/In8msr #sensortechnology #internetofthings","#sensortechnology #internetofthings","2013-04-13 15:59:11"
"Mind blown! http://www. sensorcon.com/sensordrone/ #sensortechnology","#sensortechnology","2013-04-04 01:23:12"
"Roadnet Technologies relies on #PredictiveAnalytics #SensorTechnology -- @CIOJournal http:// on.wsj.com/10VlDT1","#PredictiveAnalytics #SensorTechnology","2013-03-28 20:05:08"
"A baby romper that can prevent SIDs & accurate kidney tests? All possible through #sensortechnology : http:// ow.ly/gygy7","#sensortechnology","2013-01-04 21:42:52"
"RT @BigDataPVSW : #InternetOfThings #SensorTechnology and Parking Assistance in congested areas. @SmartPlanet http:// goo.gl/VlXXC","#InternetOfThings #SensorTechnology","2012-12-12 20:36:27"
"#InternetOfThings #SensorTechnology and Parking Assistance in congested areas. @SmartPlanet http:// smrt.io/UfdhiL","#InternetOfThings #SensorTechnology","2012-12-11 21:34:00"
"Sensor scans sea floor looking for undetonated bombs: http:// bit.ly/QVFz5L #newtechnology #sensortechnology #technews","#newtechnology #sensortechnology #technews","2012-11-20 15:23:18"
"An interesting use of #SensorTechnology in the area of senior healthcare. @OReillyMedia http:// oreil.ly/T0DkKL","#SensorTechnology","2012-11-16 19:44:30"
"FedEx CIO on #BigData #SensorTechnology - from @gigastacey @gigaom #Analytics http:// bit.ly/TwKSbZ","#BigData #SensorTechnology #Analytics","2012-10-10 18:48:52"
"""A pill that treats and tells - Ottawa Citizen"" #healthIT #medication #sensortechnology http:// bit.ly/Pnb9Uh","#healthIT #medication #sensortechnology","2012-08-27 19:48:37"
"Vandaag gewasmetingen proef wireless beregenen #sensortechnology","#sensortechnology","2012-07-10 23:46:09"
"Hand-Gesture Technologies:Wave Bye to Desktop Mouse! http:// ow.ly/b38PH #sensortechnology #sensors","#sensortechnology #sensors","2012-05-21 19:40:20"
"Curious 4 overview of currently available robust and proven measurement principles 4 #in -line #pulp #characterisation . #sensortechnology","#in #pulp #characterisation #sensortechnology","2012-05-09 22:58:40"
"ya3ni eh #SensorTechnology ? ya3ni el lecture 40 slides w 2awel 10 slides nafs el ma3na bas b see3'a mo5talefa. #Guc","#SensorTechnology #Guc","2012-01-24 05:35:50"
"Started studying #SensorTechnology ta7t re3ayet #DrHeshamElSherief :D #GUC","#SensorTechnology #DrHeshamElSherief #GUC","2012-01-22 15:39:39"
"Smarter Sensors Start Going to Work - http://nyti.ms/9zL18b #sensortechnology #M2M","#sensortechnology #M2M","2010-05-25 02:22:21"
"Smarter Sensors Start Going to Work - http://nyti.ms/9zL18b #sensortechnology #IOT #M2M","#sensortechnology #IOT #M2M","2010-05-25 02:08:22"
