"2017-08-13","desertification","172","africa","6","climatechangeafilm","6","climatechange","7","fpa2017","8","disasters","4","makeafricagreenagain","12","desertgreening","3","plan_t_e","12","ccagadir2017","4","100milliontrees4africa","4"
"2017-08-13","desertification","0"
"2017-08-13","desertification","0"
"2017-08-13","desertification","186","africa","6","climatechangeafilm","6","climatechange","7","fpa2017","8","disasters","4","makeafricagreenagain","12","desertgreening","3","plan_t_e","12","ccagadir2017","4","100milliontrees4africa","4"
