"2017-08-13","globalwarming","1442","global","4","protest","22","environment","33","fakenews","4","nowall","12","whyweneedtreesin5words","10","bernie","22","flooding","3","nn17","5","32","9","science","12","trump","28","climatechange","70","charlottesville","8","tcot","8","calentamientoglobal","3","neworleans","3","startup","3","hillary","22","warming","3","algore","5","nature","6","maga","5","climate","24","sealevelrise","4","news","3","climatechangeisreal","3","cleanenergy","4","belugasolar","4","p2","5","bbtw","4","innovation","3","question","12","hellexpanding","4","pjnet","3","solarenergy","3","agw","7"
"2017-08-13","globalwarming","0"
"2017-08-13","globalwarming","0"
"2017-08-13","globalwarming","1439","global","4","protest","22","environment","33","fakenews","4","nowall","12","whyweneedtreesin5words","10","bernie","22","flooding","3","nn17","5","32","9","science","12","trump","28","climatechange","70","charlottesville","8","tcot","8","neworleans","3","startup","3","hillary","22","warming","3","algore","5","nature","6","maga","5","climate","24","sealevelrise","4","news","3","climatechangeisreal","3","cleanenergy","4","belugasolar","4","p2","5","bbtw","4","innovation","3","question","12","hellexpanding","4","pjnet","3","solarenergy","3","agw","7"
