"2017-08-13","greenenergy","1408","environment","11","renewableenergy100x","3","power","4","prnews","5","led","3","water","3","china","4","renewableenergyjobs","3","energystar","3","onpoli","4","tanklessheaters","3","nintendoswitch","4","trumpsucks","5","science","4","trump","6","solarpower","5","greenenergyjobs","3","sustainability","6","coal","3","green","71","healthcare","5","travel","4","climatechange","20","energy","94","webinar","4","ev","4","canada","5","space","3","goa","4","enviroment","3","saveenergy","3","windenergy","4","eco","5","undp","6","greenpower","3","times","3","smartcities","4","trumpinator","5","offshorewind","4","bitcoin","3","euclimate","4","future","5","video","14","climateaction","6","tech","11","wind","12","datascience","4","sustainable","5","startup","4","co2","17","jobs","8","news","12","splatoon2","4","energyefficiency","6","climate","10","cx","4","renewables","16","cleanenergy","17","geothermal","4","chile","4","alternativeandrenewableenergy","3","oil","4","iot","5","renewable","4","world","3","orlando","3","impeach","5","innovation","5","business","3","renewableenergy","9","notmypresident","5","yyc","3","resilience","3","bcpoli","4","savemoney","3","solar","43","us","3","tesla","3","solarenergy","6","solarpanels","4","cdnpoli","5"
"2017-08-13","greenenergy","0"
"2017-08-13","greenenergy","0"
"2017-08-13","greenenergy","1407","environment","11","renewableenergy100x","3","power","4","prnews","4","led","3","water","3","china","4","renewableenergyjobs","3","energystar","3","onpoli","4","tanklessheaters","3","nintendoswitch","4","trumpsucks","5","science","4","trump","6","solarpower","6","greenenergyjobs","3","sustainability","5","coal","3","green","69","healthcare","5","travel","4","climatechange","20","energy","94","webinar","4","ev","4","canada","5","space","3","goa","4","enviroment","3","saveenergy","3","windenergy","5","eco","5","undp","6","greenpower","3","times","3","smartcities","4","trumpinator","5","offshorewind","4","bitcoin","3","euclimate","4","future","5","video","14","climateaction","6","tech","11","wind","12","datascience","4","sustainable","5","startup","4","co2","17","jobs","8","news","12","splatoon2","4","energyefficiency","6","climate","10","cx","4","renewables","16","cleanenergy","17","geothermal","4","chile","4","alternativeandrenewableenergy","3","oil","4","iot","5","renewable","3","world","3","orlando","3","impeach","5","innovation","5","business","3","renewableenergy","9","notmypresident","5","or","3","yyc","3","resilience","3","bcpoli","4","savemoney","3","solar","43","us","3","tesla","3","solarenergy","6","solarpanels","4","cdnpoli","5"
