"An ottoman / bike lane protection for Cambridge Street #urbanAR #AugmentedReality @IKEAUSA pic.twitter.com/C8OF0xRmra","#urbanAR #AugmentedReality","2017-04-06 00:15:26"
"Hmm...teach STEM with hands-on projects and real-life applications? Lesson 1: Heart Operation. http:// bit.ly/2nceEsB #AugmentedReality","#AugmentedReality","2017-04-06 00:06:39"
"The promise of #AugmentedReality spans #applications that range from heavy #industry to #automotive systems to video #games . #pwc #ar pic.twitter.com/o2kdAJGtQd","#AugmentedReality #applications #industry #automotive #games #pwc #ar","2017-04-06 00:03:01"
"Entertaining myself @northernline home tonight with this cool #ar avatar app @GabseeApp #London #augmentedreality @TfL Go get it now! pic.twitter.com/mL9r6733EF","#ar #London #augmentedreality","2017-04-05 23:52:51"
"Plant #AR you Thirsty? Part 2 Internet of Things #AugmentedReality - Water Sensor. http:// buff.ly/2oDLSB1 pic.twitter.com/AIE2LrH1X9","#AR #AugmentedReality","2017-04-05 23:24:02"
"The newest in-store experience from @Lowes teaches DIY skills through immersive #VirtualReality & #AugmentedReality http:// bit.ly/2obnHJu","#VirtualReality #AugmentedReality","2017-04-05 23:23:27"
"IIDA NY Explores Virtual Reality at Pioneering Design Event http:// ift.tt/2o4sZGi #AugmentedReality","#AugmentedReality","2017-04-05 23:15:40"
"Kopin Corp (KOPN) Agrees to Partnership with BOE Technology Group and OLiGHTEK for OLED ... http:// ift.tt/2p2loFI #AugmentedReality","#AugmentedReality","2017-04-05 23:15:39"
"5 things to do today, April 6 http:// ift.tt/2o4uxQm #AugmentedReality","#AugmentedReality","2017-04-05 23:15:39"
"AR Has More Potential Than VR -- But Where Is It? http:// ift.tt/2p2tgHp #AugmentedReality","#AugmentedReality","2017-04-05 23:15:39"
"UCSD to formally open its new virtual reality lab http:// ift.tt/2o4Y2Sj #AugmentedReality","#AugmentedReality","2017-04-05 23:15:38"
"How Salem's Augmented Reality Exhibit is Actually a Social Mission http:// ift.tt/2p2hwok #AugmentedReality","#AugmentedReality","2017-04-05 23:15:38"
"News Neurable Planning to Bring Brainwave Controls to AR Headsets Later This Year http:// ift.tt/2o4qhka #AugmentedReality","#AugmentedReality","2017-04-05 23:15:37"
"Immerse yourself! Virtual reality films, games part of CIFF's 'Perspectives' exhibit http:// ift.tt/2p2xui5 #AugmentedReality","#AugmentedReality","2017-04-05 23:15:37"
"News Meitu's BeautyPlus Selfie-Perfecting App Just Got Some Fun AR Filters http:// ift.tt/2p2n6Ha #AugmentedReality","#AugmentedReality","2017-04-05 23:15:36"
"TV has become an augmented reality game http:// ift.tt/2o4Ej56 #AugmentedReality","#AugmentedReality","2017-04-05 23:15:36"
"Should You Use Virtual Reality at Your Event? http:// ift.tt/2p2tfTR #AugmentedReality","#AugmentedReality","2017-04-05 23:15:35"
"Take AR on test drive. A realization for LOFTLIGHT. Get it on Google Play -> http:// buff.ly/2o4vLv0 #augmentedreality #apps #AR pic.twitter.com/h9EAOQxG9d","#augmentedreality #apps #AR","2017-04-05 23:02:27"
"By 2025, the global #AR and #VR market is expected to surpass many consumer tech pastimes. #VirtualReality #AugmentedReality pic.twitter.com/P8IvsXFpIR","#AR #VR #VirtualReality #AugmentedReality","2017-04-05 23:02:03"
"What kind of technology was not around when you were born? | #startuplife #augmentedreality #VirtualReality pic.twitter.com/dONvm5o0AL","#startuplife #augmentedreality #VirtualReality","2017-04-05 23:01:19"
"A look at designing #AR experiences that enhance us via @metaglasses : http:// soc.att.com/2o90rZ8 #AugmentedReality","#AR #AugmentedReality","2017-04-05 23:00:02"
"Microsoft #HoloLens : Commercial Customers are Transforming Their Businesses http:// buff.ly/2o462my #mixedreality #ar #mr #augmentedreality pic.twitter.com/rv9S5rBP6u","#HoloLens #mixedreality #ar #mr #augmentedreality","2017-04-05 22:54:08"
"The MIT @medialab uses cross-discipline communication and #AugmentedReality to tackle big challenges. Via @WIRED http:// youtu.be/AIuqJWcSKxcto","#AugmentedReality","2017-04-05 22:49:53"
"#Microsoft , #Google and #Apple are all trying to lead the #AugmentedReality race. Google has Tango AR. Microsoft has Hololens. And Apple?","#Microsoft #Google #Apple #AugmentedReality","2017-04-05 22:35:48"
"There's a lot of buzz that #Apple 's #iPhone8 will have #AugmentedReality features. This means the iPhone will have 3D-sensing cameras.","#Apple #iPhone8 #AugmentedReality","2017-04-05 22:34:11"
"Take a look at how one college used #VR and #AugmentedReality to accompany its acceptance package for students http:// bit.ly/2oC1dCt","#VR #AugmentedReality","2017-04-05 22:30:00"
"The promise of #AugmentedReality #NewTechologies #Google #Tango #future http:// flip.it/k8Y9lr","#AugmentedReality #NewTechologies #Google #Tango #future","2017-04-05 22:24:30"
"Go for the @swapbots #AugmentedReality #Toys and Video Game http:// gdfl.co/2mp5u6C Combining physical toys with the digital world! pic.twitter.com/RlBoBNPxZF","#AugmentedReality #Toys","2017-04-05 22:24:07"
"I hope people realize that #AugmentedReality will not only render the beloved #SmartPhone , but most #Screen 's obsolete in the next 10 years.","#AugmentedReality #SmartPhone #Screen","2017-04-05 22:08:53"
"Apple's latest big change sets up future iPhones for VR and AR http:// buff.ly/2oSnIPN #AR #VR #AugmentedReality #VirtualReality","#AR #VR #AugmentedReality #VirtualReality","2017-04-05 22:06:07"
"#Apple 's next big thing: #augmentedReality http:// bit.ly/2oDwHrk #AR #tech RT @terrinakamura pic.twitter.com/2LjGWeZheL","#Apple #augmentedReality #AR #tech","2017-04-05 22:06:03"
"Awesome Features coming to Hololens | Dangling Neuron http:// bit.ly/2cCqN3i #HoloLens #augmentedreality #MixedReality #AR #MR","#HoloLens #augmentedreality #MixedReality #AR #MR","2017-04-05 22:00:59"
"Evena Medical aims to tap a rich vein of medical augmented reality http:// ift.tt/2oJRxm7 #AugmentedReality","#AugmentedReality","2017-04-05 22:00:45"
"6 Ways to Invest in #AugmentedReality https:// lnkd.in/gTSwqCE","#AugmentedReality","2017-04-05 21:52:48"
"Virtual Reality Headset http:// bit.ly/2oJuZlv #VR #vrs #VirtualReality #VirtualHero3 #augmentint #AugmentedReality #smartphone #mobile pic.twitter.com/4FpnRqxpEr","#VR #vrs #VirtualReality #VirtualHero3 #augmentint #AugmentedReality #smartphone #mobile","2017-04-05 21:42:10"
"Major Software Company Strengthens #AugmentedReality Market Grip http:// buff.ly/2obb9lf @OsterhoutGroup #smartglasses #defense #ARVR pic.twitter.com/6pHPXVeWCv","#AugmentedReality #smartglasses #defense #ARVR","2017-04-05 21:16:44"
"Matching the machine: #AugmentedReality has potential to boost #business #productivity http:// buff.ly/2nB7Stp via @crainsdetroit pic.twitter.com/hX2gFrYP1w","#AugmentedReality #business #productivity","2017-04-05 21:16:16"
". @Voxware_Inc debuts #augmentedreality solution http:// buff.ly/2nbYdMG #ARVR #enterprise #enterpriseAR #logistics","#augmentedreality #ARVR #enterprise #enterpriseAR #logistics","2017-04-05 21:15:28"
"AR makes most sense for Disney Parks & Resorts Digital. #augmentedreality #virtualreality #ar #vr https:// lnkd.in/gDbqvpA","#augmentedreality #virtualreality #ar #vr","2017-04-05 21:15:26"
"Voxware debuts #augmentedreality solution - Supply Chain 24/7 http:// bit.ly/2naud3Q","#augmentedreality","2017-04-05 21:12:03"
"[INFOGRAPHIC] Virtual Reality + Marketing in 2017 @newscred #VR #AugmentedReality http:// bit.ly/2nDrkFI pic.twitter.com/AErE0S74V5","#VR #AugmentedReality","2017-04-05 21:10:14"
"Is Amazon Following Microsoft's Lead in Augmented Reality ? http:// bit.ly/2oCCJJm #augmentedreality #AR pic.twitter.com/Cu9QmlkzbQ","#augmentedreality #AR","2017-04-05 21:10:02"
"From wearable technology to #drones , here's our list of #augmentedreality & #virtualreality tools for AEC. http:// bit.ly/2jsHcw3","#drones #augmentedreality #virtualreality","2017-04-05 21:00:54"
"#AugmentedReality technologies are quickly evolving, adding digital layers to the world we perceive. #Innovation https:// lnkd.in/e_msn5z","#AugmentedReality #Innovation","2017-04-05 21:00:01"
"Thanks to Heather Ramsay and @MONTECRISTO_Mag for a great interview on #VR , #AugmentedReality AND #Education http:// ow.ly/HypC30aACum","#VR #AugmentedReality #Education","2017-04-05 20:55:08"
"Thanks @Organiseerder for sharing about #augmentedreality workshop Loved your picture! #edtechteam #capetown pic.twitter.com/2iJ1mjvpMg","#augmentedreality #edtechteam #capetown","2017-04-05 20:47:58"
"Woohoo @ScotTimeTravel @AyrshireLEADER we are ready for 1st #AugmentedReality tourism event in Girvan this weekend pic.twitter.com/vjAsS3tVUD","#AugmentedReality","2017-04-05 20:19:52"
"#AugmentedReality Sabinna Experiments With Mixed Reality Shopping For Fashion - Huffington Post UK http:// ow.ly/sc9e50aEZGb","#AugmentedReality","2017-04-05 20:17:20"
"RT @SmartBrief : How #AugmentedReality could help retailers increase revenue http:// okt.to/tT6ghs #AR #tech #business","#AugmentedReality #AR #tech #business","2017-04-05 20:13:57"
"#AugmentedReality and other #edtech for schools: http:// on.inc.com/2oaQzSa","#AugmentedReality #edtech","2017-04-05 20:12:48"
"Is #AugmentedReality ready for #fieldservice primetime? Take the survey from @tservicecouncil @suma1r and find out. http:// ow.ly/aE2W30aB0aG pic.twitter.com/47g8DPfWuN","#AugmentedReality #fieldservice","2017-04-05 20:05:10"
"#AugmentedReality #VirtualReality #MichiganIT #CommunityOfPractice meeting now in the @um3d space! pic.twitter.com/olOx9oRq5x","#AugmentedReality #VirtualReality #MichiganIT #CommunityOfPractice","2017-04-05 19:54:43"
"An #AugmentedReality business card. #AR pic.twitter.com/tJGRW8vELL","#AugmentedReality #AR","2017-04-05 19:52:08"
"Will #AugmentedReality smart glasses and voice interfaces gradually make #Smartphones obsolete? http:// bit.ly/2nENw0J","#AugmentedReality #Smartphones","2017-04-05 19:49:05"
"We get to play with the coolest technology at the Navy League #SAS2017 . #augmentedreality pic.twitter.com/pKdwx5ffAU","#SAS2017 #augmentedreality","2017-04-05 19:48:11"
"#VirtualReality And #AugmentedReality Will Change Brand Experiences http:// buff.ly/2oVmBi2 #vr #ar pic.twitter.com/WJntN4xf6T","#VirtualReality #AugmentedReality #vr #ar","2017-04-05 19:43:01"
"This brought me back to reality... https:// vimeo.com/209070629 Watch until the end #AR #AugmentedReality #Tech #life","#AR #AugmentedReality #Tech #life","2017-04-05 19:39:12"
"Legendary @DronenBase prototypes. #legendary #drone #prototype #augmentedreality #game http://www. dronenbase.com pic.twitter.com/DDxRxuAs21","#legendary #drone #prototype #augmentedreality #game","2017-04-05 19:35:39"
"Tinkering with the #HoloLens ... left-handed! Thanks for bringing it to @RNLDesign to try, @SketchUp ! #AugmentedReality #BIM #RNLDesignLife pic.twitter.com/7CL3IsV29z","#HoloLens #AugmentedReality #BIM #RNLDesignLife","2017-04-05 19:31:44"
"#Augmentedreality is creating an #interactive #shopping , #retail experience as #digitalmarketing changes. #fashion http:// ow.ly/V0NS30azQO9 pic.twitter.com/vo2lxK8gYw","#Augmentedreality #interactive #shopping #retail #digitalmarketing #fashion","2017-04-05 19:20:16"
"#HSBC adds voice authentication to #digital #banking in #HongKong #augmentedreality http:// crwd.fr/2oYVwKS pic.twitter.com/mRnOxQIfYE","#HSBC #digital #banking #HongKong #augmentedreality","2017-04-05 19:15:16"
"#AugmentedReality new hurdle: Virtual trespassing. Find out why your org should cross paths with #AR . View webinar. http:// gtnr.it/2hArNbD","#AugmentedReality #AR","2017-04-05 19:15:00"
"""Inspiring, amazing technology"" http:// buff.ly/2p1yz9N #WednesdayWisdom #tech #augmentedreality #mixedreality #VR #indiedev #indie #quote pic.twitter.com/KQQUDThw4p","#WednesdayWisdom #tech #augmentedreality #mixedreality #VR #indiedev #indie #quote","2017-04-05 19:11:25"
"Carnegie #Museum Opens Chilling Year 2020 Dystopian #VR Exhibit http:// bit.ly/2oJiYMY #VirtualReality #AugmentedReality pic.twitter.com/dYdsKmdSUT","#Museum #VR #VirtualReality #AugmentedReality","2017-04-05 19:09:40"
"Interacting with your #models through the #Aryzon ! #AugmentedReality https:// youtu.be/Cr4lLST0yoU","#models #Aryzon #AugmentedReality","2017-04-05 19:06:00"
"Art+Tech+Emotion and music: MARS Festival ( @festivalmars ) April 14-23 #Art #augmentedreality #ar #contemporaryart ... http:// fb.me/4Aj2WxLVN","#Art #augmentedreality #ar #contemporaryart","2017-04-05 19:01:56"
"Art+Tech+Emotion and music: MARS Festival ( @festivalmars ) April 14-23 #Art #augmentedreality #ar #contemporaryart http:// eepurl.com/cJMfVL","#Art #augmentedreality #ar #contemporaryart","2017-04-05 19:01:48"
"Awesome too see the innovation built on top of @magento . #AugmentedReality #MagentoImagine pic.twitter.com/qx3wRifqXJ","#AugmentedReality #MagentoImagine","2017-04-05 19:01:04"
"Rediscover your favorite fairytales with #SpinTales on @amazon ! http:// amzn.to/2oa9ah1 #activePlay #augmentedreality pic.twitter.com/lvMpthyVbs","#SpinTales #activePlay #augmentedreality","2017-04-05 19:00:11"
"explore #ardize to bring your sales, marketing & #training to life! #augmentedreality tops 2017 training trends. http:// bit.ly/2lvomm0","#ardize #training #augmentedreality","2017-04-05 19:00:02"
"The #augmentedreality use cases exist in customer value enhancement, assembly, construction, inspection, others. http:// bit.ly/2n5U0tc","#augmentedreality","2017-04-05 19:00:02"
"Human hearts in action shot with an iPhone through the #meta2 headset! #augmentedreality https://www. instagram.com/p/BSeW6DjDQok/","#meta2 #augmentedreality","2017-04-05 18:59:47"
"VRTL Summit Agenda and Speaker Lineup Announced for April 26 Event #AugmentedReality #bhivelabs http:// dld.bz/f9HDk","#AugmentedReality #bhivelabs","2017-04-05 18:33:08"
"#Apple is officially too important to entrust its graphics destiny to someone else @WIRED #AUGMENTEDREALITY #AR #VR https:// goo.gl/w6rgoc pic.twitter.com/J2LEXeIaQF","#Apple #AUGMENTEDREALITY #AR #VR","2017-04-05 18:30:42"
"VRTL Summit Agenda and Speaker Lineup Announced for April 26 Event http:// ift.tt/2o3CRQy #AugmentedReality","#AugmentedReality","2017-04-05 18:21:00"
"Throwing Some Cold Water on the iPhone 8 Hype http:// ift.tt/2p19nQM #AugmentedReality","#AugmentedReality","2017-04-05 18:20:59"
"Boeing launches 'innovation cell' and invests in AR software http:// ift.tt/2o3VF27 #AugmentedReality","#AugmentedReality","2017-04-05 18:20:59"
"Meitu's BeautyPlus Introduces Augmented Reality to Selfies http:// ift.tt/2p1xrDh #AugmentedReality","#AugmentedReality","2017-04-05 18:20:58"
"Announcing Shazam Integration with Sharetapes for Interactive Mixtapes http:// ift.tt/2o3xiBD #AugmentedReality","#AugmentedReality","2017-04-05 18:20:58"
"L' #engagement passa attraverso il ricorso della #Tecnologia con al #AugmentedReality e la #VirtualReality come per @PokemonGoApp","#engagement #Tecnologia #AugmentedReality #VirtualReality","2017-04-05 18:15:11"
"PotteryBarn jumps on the #AugmentedReality #mcommerce train. http:// ow.ly/yx4C30ayb6O","#AugmentedReality #mcommerce","2017-04-05 18:01:35"
"realitii - #MixedReality #AugmentedReality Wireframe & prototyping tool, available next week in public beta for iPad! #HoloLens pic.twitter.com/oofm7v5PQL","#MixedReality #AugmentedReality #HoloLens","2017-04-05 17:58:35"
"Augmented Reality in action - http:// ow.ly/8ur930aAXzG @A1RetailMag Will AR become mainstream? #innovation #augmentedreality","#innovation #augmentedreality","2017-04-05 17:54:42"
"Could #VirtualReality and #AugmentedReality augment Medicine? http:// okt.to/Vczp6t via @medpagetoday #EmergingTech pic.twitter.com/6BH2Afw0px","#VirtualReality #AugmentedReality #EmergingTech","2017-04-05 17:51:03"
"#AugmentedReality pic.twitter.com/MyA8eSmtDX","#AugmentedReality","2017-04-05 17:47:34"
"@meituofficial adds #AR video filters for beautify-ing selfies (450M active users/month) https:// yhoo.it/2nEc1Lp #AugmentedReality every day","#AR #AugmentedReality","2017-04-05 17:46:31"
"How will #AugmentedReality affect your business' future #planning ? http:// ow.ly/48H430aqOAL pic.twitter.com/CEmEL1Pq0q","#AugmentedReality #planning","2017-04-05 17:45:27"
"RT @ipfconline1 : ""How #VirtualReality & #AugmentedReality Change Shopping Experience #AR #DigitalMarketing #Ecommerce #Gamification #Apps "" pic.twitter.com/HEZQDOA4QR","#VirtualReality #AugmentedReality #AR #DigitalMarketing #Ecommerce #Gamification #Apps","2017-04-05 17:38:47"
"What did my students create in two days of AR practicals? #augmentedreality #ar #ra #realiteaugmentee https:// youtu.be/9Es3hRTmeHY","#augmentedreality #ar #ra #realiteaugmentee","2017-04-05 17:32:22"
"Any #surface can now be used to enjoy #AugmentedReality . #projectionmapping #AVtweeps https:// goo.gl/9EQLpz","#surface #AugmentedReality #projectionmapping #AVtweeps","2017-04-05 17:30:50"
"A great youtube channel #ColdFusion has a video about the difference between #VirtualReality and #AugmentedReality http:// ow.ly/W9aM30avqnk","#ColdFusion #VirtualReality #AugmentedReality","2017-04-05 17:30:48"
"#FieldService software puts #IoT & #AugmentedReality to practical use by @dessexTT http:// bit.ly/1WBHCfR via @manufacturingtt","#FieldService #IoT #AugmentedReality","2017-04-05 17:30:05"
". @MassTLC 's @thopcroft experiences #AugmentedReality up close with our @CaterpillarInc demo #NewCoBOS pic.twitter.com/qLuIBjnKp3","#AugmentedReality #NewCoBOS","2017-04-05 17:26:08"
"Our #IoT solution gathers data for an #AugmentedReality experience. #NewCoBOS attendees try it out wearing @HoloLens ! pic.twitter.com/MBUyBPrIhM","#IoT #AugmentedReality #NewCoBOS","2017-04-05 17:21:55"
"#AugmentedReality is a great medium to expand your #brandstory . Check out the #Arilyn booth at #nextmdk . Best tools for virtual storytelling","#AugmentedReality #brandstory #Arilyn #nextmdk","2017-04-05 17:21:35"
"#AugmentedReality Mixed reality entertainment still 'future gazing' but tech advancing rapidly -... http:// ow.ly/ng3j50aELQc","#AugmentedReality","2017-04-05 17:17:20"
"@meleap_inc introduces an impressive #AugmentedReality game with existing tech: http:// bit.ly/2nEbqcH","#AugmentedReality","2017-04-05 17:10:50"
"#QuiverAmbassador @sarahlovestec Shares a fun #AugmentedReality Lesson - http://www. quivervision.com/5442-2 @Quivervision #AR4Learning pic.twitter.com/zj56xwA5MD","#QuiverAmbassador #AugmentedReality #AR4Learning","2017-04-05 17:06:22"
"Plant AR you Thirsty? Part 3 #InternetofThings #AugmentedReality - Water Sensor. http:// youtu.be/LFWcrCJH7_I?a","#InternetofThings #AugmentedReality","2017-04-05 17:06:17"
"How #AugmentedReality is transforming #BuildingManagement | @IBMIoT http:// ibm.co/2i5PAwy #AR #IoT pic.twitter.com/rrlYYk7Q7v","#AugmentedReality #BuildingManagement #AR #IoT","2017-04-05 17:05:22"
"Plant AR you Thirsty? Part 2 #InternetofThings #AugmentedReality - Water Sensor. http:// youtu.be/nLghtl23m4c?a","#InternetofThings #AugmentedReality","2017-04-05 17:03:08"
"Did you know that in 2016 a record $2.3B was invested in #AugmentedReality startups? Learn more: http:// ow.ly/Y2oh309yBZX","#AugmentedReality","2017-04-05 17:02:21"
"Did you know #augmentedreality use cases exist in #manufacturing ? http:// bit.ly/2n5U0tc","#augmentedreality #manufacturing","2017-04-05 17:00:01"
"#messefrankfurt #augmentedreality #bestseller #inscope #prolightandsound #frankfurt #mktag http:// fb.me/1OJmQXKo1","#messefrankfurt #augmentedreality #bestseller #inscope #prolightandsound #frankfurt #mktag","2017-04-05 16:56:16"
". @drawsta_ unveils custom #AugmentedReality t-shirts http:// bit.ly/2fYCWOj pic.twitter.com/lMmMxy0qWu","#AugmentedReality","2017-04-05 16:51:02"
"Anyone got any fun #AugmentedReality ideas?","#AugmentedReality","2017-04-05 16:48:13"
"#AugmentedReality new hurdle: Virtual trespassing. Find out why your org should cross paths with #AR . View webinar. http:// gtnr.it/2hArNbD","#AugmentedReality #AR","2017-04-05 16:47:20"
"More behind the scenes footage with Shaun from @WrennallsGroup doing his video for the AR Target #TheTruckTrail #AugmentedReality pic.twitter.com/LdiVIDvxIH","#TheTruckTrail #AugmentedReality","2017-04-05 16:43:23"
"Education may never 'catch up'--but learn like this, and it won't have to. http:// on.inc.com/2nWRZgX #EdTech #EarlyEd #AugmentedReality","#EdTech #EarlyEd #AugmentedReality","2017-04-05 16:32:16"
"Combining collaborative #Robots & #AugmentedReality http:// bit.ly/2o33Dsd #VirtualReality #robotics #iot #techstartup","#Robots #AugmentedReality #VirtualReality #robotics #iot #techstartup","2017-04-05 16:29:08"
"Do you want to create your own #ar game just in a minute? Use the OJOO Studio http:// buff.ly/2oxPxQU #augmentedreality #tech #newtech pic.twitter.com/xLjTZ07JYj","#ar #augmentedreality #tech #newtech","2017-04-05 16:26:30"
"My Lab is an interactive periodic table for the Microsoft @HoloLens . { #EdTech #AugmentedReality #VirtualReality #MixedReality #VR #AR } pic.twitter.com/BoLeaj0kKN","#EdTech #AugmentedReality #VirtualReality #MixedReality #VR #AR","2017-04-05 16:25:24"
"#AugmentedReality to revolutionize how companies manage supply chains http:// on.wsj.com/2o32Ibu #VirtualReality #mixedreality","#AugmentedReality #VirtualReality #mixedreality","2017-04-05 16:18:52"
"Check out this #augmentedreality Aura via @aurasma app http:// auras.ma/s/uzBi2","#augmentedreality","2017-04-05 16:16:53"
"#ECommerce And #AugmentedReality : Is It Worth It? http:// ln.is/WyFdt #AR #VirtualReality #VR #retail #technology ... by #IoT2_0 pic.twitter.com/83woFQ4JdG","#ECommerce #AugmentedReality #AR #VirtualReality #VR #retail #technology #IoT2_0","2017-04-05 16:12:46"
"Testing @Dassault3DS ' BikEpic #AugmentedReality Selfie Concept Experience :) How do you like the idea? @iVEvangelist pic.twitter.com/c44FPfTvwY","#AugmentedReality","2017-04-05 16:03:02"
"6 Ways to Invest in #AugmentedReality #VRARA #Toronto #Futurism http:// ow.ly/eHFr30ayCSD","#AugmentedReality #VRARA #Toronto #Futurism","2017-04-05 16:01:16"
"realitii - Wireframe & prototyping tool, available next week in public beta! #HoloLens #MixedReality #VirtualReality #AugmentedReality pic.twitter.com/leICFtiW2X","#HoloLens #MixedReality #VirtualReality #AugmentedReality","2017-04-05 15:58:28"
"#Mobile #AugmentedReality : Biggest Trend in App Development http:// buff.ly/2o0SuZa #AR pic.twitter.com/57pc9szvdy","#Mobile #AugmentedReality #AR","2017-04-05 15:57:01"
