"I'm bringing back the poke. Give me an FB poke and I'll poke you back hard. #futurecommunication","#futurecommunication","2017-02-03 22:56:56"
"#IDontUseHashTags #JustKidding #IOnlyHashTag #IsHashTag the #WayForward in #FutureCommunication #CBB #YouDecide #CBBUK @channel5_tv pic.twitter.com/qg5JZZqPiv","#IDontUseHashTags #JustKidding #IOnlyHashTag #IsHashTag #WayForward #FutureCommunication #CBB #YouDecide #CBBUK","2017-01-03 06:03:47"
"same same but different! #futurecommunication #wiekonntedaspassieren","#futurecommunication #wiekonntedaspassieren","2016-11-29 08:22:48"
"Gripped by the concept of non invasive brain computer interface. #Empowering #LimitlessPotential #FutureCommunication #OneWorld","#Empowering #LimitlessPotential #FutureCommunication #OneWorld","2016-09-27 16:35:52"
"Alibaba Buy+ make way for Virtual reality #jackma #virtualreality #futurecommunication","#jackma #virtualreality #futurecommunication","2016-09-06 08:54:46"
"Utilising dimensional physics opens up the possibility of hindsight in the present #relativelyspeaking #Timetraveling #Futurecommunication","#relativelyspeaking #Timetraveling #Futurecommunication","2016-03-20 20:50:44"
"words are clumsy. #gif s are much more expressive. #futurecommunication #nomorewords #inputerror","#gif #futurecommunication #nomorewords #inputerror","2015-11-16 20:48:49"
"futurecommunication #westrubinstein #futurecommunication https:// instagram.com/p/9W-cGOCjwU/","#westrubinstein #futurecommunication","2015-10-28 00:10:58"
"#westrubinstein futurecommunication still on view this week stop by #futurecommunication https:// instagram.com/p/9W-LkaCj_2/","#westrubinstein #futurecommunication","2015-10-28 00:08:43"
"""The Seeker"" futurecommunication #futurecommunication #westrubinstein at #886geary https:// instagram.com/p/9CGucNijzi/","#futurecommunication #westrubinstein #886geary","2015-10-19 22:39:22"
"Detail ""The Seeker"" futurecommunication #futurecommunication #westrubinstein https:// instagram.com/p/9CGoYQCjzV/","#futurecommunication #westrubinstein","2015-10-19 22:38:32"
"We're open till 7 today stop by and see futurecommunication #futurecommunication #westeubinstein https:// instagram.com/p/89DSX1Cj8Z/","#futurecommunication #westeubinstein","2015-10-17 23:33:08"
"War Totem and monoprints #futurecommunication #westrubinstein futurecommunication open at #886geary https:// instagram.com/p/83w3AIijxO/","#futurecommunication #westrubinstein #886geary","2015-10-15 22:15:52"
"#westrubinstein futurecommunication #futurecommunication now open at @886geary photo pluckyshotme https:// instagram.com/p/81jQfNC98Y/","#westrubinstein #futurecommunication","2015-10-15 01:38:31"
"futurecommunication #westrubinstein #futurecommunication open all week stop by #886geary #sanfrancisco https:// instagram.com/p/81i9B7ij_j/","#westrubinstein #futurecommunication #886geary #sanfrancisco","2015-10-15 01:35:52"
"#westrubinstein #futurecommunication Catalogs now available online with Essay from Mare139... http:// fb.me/7vP2uepf4","#westrubinstein #futurecommunication","2015-10-14 03:29:33"
"futurecommunication #futurecommunication #westrubinstein #886geary https:// instagram.com/p/8ruHNDCj3H/","#futurecommunication #westrubinstein #886geary","2015-10-11 06:00:58"
"futurecommunication #futurecommunication #westrubinstein #886geary https:// instagram.com/p/8rmmIIij6P/","#futurecommunication #westrubinstein #886geary","2015-10-11 04:55:17"
"Today's Office. @YouTube @CocaCola_De #inspiration #futurecommunication #BackToSchool pic.twitter.com/SDPqLDvClq","#inspiration #futurecommunication #BackToSchool","2015-10-07 15:42:15"
"Detail shot of futurecommunication sculpture #futurecommunication #886geary opening Oct 10th https:// instagram.com/p/8UK6mQCj5W/","#futurecommunication #886geary","2015-10-02 02:30:52"
"futurecommunication #futurecommunication Opens Oct 10th 7-11pm #886geary #graffuturism https:// instagram.com/p/8PsP0RCj6l/","#futurecommunication #886geary #graffuturism","2015-09-30 08:45:58"
"Up Next #futurecommunication from West Rubinstein https:// vimeo.com/140619902 http:// fb.me/O32ncc8h","#futurecommunication","2015-09-29 01:41:12"
"Please help us share this Video West Rubinstein Preview of #futurecommunication a monumental and historic... http:// fb.me/3t4xJohlY","#futurecommunication","2015-09-28 22:29:43"
"West Rubinstein aka West One FC opens his latest exhibition #futurecommunication Oct 10th at 886 Geary Gallery http:// fb.me/3rsspRvDz","#futurecommunication","2015-09-24 00:46:47"
"westonefc futurecommunication #futurecommunication #westrubinstein opening next https:// instagram.com/p/76inmJijwY/","#futurecommunication #westrubinstein","2015-09-22 03:37:45"
"Not entirely convinced that Egyptian hieroglyphics aren't just ancient emojis. #futurecommunication #whynot","#futurecommunication #whynot","2015-09-16 07:06:34"
"The Army's Bold Plan to Turn Soldiers Into Telepaths: http:// bit.ly/1Jwnsep #FutureCommTech #Telepathy #BrainToBrain #FutureCommunication","#FutureCommTech #Telepathy #BrainToBrain #FutureCommunication","2015-07-01 20:23:21"
"""We expect to be able to double tap everything for more information"" #futurecommunication #MGClass15","#futurecommunication #MGClass15","2015-06-18 15:31:39"
"Mobile is not an inbetween thing #futurecommunication #MGClass15","#futurecommunication #MGClass15","2015-06-18 15:31:28"
"Having a very intelligent discussion about #feminism on whatsapp. #futurecommunication #latenightfun #politics","#feminism #futurecommunication #latenightfun #politics","2015-03-29 00:17:29"
"Explore the reasons why broadcasting communication is becoming a thing of the past. http:// cogniz.at/1wmpczE #futuremedia #futurecommunication","#futuremedia #futurecommunication","2015-02-13 21:35:29"
"@ampledata thank you for the support Greg! #onbeep #futurecommunication","#onbeep #futurecommunication","2014-12-03 19:19:35"
"Smartboard training with Dave #futurecommunication #ibminsidesales #thegrid pic.twitter.com/WIoK3e8RX7","#futurecommunication #ibminsidesales #thegrid","2014-10-23 15:49:05"
"Brothers take part in learning about Beta's new website application, Chapter Spot #FutureCommunication #Beta175 pic.twitter.com/MBq0SESPNX","#FutureCommunication #Beta175","2014-08-08 02:03:26"
"@1amnerd ""Nothing like a hot shower followed by Yo-ing about it."" #FutureCommunication","#FutureCommunication","2014-06-20 17:05:34"
"""The Future Of Social Media Is Mobile Tribes"" good read #futurecommunication #tfws14 #tfebt #4bookworms http:// feedly.com/e/vbW5IqqP","#futurecommunication #tfws14 #tfebt #4bookworms","2014-04-22 06:02:58"
"Been tapping in to someone's subconscious and messages have come back via dream. #futureCommunication","#futureCommunication","2013-10-15 13:02:19"
"@evomail nice-work guys. #cool #startup #futureCommunication . Have you thought about enterprise type messaging patient provider application?","#cool #startup #futureCommunication","2013-08-05 02:05:54"
"@ChrisShattuck CC me on that tweet... or email it to me... or FB it to me... or text it to me... #FutureCommunication @TheJesusDiaz","#FutureCommunication","2013-08-01 02:14:49"
"Communication through favoriting tweets #futurecommunication","#futurecommunication","2013-05-11 00:20:39"
"A question everyone should ask their customers... #futureCommunication #rp13 pic.twitter.com/UqvLxWTAAv","#futureCommunication #rp13","2013-05-07 10:47:17"
"@TrishSanFilippo that is insane! #futurecommunication #c295s13","#futurecommunication #c295s13","2013-04-10 14:01:27"
". @adajers @adam_casto Fax is the wrong type of communication format for me. Try mind apps. #futurecommunication","#futurecommunication","2013-01-16 16:24:52"
"@discoJIMM wo0w. so much potential. i think ill just make up my own #futurecommunication #gocrazy","#futurecommunication #gocrazy","2012-11-27 04:25:00"
"@discoJIMM like that one day we will only type to each other's eyeballs or something?! #futurecommunication","#futurecommunication","2012-11-27 04:15:49"
"Did you say live tweet? I think you did. #livetweetingit #futurecommunication","#livetweetingit #futurecommunication","2012-11-08 15:37:46"
"@la_wiseman - Also, why do you reply to every tweet yet won't answer your phone to calls or texts? #FutureCommunication","#FutureCommunication","2012-03-18 22:57:14"
"@morganhargrove would be the only one who would tweet me and be sitting right next to me... #futurecommunication","#futurecommunication","2011-12-10 05:15:16"
"@Camfrank17 You & I are so cool, that we tweet eachother, when we're right next to eachother. #Futurecommunication","#Futurecommunication","2011-10-28 17:05:08"
"What does future communication look like? http:// youtu.be/a6cNdhOKwi0 #futurecommunication","#futurecommunication","2011-10-28 10:40:20"
"lmfao at me and mas communicating through txts from opposite sides of the house hahaha #futurecommunication or #lazy ??? lol","#futurecommunication #lazy","2011-05-26 13:13:20"
"It's 1:40 in the afternoon and I just got woken up by a quacking duck #futurecommunication iPhones rock!!!","#futurecommunication","2011-05-01 19:46:06"
"Hey #London #Ontario ! Come to the Black Shire tonight! We will be performing the entire #FutureCommunication album! http:// yfrog.com/h82uqrdj","#London #Ontario #FutureCommunication","2011-04-30 20:14:45"
"RT @yelyahwilliams : @boomersaveus I rt'd you so you'd know I was safe cause how else would I have rt'd you? #futurecommunication","#futurecommunication","2011-04-28 17:11:11"
"@yelyahwilliams #futurecommunication i loved :)!!! do you liked of Samba in Brazil??","#futurecommunication","2011-04-28 02:45:39"
"LOL RT @yelyahwilliams : @boomersaveus I rt'd you so you'd know I was safe cause how else would I have rt'd you? #futurecommunication","#futurecommunication","2011-04-28 02:45:05"
"@boomersaveus I rt'd you so you'd know I was safe cause how else would I have rt'd you? #futurecommunication","#futurecommunication","2011-04-28 02:44:02"
"In case your in need of some #FutureCommunication --> http://bit.ly/gRyo6N","#FutureCommunication","2011-03-31 21:05:25"
"Hey @iTunesMusic ! We are proud to have our album #FutureCommunication for purchase on your site! @-> http://bit.ly/gxKuH9 #Apple loves music","#FutureCommunication #Apple","2011-03-25 05:48:59"
"The spoken language will soon be the only barrier. #futurecommunication #languageencodinganddecodingisineffecientcommunication","#futurecommunication #languageencodinganddecodingisineffecientcommunication","2010-11-11 04:23:36"
"@XclusiveCrump wat r u doin? Let's do lunch. Have ur people call my people #futurecommunication","#futurecommunication","2010-10-18 16:53:51"
"Check the concept of #futurecommunication http://goo.gl/v9kT","#futurecommunication","2010-04-11 05:29:48"
