"Binge on virtual reality with HTC Vive's 'Netflix for VR' http:// dlvr.it/Nptd5j #Vive #HtcVive #VirtualReality pic.twitter.com/HSRSluH3Xr","#Vive #HtcVive #VirtualReality","2017-04-06 00:14:14"
"Binge on #virtualreality with HTC #Vive 's 'Netflix for #VR ' http:// dlvr.it/Nptc1x pic.twitter.com/56pEk1lDC8","#virtualreality #Vive #VR","2017-04-06 00:13:16"
"Binge on virtual reality with HTC #Vive 's 'Netflix for #VR ' https:// goo.gl/fb/HdX6uQ #htcvive #virtualreality #tech","#Vive #VR #htcvive #virtualreality #tech","2017-04-06 00:11:35"
"#foodporn #tits bondage #pussy #naughty faceauchomage #camilacabello #virtualreality naked #fucking pic.twitter.com/oedheV3XwS","#foodporn #tits #pussy #naughty #camilacabello #virtualreality #fucking","2017-04-06 00:09:44"
"#chatten #sex wedding #emojiupdate #braccialetto povo #camping #virtualreality party #chatbot pic.twitter.com/iwjq5FLD85","#chatten #sex #emojiupdate #braccialetto #camping #virtualreality #chatbot","2017-04-06 00:06:43"
"#indiana #pussyfuck persianrugs #virtualreality #escort webcam #celebrityupdate #mongoparty asswipe #pornos pic.twitter.com/qa4ORDvipC","#indiana #pussyfuck #virtualreality #escort #celebrityupdate #mongoparty #pornos","2017-04-06 00:00:16"
"Virtual Reality : Police's Attempt to Curb Distracted Driving Accidents - CBS Baltimore / WJZ http:// ift.tt/2p2vJS4 #VirtualReality #VR","#VirtualReality #VR","2017-04-05 23:57:40"
"#americanlatinos #bbw fitnesstrends #virtualreality #anal studentwork #fuck #brand asiansexporn #camsex pic.twitter.com/Q0lI33NoD2","#americanlatinos #bbw #virtualreality #anal #fuck #brand #camsex","2017-04-05 23:57:37"
"@realDonaldTrump Wanna travel the world without leaving the greatest country? Join my survey on #VirtualReality http:// bit.ly/VRTRen","#VirtualReality","2017-04-05 23:52:56"
"Doing your bills is painful. Virtual reality could make it less so http:// usat.ly/2oC6aeG via @USATODAY #vr #VirtualReality #vrnews","#vr #VirtualReality #vrnews","2017-04-05 23:52:48"
"#sexting #camilacabello hairy #girlfriend #analytics camping #ladyluxswimwear #bootycall porn #virtualreality pic.twitter.com/uKSEH8sjpD","#sexting #camilacabello #girlfriend #analytics #ladyluxswimwear #bootycall #virtualreality","2017-04-05 23:52:15"
"#busty #thailand nude #lingerie #javascript westsussex #american #facebook asian #virtualreality pic.twitter.com/X53M0wjQgu","#busty #thailand #lingerie #javascript #american #facebook #virtualreality","2017-04-05 23:51:44"
"#nsfw #young phonedomination #upskirtcams #cute sexo #girl #tease vintagedenim #virtualreality pic.twitter.com/Nzhtr9s9IM","#nsfw #young #upskirtcams #cute #girl #tease #virtualreality","2017-04-05 23:49:03"
"this technology will invert passive connections. Staggering experience. #VR #VirtualReality","#VR #VirtualReality","2017-04-05 23:45:51"
"Why Virtual Reality is disruptive by RiftingReality #virtualreality #tech http:// ift.tt/28Y5EgV pic.twitter.com/JhDoKwIoqI","#virtualreality #tech","2017-04-05 23:45:17"
"#virtualreality #porn swisswatches #americans #libra ukrainianwomen #pretty #tgirl pornstars #webcam pic.twitter.com/YLeHwsnApH","#virtualreality #porn #americans #libra #pretty #tgirl #webcam","2017-04-05 23:44:59"
"#foodporn #ukyachat ladygaga #virtualreality #cute escortcentre #milf #workouts oral #join pic.twitter.com/exODQMwSME","#foodporn #ukyachat #virtualreality #cute #milf #workouts #join","2017-04-05 23:44:25"
"#uruxbra #highheels dating #virtualreality #teen thai #japanese #pretty milf #camilacabello pic.twitter.com/qfZaIzZ3CB","#uruxbra #highheels #virtualreality #teen #japanese #pretty #camilacabello","2017-04-05 23:42:55"
"#nipples #seventeen celebrityvault #virtualreality #pornvideo ass #facebook #pussy fantasy #ssbbw pic.twitter.com/gqiW4WGsMl","#nipples #seventeen #virtualreality #pornvideo #facebook #pussy #ssbbw","2017-04-05 23:39:36"
"@Samsung 's #VirtualReality ostrich ad is delightfully weird http:// ti.me/2nMikjH #VRforall","#VirtualReality #VRforall","2017-04-05 23:38:57"
"@Samsung 's #VirtualReality ostrich ad is delightfully weird http:// ti.me/2nMikjH #VRforall","#VirtualReality #VRforall","2017-04-05 23:38:50"
"SuperData Research Expects VR Consumer Revenue to Hit $40 Billion by 2020... http:// tt0.co/158n5085686 #VirtualReality","#VirtualReality","2017-04-05 23:38:05"
"#virtualreality http:// fb.me/1i9WSjsUh","#virtualreality","2017-04-05 23:37:47"
"#fetish #hentai porno #virtualreality #facialoil pantyhose #erotica #thai brandnew #sex pic.twitter.com/bwfrRuquYR","#fetish #hentai #virtualreality #facialoil #erotica #thai #sex","2017-04-05 23:35:42"
"BESTEL NU! Mobile Customer Experience & Mixed reality #virtualreality #augmented http:// tinyurl.com/mx8sr4m","#virtualreality #augmented","2017-04-05 23:30:57"
"#celebrity #naked camoncxlaunch #bracketcontests #getbeauty emovep #virtualreality #cubanos teens #german pic.twitter.com/tOtPSXSqn5","#celebrity #naked #bracketcontests #getbeauty #virtualreality #cubanos #german","2017-04-05 23:30:05"
"HTC Launches Viveport VR Subscription Service http:// bit.ly/2oIEuBn #viveday #VirtualReality #VR pic.twitter.com/EKOsMWZkdc","#viveday #VirtualReality #VR","2017-04-05 23:26:41"
"Star Trek Bridge Crew VR Original Bridge https:// youtu.be/YA0CElxVZtc Coming to #HTCVive #OculusRift #Captain #Enterprise #Game #VirtualReality","#HTCVive #OculusRift #Captain #Enterprise #Game #VirtualReality","2017-04-05 23:26:33"
"Future is bright #virtualreality order now 0605000048 https://www. instagram.com/p/BShMjtEgahv/","#virtualreality","2017-04-05 23:26:02"
"Learn How @StGilesHotels Engages Guests Using #VirtualReality at #HTNEXT http:// bit.ly/2oD0H7c","#VirtualReality #HTNEXT","2017-04-05 23:24:39"
"The newest in-store experience from @Lowes teaches DIY skills through immersive #VirtualReality & #AugmentedReality http:// bit.ly/2obnHJu","#VirtualReality #AugmentedReality","2017-04-05 23:23:27"
"#facebook #virtualreality bondage #camilacabello #brand erotica #boobs #amateur florida #sexy pic.twitter.com/6GUTfz3f30","#facebook #virtualreality #camilacabello #brand #boobs #amateur #sexy","2017-04-05 23:23:15"
"#nude #hentaianime ladygaga #virtualreality #35escort neighbourswife #polished #bucaescort asiangirls #blonde pic.twitter.com/oTXk3gfJgY","#nude #hentaianime #virtualreality #35escort #polished #bucaescort #blonde","2017-04-05 23:22:39"
"#tattoo #tcmparty brandwho #weddingday #japanese maturebbw #whore #americans lesbian #virtualreality pic.twitter.com/NTSi0Wujr9","#tattoo #tcmparty #weddingday #japanese #whore #americans #virtualreality","2017-04-05 23:21:22"
"BESTEL NU! Mobile Customer Experience & Mixed reality #virtualreality #augmented http:// tinyurl.com/mx8sr4m","#virtualreality #augmented","2017-04-05 23:20:57"
"#teen #latinoamerica butterflykyoto #camilacabello #virtualreality weddingday #cute #bigboobs amsterdamcity #assetmanagement pic.twitter.com/An9jjqq6pO","#teen #latinoamerica #camilacabello #virtualreality #cute #bigboobs #assetmanagement","2017-04-05 23:18:12"
"Project to walk schoolkids through troubled black orphanage in #virtualreality https:// goo.gl/zmvfrx pic.twitter.com/B6QUp8X1Sf","#virtualreality","2017-04-05 23:16:11"
"BESTEL NU! Mobile Customer Experience & Mixed reality #virtualreality #augmented http:// tinyurl.com/mx8sr4m","#virtualreality #augmented","2017-04-05 23:15:57"
"The challenges of making films in Virtual Reality by RiftingReality #virtualreality #tech http:// ift.tt/22Fq7K9 pic.twitter.com/TtwAK6Xu5M","#virtualreality #tech","2017-04-05 23:15:19"
"Virtual Reality : The big moneymaker http:// ift.tt/28XWi5J #virtualreality pic.twitter.com/iN97R6Bmln","#virtualreality","2017-04-05 23:15:10"
"#VirtualReality - the latest technology to alter the media landscape. See our eguide on emerging applications of VR: http:// bit.ly/2oaKBkg pic.twitter.com/KyQH3e89p4","#VirtualReality","2017-04-05 23:15:01"
"Batman: Arkham VR PC Announcement Trailer https:// youtu.be/7AtezWMeh1s Coming to #HTC Vive #Oculus Rift #DarkKnight #Alfred #Game #VirtualReality","#HTC #Oculus #DarkKnight #Alfred #Game #VirtualReality","2017-04-05 23:14:40"
"#milf #amateur cutestpuppie #virtualreality #tcmparty escort #tits #sex partywithit #fuck pic.twitter.com/vsU1NohW9O","#milf #amateur #virtualreality #tcmparty #tits #sex #fuck","2017-04-05 23:13:08"
"BESTEL NU! Mobile Customer Experience & Mixed reality #virtualreality #augmented http:// tinyurl.com/mx8sr4m","#virtualreality #augmented","2017-04-05 23:11:06"
"@UniOfHull graduates launch groundbreaking #VirtualReality reality game Botanika | Hull Daily Mail http:// po.st/awxwuF #VR #360","#VirtualReality #VR #360","2017-04-05 23:10:52"
"#booty #horny youngjae #luxtravelchat #amateur cams #virtualreality #hentai babygirl #camgirl pic.twitter.com/CqXLoRgQhn","#booty #horny #luxtravelchat #amateur #virtualreality #hentai #camgirl","2017-04-05 23:10:28"
"Project to walk schoolkids through troubled black orphanage in #virtualreality https:// goo.gl/zmvfrx pic.twitter.com/ZzLVCfwbPd","#virtualreality","2017-04-05 23:10:12"
"VR rollercoaster fun at science club this week #STEM #scienceisfun #VR #360videos #VirtualReality pic.twitter.com/F4bgnUNnsg","#STEM #scienceisfun #VR #360videos #VirtualReality","2017-04-05 23:06:29"
"#hardcore #buttexercises beauty #virtualreality #party erotica #webcam #blowjob chaturbate #porn pic.twitter.com/21p7Qcio1a","#hardcore #buttexercises #virtualreality #party #webcam #blowjob #porn","2017-04-05 23:06:26"
"BESTEL NU! Mobile Customer Experience & Mixed reality #virtualreality #augmented http:// tinyurl.com/mx8sr4m","#virtualreality #augmented","2017-04-05 23:05:58"
"WUNDERKAMMER 3D #VR Field Trip #VirtualReality #edtech https://www. historyview.org/wunderkammer pic.twitter.com/q84oN8jh9O","#VR #VirtualReality #edtech","2017-04-05 23:04:30"
"WUNDERKAMMER 3D #VR Field Trip #VirtualReality #edtech https://www. historyview.org/wunderkammer pic.twitter.com/Tjrh8y26zH","#VR #VirtualReality #edtech","2017-04-05 23:04:01"
"WUNDERKAMMER 3D #VR Field Trip #VirtualReality #edtech https://www. historyview.org/wunderkammer pic.twitter.com/2oyZCMC0P8","#VR #VirtualReality #edtech","2017-04-05 23:04:01"
"Huge sale on #steam to celebrate 1 year of #vr #virtualreality #oculusrift #HTCvive http:// ift.tt/2nLx7Z8 pic.twitter.com/aFJKLeZf1z","#steam #vr #virtualreality #oculusrift #HTCvive","2017-04-05 23:03:39"
"Driveclub VR First Impressions Live. Recent Price Reduction. https:// goo.gl/M2e6p9 #driveclub #vr #psvr #VirtualReality pic.twitter.com/x4xmcXjSpq","#driveclub #vr #psvr #VirtualReality","2017-04-05 23:02:55"
"By 2025, the global #AR and #VR market is expected to surpass many consumer tech pastimes. #VirtualReality #AugmentedReality pic.twitter.com/P8IvsXFpIR","#AR #VR #VirtualReality #AugmentedReality","2017-04-05 23:02:03"
"What kind of technology was not around when you were born? | #startuplife #augmentedreality #VirtualReality pic.twitter.com/dONvm5o0AL","#startuplife #augmentedreality #VirtualReality","2017-04-05 23:01:19"
"Top 5 Social VR Sites In Virtual Reality . https:// tmblr.co/Z3M4kh2KJR6WP // #VR #virtualReality #socialVR #metaverse","#VR #virtualReality #socialVR #metaverse","2017-04-05 23:00:55"
"BESTEL NU! Mobile Customer Experience & Mixed reality #virtualreality #augmented http:// tinyurl.com/mx8sr4m","#virtualreality #augmented","2017-04-05 23:00:55"
"LiveLike receives $5 Million in Investment to Stream Sports over VR http:// bit.ly/2dawEis #news #virtualreality","#news #virtualreality","2017-04-05 23:00:31"
"@WilsoNews Curious about the ethics of #virtualreality in the newsroom? Find this and more in our member portal: http:// ow.ly/Jcuu30aBkHF","#virtualreality","2017-04-05 23:00:24"
"What do we do when the #Calgary Police drop by the #DIRTT headquarters? Invite them to try out #ICEvr of course! #VirtualReality #yyc pic.twitter.com/q9Y0zA18uF","#Calgary #DIRTT #ICEvr #VirtualReality #yyc","2017-04-05 23:00:01"
"PKC learns #lifecycleplant #plantseeds , growingplant #virtualreality #asfmlearns @ASFMELEM @ASFMTech @rociosuarez pic.twitter.com/psY71m5dkA","#lifecycleplant #plantseeds #virtualreality #asfmlearns","2017-04-05 22:59:07"
"#uranus #virtualreality camilacabello #modelos #blowjob brant #darkfantasy #girlboss mature #footdomination pic.twitter.com/dsrC2Oq1Ku","#uranus #virtualreality #modelos #blowjob #darkfantasy #girlboss #footdomination","2017-04-05 22:56:22"
"BESTEL NU! Mobile Customer Experience & Mixed reality #virtualreality #augmented http:// tinyurl.com/mx8sr4m","#virtualreality #augmented","2017-04-05 22:55:58"
"Filmmaker Gary Hustwit, The Future of VR | Behind the Brand https:// youtu.be/b3IG89JOAWQ @BryanElliott #marketing #virtualreality #filmmaker","#marketing #virtualreality #filmmaker","2017-04-05 22:55:10"
"#virtualreality #chatten govintage #exotic #izmirescort cams #pornstar #bigboobs sexart #milf pic.twitter.com/Qb6UBqIAWt","#virtualreality #chatten #exotic #izmirescort #pornstar #bigboobs #milf","2017-04-05 22:54:28"
"#braves #teaparty milf #girlsday #branding ibizaresidence #blonde #dating teens #virtualreality pic.twitter.com/kpoFgKEduI","#braves #teaparty #girlsday #branding #blonde #dating #virtualreality","2017-04-05 22:53:59"
"#VirtualReality #indoorcycling #france #FitnessMotivation #fitness #Cardio pic.twitter.com/n3WQtckbQM","#VirtualReality #indoorcycling #france #FitnessMotivation #fitness #Cardio","2017-04-05 22:52:45"
"BESTEL NU! Mobile Customer Experience & Mixed reality #virtualreality #augmented http:// tinyurl.com/mx8sr4m","#virtualreality #augmented","2017-04-05 22:50:55"
"#virtualreality #naked chat #fuck #indian pov #party #workplace facebook #camilacabello pic.twitter.com/ADlcmWeyRF","#virtualreality #naked #fuck #indian #party #workplace #camilacabello","2017-04-05 22:49:40"
"#erotica #nude hentai #webcam #porn beauty #russian #atxmchat anal #virtualreality pic.twitter.com/3t6ded4GQ7","#erotica #nude #webcam #porn #russian #atxmchat #virtualreality","2017-04-05 22:49:06"
"#thai #virtualreality nude #gameface #nsfw langchat #fuckbirdman #florida slut #pornpics pic.twitter.com/HDVXfQZpR1","#thai #virtualreality #gameface #nsfw #fuckbirdman #florida #pornpics","2017-04-05 22:46:31"
"Ever Wanted to Ride a Paper Plane? http:// buff.ly/2o3jffb #innovation #create #VR #makestuff #makersgonnamake #design #virtualreality pic.twitter.com/xSsJBvC1SU","#innovation #create #VR #makestuff #makersgonnamake #design #virtualreality","2017-04-05 22:46:01"
"BESTEL NU! Mobile Customer Experience & Mixed reality #virtualreality #augmented http:// tinyurl.com/mx8sr4m","#virtualreality #augmented","2017-04-05 22:45:55"
"Why Virtual Reality is disruptive by RiftingReality #virtualreality #tech http:// ift.tt/28Y5EgV pic.twitter.com/GshDr2njHM","#virtualreality #tech","2017-04-05 22:45:09"
"MISS FISHER'S MURDER MYSTERY 1920s 3D #VR Field Trip #VirtualReality #edtech http:// ln.is/vveHH by #ameriporean pic.twitter.com/q9Q8cdr2QD","#VR #VirtualReality #edtech #ameriporean","2017-04-05 22:44:08"
"The best #VR headset review, my 10 year old Son talking #VirtualReality headsets. Future head of #Sales https:// youtu.be/UipBnu997zU","#VR #VirtualReality #Sales","2017-04-05 22:42:58"
"#upskirts #porno naked #sexyzone #beauty amateure #wedding #virtualreality datass #lingerie pic.twitter.com/qbJGf8A3AK","#upskirts #porno #sexyzone #beauty #wedding #virtualreality #lingerie","2017-04-05 22:42:41"
"#upskirt #camcorder southborough #facebook #virtualreality dirtysouth #camshow #bondage lesbiansquad #sexy pic.twitter.com/wUwpzQ5y1l","#upskirt #camcorder #facebook #virtualreality #camshow #bondage #sexy","2017-04-05 22:42:37"
"#milf #edmqueen boobs #onlinedating #lesbian sexyfeet #virtualreality #mature escort #ladygaga pic.twitter.com/C7XtHxZCy3","#milf #edmqueen #onlinedating #lesbian #virtualreality #mature #ladygaga","2017-04-05 22:41:15"
"Retweeted HistoryView VR ( @HistoryViewVR ): MISS FISHER'S MURDER MYSTERY 1920s 3D #VR Field Trip #VirtualReality ... http:// fb.me/VJFzNaOZ","#VR #VirtualReality","2017-04-05 22:41:05"
"BESTEL NU! Mobile Customer Experience & Mixed reality #virtualreality #augmented http:// tinyurl.com/mx8sr4m","#virtualreality #augmented","2017-04-05 22:40:57"
"#asswednesday #footfetish pantyhose #sexo #brazilian lace #fantasy #virtualreality girlfriends #bootsycollins pic.twitter.com/l5sjB1lc4T","#asswednesday #footfetish #sexo #brazilian #fantasy #virtualreality #bootsycollins","2017-04-05 22:40:22"
"#VirtualReality : Why #Marketers are on the Brink of The Big Bang http:// ow.ly/iS8X30aA2k0","#VirtualReality #Marketers","2017-04-05 22:40:11"
"#nipples #virtualreality middlesbrough #brandawareness #phonesex camera #braunschweig #camboy beauty #horny pic.twitter.com/sWFCu9TZjf","#nipples #virtualreality #brandawareness #phonesex #braunschweig #camboy #horny","2017-04-05 22:39:56"
"Virtual Reality And Augmented Reality Will Change Brand Experiences - Forbes http:// ift.tt/2obhSM0 #VirtualReality #VR","#VirtualReality #VR","2017-04-05 22:37:16"
"BESTEL NU! Mobile Customer Experience & Mixed reality #virtualreality #augmented http:// tinyurl.com/mx8sr4m","#virtualreality #augmented","2017-04-05 22:36:00"
"Tactical Haptics Deep Immersion VR Controllers Likely Releasing In 2018 http:// bit.ly/2oE3Nri #VirtualReality #VR #tech pic.twitter.com/mvJNdC9B5A","#VirtualReality #VR #tech","2017-04-05 22:32:26"
"How often have you been driving with your friends & they have distracted you? #virtualreality https:// drivevr.co.uk pic.twitter.com/7aTLHZC8Vj","#virtualreality","2017-04-05 22:32:03"
"#facebook #chubby boobs #cosplaysonic #virtualreality girls #blowjob #escortizmir pretty #nsfw pic.twitter.com/9XdoCiRUKO","#facebook #chubby #cosplaysonic #virtualreality #blowjob #escortizmir #nsfw","2017-04-05 22:31:55"
"#facebook #newgirl eroticabrussel #hootchat #virtualreality solotravel #hornysnaps #legs model #girlfriend pic.twitter.com/HTWU3UWnqt","#facebook #newgirl #hootchat #virtualreality #hornysnaps #legs #girlfriend","2017-04-05 22:31:42"
"https:// skfb.ly/6puUr @GravitySketch @Sketchfab @oculus #virtualreality #oculus #gravitysketch #oculusrift #comceptart #vehicledesign","#virtualreality #oculus #gravitysketch #oculusrift #comceptart #vehicledesign","2017-04-05 22:31:29"
"BESTEL NU! Mobile Customer Experience & Mixed reality #virtualreality #augmented http:// tinyurl.com/mx8sr4m","#virtualreality #augmented","2017-04-05 22:30:57"
"BESTEL NU! Mobile Customer Experience & Mixed reality #virtualreality #augmented http:// tinyurl.com/mx8sr4m","#virtualreality #augmented","2017-04-05 22:25:55"
"#naked #class sexy #reallifecam #selfie latinoamerica #vintage #virtualreality lacedthetrackup #horny pic.twitter.com/fG4WwxSaD7","#naked #class #reallifecam #selfie #vintage #virtualreality #horny","2017-04-05 22:25:54"
"Visit ianimal.uk and discover what the meat industry is hiding #virtualreality #ianimal","#virtualreality #ianimal","2017-04-05 22:24:30"
"#horny #edchat belgian #virtualreality #redhead fancam #nipples #cute erotictale #snapchat pic.twitter.com/MMVhjRZ2AK","#horny #edchat #virtualreality #redhead #nipples #cute #snapchat","2017-04-05 22:23:50"
"BESTEL NU! Mobile Customer Experience & Mixed reality #virtualreality #augmented http:// tinyurl.com/mx8sr4m","#virtualreality #augmented","2017-04-05 22:20:56"
"Though the exhibition closed, the #VirtualReality experience of #PierreChareau 's projects still live on our website: http:// thejm.net/g6aG30aBtWC pic.twitter.com/UAabM4lt4s","#VirtualReality #PierreChareau","2017-04-05 22:19:34"
"#faceoff #granbluefantasy webcam #girl #orgasm webcams #beauty #virtualreality analistas #chaturbate pic.twitter.com/Oz2KblNvnf","#faceoff #granbluefantasy #girl #orgasm #beauty #virtualreality #chaturbate","2017-04-05 22:18:41"
"BESTEL NU! Mobile Customer Experience & Mixed reality #virtualreality #augmented http:// tinyurl.com/mx8sr4m","#virtualreality #augmented","2017-04-05 22:15:55"
"The challenges of making films in Virtual Reality by RiftingReality #virtualreality #tech http:// ift.tt/22Fq7K9 pic.twitter.com/AUG6d3zjCS","#virtualreality #tech","2017-04-05 22:15:11"
"Virtual Reality : The big moneymaker http:// ift.tt/28XWi5J #virtualreality pic.twitter.com/F97ZHTzboH","#virtualreality","2017-04-05 22:15:07"
"BESTEL NU! Mobile Customer Experience & Mixed reality #virtualreality #augmented http:// tinyurl.com/mx8sr4m","#virtualreality #augmented","2017-04-05 22:10:55"
"What does the future hold for #VirtualReality in museums? Here's what we learned from our #PierreChareau exhibition: http:// thejm.net/bnbP30aBsHj pic.twitter.com/xd8522UfSG","#VirtualReality #PierreChareau","2017-04-05 22:09:09"
"Apple's latest big change sets up future iPhones for VR and AR http:// buff.ly/2oSnIPN #AR #VR #AugmentedReality #VirtualReality","#AR #VR #AugmentedReality #VirtualReality","2017-04-05 22:06:07"
"BESTEL NU! Mobile Customer Experience & Mixed reality #virtualreality #augmented http:// tinyurl.com/mx8sr4m","#virtualreality #augmented","2017-04-05 22:05:52"
"10 Best Uses Of Virtual Reality In Marketing (Updated) http://www. mbryonic.com/best-vr/ #VR #VirtualReality #Marketing @hashVR","#VR #VirtualReality #Marketing","2017-04-05 22:03:04"
"#sex #hentaiporn filipina #virtualreality #latinas bbwmodel #thaistyle #sexy facial #sexdating pic.twitter.com/dBqAJyjtBE","#sex #hentaiporn #virtualreality #latinas #thaistyle #sexy #sexdating","2017-04-05 22:01:40"
"#female #camion ebonybabe #sexobrutal #cumshots lickilickivideo #ass #bbw teen #virtualreality pic.twitter.com/yWyzDP1w6H","#female #camion #sexobrutal #cumshots #ass #bbw #virtualreality","2017-04-05 22:01:37"
"#Virtualreality could save real lives! @3DS_SIMULIA is creating VR s that doctors can use to plan your treatment. http:// bit.ly/2mQsP6d pic.twitter.com/hOyDwZEuaW","#Virtualreality","2017-04-05 22:01:33"
"BESTEL NU! Mobile Customer Experience & Mixed reality #virtualreality #augmented http:// tinyurl.com/mx8sr4m","#virtualreality #augmented","2017-04-05 22:00:58"
"The Now and Future of #VirtualReality for #Design #Visualization | http:// ow.ly/KN4D30aBqnp | @GenslerOnWork @GenslerOnCities @autodesk pic.twitter.com/sEN4tVr4Yi","#VirtualReality #Design #Visualization","2017-04-05 22:00:18"
"The Now and Future of #VirtualReality for #Design #Visualization | http:// ow.ly/KN4D30aBqnp | @GenslerOnWork @GenslerOnCities @autodesk pic.twitter.com/dskSFzWHt4","#VirtualReality #Design #Visualization","2017-04-05 22:00:18"
"The Now and Future of #VirtualReality for #Design #Visualization | http:// ow.ly/KN4D30aBqnp | @GenslerOnWork @GenslerOnCities @autodesk pic.twitter.com/HrVyBllNSA","#VirtualReality #Design #Visualization","2017-04-05 22:00:18"
"The Now and Future of #VirtualReality for #Design #Visualization | http:// ow.ly/KN4D30aBqnp | @GenslerOnWork @GenslerOnCities @autodesk pic.twitter.com/v4Ty7Z410s","#VirtualReality #Design #Visualization","2017-04-05 22:00:18"
"The Now and Future of #VirtualReality for #Design #Visualization | http:// ow.ly/KN4D30aBqnp | @GenslerOnWork @GenslerOnCities @autodesk pic.twitter.com/IMlvLFnEjG","#VirtualReality #Design #Visualization","2017-04-05 22:00:17"
"The Now and Future of #VirtualReality for #Design #Visualization | http:// ow.ly/KN4D30aBqnp | @GenslerOnWork @GenslerOnCities @autodesk pic.twitter.com/cUeK5sQ1Gn","#VirtualReality #Design #Visualization","2017-04-05 22:00:17"
"The Now and Future of #VirtualReality for #Design #Visualization | http:// ow.ly/KN4D30aBqnp | @GenslerOnWork @GenslerOnCities @autodesk pic.twitter.com/4u3PpUaOb9","#VirtualReality #Design #Visualization","2017-04-05 22:00:17"
"The Now and Future of #VirtualReality for #Design #Visualization | http:// ow.ly/KN4D30aBqnp | @GenslerOnWork @GenslerOnCities @autodesk pic.twitter.com/ZO1UbFW5Vn","#VirtualReality #Design #Visualization","2017-04-05 22:00:17"
"The Now and Future of #VirtualReality for #Design #Visualization | http:// ow.ly/KN4D30aBqnp | @GenslerOnWork @GenslerOnCities @autodesk pic.twitter.com/CK7M3ME36u","#VirtualReality #Design #Visualization","2017-04-05 22:00:17"
"The Now and Future of #VirtualReality for #Design #Visualization | http:// ow.ly/KN4D30aBqnp | @GenslerOnWork @GenslerOnCities @autodesk pic.twitter.com/2SZxXb9p7m","#VirtualReality #Design #Visualization","2017-04-05 22:00:17"
"The Now and Future of #VirtualReality for #Design #Visualization | http:// ow.ly/KN4D30aBqnp | @GenslerOnWork @GenslerOnCities @autodesk pic.twitter.com/5mb7GPzi7R","#VirtualReality #Design #Visualization","2017-04-05 22:00:17"
"The Now and Future of #VirtualReality for #Design #Visualization | http:// ow.ly/KN4D30aBqnp | @GenslerOnWork @GenslerOnCities @autodesk pic.twitter.com/tIOH5JmRsG","#VirtualReality #Design #Visualization","2017-04-05 22:00:17"
"The Now and Future of #VirtualReality for #Design #Visualization | http:// ow.ly/KN4D30aBqnp | @GenslerOnWork @GenslerOnCities @autodesk pic.twitter.com/fv4yhcDgqc","#VirtualReality #Design #Visualization","2017-04-05 22:00:17"
"The Now and Future of #VirtualReality for #Design #Visualization | http:// ow.ly/KN4D30aBqnp | @GenslerOnWork @GenslerOnCities @autodesk pic.twitter.com/1AxZr6N1dR","#VirtualReality #Design #Visualization","2017-04-05 22:00:17"
"#NextVR - Broadcasting #Live Events in #VirtualReality [Review] http:// buff.ly/2oI8JZ9 #VRVideo #VR #LiveStreaming","#NextVR #Live #VirtualReality #VRVideo #VR #LiveStreaming","2017-04-05 22:00:13"
"My #oculus rift #VR experience today at Facebook. Very cool. #VirtualReality pic.twitter.com/NVaHEiokJE","#oculus #VR #VirtualReality","2017-04-05 21:57:42"
"BESTEL NU! Mobile Customer Experience & Mixed reality #virtualreality #augmented http:// tinyurl.com/mx8sr4m","#virtualreality #augmented","2017-04-05 21:55:53"
"#laboral #constchat footworship #berlin #siaface sexcam #virtualreality #erotica nsfw #stockings pic.twitter.com/a3j6mjGolD","#laboral #constchat #berlin #siaface #virtualreality #erotica #stockings","2017-04-05 21:55:37"
"#weddings #british espechat #latex #virtualreality lickilickivideo #anal #handjob horny #cosplay pic.twitter.com/xokezKB8wC","#weddings #british #latex #virtualreality #anal #handjob #cosplay","2017-04-05 21:55:22"
"#virtualreality #javadev : So, with this tool you can see and debug Java code in VR. But... why?? http://www. primitive.io /","#virtualreality #javadev","2017-04-05 21:55:00"
"Pushing the boudaries of #VR ! Showing off some 6 degrees of freedom, completely untethered #virtualreality at @SVVRLIVE #Innovation #Tech pic.twitter.com/O7nwBEb9bs","#VR #virtualreality #Innovation #Tech","2017-04-05 21:54:21"
"BESTEL NU! Mobile Customer Experience & Mixed reality #virtualreality #augmented http:// tinyurl.com/mx8sr4m","#virtualreality #augmented","2017-04-05 21:50:52"
"BESTEL NU! Mobile Customer Experience & Mixed reality #virtualreality #augmented http:// tinyurl.com/mx8sr4m","#virtualreality #augmented","2017-04-05 21:45:53"
"Why Virtual Reality is disruptive by RiftingReality #virtualreality #tech http:// ift.tt/28Y5EgV pic.twitter.com/dZgu1c9Y1t","#virtualreality #tech","2017-04-05 21:45:18"
"There is no one killer app or equipment in #VirtualReality yet. From a consumer viewpoint, the @Netflix app might be the only one #dsw17 pic.twitter.com/XfvZ3KYgp9","#VirtualReality #dsw17","2017-04-05 21:44:28"
"@DanielleDigest we @designVRllc would love to connect with you during the demos of our #VirtualReality platform for #architects & #Designers pic.twitter.com/Bg8K93okcc","#VirtualReality #architects #Designers","2017-04-05 21:43:37"
"#bikini #exotic ladytabares #nylon #analog bigtits #virtualreality #sexcam webcams #pussy pic.twitter.com/WzoxXHWLwY","#bikini #exotic #nylon #analog #virtualreality #sexcam #pussy","2017-04-05 21:42:51"
"Domain Name http:// VRBitcoinGames.com is for sale #virtualreality #bitcoin #btc #bitcoins #VRgames #vrgame #vr #domains #videogames","#virtualreality #bitcoin #btc #bitcoins #VRgames #vrgame #vr #domains #videogames","2017-04-05 21:42:14"
"Virtual Reality Headset http:// bit.ly/2oJuZlv #VR #vrs #VirtualReality #VirtualHero3 #augmentint #AugmentedReality #smartphone #mobile pic.twitter.com/4FpnRqxpEr","#VR #vrs #VirtualReality #VirtualHero3 #augmentint #AugmentedReality #smartphone #mobile","2017-04-05 21:42:10"
"BESTEL NU! Mobile Customer Experience & Mixed reality #virtualreality #augmented http:// tinyurl.com/mx8sr4m","#virtualreality #augmented","2017-04-05 21:40:58"
"You know you want your very own #VirtualShowroom ::drool:: #vr #virtualreality #spacialists http:// ow.ly/cErt30aBqe8 pic.twitter.com/8ViEys4Ily","#VirtualShowroom #vr #virtualreality #spacialists","2017-04-05 21:40:32"
"Get Down With 360 Breakdancing Championship Stream This Weekend http:// bit.ly/2nYMePE #VirtualReality #VR #tech pic.twitter.com/VTm46YjJRB","#VirtualReality #VR #tech","2017-04-05 21:37:13"
"BESTEL NU! Mobile Customer Experience & Mixed reality #virtualreality #augmented http:// tinyurl.com/mx8sr4m","#virtualreality #augmented","2017-04-05 21:35:50"
