"wenn's soweit ist, ist die Ampel schon gar nicht mehr rot wenn Autos schon stehen. #connectedInfrastructure","#connectedInfrastructure","2016-07-21 10:15:01"
"The 5 Critical Elements for Data Center operations & the benefits of #ConnectedInfrastructure http:// bit.ly/1HV4XSx pic.twitter.com/zadhuWq3QY","#ConnectedInfrastructure","2015-04-29 14:53:01"
"Will National Security Concerns Limit Reach of @Huawei $25M Acquisition of #IoT WAN Tech Startup Neul in #connectedinfrastructure projects?","#IoT #connectedinfrastructure","2014-09-23 17:33:20"
