"#Peertopeerlending bosses split on whether to become a #bank http:// hubs.ly/H06YWfH0 by @AltFinanceNews #fintech #innovation #startupaus pic.twitter.com/39NA4xk6eU","#Peertopeerlending #bank #fintech #innovation #startupaus","2017-04-04 02:30:01"
"Bringing Commercial Credit Methods to #PeertoPeerLending http:// hubs.ly/H06QvPP0 @StuFinancesTech","#PeertoPeerLending","2017-03-25 00:33:00"
"Rupaiya Exchange - one of the leading p2p lending marketplace in India journey till Feb 2017 #Fintech #peertopeerlending #onlineloans #India pic.twitter.com/JF0qTA3AYZ","#Fintech #peertopeerlending #onlineloans #India","2017-03-23 12:14:19"
"http:// lendingalpha.com | Lending Club and Prosper Tax Information for 2017 https:// goo.gl/xkngKu #PeertoPeerLending #2017 #LendingClub pic.twitter.com/Sv4sBXCX8F","#PeertoPeerLending #2017 #LendingClub","2017-03-22 03:47:09"
"http:// lendingalpha.com | Yirendai Q4 2016 Earnings Review https:// goo.gl/mZnnqj #PeertoPeerLending #Earnings #Q42016 pic.twitter.com/DUfsTWPqxo","#PeertoPeerLending #Earnings #Q42016","2017-03-16 19:15:22"
"http:// lendingalpha.com | The OCC Publishes Details on the Fintech Charter https:// goo.gl/P7jClR #PeertoPeerLending #fintechcharter #OCC","#PeertoPeerLending #fintechcharter #OCC","2017-03-16 05:51:04"
"#Credy looks to digitize personal lending in India https:// goo.gl/fb/zZDSOZ #finance #tc #peertopeerlending #personalloans #ycombinator","#Credy #finance #tc #peertopeerlending #personalloans #ycombinator","2017-03-15 22:43:10"
"http:// lendingalpha.com | Are SoFi Borrowers Really Defaulting More? https:// goo.gl/347C0W #PeertoPeerLending #securitization #SoFi pic.twitter.com/ArJFO9mBlN","#PeertoPeerLending #securitization #SoFi","2017-03-15 14:18:08"
"#DidYouKnow : You can earn up to 30% interest per annum when you #invest in #PeerToPeerLending with http:// I2Ifunding.com . pic.twitter.com/xCReKZ1kQn","#DidYouKnow #invest #PeerToPeerLending","2017-03-12 08:26:10"
"http:// lendingalpha.com | Wrap-Up of LendIt USA 2017 in New York https:// goo.gl/vUSLrw #PeertoPeerLending #Conference #fintech pic.twitter.com/muVvIx7zTf","#PeertoPeerLending #Conference #fintech","2017-03-10 05:27:07"
"#PEERtoPEERLENDING : quali prospettive? http:// buff.ly/2mWIMV7 @SimoMace @AntnLafio . Seguici su #tignewsletter http:// buff.ly/2cF8BbL pic.twitter.com/eWez1av3Am","#PEERtoPEERLENDING #tignewsletter","2017-03-09 12:31:01"
"http:// lendingalpha.com | LendIt PitchIt Finalists, Where are they now? https:// goo.gl/zs69XK #PeertoPeerLending #PitchItLendIt","#PeertoPeerLending #PitchItLendIt","2017-03-03 15:16:06"
"http:// lendingalpha.com | Prosper Finally Closes Their Big $5 Billion Deal https:// goo.gl/AxXJZG #PeertoPeerLending #Fortress #Jefferies","#PeertoPeerLending #Fortress #Jefferies","2017-02-28 00:24:35"
"Peer-to-Peer Lending 6-Year Performance Update http:// dlvr.it/NV72vV #PeertoPeerLending @nloper","#PeertoPeerLending","2017-02-27 15:04:06"
"Exciting stuff I just issued my first 10 notes using @LendingClub #P2P lending #Invest or #Borrow #PeerToPeerLending","#P2P #Invest #Borrow #PeerToPeerLending","2017-02-24 19:04:55"
"http:// lendingalpha.com | Fintech Firms in Auto Gaining Traction https:// goo.gl/JUmFFT #PeertoPeerLending #autoloans #AutoRefinance pic.twitter.com/kujOjJ88Qk","#PeertoPeerLending #autoloans #AutoRefinance","2017-02-24 05:16:36"
"Peer-to-Peer lending becoming more popular #Brokers #Peertopeerlending #P2PLeading #Finance http:// ow.ly/YZhC3099EI2","#Brokers #Peertopeerlending #P2PLeading #Finance","2017-02-20 02:15:03"
"The economics of #PeerToPeerLending . http:// ow.ly/8NTl308WAaj","#PeerToPeerLending","2017-02-13 13:00:28"
"Find out how @getPayKey lets users send money through social networks http:// okt.to/BiEDJo #PeerToPeerLending pic.twitter.com/9EqT6VjM7Q","#PeerToPeerLending","2017-02-09 10:56:02"
"http:// lendingalpha.com | Buying, Selling and Financing Homes is Changing https:// goo.gl/bkbWK4 #PeertoPeerLending #buying #financing pic.twitter.com/7gKOaH1Hyz","#PeertoPeerLending #buying #financing","2017-02-08 22:12:35"
"Great talk on #alternativeinvesting #roboadvisors #peertopeerlending @ScalableCapital @FundingCircleUK #fintech #londonfintechconference2017 pic.twitter.com/U4ScYOtzHs","#alternativeinvesting #roboadvisors #peertopeerlending #fintech #londonfintechconference2017","2017-02-08 18:41:53"
"http:// lendingalpha.com | Podcast 89: Mike Cagney of SoFi https:// goo.gl/V0uWDM #PeertoPeerLending pic.twitter.com/Lp56NwCQeO","#PeertoPeerLending","2017-02-04 02:03:37"
"http:// lendingalpha.com | Own SoFi, Other Fintechs Through Renren https:// goo.gl/KnW9pF #PeertoPeerLending #Fundrise #Motif pic.twitter.com/dmOrzC3pab","#PeertoPeerLending #Fundrise #Motif","2017-02-01 01:00:37"
"Peer to peer strikes a chord with younger generation - http:// ow.ly/CXHU308lbX6 #peertopeer #peertopeerlending pic.twitter.com/DccGk3kO77","#peertopeer #peertopeerlending","2017-01-26 09:25:13"
"http:// lendingalpha.com | The Top 8 Fintech Podcasts https:// goo.gl/dPcikp #PeertoPeerLending #fintech #podcasts pic.twitter.com/7OkC89LxmS","#PeertoPeerLending #fintech #podcasts","2017-01-26 05:10:09"
"http:// lendingalpha.com | The Lend Academy/LendIt Response to the OCC https:// goo.gl/bUoT7n #PeertoPeerLending #fintechcharter #OCC pic.twitter.com/B7hFQ9fYYm","#PeertoPeerLending #fintechcharter #OCC","2017-01-24 04:43:07"
"Visit http://www. peerlend.in for more details. @PeerLend_IN #P2P #lending #online #peertopeerlending #peerlendIndia #personalLoans pic.twitter.com/BikJTGwc0G","#P2P #lending #online #peertopeerlending #peerlendIndia #personalLoans","2017-01-19 09:03:36"
"Get upto 36% interest per annum when you invest in #PeerToPeerLending with #Lendbox ! #InvestSmart #GrowRich #DiversifyYourInvestments pic.twitter.com/3ipXX1Ivxd","#PeerToPeerLending #Lendbox #InvestSmart #GrowRich #DiversifyYourInvestments","2017-01-11 05:54:02"
"http:// lendingalpha.com | An Introduction to Securitization https:// goo.gl/0sZ2a3 #PeertoPeerLending #dv01 #Kroll pic.twitter.com/i3ODTFt3Al","#PeertoPeerLending #dv01 #Kroll","2017-01-11 04:48:33"
"Investing in real estate market is a no no after #demonetization ! Try safer investment options like #PeerToPeerLending with #Lendbox . pic.twitter.com/6LA4ebegbg","#demonetization #PeerToPeerLending #Lendbox","2017-01-06 05:28:02"
"Too much fluctuation for your risk appetite after #demonetization ? Diversify your portfolio with #PeerToPeerLending :) pic.twitter.com/txNel4JWjj","#demonetization #PeerToPeerLending","2017-01-04 05:17:01"
"http:// lendingalpha.com | Lending Club Bonus for New IRA Investments https:// goo.gl/wY3c5y #PeertoPeerLending #IRABonus #LendingClub pic.twitter.com/dr4IUxpcQq","#PeertoPeerLending #IRABonus #LendingClub","2016-12-23 00:17:09"
"The alternative to #lending from a bank: #marketplacelending #peertopeerlending http:// hubs.ly/H05zx290 pic.twitter.com/lKVJ2LtcPt","#lending #marketplacelending #peertopeerlending","2016-12-20 03:46:02"
"http:// lendingalpha.com | An Overview of Small Business Loan Funding https:// goo.gl/CEUOry #PeertoPeerLending #AmericanExpress #BlueVine pic.twitter.com/Y1edKHRFLA","#PeertoPeerLending #AmericanExpress #BlueVine","2016-12-19 21:20:39"
"The alternative to #lending from a bank: #marketplacelending #peertopeerlending http:// hubs.ly/H05zxJc0 pic.twitter.com/V5dIDck4w8","#lending #marketplacelending #peertopeerlending","2016-12-19 01:29:03"
"The alternative to #lending from a bank: #marketplacelending #peertopeerlending http:// hubs.ly/H05zxJ10 pic.twitter.com/kK3Tqnh4s8","#lending #marketplacelending #peertopeerlending","2016-12-16 19:10:01"
"Anyone wanna make sum extra cash. Inbox me. #PayitForward #PeerToPeerLending #ExtraPaycheck","#PayitForward #PeerToPeerLending #ExtraPaycheck","2016-12-15 17:10:32"
"@rupaiyaexchange covered by #EconomicTimes #ETTech #fintech #startup #peertopeerlending : http:// bit.ly/2ge6ur2","#EconomicTimes #ETTech #fintech #startup #peertopeerlending","2016-12-08 12:34:59"
"http:// lendingalpha.com | New Fintech Charter Proposed by the OCC https:// goo.gl/SH0tKV #PeertoPeerLending #fintechcharter #OCC pic.twitter.com/jzpGvJZKo1","#PeertoPeerLending #fintechcharter #OCC","2016-12-03 01:04:34"
"BitLendingClub to Close Its Doors: Regulations Cited As Cause #Bitcoin #p2plending #PeertoPeerLending http:// bit.ly/2fV5Sd7","#Bitcoin #p2plending #PeertoPeerLending","2016-12-01 14:02:57"
"BitLendingClub to Close Its Doors: Regulations Cited As Cause #Bitcoin #p2plending #PeertoPeerLending http:// bit.ly/2fV5Sd7","#Bitcoin #p2plending #PeertoPeerLending","2016-12-01 13:59:09"
"BitLendingClub to Close Its Doors: Regulations Cited As Cause #Bitcoin #p2plending #PeertoPeerLending http:// bit.ly/2fV5Sd7","#Bitcoin #p2plending #PeertoPeerLending","2016-12-01 13:56:11"
"http:// lendingalpha.com | Please Take the Lend Academy Reader Survey https:// goo.gl/ZaC394 #PeertoPeerLending #survey","#PeertoPeerLending #survey","2016-11-30 19:34:35"
"India is now moving towards #digitalisation after #demonetisation . #fintech #peertopeerlending #narendramodi . http:// bit.ly/2fr244U","#digitalisation #demonetisation #fintech #peertopeerlending #narendramodi","2016-11-28 08:39:23"
"Great article. We really believe in #peertopeerlending as our focus is on #veterans . #business #funding","#peertopeerlending #veterans #business #funding","2016-11-28 00:30:33"
"As #Zopa begins its path to become a bank, follow its progress in the P2x Report https:// p2x.co.uk/report_zopa.php #altfi #peertopeerlending #fintech","#Zopa #altfi #peertopeerlending #fintech","2016-11-24 14:27:44"
"http:// lendingalpha.com | Happy Thanksgiving from Lend Academy https:// goo.gl/tQjViT #PeertoPeerLending pic.twitter.com/jCdh037AeZ","#PeertoPeerLending","2016-11-23 20:02:10"
"http:// lendingalpha.com | LendIt Adds Industry Awards Ceremony & Dinner https:// goo.gl/hdi1t5 #PeertoPeerLending #IndustryAwards #LendIt pic.twitter.com/gdfAjpcbut","#PeertoPeerLending #IndustryAwards #LendIt","2016-11-22 19:32:38"
"@VoicesofLeaders #PeertopeerLending http:// pri.ml/5tuAewBQ via forbes pic.twitter.com/7C9awLSds3","#PeertopeerLending","2016-11-18 11:10:35"
"Know how to manage #creditmismatch after #500And1000rupee ban : http:// bit.ly/2eZU1dq #fintech #digitalwallets #peertopeerlending","#creditmismatch #500And1000rupee #fintech #digitalwallets #peertopeerlending","2016-11-15 09:53:56"
"#LendAcademy Founder Peter Renton On #PeerToPeerLending After the Industry's Troubled Year - http:// ow.ly/adqg305PvGq","#LendAcademy #PeerToPeerLending","2016-11-13 18:01:40"
"#PeertoPeerLending #BorsadelCredito .it https:// lnkd.in/e5ZAgvR","#PeertoPeerLending #BorsadelCredito","2016-11-11 19:02:06"
"Interested in launching your own #crowdfunding , #peertopeerlending or #peertobusiness platform? Get in touch at hello@whitelabelcrowd.fund","#crowdfunding #peertopeerlending #peertobusiness","2016-11-11 13:59:28"
"The Financial Ombudsman reviews #peertopeerlending #marketplacelending complaints in the UK @financialombuds http:// buff.ly/2evyadq","#peertopeerlending #marketplacelending","2016-11-04 16:28:21"
"The alternative to #lending from a bank: #marketplacelending #peertopeerlending http:// hubs.ly/H051Hqj0 pic.twitter.com/VzpUWAYXZI","#lending #marketplacelending #peertopeerlending","2016-11-04 13:10:09"
"http:// lendingalpha.com | OnDeck Reports Q3 2016 Earnings https:// goo.gl/zAlQVw #PeertoPeerLending #Earnings #OnDeck pic.twitter.com/fgPQxwL5hp","#PeertoPeerLending #Earnings #OnDeck","2016-11-03 23:59:08"
"Regulators club together as ASIC & @OSC build fintech relationship: http:// buff.ly/2flj1ZU #marketplacelending #fintech #peertopeerlending","#marketplacelending #fintech #peertopeerlending","2016-11-03 16:11:46"
"The alternative to #lending from a bank: #marketplacelending #peertopeerlending http:// hubs.ly/H051H2Y0 pic.twitter.com/xHnrUP2JGJ","#lending #marketplacelending #peertopeerlending","2016-11-02 14:06:59"
"The alternative to #lending from a bank: #marketplacelending #peertopeerlending http:// hubs.ly/H051GPd0 pic.twitter.com/J3wnFzJMoG","#lending #marketplacelending #peertopeerlending","2016-11-01 23:07:00"
"http:// lendingalpha.com | SoFi Continues Product Expansion Into Insurance https:// goo.gl/AuULr5 #PeertoPeerLending #LifeInsurance #SoFi","#PeertoPeerLending #LifeInsurance #SoFi","2016-10-31 23:21:06"
"The alternative to #lending from a bank: #marketplacelending #peertopeerlending http:// hubs.ly/H04RP750 pic.twitter.com/4dqDgw7vDL","#lending #marketplacelending #peertopeerlending","2016-10-28 13:16:07"
"http:// lendingalpha.com | KPMG and H2 Ventures Release the Global Fintech 100 https:// goo.gl/mPorJq #PeertoPeerLending #China #fintech pic.twitter.com/Mp1FweIgmO","#PeertoPeerLending #China #fintech","2016-10-28 06:55:34"
"10 Quick #Tips for Investing in #PeertoPeerLending http:// bit.ly/2flusF7 pic.twitter.com/t8mD2Qs2D4","#Tips #PeertoPeerLending","2016-10-28 06:47:47"
"The alternative to #lending from a bank: #marketplacelending #peertopeerlending http:// hubs.ly/H04R9W20 pic.twitter.com/GH5bax48dZ","#lending #marketplacelending #peertopeerlending","2016-10-27 14:02:36"
"""How to Earn Great Investment Returns with #PeerToPeerLending "" hosted by Mukesh Bubna, CEO, Monexo Fintech. https:// goo.gl/LX60eU #P2P pic.twitter.com/uNjiieYH8R","#PeerToPeerLending #P2P","2016-10-27 09:09:14"
"Opportunity for alternative payment platforms - #fintech #peertopeerlending #challengerbanks @iccwboUK #disruptivetrends @ICCAcademy","#fintech #peertopeerlending #challengerbanks #disruptivetrends","2016-10-26 12:40:41"
"http:// lendingalpha.com | Innovative Lending Platform Association Unveils SMART Box https:// goo.gl/4UqbMy #PeertoPeerLending #CanCapital pic.twitter.com/T5IrwvRupu","#PeertoPeerLending #CanCapital","2016-10-26 03:29:36"
"@BetaKit #PeertopeerLending Loop returns to the market months... http:// pri.ml/3dypcKRb via financialpost @Primal pic.twitter.com/oN7hts7NIT","#PeertopeerLending","2016-10-25 04:02:30"
"@TheRouteFinance #PeertopeerLending Loop returns to the market months... http:// pri.ml/-3Rujj91 via financialpost pic.twitter.com/4D3tHQfzfs","#PeertopeerLending","2016-10-24 22:55:24"
"The alternative to #lending from a bank: #marketplacelending #peertopeerlending http:// hubs.ly/H04RSg80 pic.twitter.com/WR3pDgxCjy","#lending #marketplacelending #peertopeerlending","2016-10-24 19:14:00"
"http:// lendingalpha.com | New Report on Bank Partnerships with Fintech Companies https:// goo.gl/6lM3PG #PeertoPeerLending #Banks #fintech pic.twitter.com/gXoTL7gnW3","#PeertoPeerLending #Banks #fintech","2016-10-24 17:43:09"
"The alternative to #lending from a bank: #marketplacelending #peertopeerlending http:// hubs.ly/H04R8PS0 pic.twitter.com/6lzUWLvclL","#lending #marketplacelending #peertopeerlending","2016-10-24 01:24:00"
"#chiranjitchakrborty : London and the Southwest part of England is lending more than what is borrowing! #peertopeerlending #YSIplenary pic.twitter.com/GIHRwnEEy2","#chiranjitchakrborty #peertopeerlending #YSIplenary","2016-10-22 10:15:10"
"The alternative to #lending from a bank: #marketplacelending #peertopeerlending http:// hubs.ly/H04Pk_y0 pic.twitter.com/YqBgTtIgzo","#lending #marketplacelending #peertopeerlending","2016-10-22 05:37:02"
"The alternative to #lending from a bank: #marketplacelending #peertopeerlending http:// hubs.ly/H04MwLw0 pic.twitter.com/lTUBjIXCPf","#lending #marketplacelending #peertopeerlending","2016-10-21 01:28:01"
"Connecting #smallbusiness to funding http:// hubs.ly/H04z1PC0 #peertopeerlending @AccionUS pic.twitter.com/0z1u8SydaA","#smallbusiness #peertopeerlending","2016-10-20 13:17:01"
"The alternative to #lending from a bank: #marketplacelending #peertopeerlending http:// hubs.ly/H04Pk_00 pic.twitter.com/GS6N2PBZYA","#lending #marketplacelending #peertopeerlending","2016-10-19 20:17:10"
"10 #QuickTips for #investing in #PeertoPeerLending http:// buff.ly/2djVe1g pic.twitter.com/NQ45MeKXft","#QuickTips #investing #PeertoPeerLending","2016-10-19 08:32:03"
"The alternative to #lending from a bank: #marketplacelending #peertopeerlending http:// hubs.ly/H04Mvb90 pic.twitter.com/pZ6HNhlrFD","#lending #marketplacelending #peertopeerlending","2016-10-18 01:32:01"
"The alternative to #lending from a bank: #marketplacelending #peertopeerlending http:// hubs.ly/H04JLR-0 pic.twitter.com/krHYZXbQb7","#lending #marketplacelending #peertopeerlending","2016-10-16 15:04:04"
"The alternative to #lending from a bank: #marketplacelending #peertopeerlending http:// hubs.ly/H04JLR00 pic.twitter.com/a78DKhaiV4","#lending #marketplacelending #peertopeerlending","2016-10-12 21:32:02"
"The alternative to #lending from a bank: #marketplacelending #peertopeerlending http:// hubs.ly/H04GS7Y0 pic.twitter.com/dgzJQDlqkL","#lending #marketplacelending #peertopeerlending","2016-10-12 15:06:40"
"P2P lending rediscovers balance sheet magic. More to read here! #p2plending #peertopeerlending ... http:// fb.me/1AvWXRz1b","#p2plending #peertopeerlending","2016-10-12 06:00:03"
"Connecting #smallbusiness to funding http:// hubs.ly/H04z22z0 #peertopeerlending @AccionUS pic.twitter.com/FGZfoKGwaV","#smallbusiness #peertopeerlending","2016-10-12 05:34:01"
"Move over term deposits, peer-to-peer lending is on the rise for Aussie investors #peertopeerlending #p2p #FinTech http:// bit.ly/2elRKdj","#peertopeerlending #p2p #FinTech","2016-10-11 06:45:13"
"Move over term deposits, peer-to-peer lending is on the rise for Aussie investors #peertopeerlending #p2p #FinTech http:// bit.ly/2elRKdj","#peertopeerlending #p2p #FinTech","2016-10-11 06:37:04"
"The alternative to #lending from a bank: #marketplacelending #peertopeerlending http:// hubs.ly/H04GQpT0 pic.twitter.com/xFOZ5J8On5","#lending #marketplacelending #peertopeerlending","2016-10-11 03:47:00"
"http:// lendingalpha.com | Oxera and P2PFA Release UK Report on P2P Lending https:// goo.gl/Y4vp5N #PeertoPeerLending #Oxera #P2PFA pic.twitter.com/Ws10zeU7BR","#PeertoPeerLending #Oxera #P2PFA","2016-10-10 08:16:39"
"Traditional Banking vs. #OnlineLending , why #peertopeerlending works for #smallbusinesses http:// hubs.ly/H04B2Kz0 by @youtube pic.twitter.com/lHUTDiY2Mx","#OnlineLending #peertopeerlending #smallbusinesses","2016-10-07 17:11:10"
"Senior changes for @Proplend as it also steps away from GLI Finance: http:// buff.ly/2dDVNPh #peertopeerlending","#peertopeerlending","2016-10-07 13:54:27"
"New ceo installed at Australian platform @directmoney : http:// buff.ly/2dNnXpz #marketplacelending #peertopeerlending","#marketplacelending #peertopeerlending","2016-10-06 15:39:40"
"The alternative to #lending from a bank: #marketplacelending #peertopeerlending http:// hubs.ly/H04CRVY0 pic.twitter.com/VY4dJr3o9C","#lending #marketplacelending #peertopeerlending","2016-10-05 23:07:48"
"Senior hires bulks out @cloudlending : http:// buff.ly/2cT9bgh #marketplacelending #peertopeerlending","#marketplacelending #peertopeerlending","2016-10-05 16:17:31"
"The alternative to #lending from a bank: #marketplacelending #peertopeerlending http:// hubs.ly/H04y-Cg0 pic.twitter.com/t031h1ix9s","#lending #marketplacelending #peertopeerlending","2016-10-05 01:30:18"
"#Experience Of a #Borrower with different platforms. #peertopeerlending #banking http:// buff.ly/2d7Cxbr pic.twitter.com/fxCa2Ta17A","#Experience #Borrower #peertopeerlending #banking","2016-10-03 08:32:00"
"Connecting #smallbusiness to funding http:// hubs.ly/H04z1rc0 #peertopeerlending @AccionUS pic.twitter.com/UkasP10pbr","#smallbusiness #peertopeerlending","2016-10-03 03:55:01"
"The alternative to #lending from a bank: #marketplacelending #peertopeerlending http:// hubs.ly/H04y-Bc0 pic.twitter.com/B0MfVgz2GY","#lending #marketplacelending #peertopeerlending","2016-10-02 15:10:04"
"Funding America's #smallbusinesses with #peertopeerlending http:// hubs.ly/H04zvgh0 Better rates, higher returns pic.twitter.com/Qw48DlH9u2","#smallbusinesses #peertopeerlending","2016-10-01 15:14:02"
"10 #QuickTips for #investing in #PeertoPeerLending http:// buff.ly/2czHFJa pic.twitter.com/yuzpZ6eJeu","#QuickTips #investing #PeertoPeerLending","2016-09-29 06:45:04"
"The SEC to host public Fintech forum - 14 Nov: http:// buff.ly/2cC5HTV #marketplacelending #peertopeerlending #fintech","#marketplacelending #peertopeerlending #fintech","2016-09-28 16:01:23"
"Securitisation of @Zopa loans gets highest debut ratings for any MPL deal & oversubscribed: http:// buff.ly/2dqZCLw #peertopeerlending","#peertopeerlending","2016-09-28 15:01:10"
"#Experience Of a #Borrower with different platforms. #peertopeerlending #banking http:// buff.ly/2cHx4uj pic.twitter.com/poBp14QA9B","#Experience #Borrower #peertopeerlending #banking","2016-09-28 08:29:03"
"New development from @Zoopla as it offers #peertopeerlending portal with @LandbayUK : http:// buff.ly/2d6qG0k","#peertopeerlending","2016-09-27 17:00:06"
"Recent case lends support to bank partnership model used by #marketplacelending firms: http:// buff.ly/2dh56Xc #peertopeerlending","#marketplacelending #peertopeerlending","2016-09-27 16:54:28"
"New hire at @LendingClub replaces general counsel: http:// buff.ly/2d04rIq #marketplacelending #peertopeerlending","#marketplacelending #peertopeerlending","2016-09-27 13:26:15"
"#Experience Of a #Borrower with different platforms. #peertopeerlending #banking http:// buff.ly/2czx1lT pic.twitter.com/IXrjjXLkur","#Experience #Borrower #peertopeerlending #banking","2016-09-27 08:43:02"
"3 #Attractions of #PeertoPeerLending http:// buff.ly/2cUyowU pic.twitter.com/GVgWrvQXt7","#Attractions #PeertoPeerLending","2016-09-25 08:29:01"
"#peertopeerlending #marketplacelending or #investmentcrowdfunding - What's the difference? http:// hubs.ly/H04tv1f0 pic.twitter.com/E7x1bcEwiz","#peertopeerlending #marketplacelending #investmentcrowdfunding","2016-09-23 22:55:18"
"10 #QuickTips for #investing in #PeertoPeerLending http:// buff.ly/2diMQuh pic.twitter.com/c74iZQFMG5","#QuickTips #investing #PeertoPeerLending","2016-09-22 08:29:01"
"Good presentation from Mike @assetzcapital on #PeerToPeerLending as part of the 'financing your business' seminar this morning #NatWestBoost pic.twitter.com/s80dzkU6C1","#PeerToPeerLending #NatWestBoost","2016-09-21 13:56:35"
"http:// lendingalpha.com | Should Fintechs become Banks? https:// goo.gl/xAajp4 #PeertoPeerLending #Banks #fintech pic.twitter.com/idiXwI9W5p","#PeertoPeerLending #Banks #fintech","2016-09-19 20:07:11"
"Risks attached to SME #marketplacelending ABS highlighted by @MoodysAnalytics : http:// buff.ly/2cafQqG #peertopeerlending","#marketplacelending #peertopeerlending","2016-09-14 14:20:03"
"http:// lendingalpha.com | Orchard Announces Data Partner Program http:// goo.gl/0AnG9K #PeertoPeerLending #DataPartnerProgram #Orchard","#PeertoPeerLending #DataPartnerProgram #Orchard","2016-09-12 22:39:05"
"New hire at@FundingCircleUK @FundingCircleUS boosts global reach: http:// buff.ly/2cLjGIa #marketplacelending #peertopeerlending","#marketplacelending #peertopeerlending","2016-09-09 17:35:15"
"Third consumer ABS from @SoFi rated by @krollbondrating : http:// buff.ly/2cqq0mo #marketplacelending #peertopeerlending","#marketplacelending #peertopeerlending","2016-09-09 15:28:00"
"RMBS backed by #marketplacelending loans not as risky as consumer ABS according to @MoodysInvSvc http:// buff.ly/2c3hoRB #peertopeerlending","#marketplacelending #peertopeerlending","2016-09-09 14:45:00"
"Why choose #peertopeerlending - Access, time, cost @beehiveUAE . Gowth of #knowledgebase businesses in #Dubai pic.twitter.com/ZpcdkYpH5Y","#peertopeerlending #knowledgebase #Dubai","2016-09-07 06:46:59"
"Class action filed against Yirendai relating to misleading investors: http:// buff.ly/2bEAA9G #marketplacelending #peertopeerlending","#marketplacelending #peertopeerlending","2016-09-01 14:35:00"
"Bank partnerships could benefit SMEs according to @MoodysAnalytics : http:// buff.ly/2bM9nPO #marketplacelending #peertopeerlending","#marketplacelending #peertopeerlending","2016-09-01 14:30:24"
"#Fintech Is Changing The Way We Invest. #roboinvestors #diyonlinetrading #peertopeerlending #innovation #disruption https:// lnkd.in/ebXXT4e","#Fintech #roboinvestors #diyonlinetrading #peertopeerlending #innovation #disruption","2016-08-27 16:49:20"
"China seeks to clamp down on unruly #peertopeerlending platforms: http:// buff.ly/2bI9FZR pic.twitter.com/Byw2uvbDRI","#peertopeerlending","2016-08-25 13:45:01"
"@JRGLandbay @landbayuk Check out my official #AltFiGlobal16 social media directory http:// bit.ly/2bvK5EV #peertopeerlending #p2plending","#AltFiGlobal16 #peertopeerlending #p2plending","2016-08-22 16:13:02"
"Property #peertopeerlending platform @assetzcapital gets 5-star @defaqto rating http:// buff.ly/2buRHYx","#peertopeerlending","2016-08-16 14:16:29"
"#peertopeerlending , #fiatcurrency , #Libor , #TED & #CentralBank http:// ow.ly/Gs7830356xu @BubbaAverageJoe @BobSwarup pic.twitter.com/O9pVosBOU4","#peertopeerlending #fiatcurrency #Libor #TED #CentralBank","2016-08-09 23:00:36"
"#peertopeerlending , #fiatcurrency , #Libor , #TED & #CentralBank http:// ow.ly/Gs7830356xu @BubbaAverageJoe @BobSwarup pic.twitter.com/P52KSNcPXY","#peertopeerlending #fiatcurrency #Libor #TED #CentralBank","2016-08-09 23:00:36"
"Bad-but-not-unexpected results from @OnDeckCapital : http:// buff.ly/2aZQAiz #marketplacelending #peertopeerlending pic.twitter.com/yByIKl68kG","#marketplacelending #peertopeerlending","2016-08-09 19:01:13"
"CFO of @LendingClub resigns amid Q2 results showing losses of US$81m: http:// buff.ly/2aX2DyQ #marketplacelending #peertopeerlending","#marketplacelending #peertopeerlending","2016-08-09 17:51:46"
"Our customer engagement activity in Gurgaon. #i2ifunding #peertopeerlending #p2plending http://www. i2ifunding.com pic.twitter.com/hm2kUjVUTw","#i2ifunding #peertopeerlending #p2plending","2016-08-09 11:43:17"
"http:// lendingalpha.com | Do We Need Bank Branches? http:// goo.gl/l62MlL #PeertoPeerLending #Banks #Millennials pic.twitter.com/KGrSGabuZT","#PeertoPeerLending #Banks #Millennials","2016-08-04 01:13:08"
"Great read for #startup business, thanks @GirlsinTech ...meet WORTHY! Rolling out borrowing features soon #peertopeerlending #crowdfunding","#startup #peertopeerlending #crowdfunding","2016-08-03 05:47:41"
"RT @pmadison02: How #Fintech Is Changing The Way We Handle Money #peertopeerlending @HuffingtonPost http:// hubs.ly/H03TsxH0","#Fintech #peertopeerlending","2016-08-02 23:45:00"
"How Fintech Is Changing The Way We Handle Money #peertopeerlending @HuffingtonPost http:// buff.ly/2ai9JkA pic.twitter.com/GFp9FBtJAd","#peertopeerlending","2016-08-02 19:41:10"
"@PitchBook UK #PeertopeerLending volume is down for the first time http:// pri.ml/lNPd7t7F via businessinsider pic.twitter.com/rediKEQHGd","#PeertopeerLending","2016-07-30 19:12:46"
"Read our new blog on P2P vs Other Investments http:// buff.ly/2agTmBZ #peertopeerlending #investment (Capital@Risk) pic.twitter.com/UF0Jbjz2Wl","#peertopeerlending #investment","2016-07-28 19:12:17"
"Our customer engagement activity in Quatrro. #i2ifunding #peertopeerlending #p2plending http://www. i2ifunding.com pic.twitter.com/mYIrFeXAVV","#i2ifunding #peertopeerlending #p2plending","2016-07-22 09:37:08"
"New head of the @FCA grilled about #marketplacelending - highlights areas of concern: https:// goo.gl/WpDY1u #peertopeerlending","#marketplacelending #peertopeerlending","2016-07-21 18:35:09"
"#Peertopeerlending explained in one #infographic - #p2p #p2plending #fintech #finance #lending pic.twitter.com/lpiXRqgglM","#Peertopeerlending #infographic #p2p #p2plending #fintech #finance #lending","2016-07-21 09:56:02"
"Whether borrower or investor, here is the low down on #PeerToPeerLending http:// ow.ly/KTqq302nF4n #P2P #SmallBusiness pic.twitter.com/8KPjubRhJn","#PeerToPeerLending #P2P #SmallBusiness","2016-07-19 09:33:48"
"#peertopeerlending #marketlend inaugural offsite training pic.twitter.com/oFNEJmFZyW","#peertopeerlending #marketlend","2016-07-09 06:26:10"
"Peer-to-Peer lending with minimum risk and high control now available for everyone http:// bit.ly/29oFtjq #peertopeerlending #investments","#peertopeerlending #investments","2016-07-07 03:47:11"
"Just discovered @AltFiNews ... when doing my research on #p2p #peertopeerlending #crowdlending currently sussing up the #onlinelenders","#p2p #peertopeerlending #crowdlending #onlinelenders","2016-07-06 19:50:00"
"Peer-to-Peer lending, is it low risk investment, share your success story. http:// bit.ly/p2pLending #PeertoPeerLending #sociallending","#PeertoPeerLending #sociallending","2016-07-06 08:54:40"
"Low risk #investment opportunities. Peer-to-Peer lending is the best option http:// bit.ly/p2pLending #PeertoPeerLending #sociallending","#investment #PeertoPeerLending #sociallending","2016-07-06 03:49:13"
"Looking for #investment opportunities? Peer-to-Peer lending is the best option http:// bit.ly/p2pLending #PeertoPeerLending #sociallending","#investment #PeertoPeerLending #sociallending","2016-07-06 02:43:01"
"@URVempren #J20Valls Economia Col.laborativa i les noves formes de fer negoci #peertopeerlending pic.twitter.com/KatddeWgbE","#J20Valls #peertopeerlending","2016-06-28 19:13:36"
"@Reinventure_ @SkipprCashflow @GetWaddle @FundXAust @ScottishPacific #insurtech #blockchain #mobilepayments #peertopeerlending #banking","#insurtech #blockchain #mobilepayments #peertopeerlending #banking","2016-06-23 02:24:42"
"@Xprtly OracleVoice: Fintech Startup On Fast Track With #PeertopeerLending ... http:// pri.ml/nFd-nCVF via forbes","#PeertopeerLending","2016-06-22 22:40:52"
"@commerzbank to Launch P2P Lending Platform Next Week http:// goo.gl/Y1I8v2 #peertopeerlending @wiseclerk pic.twitter.com/lGw5BFqLHB","#peertopeerlending","2016-06-21 18:27:08"
"You're a Member @SoFi , Not a Borrower. http:// goo.gl/fBFajg #marketplacelending #peertopeerlending #fintech pic.twitter.com/Wdx9qasis6","#marketplacelending #peertopeerlending #fintech","2016-06-21 10:00:41"
"European Investment Bank Backs @fundingcircle #marketplacelending #peertopeerlending @AltFiNews @RyanJamesWeeks pic.twitter.com/e2TekskymC","#marketplacelending #peertopeerlending","2016-06-20 14:02:46"
"LendInvest Inching Closer Towards IPO http:// goo.gl/BUBbJm #marketplacelending #peertopeerlending @LendInvest pic.twitter.com/EiCWoX2fl4","#marketplacelending #peertopeerlending","2016-06-20 10:43:34"
"2014 Financial Goals: Are Yours Smart? http:// bit.ly/1U5ay9N #financialgoals #lendingclub #p2p #peertopeerlending Best of Enwealthen","#financialgoals #lendingclub #p2p #peertopeerlending","2016-06-17 23:34:04"
"@ICAEW and @BritishBBank Launch SME Digital Finance Guide #fintech #alternativefinance #peertopeerlending pic.twitter.com/fQuFAuYqo8","#fintech #alternativefinance #peertopeerlending","2016-06-17 16:05:06"
"P2P Fundamentals Remain Strong http:// goo.gl/y8sMyj #marketplacelending #peertopeerlending #fintech @Forbes pic.twitter.com/QQGNpwjJx2","#marketplacelending #peertopeerlending #fintech","2016-06-16 09:47:23"
"Prosper Maps Hedge Fund Strategy https:// goo.gl/3WjwtX #marketplacelending #peertopeerlending @lending_times pic.twitter.com/bBNQ7Nbk54","#marketplacelending #peertopeerlending","2016-06-14 10:12:29"
"New LendingClub Mistake Shows Loan-Demand Issues Persist http:// on.wsj.com/1tmBYmd via @WSJ US #peertopeerlending #P2Plending #USA","#peertopeerlending #P2Plending #USA","2016-06-13 17:29:51"
"Is it Time to Invest in Peer to Peer Lenders? http:// goo.gl/Gkue9G #marketplacelending #peertopeerlending #directlending @MorningstarInc","#marketplacelending #peertopeerlending #directlending","2016-06-13 14:04:04"
"2014 Financial Goals: Are Yours Smart? http:// bit.ly/1U5ay9N #financialgoals #lendingclub #p2p #peertopeerlending Best of Enwealthen","#financialgoals #lendingclub #p2p #peertopeerlending","2016-06-07 07:55:33"
"Here are your #weekendreads from @iimag http:// bit.ly/1XWv9mg via @iimag #venezuela #quantinvesting #peertopeerlending","#weekendreads #venezuela #quantinvesting #peertopeerlending","2016-06-03 19:27:04"
"Clients show interest in non traditional funding techniques #peertopeerlending http:// goo.gl/hhRull","#peertopeerlending","2016-06-02 09:22:51"
"@bsindia Quote from Our CEO in Business Standard Print version. @i2ifunding #peertopeerlending #RBIP2P pic.twitter.com/lAbrOYDItA","#peertopeerlending #RBIP2P","2016-05-31 12:58:22"
"Who'd have guessed? #peertopeerlending #p2p #fintech pic.twitter.com/ntuaBjcMAB","#peertopeerlending #p2p #fintech","2016-05-31 08:38:12"
"Make sure to follow the news re #PeertoPeerLending . Major companies have experienced internal controls issues that you need to know about.","#PeertoPeerLending","2016-05-30 14:45:54"
"LendingClub fund falters http:// on.wsj.com/1OOh2bJ via @WSJ US #PeertoPeerlending #crowdlending","#PeertoPeerlending #crowdlending","2016-05-26 13:42:45"
"#Banks Said to Devise Plans for Cutting Back Online Lending Risk http:// bloom.bg/1s8bbZT via @technology #PeertoPeerlending #crowdlending","#Banks #PeertoPeerlending #crowdlending","2016-05-25 15:56:45"
"http:// lendingalpha.com | Why I am Keeping My Money in Lending Club http:// goo.gl/vFcQP1 #PeertoPeerLending #investing #LendingClub","#PeertoPeerLending #investing #LendingClub","2016-05-18 18:33:06"
"Cracks are appearing in #fintech lenders: #peertopeerlending http:// on.ft.com/1OioiSd via @FT","#fintech #peertopeerlending","2016-05-12 07:48:11"
"UK peer-to-peer lenders talk up regulation after @LendingClub ruckus http:// ecoti.in/SaMjab #P2Plending #PeertoPeerlending","#P2Plending #PeertoPeerlending","2016-05-11 11:10:53"
"Check out our founder, Wharton Professor Keith Weigelt, on @Marketplace talking about #peertopeerlending ! http:// ow.ly/gfQx3004Ga5","#peertopeerlending","2016-05-10 15:50:00"
"What is Private Lending? http:// goo.gl/fb/qxEoKl #podcast #investing #makemoremoney #money #peertopeerlending","#podcast #investing #makemoremoney #money #peertopeerlending","2016-05-06 11:00:37"
"2014 Financial Goals: Are Yours Smart? http:// is.gd/y7lXty #financialgoals #lendingclub #p2p #peertopeerlending Best of @Enwealthen","#financialgoals #lendingclub #p2p #peertopeerlending","2016-05-06 00:14:17"
"Let's start: #SOISY vi aspetta al @FinTechStage per raccontarvi la Rivoluzione del #PeerToPeerLending #FTSMI16 pic.twitter.com/Ebbf3HI9AJ","#SOISY #PeerToPeerLending #FTSMI16","2016-05-05 10:25:43"
"RBI proposes P2P lending regulations (Peer-to-Peer) #PeerToPeerLending #P2PLending https:// lnkd.in/eQU7BxT","#PeerToPeerLending #P2PLending","2016-04-29 07:23:50"
"2014 Financial Goals: Are Yours Smart? http:// is.gd/y7lXty #financialgoals #lendingclub #p2p #peertopeerlending Best of @Enwealthen","#financialgoals #lendingclub #p2p #peertopeerlending","2016-04-27 15:22:14"
"The three principal types of P2P Lending https://www. proplend.com/news/916/ #peertopeerlending #p2plending #finance #fintech #lending #businesslending","#peertopeerlending #p2plending #finance #fintech #lending #businesslending","2016-04-27 09:26:04"
"RT @AnthoContat #SMEs search for lending alternatives http:// shr.gs/0A1Kodf #peertopeerlending pic.twitter.com/9mjjfmCmWw","#SMEs #peertopeerlending","2016-04-26 00:10:27"
"@PeerUnited @DiscoverHaku @BestOnlineloan @CPAAudit You've been quoted in my #Storify story "" #PeertoPeerLending "" http:// sfy.co/i1NA8","#Storify #PeertoPeerLending","2016-04-25 12:51:19"
"@scoopit You've been quoted in my #Storify story "" #PeertoPeerLending "" http:// sfy.co/i1NA8","#Storify #PeertoPeerLending","2016-04-25 12:51:19"
"#Prestito tra privati online con il #P2PL (peet-to-peer landing) - http:// goo.gl/yxc15a - #Denaro #Mutuo #PeertopeerLending","#Prestito #P2PL #Denaro #Mutuo #PeertopeerLending","2016-04-25 05:59:05"
"2014 Financial Goals: Are Yours Smart? http:// is.gd/y7lXty #financialgoals #lendingclub #p2p #peertopeerlending Best of @Enwealthen","#financialgoals #lendingclub #p2p #peertopeerlending","2016-04-18 14:37:33"
"2014 Financial Goals: Are Yours Smart? http:// is.gd/y7lXty #financialgoals #lendingclub #p2p #peertopeerlending Best of @Enwealthen","#financialgoals #lendingclub #p2p #peertopeerlending","2016-04-15 14:22:01"
"@PMIfunds You're included! - The Social Media Directory for #LendItUSA 2016 http:// bit.ly/1ScXHRZ #peertopeerlending","#LendItUSA #peertopeerlending","2016-04-06 23:01:55"
"2014 Financial Goals: Are Yours Smart? http:// is.gd/NCMKY9 #financialgoals #lendingclub #p2p #peertopeerlending Best of @Enwealthen","#financialgoals #lendingclub #p2p #peertopeerlending","2016-04-06 05:28:14"
"#SMEs search for lending alternatives http:// shr.gs/0A1Kodf #peertopeerlending pic.twitter.com/w8JIUBZQHX","#SMEs #peertopeerlending","2016-04-02 07:42:06"
"@fromPeerToPeer @rupaiyaexchange Rupaiya Exchange- A #peertopeerlending marketplace in India! #p2plending #P2Ploans #lenders #Borrowing","#peertopeerlending #p2plending #P2Ploans #lenders #Borrowing","2016-03-31 06:19:22"
"2014 Financial Goals: Are Yours Smart? http:// is.gd/NCMKY9 #financialgoals #lendingclub #p2p #peertopeerlending Best of @Enwealthen","#financialgoals #lendingclub #p2p #peertopeerlending","2016-03-26 11:37:43"
"Small #business alternatives for #financing http:// bit.ly/21EcDhg #crowdfunding #peertopeerlending pic.twitter.com/YWD7jFEivq","#business #financing #crowdfunding #peertopeerlending","2016-03-21 23:59:24"
"Hottest topics of discussion right now #alternativefinance http:// bit.ly/1SZmfmx #crowdfunding #peertopeerlending pic.twitter.com/rX4mN5gNYl","#alternativefinance #crowdfunding #peertopeerlending","2016-03-21 23:18:33"
"2014 Financial Goals: Are Yours Smart? http:// is.gd/NCMKY9 #financialgoals #lendingclub #p2p #peertopeerlending Best of @Enwealthen","#financialgoals #lendingclub #p2p #peertopeerlending","2016-03-12 10:38:22"
"Errore #Draghi e' continuare pensare banche siano unico canale per trasmettere soldi imprese #peertopeerlending #bitcoin #BraveNewWorld","#Draghi #peertopeerlending #bitcoin #BraveNewWorld","2016-03-10 22:35:33"
"How to get a 14% return from RateSetter http:// dlvr.it/KkqXWr #Savings #peertopeerlending @monevator","#Savings #peertopeerlending","2016-03-09 22:22:17"
"With #PeertoPeerLending initial returns may be higher than later returns - defaults begin to happen later. More: http:// peertopeerlendingreview.com /","#PeertoPeerLending","2016-03-07 14:52:24"
"Peer-to-peer lending: what returns can you actually get? See more here http:// bit.ly/21xbN7J #peertopeerlending","#peertopeerlending","2016-02-27 11:02:00"
"Peer-to-Peer Lending 5-Year Performance Update http:// dlvr.it/KZhN4K #Investing #PeertoPeerLending @nloper","#Investing #PeertoPeerLending","2016-02-22 15:02:15"
"Zopa and #PeertoPeerLending : one and the same? http:// ow.ly/YyysX","#PeertoPeerLending","2016-02-20 19:31:36"
"http:// lendingalpha.com | Dinosaurs and Banks http:// goo.gl/wDPcSp #PeertoPeerLending #Banks #fintech pic.twitter.com/THE3TEwxeA","#PeertoPeerLending #Banks #fintech","2016-02-17 17:09:45"
"2014 Financial Goals: Are Yours Smart? http:// is.gd/DkyJde #financialgoals #lendingclub #p2p #peertopeerlending Best of @Enwealthen","#financialgoals #lendingclub #p2p #peertopeerlending","2016-02-15 18:34:05"
"@AddLikeFollow Turner warns on #PeertopeerLending risks http:// pri.ml/D8mzDeKX","#PeertopeerLending","2016-02-13 08:04:00"
"Capzest raises funds http:// goo.gl/fb/AJQTsw #microfinance #india #peertopeerlending #applyforonlineloans","#microfinance #india #peertopeerlending #applyforonlineloans","2016-02-13 07:22:01"
"#peertopeerlending at record high in 2015, according to recent figures http:// bit.ly/1Ph1OOo","#peertopeerlending","2016-02-08 17:10:38"
"@drastichs China's Crackdown on #PeertopeerLending http:// pri.ml/VeDK2W6y via aol pic.twitter.com/J0esEaozvu","#PeertopeerLending","2016-02-06 21:55:46"
"7 Important Questions about P2P Lending Answered http:// bit.ly/1PCr8Qv #peertopeerlending pic.twitter.com/5DzK6RrM9s","#peertopeerlending","2016-02-04 14:14:51"
"2014 Financial Goals: Are Yours Smart? http:// is.gd/DkyJde #financialgoals #lendingclub #p2p #peertopeerlending Best of @Enwealthen","#financialgoals #lendingclub #p2p #peertopeerlending","2016-01-23 08:51:05"
"Looking into solutions for #funding like #crowdfunding #Crowdsoursing #grants #angels #peertopeerlending but not an easy task. Need support!","#funding #crowdfunding #Crowdsoursing #grants #angels #peertopeerlending","2016-01-20 17:17:47"
"Great white paper on the future of digital lending from the guys at Autonomous - http:// goo.gl/kpo0Q4 #Fintech #peertopeerlending","#Fintech #peertopeerlending","2016-01-15 21:27:02"
"2014 Financial Goals: Are Yours Smart? http:// is.gd/DkyJde #financialgoals #lendingclub #p2p #peertopeerlending Best of @Enwealthen","#financialgoals #lendingclub #p2p #peertopeerlending","2016-01-13 22:34:04"
"Peer-to-Peer Lending Is Set to Explode via @forbes http:// onforb.es/1kIuWCU #PeertoPeerLending #fintech","#PeertoPeerLending #fintech","2016-01-08 14:39:55"
"2014 Financial Goals: Are Yours Smart? http:// is.gd/NCMKY9 #financialgoals #lendingclub #p2p #peertopeerlending Best of @Enwealthen","#financialgoals #lendingclub #p2p #peertopeerlending","2016-01-06 07:17:04"
"Attention earth, we've hit the twittersphere. The change starts here. #twitter #hashtag #banking #peertopeerlending #P2PL","#twitter #hashtag #banking #peertopeerlending #P2PL","2015-12-20 08:52:00"
"Fintech lender cries foul after two big banks cut access to money transfer services http:// natpo.st/1O8VkgZ #peertopeerlending","#peertopeerlending","2015-12-17 20:55:13"
"People Have Some Interesting Thoughts About #PeertoPeerLending http:// bloom.bg/1LEEfgB","#PeertoPeerLending","2015-12-14 23:42:59"
"ESF Capital Acquires Controlling Stake in @ThincatsUK http:// ow.ly/VCOg7 #peertopeerlending #UK #p2p","#peertopeerlending #UK #p2p","2015-12-08 18:40:13"
"3 new big #missions : #news #advice articles #seo articles about #finance & #peertopeerlending for #american #writers Send me a pm !","#missions #news #advice #seo #finance #peertopeerlending #american #writers","2015-12-08 12:05:32"
"Peer-to-Peer Lending, Investment strategy or Risk? - #CrowdfundingTips #peertopeerlending http:// bit.ly/1PTWJyi pic.twitter.com/P8R4rUx2us","#CrowdfundingTips #peertopeerlending","2015-12-08 11:37:41"
"In Italia ancora poco credito al #peertopeerlending #crowdfunding #banche video U. Filotto @sdabocconi al @FMCRIF http:// bit.ly/1QalbeE","#peertopeerlending #crowdfunding #banche","2015-12-07 13:02:48"
"http:// lendingalpha.com | Lend Academy Turns Five Today http:// goo.gl/YhgDE9 #PeertoPeerLending pic.twitter.com/B3TN567UvS","#PeertoPeerLending","2015-11-30 20:39:06"
"When liquid paper yields rise,do I still want P2P loans at high single digits? http:// yhoo.it/1XsnuOz @mcagney nails it #peertopeerlending","#peertopeerlending","2015-11-30 19:54:30"
"#crowdfunding , #peertopeerlending and #purchaseorderfinancing are the way forward for financing #innovation : http:// bit.ly/1NDvvf1","#crowdfunding #peertopeerlending #purchaseorderfinancing #innovation","2015-11-30 15:39:30"
"Borrowers who have chosen #peertopeerlending , what has your experience been in 2015?","#peertopeerlending","2015-11-30 14:31:40"
"It is time for startups to also generate endless opportunities to help others with their business model. #socialbusiness #peertopeerlending","#socialbusiness #peertopeerlending","2015-11-25 19:18:40"
"http:// lendingalpha.com | Happy Thanksgiving from Lend Academy http:// goo.gl/l8iNxR #PeertoPeerLending pic.twitter.com/lRiyJEYNXk","#PeertoPeerLending","2015-11-25 18:52:08"
"@curiousc @EmmaMBearman @guardian ok, @Uber is not truly disruptive in Prof Christensen, but #peertopeerlending and #cryptocurrency are.","#peertopeerlending #cryptocurrency","2015-11-22 09:58:54"
"Why I Read Bitcoin Platform Blogs And You Should Too #Bitcoin #LoanTypes #P2PLending #PeertoPeerLending http:// bit.ly/1PArp7l","#Bitcoin #LoanTypes #P2PLending #PeertoPeerLending","2015-11-18 20:40:24"
"#MoneyWrite #APY #APR #peertopeerlending @Upstart https://www. upstart.com","#MoneyWrite #APY #APR #peertopeerlending","2015-11-16 04:30:17"
"Wells Fargo says it's positioned to compete with #peertopeerlending #fintech http:// reut.rs/1OtylTF via @Reuters","#peertopeerlending #fintech","2015-11-09 16:04:01"
"Got 0.0011BTC payback the first month on my 0.01BTC #bitcoin #investment #peertopeerlending","#bitcoin #investment #peertopeerlending","2015-11-04 08:55:48"
"@p2nvl @lendix @CrowdlendingFR great news... http:// p2plendingtips.com #peertopeerlending","#peertopeerlending","2015-11-02 11:35:30"
"Revolution in #P2Plending or the Disappearance Of #PeerToPeerLending via @forbes http:// onforb.es/1u0LALX #lendenclub","#P2Plending #PeerToPeerLending #lendenclub","2015-10-31 05:19:08"
"An interesting look at peer to peer lending http:// ow.ly/TOYL0 #peertopeerlending","#peertopeerlending","2015-10-30 00:25:28"
"Check out http:// meetu.ps/2MYBvZ #crowdfundung #peertopeerlending #propertynetworking","#crowdfundung #peertopeerlending #propertynetworking","2015-10-26 21:05:44"
"Viventor on stage @LendItConf #peertopeerlending #p2plending pic.twitter.com/UpkkGs6Ekb","#peertopeerlending #p2plending","2015-10-21 13:46:11"
"Watching a #lunchandlearn session on #peertopeerlending as part of #ideasatlendlease @LendLeaseGroup #yam","#lunchandlearn #peertopeerlending #ideasatlendlease #yam","2015-10-19 03:10:40"
"The first loan on @LendingLoop is fully funded! Next month come the first interest payments :D #peertopeerlending #finance","#peertopeerlending #finance","2015-10-13 14:15:02"
"Peer to Peer Lending Sites - Good Investment or Insane? http:// money.stackexchange.com/q/4830?atw=1 #peertopeerlending","#peertopeerlending","2015-10-04 15:10:33"
"My Favorite Blogs #bitcoin #bAgile #PeertoPeerLending http:// bit.ly/1KT7t8R","#bitcoin #bAgile #PeertoPeerLending","2015-10-01 09:17:49"
"Are Changes Coming To The P2P Lending Model? #P2P #PeertoPeerLending http:// goo.gl/ze07m1","#P2P #PeertoPeerLending","2015-09-30 16:20:53"
"Different types of P2P loans online for your various financial needs. #p2ploans #peertopeerlending #loans #debts pic.twitter.com/2QGHlLjwvA","#p2ploans #peertopeerlending #loans #debts","2015-09-26 16:14:15"
"#P2P#peerTOpeerLending #PRIVATI CHE PRESTANO DENARO AI PRIVATI#","#P2P #peerTOpeerLending #PRIVATI #","2015-09-18 12:39:48"
"peer to peer lending how it works- Infographic #peertopeerlending #p2ploans #infographics #infographic pic.twitter.com/r2sxe4OtoY","#peertopeerlending #p2ploans #infographics #infographic","2015-09-10 16:18:36"
"Generating Income from #bitcoin through peer to peer lending #bAgile #PeertoPeerLending http:// bit.ly/1Uu2EwP pic.twitter.com/cFmZj9xker","#bitcoin #bAgile #PeertoPeerLending","2015-09-06 00:12:31"
"@LinkedFinance very excited to see such a strong response to our crowd funding campaign launched this morning! #irishbiz #peertopeerlending","#irishbiz #peertopeerlending","2015-09-04 12:07:15"
"Buy to let landlords to suffer tax increases from 2017. Is it time to look at alternative options? #peertopeerlending http:// ow.ly/RCCxF","#peertopeerlending","2015-09-03 18:46:18"
"#FF @LendingLoop . Loan $ to #smallbiz , get paid interest. Opening end of September, according to latest news. #peertopeerlending #money","#FF #smallbiz #peertopeerlending #money","2015-08-28 17:08:53"
"Spot on. Watch this space... #China #peertopeerlending bubble https:// lnkd.in/eeZb7kj","#China #peertopeerlending","2015-08-27 10:59:50"
"Banks, watch out! #PeerToPeerLending http:// ind.pn/1EYqT9H","#PeerToPeerLending","2015-08-27 10:57:28"
"#finance #peertopeerlending #P2plendingAustralia #invest Marketlend secures insurance cover for peer to peer loans. retweet please","#finance #peertopeerlending #P2plendingAustralia #invest","2015-08-25 00:48:49"
"Will you lend your money to strangers? http:// ow.ly/R7KB4 #peertopeerlending pic.twitter.com/b6CyFwCJli","#peertopeerlending","2015-08-20 09:02:01"
"Help people to help themselves by supporting their business $25 usd at a time. Not a donation, it is a loan #Kiva #peertopeerlending","#Kiva #peertopeerlending","2015-08-12 20:03:02"
