"Product Developments - #901X #Purification #Remediation #WaterJobs #EconomicDevelopment #WaterInfrastructure pic.twitter.com/g362OQeG0u","#901X #Purification #Remediation #WaterJobs #EconomicDevelopment #WaterInfrastructure","2017-04-05 22:01:12"
"How much do you know about the #US #waterinfrastructure crisis? Learn all about it in our latest blog http:// ow.ly/XxwH30apyHw #watercrisis pic.twitter.com/Gcj99SZvEl","#US #waterinfrastructure #watercrisis","2017-04-05 19:30:12"
"A small town is waiting for @usdaRD funding to refurbish this tank. #DrinkingWater #WaterInfrastructure pic.twitter.com/4SFhpniumo","#DrinkingWater #WaterInfrastructure","2017-04-05 17:46:19"
"#Waterinfrastructure plays a vital role in boosting our economy. A secure water future requires investment. http:// bit.ly/2odR0YJ @thehill","#Waterinfrastructure","2017-04-05 16:37:00"
"VIDEO: #Lebanon 's journey in improving #waterinfrastructure and services in underserved cities http:// ow.ly/1roz309W5Yj #SmartCities @devex","#Lebanon #waterinfrastructure #SmartCities","2017-04-05 16:05:30"
"Learn about the #economic benefits of #investing in #waterinfrastructure http:// ow.ly/oM4m30awgs1 pic.twitter.com/8dN5MgTION","#economic #investing #waterinfrastructure","2017-04-04 23:00:16"
"Report Shows Impact of #WaterInfrastructure on Jobs, Economy http:// buff.ly/2nUCt6G pic.twitter.com/MNtaw8CEqM","#WaterInfrastructure","2017-04-04 21:10:04"
"More than 840,000 people die each year from water-related diseases. We're here to change that. Because we care!!! #waterinfrastructure pic.twitter.com/QPZ3OjWmBG","#waterinfrastructure","2017-04-04 12:48:06"
"#NewJersey , #NYC , #Manhattan , #Brooklyn , #SmartWater , #SmartMeters , #WaterInfrastructure , #Technology , #WaterMeter .","#NewJersey #NYC #Manhattan #Brooklyn #SmartWater #SmartMeters #WaterInfrastructure #Technology #WaterMeter","2017-04-03 02:42:23"
"Our Division of Local Mandates staff will be at @BostonBar panel on #WaterInfrastructure . Join us! http:// ow.ly/UIP2309YVLZ . #MAPoli","#WaterInfrastructure #MAPoli","2017-04-03 01:05:07"
"How well do you know #waterinfrastructure ? What about your friends and family? Play the WASDA GAme to find out! http:// ow.ly/zVEn309tOqd pic.twitter.com/JpmMeZCjl4","#waterinfrastructure","2017-04-02 20:30:07"
"The #WaterInfrastructure needs of MA munis are significant. Our report calls for holistic approach to meeting them http:// ow.ly/tKvj308aCEs","#WaterInfrastructure","2017-04-02 20:10:09"
"#NewJersey , #NYC , #Manhattan , #Brooklyn , #SmartWater , #SmartMeters , #WaterInfrastructure , #Technology , #WaterMeter .","#NewJersey #NYC #Manhattan #Brooklyn #SmartWater #SmartMeters #WaterInfrastructure #Technology #WaterMeter","2017-04-02 00:58:23"
"#affordablehousing & #waterinfrastructure equally vital, let's do both in the budget @NYGovCuomo @CarlEHeastie @LeaderFlanagan @JeffKleinNY","#affordablehousing #waterinfrastructure","2017-04-01 19:09:03"
"#OnlyNRWAcan provide the boots-on-the-ground needed to assess, assist and guide small and rural system #WaterInfrastructure improvements.","#OnlyNRWAcan #WaterInfrastructure","2017-04-01 14:54:05"
"US #waterinfrastructure challenges need private sector participation http:// buff.ly/2oeOLrB pic.twitter.com/r5HUv28NzC","#waterinfrastructure","2017-04-01 04:50:01"
"California Law Recognizes Meadows and Forests as #WaterInfrastructure http:// buff.ly/2omZ3mE pic.twitter.com/Dn1u2sVMJR","#WaterInfrastructure","2017-03-31 23:30:21"
"Michigan to pay $87 million for replacing service lines in the city over the next 3 yrs #waterinfrastructure http:// buff.ly/2nDOXhj","#waterinfrastructure","2017-03-31 22:30:04"
"#FlintWaterCrisis #LeadPipes #WaterInfrastructure #Sinkhole #SCADASystems http:// bit.ly/2oCePtd","#FlintWaterCrisis #LeadPipes #WaterInfrastructure #Sinkhole #SCADASystems","2017-03-31 16:45:17"
"@AWWAACE leader encourages Congress to support #WaterInfrastructure investment http:// ow.ly/vuHA30ajqVz","#WaterInfrastructure","2017-03-31 16:35:13"
"#WaterInfrastructure investments to result in $220 billion in economic growth : http:// buff.ly/2nfVI8c","#WaterInfrastructure","2017-03-31 11:18:05"
"Factors igniting growth in centrifugal pumps market http:// bizcom.to/1/3fcm via @Biz_Construct #waterinfrastructure pic.twitter.com/O10CVbfaDG","#waterinfrastructure","2017-03-31 08:59:50"
"Factors igniting growth in centrifugal pumps market http:// bizcom.to/1/3fcm via @Biz_Construct #waterinfrastructure pic.twitter.com/ggTf2DZNLE","#waterinfrastructure","2017-03-31 08:59:48"
"Factors igniting growth in centrifugal pumps market http:// bizcom.to/1/3fcm via @Biz_Construct #waterinfrastructure pic.twitter.com/wHgXi3B57d","#waterinfrastructure","2017-03-31 08:59:46"
"Interesting overview on Big Data in relation to #WaterInfrastructure http:// ow.ly/3PZC30ajq9i","#WaterInfrastructure","2017-03-31 00:25:07"
"The #US is in the midst of a massive #waterinfrastructure crisis. Learn more in our latest blog post http:// ow.ly/XxwH30apyHw #watercrisis pic.twitter.com/hJV5NfG4Vv","#US #waterinfrastructure #watercrisis","2017-03-30 20:33:10"
"How do we fund #waterinfrastructure ? Our research says a water public goods charge could be less costly than bonds. https:// goo.gl/CngBLA","#waterinfrastructure","2017-03-30 00:10:17"
"Closing the #WaterInfrastructure Gap Could Save the U.S. Economy $94 Billion http:// buff.ly/2ny5h4N pic.twitter.com/XeUjVUzZvz","#WaterInfrastructure","2017-03-29 16:30:16"
"Delivering desalinated water to Old Jeddah #waterinfrastructure pic.twitter.com/dpr5IxtMCd","#waterinfrastructure","2017-03-29 16:00:01"
"More investment needed in #WaterInfrastructure http:// buff.ly/2nJ5Ysq","#WaterInfrastructure","2017-03-29 00:00:42"
"More than 50 P3 projects in Africa - most have been successful. Why do P3s fail? Andre Kruger/AVID #watershowafrica #waterinfrastructure pic.twitter.com/P4Yisw8U1Y","#watershowafrica #waterinfrastructure","2017-03-28 11:44:06"
"Have a #waterinfrastructure problem? Tell us about it. Email opinions@wasda.com pic.twitter.com/2cwfd0dgHm","#waterinfrastructure","2017-03-27 19:30:11"
"More than $35 million approved to replace 6,000 Flint #waterinfrastructure lines #FlintWaterCrisis #FixitNow http:// buff.ly/2mIW376","#waterinfrastructure #FlintWaterCrisis #FixitNow","2017-03-27 18:30:33"
"#NewJersey , #NYC , #Manhattan , #Brooklyn , #SmartWater , #SmartMeters , #WaterInfrastructure , #Technology , #WaterMeter .","#NewJersey #NYC #Manhattan #Brooklyn #SmartWater #SmartMeters #WaterInfrastructure #Technology #WaterMeter","2017-03-27 01:47:44"
"Our Division of Local Mandates staff will be at @BostonBar panel on #WaterInfrastructure . Join us! http:// ow.ly/UIP2309YVLZ . #MAPoli","#WaterInfrastructure #MAPoli","2017-03-26 16:15:08"
"#NewJersey , #NYC , #Manhattan , #Brooklyn , #SmartWater , #SmartMeters , #WaterInfrastructure , #Technology , #WaterMeter .","#NewJersey #NYC #Manhattan #Brooklyn #SmartWater #SmartMeters #WaterInfrastructure #Technology #WaterMeter","2017-03-26 01:29:21"
"Not bad, @njeit . Not bad at all. #SafeDrinkingWater #PublicHealth #WaterInfrastructure The #DWSRF works! pic.twitter.com/fL4Iaffg2h","#SafeDrinkingWater #PublicHealth #WaterInfrastructure #DWSRF","2017-03-25 16:10:34"
"Product Developments - #901X #Purification #Remediation #WaterJobs #EconomicDevelopment #WaterInfrastructure pic.twitter.com/qz7iKpipNe","#901X #Purification #Remediation #WaterJobs #EconomicDevelopment #WaterInfrastructure","2017-03-24 23:00:55"
"Report highlights importance of investing in nation's #WaterInfrastructure @ValueofWater @WEForg http:// buff.ly/2nl0IL6","#WaterInfrastructure","2017-03-24 19:08:52"
"Funding quadrupled for renewal of city's underground #waterinfrastructure http:// buff.ly/2nJqkSX pic.twitter.com/g3Njro8Z8U","#waterinfrastructure","2017-03-24 12:30:20"
"#WaterInfrastructure needs billions in investment : http:// buff.ly/2n8JEb7 pic.twitter.com/PBr1KvlM4M","#WaterInfrastructure","2017-03-24 12:30:11"
"Empower the world with access to clean water!! #WaterDoesWonders #waterinfrastructure #watershouldbepur #water #worldwaterday #givingback pic.twitter.com/kM6GkBlNzS","#WaterDoesWonders #waterinfrastructure #watershouldbepur #water #worldwaterday #givingback","2017-03-23 00:46:55"
"Federal contribution to #waterinfrastructure decline since 1981. #TheValueOfWater is 2,200B. @realDonaldTrump @WaterAlliance #worldwaterday pic.twitter.com/r0M29pyqJp","#waterinfrastructure #TheValueOfWater #worldwaterday","2017-03-22 23:09:47"
"Fixing leaks in our #WaterInfrastructure is essential to #SavingWater . #FixALeakWeek @EPAwatersense http:// ow.ly/Y5a630a9GnY pic.twitter.com/JksJ0o3DO1","#WaterInfrastructure #SavingWater #FixALeakWeek","2017-03-22 22:15:10"
"We're celebrating #WorldWaterDay Click to learn more about our #WaterInfrastructure projects http:// bit.ly/21U3ItK pic.twitter.com/KrrXAva3Qo","#WorldWaterDay #WaterInfrastructure","2017-03-22 18:38:14"
"Check out these #drinkingwater facts from @WHO http:// ow.ly/2xuY30a9N5Z #waterinfrastructure #worldwaterday pic.twitter.com/yZTy2eMAgF","#drinkingwater #waterinfrastructure #worldwaterday","2017-03-22 18:15:45"
"@WaterAlliance report: Closing the investment gap in #waterinfrastructure will yield 1.3 million jobs, $220bn in annual Econ activity.","#waterinfrastructure","2017-03-22 17:24:54"
"The time to invest in #waterinfrastructure is now according to @TheValueOfWater . Public. Private. P3s. Everyone has a role to play.","#waterinfrastructure","2017-03-22 17:20:29"
"#Water affects all industries. Invest in #WaterInfrastructure for long-term economic benefits. #RallyForWater #WaterWeek2017 pic.twitter.com/EdpVNasOxK","#Water #WaterInfrastructure #RallyForWater #WaterWeek2017","2017-03-22 16:10:05"
"How technology and #DataAnalytics helped protect Cincinnati's water supply #WaterInfrastructure #WorldWaterDay http:// bit.ly/2m0pkGZ pic.twitter.com/kh9cOfxivC","#DataAnalytics #WaterInfrastructure #WorldWaterDay","2017-03-22 15:00:08"
"#NewYork 's #watersystems need $80 billion in fixes http:// ow.ly/nwyu309tKNw #waterinfrastructure pic.twitter.com/CvzZTGvwAO","#NewYork #watersystems #waterinfrastructure","2017-03-21 21:00:19"
"Today is #WorldWaterDay . Visit http://www. worldwaterday.org / to learn how you can take action! #waterinfrastructure pic.twitter.com/L6rT4M4QIL","#WorldWaterDay #waterinfrastructure","2017-03-21 20:15:55"
"Today's news features articles about #WaterInfrastructure , #WorldWaterDay17 , and so much more! Check it out! http:// bit.ly/2mptueU pic.twitter.com/e7zwoH5vOR","#WaterInfrastructure #WorldWaterDay17","2017-03-21 18:41:09"
"#Watertreatment plant being built to last in Long Beach Twsp. Was hard hit by Sandy. #usdaRDbuilds #WaterInfrastructure @usdaRD #ECWAG pic.twitter.com/UINESjhU95","#Watertreatment #usdaRDbuilds #WaterInfrastructure #ECWAG","2017-03-21 16:19:12"
"@usdard & @njeit funding working together for Long Beach Twsp #Waterinfrastructure . pic.twitter.com/xCMnSMxDpQ","#Waterinfrastructure","2017-03-21 16:13:00"
"@DIPRA_US applauds @POTUS for commitment to investing in #waterinfrastructure . http:// ow.ly/CV5V30a4KPD #ChooseDuctile #USmanufacturing","#waterinfrastructure #ChooseDuctile #USmanufacturing","2017-03-21 15:10:01"
"https:// youtu.be/AmCrOjnxW8I POTUS AWARDS $$$to Michigan. #Michigan #waterinfrastructure #Trump","#Michigan #waterinfrastructure #Trump","2017-03-21 11:42:10"
"By enabling overview of the water system virtually anywhere and the benefits it gives to managers in the #waterinfrastructure industry !","#waterinfrastructure","2017-03-21 02:05:30"
"According to the #EPA , public #watersystems lose 1/6 of their water from #pipeleaks . More #waterinfrastructure facts http:// ow.ly/Da03309YKuz pic.twitter.com/heST8IiN6D","#EPA #watersystems #pipeleaks #waterinfrastructure","2017-03-20 18:35:04"
"Infrastructure costs: #WaterInfrastructure is twice as expensive per capita than electrical, 3 times more expensive than gas infrastructure.","#WaterInfrastructure","2017-03-20 15:58:47"
"Good #WaterInfrastructure and #WWInfrastructure news every week in NJ! #Water #DWSRF #CWSRF @_njeit Have a look: https://www. njeit.org/news","#WaterInfrastructure #WWInfrastructure #Water #DWSRF #CWSRF","2017-03-20 15:58:14"
"Too often out of sight, out of mind. More critical to human life than faster internet or a new motorway! #waterinfrastructure","#waterinfrastructure","2017-03-20 13:09:41"
"Share the WASDA #WaterInfrastructure Game to help educate your followers http:// ow.ly/zVEn309tOqd pic.twitter.com/StbrAMjNfj","#WaterInfrastructure","2017-03-19 17:00:20"
"First tour stop for #wateracademy the Bud Lewis Seawater Desal Plant #cawater #desal #droughtproofsupply #waterinfrastructure pic.twitter.com/7jIbVRJhcH","#wateracademy #cawater #desal #droughtproofsupply #waterinfrastructure","2017-03-18 18:42:33"
"Join our Division of Local Mandates staff at @BostonBar panel on #WaterInfrastructure http:// ow.ly/UIP2309YVLZ #MAPoli","#WaterInfrastructure #MAPoli","2017-03-17 19:10:13"
"The most fundamental element of life is #water . So why aren't #newsrooms covering it? http:// ow.ly/mfTL30a0HVy #waterinfrastructure pic.twitter.com/kZm2QiTMo8","#water #newsrooms #waterinfrastructure","2017-03-17 19:00:24"
"5 Key Factors for a Successful #WaterInfrastructure Public-Private Partnership Procurement http:// buff.ly/2mUwXAu pic.twitter.com/3cLf2E7S1U","#WaterInfrastructure","2017-03-17 03:50:03"
"@usdaRD #Waterinfrastructure funding is cost-effective and protects public health. pic.twitter.com/V1PO71JtDK","#Waterinfrastructure","2017-03-17 00:33:16"
"Shakeup in cost-sharing formula for municipalities puts priority on #waterinfrastructure , co-operation http:// buff.ly/2np2ITY pic.twitter.com/SLEJuMjxSD","#waterinfrastructure","2017-03-16 22:30:35"
"AWWA asks Congress to provide fully authorized funding for WIFIA & robust funding for SRFs. #waterinfrastructure http:// bit.ly/2nFdHVr","#waterinfrastructure","2017-03-16 21:00:41"
"Nearly 6 million gallons of treated #water are lost due to leaking pipes http:// ow.ly/Da03309YKuz #waterinfrastructure pic.twitter.com/h8pfuLaiXG","#water #waterinfrastructure","2017-03-16 20:20:05"
"Great session using #OWASA data to measure water supply dependability #WRRIAC #waterinfrastructure #waterresources pic.twitter.com/hJEo1IJR7w","#OWASA #WRRIAC #waterinfrastructure #waterresources","2017-03-16 16:43:04"
"#WaterInfrastructure $ thru @usdaRD Established Cost-Efficient Local Knowledge Professional Staff Results Driven Responsive Proven Effective","#WaterInfrastructure","2017-03-16 16:20:32"
"Interesting new product here from @HiBotUSA . #WaterInfrastructure http:// buff.ly/2mdNBIT pic.twitter.com/dzuHQdTjyc","#WaterInfrastructure","2017-03-16 13:49:02"
". @EPAwatersense Fix A Leak Week calls attention to #water wasted through leaks, in homes & in #WaterInfrastructure http:// ow.ly/vdPi309Wcqo pic.twitter.com/HxxbNoBfz9","#water #WaterInfrastructure","2017-03-15 22:35:06"
"#WaterInfrastructure $ thru @usdaRD Established Cost-Efficient Local Knowledge Professional Staff Results Driven Responsive Proven Effective","#WaterInfrastructure","2017-03-14 18:58:57"
"Watch this space. See what @usdard grants can do for small town #WaterInfrastructure . Tank rehab coming this Summer. #InfrastructureMatters pic.twitter.com/4SFhpniumo","#WaterInfrastructure #InfrastructureMatters","2017-03-14 18:56:30"
"Will #waterinfrastructure #investment really happen? If so when, how, and where? http:// ow.ly/CcAC309tO0Z pic.twitter.com/0fGhE0t7RW","#waterinfrastructure #investment","2017-03-14 17:00:33"
"Regional #waterinfrastructure mgmt means lower costs, better #sourcewater protection, less prov subsidies: https:// goo.gl/SlHQ0D #onpoli","#waterinfrastructure #sourcewater #onpoli","2017-03-14 15:16:53"
"Regionalized water systems create greater economies of scale and offer better #waterinfrastructure management: https:// goo.gl/SlHQ0D","#waterinfrastructure","2017-03-14 15:13:08"
"ARGENTINA plans $10 Bn #Waterinfrastructure push as illegal canals flood pampas http:// reut.rs/2nykss0 via @Reuters #ClimateResilience","#Waterinfrastructure #ClimateResilience","2017-03-14 12:29:45"
"US #waterinfrastructure & wastewater #infrastructure receive near-failing grades of D+ & D @ASCETweets http:// buff.ly/2mSzEDb","#waterinfrastructure #infrastructure","2017-03-13 20:00:15"
"@ASCETweets 2017 Report card highlights urgent need to repair or replace aging #waterinfrastructure . @WaterOnline http:// ow.ly/U5bT309MG3r","#waterinfrastructure","2017-03-13 19:40:58"
"According to an @ASCETweets director, many #US #waterinfrastructure systems were put in a century ago http:// ow.ly/FFSq309L1Fb pic.twitter.com/XtuWW9lh7T","#US #waterinfrastructure","2017-03-13 17:00:30"
". @AWWAACE urges budget that addresses #WaterInfrastructure needs http:// bit.ly/2mp11Vb","#WaterInfrastructure","2017-03-13 15:47:00"
"Product Developments - #901X #Purification #Remediation #WaterJobs #EconomicDevelopment #WaterInfrastructure pic.twitter.com/QOPfFbIiEO","#901X #Purification #Remediation #WaterJobs #EconomicDevelopment #WaterInfrastructure","2017-03-13 08:00:20"
"#NewJersey , #NYC , #Manhattan , #Brooklyn , #SmartWater , #SmartMeters , #WaterInfrastructure , #Technology , #WaterMeter .","#NewJersey #NYC #Manhattan #Brooklyn #SmartWater #SmartMeters #WaterInfrastructure #Technology #WaterMeter","2017-03-13 04:54:59"
"Test your knowledge. Play the WASDA #WaterInfrastructure Game! http:// ow.ly/zVEn309tOqd pic.twitter.com/ukn2BltpB8","#WaterInfrastructure","2017-03-12 19:00:12"
"#NewJersey , #NYC , #Manhattan , #Brooklyn , #SmartWater , #SmartMeters , #WaterInfrastructure , #Technology , #WaterMeter .","#NewJersey #NYC #Manhattan #Brooklyn #SmartWater #SmartMeters #WaterInfrastructure #Technology #WaterMeter","2017-03-11 19:59:28"
"Civil Engineers Worry Cuts To EPA Could Threaten N.H.'s #WaterInfrastructure http:// buff.ly/2lJ6wik pic.twitter.com/3HSsM9oEBK","#WaterInfrastructure","2017-03-10 21:10:07"
"America's #waterinfrastructure systems are leaking trillions of gallons of water #FixitNow http:// buff.ly/2m7NQVP","#waterinfrastructure #FixitNow","2017-03-10 19:30:05"
"Flint Chooses Copper to Solve Drinking #WaterInfrastructure Crisis http:// buff.ly/2m7TdnY pic.twitter.com/3ZS3gBsqrd","#WaterInfrastructure","2017-03-10 04:50:02"
"The 2017 #ASCE #US #Infrastructure Report is out and full of alarming facts http:// ow.ly/FFSq309L1Fb #waterinfrastructure pic.twitter.com/HTsZVuOy70","#ASCE #US #Infrastructure #waterinfrastructure","2017-03-09 22:33:45"
"Andrew from CDA gives presentation on copper and why it's the replacement choice. @Flint Summit Day 3 #FlintWaterCrisis #waterinfrastructure pic.twitter.com/L5ABkug0vv","#FlintWaterCrisis #waterinfrastructure","2017-03-09 21:56:34"
"Testified that CWSRF & DESRF #WaterInfrastructure is critical funding. Congressional TNI subcommittee for @ECOStates @MnPCA @MinnesotaAWWA","#WaterInfrastructure","2017-03-09 21:44:13"
"N.H.'s #waterinfrastructure is old, underfunded #infrastructurematters http:// buff.ly/2njihIA","#waterinfrastructure #infrastructurematters","2017-03-09 21:00:28"
"Watch this space. See what @usdard grants can do for small town #WaterInfrastructure . Tank rehab coming this Summer. #InfrastructureMatters pic.twitter.com/lZL3ZzqpY3","#WaterInfrastructure #InfrastructureMatters","2017-03-09 20:24:47"
"#BeachesDunesWetlands protect coastal communities from storms & flooding. Restoring cheaper than rebuilding. #waterinfrastructure @Transport pic.twitter.com/aNwJ9d8xS8","#BeachesDunesWetlands #waterinfrastructure","2017-03-09 17:33:01"
"Follow @GLCommission today: fed hearings on #WaterInfrastructure ; follow #IJNR_H20 April 2-8 for #DrinkingWater trip around #LakeErie","#WaterInfrastructure #IJNR_H20 #DrinkingWater #LakeErie","2017-03-09 16:12:26"
"LIVE: MPCA Commissioner @JLincStine is testifying to a US House subcommittee on #WaterInfrastructure this morning: http:// ow.ly/x240309KcFI pic.twitter.com/cIUJ8scomg","#WaterInfrastructure","2017-03-09 16:07:37"
"Ready to testify @JLincStine @ECOStates @Transport #waterinfrastructure @RepGarretGraves @gracenapolitano pic.twitter.com/fDgI2i9psD","#waterinfrastructure","2017-03-09 16:04:35"
". @KBDN covers @SafePlumbing advocacy focus on #WaterInfrastructure #WaterEfficiency & #SafeWater http:// ow.ly/DZHl309IlTB pic.twitter.com/8bKhGryk0L","#WaterInfrastructure #WaterEfficiency #SafeWater","2017-03-08 22:05:08"
". @KBDN covers @SafePlumbing advocacy focus on #WaterInfrastructure #WaterEfficiency & #SafeWater http:// ow.ly/DZHl309IlTB pic.twitter.com/8JBiBBWQei","#WaterInfrastructure #WaterEfficiency #SafeWater","2017-03-08 20:40:07"
"In Nov. 2016, @WSSCWaterNews announced it's moving to Zinc, V-Bio ductile iron pipe. http:// ow.ly/LaWw309ser7 #waterinfrastructure #USmfg","#waterinfrastructure #USmfg","2017-03-08 19:30:01"
"Wow, @_njeit ! Why didn't you guys tell us that you loan money for #WaterInfrastructure ?!? Why did I have to learn it on the street? pic.twitter.com/4ZcGF5MePa","#WaterInfrastructure","2017-03-07 22:05:49"
"Local #NY leaders back proposal for #emergency #waterinfrastructure repairs http:// ow.ly/NQaB309tI8S pic.twitter.com/nNGtvTHeau","#NY #emergency #waterinfrastructure","2017-03-07 18:00:31"
"Have you experienced dam failure or septic problems from aging pipes? We want to hear from you. #waterinfrastructure","#waterinfrastructure","2017-03-07 15:09:16"
"#WaterInfrastructure $ thru @usdaRD Established Cost-Efficient Local Knowledge Professional Staff Results Driven Responsive Proven Effective","#WaterInfrastructure","2017-03-07 01:55:33"
"#OnlyNRWAcan provide the boots-on-the-ground needed to assess, assist and guide small and rural system #WaterInfrastructure improvements.","#OnlyNRWAcan #WaterInfrastructure","2017-03-06 21:23:47"
"#Water and #Environmental Programs funds water and waste #WaterInfrastructure projects across America. @usdaRD pic.twitter.com/sYZEFFjfE5","#Water #Environmental #WaterInfrastructure","2017-03-06 20:52:03"
"In 2016 @usdaRD announced a $331M investment for clean #WaterInfrastructure : A proven, results-oriented program. http:// go.usa.gov/xkM3Z","#WaterInfrastructure","2017-03-06 20:45:12"
"Mexico City is drinking itself into the ground #Waterinfrastructure #Mexico #WokeonWater http:// buff.ly/2mNUOyU","#Waterinfrastructure #Mexico #WokeonWater","2017-03-06 16:38:03"
"Water millions wasted http:// bizcom.to/1/3ee9 by Bongani Mthethwa via @Biz_Construct #corruption #KZN #waterinfrastructure","#corruption #KZN #waterinfrastructure","2017-03-06 09:16:33"
"Water millions wasted http:// bizcom.to/1/3ee9 by Bongani Mthethwa via @Biz_Construct #corruption #KZN #waterinfrastructure pic.twitter.com/H5X87z1E47","#corruption #KZN #waterinfrastructure","2017-03-06 08:23:59"
"Have you played the WASDA #WaterInfrastructure Game yet? http:// ow.ly/zVEn309tOqd pic.twitter.com/ARvLL8MEzR","#WaterInfrastructure","2017-03-05 18:00:48"
"#WaterInfrastructure investment is vital. Contact your #Senator today! http:// ow.ly/pdEj306AR1r pic.twitter.com/ErCz9eEg2r","#WaterInfrastructure #Senator","2017-03-04 18:00:40"
"#GreatWaterTech announced a new #publicschool #drinkingwater initiative http:// ow.ly/PwAn309tMCk #waterinfrastructure pic.twitter.com/PAAtspeMeP","#GreatWaterTech #publicschool #drinkingwater #waterinfrastructure","2017-03-03 18:00:41"
"$600bn over the next 20yrs for the USA's aging #WaterInfrastructure ? We need technologies to water the world: http:// bit.ly/2mdgfww pic.twitter.com/yGkCqRyfRZ","#WaterInfrastructure","2017-03-03 16:40:09"
"The #OrovilleDam #crisis has exposed a much bigger #waterinfrastructure problem http:// ow.ly/KXhz309tQsJ pic.twitter.com/5xA9My5pic","#OrovilleDam #crisis #waterinfrastructure","2017-03-02 18:00:27"
"California Floods #WaterInfrastructure Wake-Up Call http:// hubs.ly/H06wp7-0 by @Sara Jerome pic.twitter.com/wdcSbF9to7","#WaterInfrastructure","2017-03-02 15:07:03"
"Will the #OrovilleDam last through the seasonal storms? #waterinfrastructure #WokeonWater http:// buff.ly/2lkHKQJ","#OrovilleDam #waterinfrastructure #WokeonWater","2017-03-02 01:20:01"
"Product Developments - #901X #Purification #Remediation #WaterJobs #EconomicDevelopment #WaterInfrastructure pic.twitter.com/iRnb7BO4C6","#901X #Purification #Remediation #WaterJobs #EconomicDevelopment #WaterInfrastructure","2017-03-02 01:02:03"
"#California needs to be smarter about #waterinfrastructure http:// ow.ly/kiaw309tKdN #OrovilleDam pic.twitter.com/dnVPJc5wc5","#California #waterinfrastructure #OrovilleDam","2017-03-01 23:00:13"
"#PMI is urging Congress to address #WaterInfrastructure concerns through job-creating legislation http:// tinyurl.com/hxa3fse pic.twitter.com/1txrY1mcpy","#PMI #WaterInfrastructure","2017-03-01 00:45:07"
"#MA #communities need another $18 billion to improve #waterinfrastructure http:// ow.ly/CEnK308AcDt pic.twitter.com/M5Wc4peNY0","#MA #communities #waterinfrastructure","2017-02-28 18:01:31"
"It's time to take action and invest in #waterinfrastructure . Everyone deserves to have clean drinking water.","#waterinfrastructure","2017-02-28 17:53:56"
"#PMI @SafePlumbing 2017 advocacy focuses on #WaterEfficiency , #WaterInfrastructure and #SafeWater http:// tinyurl.com/hxa3fse","#PMI #WaterEfficiency #WaterInfrastructure #SafeWater","2017-02-28 16:50:13"
"we simply don't need the continuing excuse of drought to do the right thing. #climatechange and failing #waterinfrastructure are still here","#climatechange #waterinfrastructure","2017-02-27 18:39:33"
"Test your industry #knowledge with the WASDA #WaterInfrastructure #Quiz ! http:// ow.ly/r1b5308Cb7b pic.twitter.com/E8luiu7zqc","#knowledge #WaterInfrastructure #Quiz","2017-02-27 18:00:36"
"Overhauling our nation's #waterinfrastructure would create jobs while ensuring access to safe, clean affordable H2o. http:// nyti.ms/2mvYN4a","#waterinfrastructure","2017-02-27 16:23:55"
"#NewJersey , #NYC , #Manhattan , #Brooklyn , #SmartWater , #SmartMeters , #WaterInfrastructure , #Technology , #WaterMeter .","#NewJersey #NYC #Manhattan #Brooklyn #SmartWater #SmartMeters #WaterInfrastructure #Technology #WaterMeter","2017-02-27 00:50:06"
"Contact your #Senator about #waterinfrastructure investment! http:// ow.ly/pdEj306AR1r pic.twitter.com/q1XjmOiUeJ","#Senator #waterinfrastructure","2017-02-25 18:00:41"
"New Jersey Committee Adopts Water Audit Bill To Cut Losses http:// ow.ly/Y9jw309lCCl #NJ #WaterInfrastructure pic.twitter.com/eP2bEW2dVr","#NJ #WaterInfrastructure","2017-02-25 16:45:07"
"Central Valley subsidence from excessive #groundwater pumping threatens region's critical #WaterInfrastructure : http:// bit.ly/2ke8YIe . pic.twitter.com/PUrvhZGFOL","#groundwater #WaterInfrastructure","2017-02-24 23:59:32"
"Tell us about a #waterinfrastructure problem you want to be fixed. Email opinions@wasda.com pic.twitter.com/AQSfMgVWWh","#waterinfrastructure","2017-02-23 18:00:31"
"#Drought to affect 40 of 50 states in the next 10 years. Restored #WaterInfrastructure & #WaterEfficiency essential http:// ow.ly/5FNA309dwQz pic.twitter.com/53AyAxt2dp","#Drought #WaterInfrastructure #WaterEfficiency","2017-02-23 14:44:33"
"Famous health advocate Erin Brockovich is campaigning for better #NY #waterinfrastructure to combat a #Legionnaires http:// ow.ly/rmyK308AcPb pic.twitter.com/MVR4VMUUzZ","#NY #waterinfrastructure #Legionnaires","2017-02-22 18:39:38"
"Famous #health advocate Erin Brockovich is campaigning for better #NY #waterinfrastructure to combat a #Legionnaires http:// ow.ly/rmyK308AcPb pic.twitter.com/arIhjYXgHh","#health #NY #waterinfrastructure #Legionnaires","2017-02-22 18:00:23"
"Could using stainless steel save SA millions in water losses? http:// bizcom.to/1/3dze via @Biz_Construct #SASSDA #waterinfrastructure pic.twitter.com/5UYzg161pR","#SASSDA #waterinfrastructure","2017-02-22 11:04:01"
"Watch Testing water in Indiana #lead #waterinfrastructure https:// youtu.be/mEI707fevko","#lead #waterinfrastructure","2017-02-21 23:19:04"
"#Drought to affect 40 of 50 states in the next 10 years. Restored #WaterInfrastructure & #WaterEfficiency essential http:// ow.ly/5FNA309dwQz pic.twitter.com/yyDn4JCzNd","#Drought #WaterInfrastructure #WaterEfficiency","2017-02-21 22:05:13"
"Learn why #local #water projects should be a priority http:// ow.ly/EndK308AfqF #waterinfrastructure pic.twitter.com/ZmwAz7qqZN","#local #water #waterinfrastructure","2017-02-21 22:00:19"
"Aging #waterinfrastructure is a major issue for US cities, but anti-private groups keep blocking real solutions: http:// bit.ly/1DBl1G2","#waterinfrastructure","2017-02-21 21:17:01"
"Good #WaterInfrastructure and #WWInfrastructure news every week in NJ! #Water #DWSRF #CWSRF @_njeit Have a look: https://www. njeit.org/news pic.twitter.com/f7meUytlDy","#WaterInfrastructure #WWInfrastructure #Water #DWSRF #CWSRF","2017-02-21 16:11:38"
"Infrastructure costs: #WaterInfrastructure is twice as expensive per capita than electrical, 3 times more expensive than gas infrastructure.","#WaterInfrastructure","2017-02-21 15:27:36"
"#OrovilleDam Crisis is a Call to Action on U.S. #WaterInfrastructure http:// ow.ly/ZHsN309cTzG pic.twitter.com/ZAdJp1Y7HT","#OrovilleDam #WaterInfrastructure","2017-02-21 14:40:30"
"Share our #WaterInfrastructure #Quiz with all of your followers http:// ow.ly/r1b5308Cb7b pic.twitter.com/CgN2rHFFQr","#WaterInfrastructure #Quiz","2017-02-20 18:00:25"
"What do you think of #waterinfrastructure ? An annoying water main break or out of sight, out of mind? We want to hear your stories.","#waterinfrastructure","2017-02-20 16:10:00"
"See how Arcadis helped replace NEORSD's centrifuge to improve efficiency and safety #waterinfrastructure http:// hubs.ly/H06l25G0","#waterinfrastructure","2017-02-20 15:02:39"
"Managing multi-purpose #waterinfrastructure : Key issues and solutions to challenges explored in new #OECD ENV paper: http:// bit.ly/2kYW6H0 pic.twitter.com/9sBLrXQJEA","#waterinfrastructure #OECD","2017-02-20 11:54:55"
"Product Developments - #901X #Purification #Remediation #WaterJobs #EconomicDevelopment #WaterInfrastructure pic.twitter.com/luCBNvTAhm","#901X #Purification #Remediation #WaterJobs #EconomicDevelopment #WaterInfrastructure","2017-02-18 18:47:23"
"#WaterInfrastructure is one of our biggest challenges and investment opportunities for this century. https:// lnkd.in/dfe-cAT","#WaterInfrastructure","2017-02-18 18:33:36"
"#WaterInfrastructure investment is too vital to be ignored! Contact your #Senator now http:// ow.ly/pdEj306AR1r pic.twitter.com/lsayzHFjWm","#WaterInfrastructure #Senator","2017-02-18 18:00:43"
"Nice! Keep the pics coming. 1st well install to be live tweeted? #WaterInfrastructure pic.twitter.com/w4BC02Lur4","#WaterInfrastructure","2017-02-17 18:59:00"
"The #global #watertreatment market is set to boom! http:// ow.ly/UinO308AiD3 #waterinfrastructure pic.twitter.com/yl0g8zEQFD","#global #watertreatment #waterinfrastructure","2017-02-17 18:00:22"
"Great OpEd in the @nytimes about the #Oroville crisis & what it says about our nation's #waterinfrastructure http:// nyti.ms/2lP3mJF","#Oroville #waterinfrastructure","2017-02-16 21:47:07"
"#OrovilleDam evacuations lifted as officials say structure can withstand the next #storm http:// ow.ly/n6ek3092GUa #waterinfrastructure pic.twitter.com/Sh7KtpMg6x","#OrovilleDam #storm #waterinfrastructure","2017-02-15 23:00:14"
"#PMI @SafePlumbing a strategic resource for evidence-based systems approach to restore nation's #WaterInfrastructure http:// ow.ly/aJvW3092lal pic.twitter.com/slvZqSXtsl","#PMI #WaterInfrastructure","2017-02-15 20:50:10"
"#WaterQuality #CleanWater #WaterInfrastructure #WIIN @POTUS @POTUS44 pic.twitter.com/XcEYA61Ody","#WaterQuality #CleanWater #WaterInfrastructure #WIIN","2017-02-14 18:11:16"
"Trudeau & former OTPP president must commit to public #waterinfrastructure http:// buff.ly/2khkZBk pic.twitter.com/aZBa8ll93Y","#waterinfrastructure","2017-02-13 23:30:03"
"Restored #WaterInfrastructure will reduce #water main breaks, public safety hazards, and water shortages http:// ow.ly/S1Zs308VU22 pic.twitter.com/xrNPxq5gY0","#WaterInfrastructure #water","2017-02-13 19:01:06"
"What does Moore's Law have to do with design-build in the #waterinfrastructure industry? http:// hubs.ly/H06gxZ90 by @H2ODesignBuild","#waterinfrastructure","2017-02-13 15:05:35"
"Updating NJ's #waterinfrastructure just got easier: http:// bit.ly/2jqi5G1","#waterinfrastructure","2017-02-10 22:38:01"
"@thomsonreuters Highly Cited Researcher proves why #civilengineering matters. http:// ow.ly/Ko4f308TxmP #waterinfrastructure #renewableenergy","#civilengineering #waterinfrastructure #renewableenergy","2017-02-10 22:03:25"
"#Waterinfrastructure projects set to receive $1 billion from @EPA . Good news for communities in need. http:// bit.ly/2kXvN6R","#Waterinfrastructure","2017-02-10 20:04:00"
"#California 's frayed, patchwork #WaterInfrastructure now proven as an eminent danger to its economy, public safety #OrovilleSpillway","#California #WaterInfrastructure #OrovilleSpillway","2017-02-10 19:12:44"
"Texas Community Gets Nostalgic Over Water Tower Demolition http:// bit.ly/2k7CvrN #WaterTower #FEMA #WaterInfrastructure","#WaterTower #FEMA #WaterInfrastructure","2017-02-09 22:00:28"
"Discussing LD-4 issues w/ @RepChrisSmith during @NRWA Rally. @NJWATER appreciates his support for #WaterInfrastructure and #Water quality. pic.twitter.com/WWHgl5koUQ","#WaterInfrastructure #Water","2017-02-09 21:35:25"
"EPA Program Hopes To Infuse 1B Into #WaterInfrastructure Projects http:// buff.ly/2lsLLDG pic.twitter.com/d9doXsic5j","#WaterInfrastructure","2017-02-09 18:50:07"
"Share your #waterinfrastructure story with us! Email opinions@wasda.com pic.twitter.com/PlqeR1ZAE8","#waterinfrastructure","2017-02-09 18:00:29"
"$1 Billion in Loans Available for #WaterInfrastructure Projects http:// buff.ly/2lsR8CU pic.twitter.com/DosihaB8rX","#WaterInfrastructure","2017-02-09 13:30:21"
"The aging #waterinfrastructure : Out of sight, out of mind? http:// buff.ly/2lsgIYF pic.twitter.com/nycA0CBpz0","#waterinfrastructure","2017-02-09 04:50:07"
"Why does #waterinfrastructure #investment only come only in drips? http:// ow.ly/nR7f308AaW2 pic.twitter.com/soJDVu9FAZ","#waterinfrastructure #investment","2017-02-08 18:30:18"
"Product Developments - #901X #Purification #Remediation #WaterJobs #EconomicDevelopment #WaterInfrastructure pic.twitter.com/3MJ9yr1LqU","#901X #Purification #Remediation #WaterJobs #EconomicDevelopment #WaterInfrastructure","2017-02-07 22:01:18"
"Great to meet with @WVRWA & @PutnamPSD today in DC! #wv02 #wvpol #ruralwater #waterinfrastructure pic.twitter.com/glqGPN8u7d","#wv02 #wvpol #ruralwater #waterinfrastructure","2017-02-07 20:01:07"
"Thank you @RepBonnie 4 meeting with @njwater today! Getting the lead out. #WaterInfrastructure #SafeDrinkingWater for all! #NRWArepresents pic.twitter.com/LzZpkTnqR7","#WaterInfrastructure #SafeDrinkingWater #NRWArepresents","2017-02-07 19:43:37"
"Share this #plan for rebuilding #US #waterinfrastructure & investing in workers & jobs! http:// ow.ly/fMdT308Ag8f pic.twitter.com/FeAAiUtM8U","#plan #US #waterinfrastructure","2017-02-07 19:00:26"
"Pleased to discuss #waterinfrastructure and #lead at the tap w Rep @DonaldPayneJr today! Working for #SafeDrinkingWater ! #NRWArepresents pic.twitter.com/W6NlgBukzt","#waterinfrastructure #lead #SafeDrinkingWater #NRWArepresents","2017-02-07 18:34:47"
"https:// lnkd.in/gAcevhg #GISCloud #GIS #Mapping #MapEditor #MobileDataCollection #ArcMap #MapViewer #WaterInfrastructure #CloudSolution pic.twitter.com/nf59fNbaaV","#GISCloud #GIS #Mapping #MapEditor #MobileDataCollection #ArcMap #MapViewer #WaterInfrastructure #CloudSolution","2017-02-07 09:57:03"
"Think you know the #US #waterworks industry? Take our #WaterInfrastructure #Quiz http:// ow.ly/r1b5308Cb7b pic.twitter.com/TJvJy1eJCl","#US #waterworks #WaterInfrastructure #Quiz","2017-02-06 18:30:17"
"Have you contacted your #Senator and tell them to invest in #waterinfrastructure yet? http:// ow.ly/pdEj306AR1r pic.twitter.com/bRMu7amVE9","#Senator #waterinfrastructure","2017-02-04 18:00:37"
"#watermainbreak in Chapel Hill, NC delays game & leaves UNC without water #waterinfrastructure #infrastructure http:// es.pn/2l1HRF4 pic.twitter.com/v8g7SKUUvE","#watermainbreak #waterinfrastructure #infrastructure","2017-02-04 00:22:29"
"#Fresno residents: 50 homes without water due to a broken pipe #Waterinfrastructure #WokeonWater http:// buff.ly/2kAsmmm pic.twitter.com/VpwJ9yMf3T","#Fresno #Waterinfrastructure #WokeonWater","2017-02-03 16:40:53"
"EPA extends $1 Billion to #waterinfrastructure projects around theUS: https:// is.gd/mJnScD #h2o #infrastructure #infrastructuresystems pic.twitter.com/8GyqBKHGXP","#waterinfrastructure #h2o #infrastructure #infrastructuresystems","2017-02-02 20:48:39"
"Why President #DonaldTrump Should Focus on Improving #WaterInfrastructure http:// ow.ly/YBgl308C6NI pic.twitter.com/YuMBRcE5Tb","#DonaldTrump #WaterInfrastructure","2017-02-02 16:55:29"
"Infrastructure costs: #WaterInfrastructure is twice as expensive per capita than electrical, 3 times more expensive than gas infrastructure.","#WaterInfrastructure","2017-02-01 23:49:14"
"Share this article with your followers! It shows why we can't ignore #waterinfrastructure #investment any longer http:// ow.ly/veKj308A9sb pic.twitter.com/6Qj2zDzI2O","#waterinfrastructure #investment","2017-02-01 22:10:09"
"#ErinBrockovich urges #WaterInfrastructure upgrades to combat Legionnaires http://www. tinyurl.com/jmofmxh","#ErinBrockovich #WaterInfrastructure","2017-02-01 17:34:36"
"MA communities need $18 billion to maintain #waterinfrastructure for next 2 decades. Creative funding is available. http:// bit.ly/2jXBfWw","#waterinfrastructure","2017-02-01 16:58:25"
"#PortEverglades received #federal authorization to deepen and widen channels http:// ow.ly/VMEy307vvsZ #waterinfrastructure pic.twitter.com/2aKobBD5pO","#PortEverglades #federal #waterinfrastructure","2017-01-31 18:00:52"
"Infrastructure costs: #WaterInfrastructure 2x more expensive per capita than electrical, 3x more exp than gas. @EPAwater partnership mtg pic.twitter.com/WrdsCJn5En","#WaterInfrastructure","2017-01-31 15:50:39"
"Play our #WaterInfrastructure Game & test your #knowledge ! http:// ow.ly/6lzw308uCIq pic.twitter.com/7c97vI5iG8","#WaterInfrastructure #knowledge","2017-01-30 18:00:36"
"Have you contacted your #Senator to express your concerns about #US #waterinfrastructure yet? http:// ow.ly/pdEj306AR1r pic.twitter.com/cntgj4MsoK","#Senator #US #waterinfrastructure","2017-01-28 18:00:29"
"Product Developments - #901X #Purification #Remediation #WaterJobs #EconomicDevelopment #WaterInfrastructure pic.twitter.com/0qEmRH3BpE","#901X #Purification #Remediation #WaterJobs #EconomicDevelopment #WaterInfrastructure","2017-01-28 12:00:45"
"New @EPA program allocates $1B to #WaterInfrastructure projects http:// ow.ly/T2XV308hypk pic.twitter.com/al5bfDPV3E","#WaterInfrastructure","2017-01-27 23:45:22"
"The digital roadmap to the future for water and #wastewater leaders http:// ow.ly/NOOy307vD2K #waterinfrastructure","#wastewater #waterinfrastructure","2017-01-27 20:00:24"
"Thank you for inviting me to present to the Commission on important #waterinfrastructure issues!","#waterinfrastructure","2017-01-27 19:58:19"
"Pleased to be with @CarolynDykema at @495MWPtnership to discuss #waterinfrastructure challenges in 495 region pic.twitter.com/sFIKKUaw7x","#waterinfrastructure","2017-01-27 15:44:51"
"Is #zinc coating the answer for #drinkingwater pipelines? http:// ow.ly/sm6R307vuwS #waterinfrastructure pic.twitter.com/Tf7hAVCNdz","#zinc #drinkingwater #waterinfrastructure","2017-01-26 18:00:45"
"New Jersey @americanwater continues to invest in service area. #WaterInfrastructure http:// buff.ly/2kx3yZc","#WaterInfrastructure","2017-01-26 16:50:21"
"New EPA WIFIA program to assist #waterinfrastructure with up to $1 bn - our EWS tech can stretch this investment! https:// goo.gl/Waqqa3","#waterinfrastructure","2017-01-26 00:41:44"
"#CedarRapids uses #micromodeling to fight #flashflooding http:// ow.ly/21Pw307vIJh #waterinfrastructure pic.twitter.com/F6nrWI14gl","#CedarRapids #micromodeling #flashflooding #waterinfrastructure","2017-01-24 18:05:11"
"Massachusetts needs another $18 billion for #waterinfrastructure http:// buff.ly/2jt1dOL","#waterinfrastructure","2017-01-24 17:01:04"
"Massachusetts estimate $18 Billion in repairs to keep water infrastructure running properly: https:// is.gd/hZs03n #waterinfrastructure pic.twitter.com/dh9x0OOB6Q","#waterinfrastructure","2017-01-24 16:48:30"
"The missing factor in drought resolution could be infrastructure: https:// is.gd/FUXEmH #waterinfrastructure #h2oideas pic.twitter.com/mQfsyo7DDq","#waterinfrastructure #h2oideas","2017-01-24 16:44:44"
". @NYGovCuomo seeks $2B to fix some of nation's oldest water pipes #waterinfrastructure http:// buff.ly/2kk5Pad","#waterinfrastructure","2017-01-23 23:00:40"
"How well do you know the #US #waterworks industry? Play our #WaterInfrastructure Game to find out http:// ow.ly/QRhy308gHot pic.twitter.com/rU452nqowN","#US #waterworks #WaterInfrastructure","2017-01-23 18:00:34"
"""New"" Environmental Infrastructure Financing Program Seminar Series Details &amp; reg at: http:// njeit.org/seminars #waterinfrastructure pic.twitter.com/PVJOn2EvIV","#waterinfrastructure","2017-01-23 16:15:20"
"Share a #waterinfrastructure story with us by emailing opinions@wasda.com pic.twitter.com/HCnDviZh36","#waterinfrastructure","2017-01-22 18:00:33"
"Great news for the Village of Schoharie. #waterinfrastructure #FEMA http:// ow.ly/4qLD308bNq0 pic.twitter.com/YVz4DAAzgw","#waterinfrastructure #FEMA","2017-01-20 20:00:55"
"Getting ready to present @massmunicipal conference on #waterinfrastructure - room 203 #massmuni2017","#waterinfrastructure #massmuni2017","2017-01-20 19:42:30"
"""New"" Environmental Infrastructure Financing Program Seminar Series Details and reg at http:// njeit.org/seminars #waterinfrastructure @_njeit pic.twitter.com/XFL5E7LaID","#waterinfrastructure","2017-01-20 17:48:15"
"#waterinfrastructure : could #green bonds & #greeninfra be the keys to solving the crisis? http:// buff.ly/2iMHMiP & http:// buff.ly/2jOEg9m","#waterinfrastructure #green #greeninfra","2017-01-19 15:06:25"
"How #SanAntonio @COSAGOV SAWS is Future-Proofing Their #Water Supply Through #WaterEfficiency & #WaterInfrastructure http:// ow.ly/3CmZ3085HP9","#SanAntonio #Water #WaterEfficiency #WaterInfrastructure","2017-01-18 19:10:33"
"The Northern Collector Tunnel ongoing works now at 20%,expected completion June 2018 @AthiWater #WaterInfrastructure pic.twitter.com/7welcEQNAI","#WaterInfrastructure","2017-01-18 12:20:39"
"Product Developments - #901X #Purification #Remediation #WaterJobs #EconomicDevelopment #WaterInfrastructure pic.twitter.com/i4ax8L2E4r","#901X #Purification #Remediation #WaterJobs #EconomicDevelopment #WaterInfrastructure","2017-01-18 01:02:35"
"#PMI @SafePlumbing advocates for the restoration of nation's underground #WaterInfrastructure to assure #SafeWater http:// ow.ly/8DSo305P5zq pic.twitter.com/0PVM6mZjyU","#PMI #WaterInfrastructure #SafeWater","2017-01-17 22:00:49"
"After 3 years #Marysville is getting $2 million to improve #wastewater systems http:// ow.ly/DFMo307vFx9 #waterinfrastructure pic.twitter.com/N3QuqNwyDg","#Marysville #wastewater #waterinfrastructure","2017-01-17 19:30:17"
"""New"" Environmental Infrastructure Financing Program Seminar Series Details & reg at: http:// njeit.org/seminars #waterinfrastructure @_njeit pic.twitter.com/8EyKHMZvOF","#waterinfrastructure","2017-01-17 17:27:47"
"#EPA #waterinfrastructure project loan program launches with $1 billion http:// ow.ly/MzEN3083fg6 @EPA","#EPA #waterinfrastructure","2017-01-16 20:05:12"
"#EPA #waterinfrastructure project loan program launches with $1 billion http:// ow.ly/MzEN3083fg6 @EPA","#EPA #waterinfrastructure","2017-01-16 19:55:11"
"""New"" Environmental Infrastructure Financing Program Seminar Series Details and reg at: http:// njeit.org/seminars #waterinfrastructure pic.twitter.com/NaJHIk3ENv","#waterinfrastructure","2017-01-16 17:56:11"
". @NUCA_National 's Legislative Director Will Brown is speaking at our Annual Meeting! Details: http:// ow.ly/lYSr3081lxg #waterinfrastructure","#waterinfrastructure","2017-01-15 20:00:26"
"Contact your #Senator and tell them to invest in #waterinfrastructure http:// ow.ly/pdEj306AR1r pic.twitter.com/lYszeKAeHG","#Senator #waterinfrastructure","2017-01-14 18:00:42"
"Why Donald #Trump Should Focus on Improving #WaterInfrastructure http:// hubs.ly/H05SjgR0 by @waterdeeply pic.twitter.com/RtRhT9Pyqw","#Trump #WaterInfrastructure","2017-01-14 17:01:56"
"The same players that doomed our nation's housing market are coming for our #water . #waterinfrastructure . http:// bit.ly/2ilMHvH","#water #waterinfrastructure","2017-01-13 22:36:13"
"The 7 key things that happened to the #California #waterworks industry in 2016 http:// ow.ly/ZZY3307vzD4 #waterinfrastructure pic.twitter.com/wDLkPyr1bA","#California #waterworks #waterinfrastructure","2017-01-13 18:00:48"
"#EPA announces $1B in loans available for #waterinfrastructure projects http:// hubs.ly/H05Shm00","#EPA #waterinfrastructure","2017-01-13 17:14:38"
"From @journalsentinel Milwaukee Mayor Signs Lead Pipe Removal Ordinance. #WaterInfrastructure #SafeWater http:// ow.ly/hccO307WkY4","#WaterInfrastructure #SafeWater","2017-01-13 01:10:11"
"#PMI 's created this infographic about restoring the nation's aging #WaterInfrastructure to assure #SafeWater . http:// ow.ly/8DSo305P5zq pic.twitter.com/HHDQ8bae4b","#PMI #WaterInfrastructure #SafeWater","2017-01-12 21:55:16"
"The world's first #DPR plant is inspiring many #US #watermanagers http:// ow.ly/Azw7307vtXc #waterinfrastructure","#DPR #US #watermanagers #waterinfrastructure","2017-01-12 20:45:09"
"#WaterInfrastructure is a key component of #Smartcities #SmartCity #BigData #PredictiveAnalytics #IIoT #IoT http:// ow.ly/KkkT307WJ7P","#WaterInfrastructure #Smartcities #SmartCity #BigData #PredictiveAnalytics #IIoT #IoT","2017-01-12 20:25:54"
"From @Reuters : Thousands of U.S. Areas Beyond #Flint Afflicted with #Lead Poisoning #SafeWater #WaterInfrastructure http:// ow.ly/JJ9b307WlAH","#Flint #Lead #SafeWater #WaterInfrastructure","2017-01-12 17:20:08"
"Bayonne Water Rates Spike After Privatization @FlanaganNJTV reports @KKR_Co #WaterInfrastructure #Bayonne http:// bit.ly/2hW3Siv pic.twitter.com/KBAgVVVR6d","#WaterInfrastructure #Bayonne","2017-01-12 17:00:01"
"Great piece by @ryangarzafreep on the ongoing H2O challenges in #Flint . $ #WaterInfrastructure #WATERACT http:// bit.ly/2igQpHh","#Flint #WaterInfrastructure #WATERACT","2017-01-12 16:05:45"
"Bayonne Water Rates Spike After Privatization @FlanaganNJTV reports @KKR_Co #WaterInfrastructure #Bayonne http:// bit.ly/2hW3Siv pic.twitter.com/xO0F1mu4po","#WaterInfrastructure #Bayonne","2017-01-12 02:30:00"
"Share our latest blog about #HoosickFalls teens pushing for #waterinfrastructure investment and clean #drinkingwater http:// ow.ly/iJ9W307UlkI pic.twitter.com/q22S3xoFnZ","#HoosickFalls #waterinfrastructure #drinkingwater","2017-01-11 20:05:13"
"#ICYMI : Exciting growth in plastic pipe industry http:// bizcom.to/1/3c4g by Jan Venter #waterinfrastructure #BizTrends2017 pic.twitter.com/z7c4kmmPiG","#ICYMI #waterinfrastructure #BizTrends2017","2017-01-11 10:30:01"
"#ICYMI : Exciting growth in plastic pipe industry http:// bizcom.to/1/3c4g by Jan Venter #waterinfrastructure #BizTrends2017 pic.twitter.com/0TScZF3NIt","#ICYMI #waterinfrastructure #BizTrends2017","2017-01-11 10:30:01"
". @NYGovCuomo calls for $2B For clean #waterinfrastructure projects in NY http:// buff.ly/2jzwm7a","#waterinfrastructure","2017-01-10 20:00:11"
"Bayonne Water Rates Spike After Privatization @FlanaganNJTV reports @KKR_Co #WaterInfrastructure #Bayonne http:// bit.ly/2hW3Siv pic.twitter.com/zMHiY2bEI4","#WaterInfrastructure #Bayonne","2017-01-10 20:00:05"
"#BizTrends2017 : Exciting growth in plastic pipe industry http:// bizcom.to/1/3c4g by Jan Venter via @Biz_Construct #waterinfrastructure pic.twitter.com/9qivMXlbk0","#BizTrends2017 #waterinfrastructure","2017-01-10 10:01:00"
"#BizTrends2017 : Exciting growth in plastic pipe industry http:// bizcom.to/1/3c4g by Jan Venter via @Biz_Construct #waterinfrastructure pic.twitter.com/50rVpFYVcY","#BizTrends2017 #waterinfrastructure","2017-01-10 10:00:59"
"Bayonne Water Rates Spike After Privatization @KKR_Co #WaterInfrastructure #Bayonne #p2 http:// fb.me/27KP4503r","#WaterInfrastructure #Bayonne #p2","2017-01-10 06:53:12"
"Bayonne Water Rates Spike After Privatization @FlanaganNJTV reports @KKR_Co #WaterInfrastructure #Bayonne http:// bit.ly/2hW3Siv pic.twitter.com/S1tVvzSG4R","#WaterInfrastructure #Bayonne","2017-01-10 03:30:01"
"Test your knowledge with our #WaterInfrastructure Game! http:// ow.ly/fljk307PkGB pic.twitter.com/4G0Ifa5A6G","#WaterInfrastructure","2017-01-09 18:00:38"
"Tell us a #waterinfrastructure story that you want every WASDA Member to hear about! Email opinions@wasda.com pic.twitter.com/QKuUxaRHRX","#waterinfrastructure","2017-01-08 18:00:23"
"Bayonne Water Rates Spike After Privatization @FlanaganNJTV reports @KKR_Co #WaterInfrastructure #Bayonne http:// bit.ly/2hW3Siv pic.twitter.com/TjCF6Mp1a7","#WaterInfrastructure #Bayonne","2017-01-08 14:00:03"
"Bayonne Water Rates Spike After Privatization @FlanaganNJTV reports @KKR_Co #WaterInfrastructure #Bayonne http:// bit.ly/2hW3Siv pic.twitter.com/DhN7Qiy90k","#WaterInfrastructure #Bayonne","2017-01-07 22:00:02"
"Bayonne Water Rates Spike After Privatization @FlanaganNJTV reports @KKR_Co #WaterInfrastructure #Bayonne http:// bit.ly/2hW3Siv pic.twitter.com/gMIv39p88v","#WaterInfrastructure #Bayonne","2017-01-07 05:30:01"
"Bayonne Water Rates Spike After Privatization @FlanaganNJTV reports @KKR_Co #WaterInfrastructure #Bayonne http:// bit.ly/2hW3Siv pic.twitter.com/LOllZDQ2CX","#WaterInfrastructure #Bayonne","2017-01-06 17:30:02"
"Bayonne Water Rates Spike After Privatization @FlanaganNJTV reports @KKR_Co #WaterInfrastructure #Bayonne http:// bit.ly/2hW3Siv pic.twitter.com/EgEek7mxEx","#WaterInfrastructure #Bayonne","2017-01-06 00:30:03"
"#PMI 's created this infographic about restoring the nation's aging #WaterInfrastructure to assure #SafeWater . http:// ow.ly/8DSo305P5zq pic.twitter.com/uebquxKNRL","#PMI #WaterInfrastructure #SafeWater","2017-01-05 22:10:20"
"When it comes to improving our #waterinfrastructure , @Ralph_Erik_X shared why it is time to think digitally: http:// invent.ge/2as2J3F","#waterinfrastructure","2017-01-05 20:01:05"
"What Is Construction Management-At-Risk #CMAR ? #waterinfrastructure http:// hubs.ly/H05L1_-0 by @H2ODesignBuild","#CMAR #waterinfrastructure","2017-01-05 17:14:40"
"Aging #infrastructure , fluctuating temperatures, can cause big problems for water pipes #waterinfrastructure http:// buff.ly/2iDWkTA","#infrastructure #waterinfrastructure","2017-01-04 22:00:08"
"#US #infrastructure is falling apart. How does this impact the #economy ? http:// ow.ly/JCeh307vsj1 #waterinfrastructure pic.twitter.com/D5m3yx8wGW","#US #infrastructure #economy #waterinfrastructure","2017-01-04 18:00:37"
"@RepDavidValadao introduced HR23 TheGROWAct to reform #West 's #WaterInfrastructure #CaWaterAlliance http:// ow.ly/zesR307F22R","#West #WaterInfrastructure #CaWaterAlliance","2017-01-04 00:53:50"
"#NewJersey is renewing aged #waterinfrastructure one #street at a time http:// ow.ly/n6Ug307vrW8 pic.twitter.com/HdPoTtntKg","#NewJersey #waterinfrastructure #street","2017-01-03 19:30:13"
"Flint lead & #infrastructure troubles remain #waterinfrastructure #FixItNow http:// buff.ly/2hNId0B","#infrastructure #waterinfrastructure #FixItNow","2017-01-03 19:30:00"
"Congress votes to send millions of dollars to rural #Alaska for #waterinfrastructure http:// hubs.ly/H05L1_h0 by @adndotcom pic.twitter.com/C2rnQ667c7","#Alaska #waterinfrastructure","2017-01-03 13:36:01"
"A Look Back on 2016: The Year Of #WaterInfrastructure In The #News http:// ow.ly/XwPJ307vulo pic.twitter.com/MnfmaNA1gz","#WaterInfrastructure #News","2017-01-02 18:00:37"
"#Research shows that partial #pipereplacements may worsen #lead issues http:// ow.ly/97nA306Brmd #waterinfrastructure pic.twitter.com/fDLtLa9ySA","#Research #pipereplacements #lead #waterinfrastructure","2016-12-30 18:00:41"
"#WaterUtilities have been on the #sidelines of #smartcity #planning for too long http:// ow.ly/bX27306BavN #waterinfrastructure pic.twitter.com/6ycsQ128rP","#WaterUtilities #sidelines #smartcity #planning #waterinfrastructure","2016-12-29 19:00:27"
"What opportunities can California find in the #WaterInfrastructure challenges facing #Atlanta and other US cities: http:// bit.ly/2huiARE . pic.twitter.com/4FDK4uBksg","#WaterInfrastructure #Atlanta","2016-12-27 23:54:54"
"#Indiana 's #waterinfrastructure #funding gap is now in the billions http:// ow.ly/Pwb2306B2op pic.twitter.com/4F6AjGKp7w","#Indiana #waterinfrastructure #funding","2016-12-27 18:01:05"
"#NewJersey #waterpipes are collapsing all across the state. We need to #fix the problem http:// ow.ly/POVG306Kvx6 #waterinfrastructure pic.twitter.com/RU9dBKXQLQ","#NewJersey #waterpipes #fix #waterinfrastructure","2016-12-23 18:00:40"
"#California continues to struggle for a #solution to #waterinfrastructure woes http:// ow.ly/AUEg306B2U8","#California #solution #waterinfrastructure","2016-12-22 18:00:48"
"Working to Fix New Jersey's #WaterInfrastructure @ErinDelmoreNJTV @SenGreenstein @JohnFMcKeon @FrankPallone #Lead http:// bit.ly/2hGdx0W pic.twitter.com/0AhcMIiPEG","#WaterInfrastructure #Lead","2016-12-22 05:00:01"
"How cities are tackling aging #waterinfrastructure systems #WaterWednesday http:// buff.ly/2hTOx3D","#waterinfrastructure #WaterWednesday","2016-12-21 22:00:29"
"#DYK $384 BILLION is needed between 2011-2030 to maintain drinking #waterinfrastructure . Read more: http:// bit.ly/2f5jhyL pic.twitter.com/EJzcNu2A3J","#DYK #waterinfrastructure","2016-12-21 20:30:03"
"Want to meet with your #Senator face-to-face to talk about #WRDA ? Follow these steps http:// ow.ly/eOl6306ARyz #waterinfrastructure","#Senator #WRDA #waterinfrastructure","2016-12-21 18:00:40"
"Statement by the #President on the #WaterInfrastructure Improvements for the Nation (WIIN) Act http:// hubs.ly/H05DR2p0 by @WhiteHouse pic.twitter.com/ldQMklca7p","#President #WaterInfrastructure","2016-12-21 15:05:39"
"Working to Fix New Jersey's #WaterInfrastructure @ErinDelmoreNJTV @SenGreenstein @JohnFMcKeon @FrankPallone #Lead http:// bit.ly/2hGdx0W pic.twitter.com/u4EoLdn8sN","#WaterInfrastructure #Lead","2016-12-20 21:00:03"
"National Water Bill #(WIIN) to improve #waterinfrastructure signed by Obama. CA Senators disagreed on details to... http:// fb.me/8syrj3JcV","# #waterinfrastructure","2016-12-20 19:12:06"
"NEW: #Reservoirs and #Dams in #Alberta http:// wtrpr.tl/2hjs5zS #abwater #waterinfrastructure pic.twitter.com/Rd4fOOZlkH","#Reservoirs #Dams #Alberta #abwater #waterinfrastructure","2016-12-20 18:09:21"
"#Somerville just received a $13M #MassWorks #infrastructure #grant http:// ow.ly/uFbE306B1gm #waterinfrastructure pic.twitter.com/SWIhuP6dYC","#Somerville #MassWorks #infrastructure #grant #waterinfrastructure","2016-12-20 18:00:29"
"RT @pwmag Here's the federal water funding that will come of the recently approved WIIN Act: http:// hubs.ly/H05D7_j0 #waterinfrastructure","#waterinfrastructure","2016-12-20 17:36:53"
"Ed Woolf, Roger Budd and I discuss #DrinkingWater system and #WaterInfrastructure challenges w/ @RepTomMacArthur . @njwater #NRWArepresents pic.twitter.com/QEKrjxcdLc","#DrinkingWater #WaterInfrastructure #NRWArepresents","2016-12-20 15:27:27"
"Presenting @RepTomMacArthur w/ @njwater 2016 President's Award. Grateful for his commitment to safe #drinkingwater and #waterinfrastructure . pic.twitter.com/2F85nilzQ2","#drinkingwater #waterinfrastructure","2016-12-20 14:51:08"
"Presenting @RepTomMacArthur w/ @njwater 2016 President's Award. Grateful for his commitment to safe #drinkingwater and #waterinfrastructure . pic.twitter.com/A3rQ642TOU","#drinkingwater #waterinfrastructure","2016-12-19 22:14:25"
"Ed Woolf, Roger Budd and I discuss #DrinkingWater system and #WaterInfrastructure challenges w/ @RepTomMacArthur . @njwater #NRWArepresents pic.twitter.com/VoJabRlOAV","#DrinkingWater #WaterInfrastructure #NRWArepresents","2016-12-19 22:01:33"
"What steps can #counties take to improve #waterinfrastructure and strengthen #resilience ? Join us now to find out http:// bit.ly/2gh38bg","#counties #waterinfrastructure #resilience","2016-12-19 19:55:00"
"Does your #city have a #waterinfrastructure problem? Share details with us at opinions@wasda.com pic.twitter.com/y4lfhzRGdp","#city #waterinfrastructure","2016-12-19 18:00:48"
"Join us today, 2 p.m. EST to learn how #counties are innovating to improve #waterinfrastructure #resilience http:// bit.ly/2gh38bg","#counties #waterinfrastructure #resilience","2016-12-19 18:00:03"
"Join us today, 2 p.m. EST to learn how #counties are innovating to build new and retrofit old #waterinfrastructure http:// bit.ly/2gh38bg","#counties #waterinfrastructure","2016-12-19 16:00:03"
"Working to Fix New Jersey's #WaterInfrastructure @ErinDelmoreNJTV @SenGreenstein @JohnFMcKeon @FrankPallone #Lead http:// bit.ly/2hGdx0W pic.twitter.com/gfLT4KlERe","#WaterInfrastructure #Lead","2016-12-19 16:00:00"
"@POTUS signs reforms to state #WaterPolicy - #WIIN Act - http:// go.wh.gov/auN9t1 #WaterInfrastructure #WaterforFlint #EconomicDevelopment","#WaterPolicy #WIIN #WaterInfrastructure #WaterforFlint #EconomicDevelopment","2016-12-18 21:05:07"
"Working to Fix New Jersey's #WaterInfrastructure @ErinDelmoreNJTV @SenGreenstein @JohnFMcKeon @FrankPallone #Lead http:// bit.ly/2hGdx0W pic.twitter.com/JKl6hXTAfl","#WaterInfrastructure #Lead","2016-12-18 20:30:01"
"Working to Fix New Jersey's #WaterInfrastructure @ErinDelmoreNJTV @SenGreenstein @JohnFMcKeon @FrankPallone #Lead http:// bit.ly/2hGdx0W pic.twitter.com/8QlAg3J5Fz","#WaterInfrastructure #Lead","2016-12-17 15:00:03"
"Working to Fix New Jersey's #WaterInfrastructure @ErinDelmoreNJTV @SenGreenstein @JohnFMcKeon @FrankPallone #Lead http:// bit.ly/2hGdx0W pic.twitter.com/IoJlBfhRLe","#WaterInfrastructure #Lead","2016-12-17 03:30:00"
"#PMI 's created this infographic about restoring the nation's aging #WaterInfrastructure to assure #SafeWater . http:// ow.ly/8DSo305P5zq pic.twitter.com/S1karjI7Gw","#PMI #WaterInfrastructure #SafeWater","2016-12-16 19:01:35"
"#Researchers have uncovered a way to accurately #predict #pipe failures http:// ow.ly/qyI5306BlEG #waterinfrastructure pic.twitter.com/0QaicLhq01","#Researchers #predict #pipe #waterinfrastructure","2016-12-16 18:00:57"
"Working to Fix New Jersey's #WaterInfrastructure @ErinDelmoreNJTV @SenGreenstein @JohnFMcKeon @FrankPallone #Lead http:// bit.ly/2hGdx0W pic.twitter.com/6VPlfWeDMo","#WaterInfrastructure #Lead","2016-12-15 21:30:02"
"See how #LosAngeles is completely transforming #watermanagement http:// ow.ly/I8Ym306B2NR #waterinfrastructure pic.twitter.com/XHkDut3Rwm","#LosAngeles #watermanagement #waterinfrastructure","2016-12-15 18:15:10"
"""What we have is a mixed bag.""- @LFO on US water treatment plants & #waterinfrastructure at #EARNCon2016 pic.twitter.com/GKvXKnMhcE","#waterinfrastructure #EARNCon2016","2016-12-15 17:45:53"
"Working to Fix New Jersey's #WaterInfrastructure @ErinDelmoreNJTV @SenGreenstein @JohnFMcKeon @FrankPallone #Lead http:// bit.ly/2hGdx0W pic.twitter.com/I2taBAO1S0","#WaterInfrastructure #Lead","2016-12-15 01:45:00"
"Why ductile iron pipe? It's strong, environmentally friendly and built to last. #innovation #waterinfrastructure http:// ow.ly/ZuE13078c1O pic.twitter.com/NWB6mBDph2","#innovation #waterinfrastructure","2016-12-14 21:58:20"
"Use this #guide on what to say to your #Senator to convince them that investing in #waterinfrastructure is vital http:// ow.ly/GHyz306AXTp pic.twitter.com/UUISc85cj0","#guide #Senator #waterinfrastructure","2016-12-14 18:00:44"
"Join us Dec. 19, 2 p.m. EST to learn how #counties are innovating to improve #waterinfrastructure #resilience http:// bit.ly/2gh38bg","#counties #waterinfrastructure #resilience","2016-12-14 18:00:02"
"The U.S. House & Senate agreed to fund $20 million for #WIFIA in 2017. Story: http:// bit.ly/2gANp2p . #waterinfrastructure","#WIFIA #waterinfrastructure","2016-12-14 16:33:34"
"3 innovative #watertreatment #research projects were just awarded $300,000 http:// ow.ly/BL1E306B0MG #waterinfrastructure pic.twitter.com/TEJgWnpKyO","#watertreatment #research #waterinfrastructure","2016-12-13 20:06:18"
"How #Engineers Are Making Old #WaterInfrastructure Smart http:// ow.ly/pHiX306EpuX","#Engineers #WaterInfrastructure","2016-12-13 18:50:27"
"The U.S. House & Senate agreed to fund $20 million for #WIFIA in 2017. Story: http:// bit.ly/2hisSE4 . #waterinfrastructure","#WIFIA #waterinfrastructure","2016-12-13 17:08:00"
"Big Wins for NUCA and #waterinfrastructure in #WIIN ! Investment in #infrastructure creates jobs, helps enviro, stimulates economy. #water","#waterinfrastructure #WIIN #infrastructure #water","2016-12-12 21:14:24"
"Share your #waterinfrastructure story with us! Email opinions@wasda.com pic.twitter.com/DtVem49nTG","#waterinfrastructure","2016-12-12 19:45:08"
"US Congress passes critical #waterinfrastructure resources legislation http:// buff.ly/2gwLS2d","#waterinfrastructure","2016-12-12 19:00:40"
"#UK 's #Biwater secures $1.2B #waterinfrastructure contract in #Kurdistan http:// bit.ly/2gw7sUR pic.twitter.com/Hk2yFLjN3h","#UK #Biwater #waterinfrastructure #Kurdistan","2016-12-12 16:01:21"
"Use #Lego for Your Next DB, PDB or CMAR Project #WaterInfrastructure http:// hubs.ly/H05t7Z60 by @H2ODesignBuild pic.twitter.com/8aDMo6e8ox","#Lego #WaterInfrastructure","2016-12-12 15:04:25"
"Share this article with your followers to raise awareness about the importance of #waterinfrastructure investment http:// ow.ly/S8Im306BqTP pic.twitter.com/pOIKdSklKz","#waterinfrastructure","2016-12-09 19:30:17"
"#Erosion Presents Growing Risk to #Pipeline #Infrastructure | The Burns & McDonnell World #waterinfrastructure http:// hubs.ly/H05vHvm0 pic.twitter.com/fNMwmCXB84","#Erosion #Pipeline #Infrastructure #waterinfrastructure","2016-12-09 19:20:02"
"House approves $10B for #Flint , California #drought : http:// buff.ly/2gIZi7B #WaterInfrastructure #droughtrelief","#Flint #drought #WaterInfrastructure #droughtrelief","2016-12-09 15:24:35"
"#PMI 's created this infographic about restoring the nation's aging #WaterInfrastructure to assure #SafeWater . http:// ow.ly/8DSo305P5zq","#PMI #WaterInfrastructure #SafeWater","2016-12-09 00:15:08"
"Join us Dec. 19, 2 p.m. EST to learn how #counties are innovating to build new and retrofit old #waterinfrastructure http:// bit.ly/2gh38bg","#counties #waterinfrastructure","2016-12-07 21:00:03"
"#PMI , @A4WE #WaterEfficiency study to focus on 5 states w/ #water supply & #WaterInfrastructure issues http:// tinyurl.com/j9wqu5e","#PMI #WaterEfficiency #water #WaterInfrastructure","2016-12-07 19:00:50"
"Tell your #Senator how important it is to invest #waterinfrastructure http:// ow.ly/pdEj306AR1r pic.twitter.com/cYPyQmZOPn","#Senator #waterinfrastructure","2016-12-07 18:10:13"
"State Needs $2 Billion #WaterInfrastructure Investment Now #Indiana http:// hubs.ly/H05t7310 by @nick_janzen pic.twitter.com/QJGrb9suR8","#WaterInfrastructure #Indiana","2016-12-07 17:03:41"
"#WaterfactWednesday #WaterInfrastructure #Aqueduct #AncientRomeandWater pic.twitter.com/akhPQgP2IF","#WaterfactWednesday #WaterInfrastructure #Aqueduct #AncientRomeandWater","2016-12-07 15:20:26"
"Drip Drop: America's crumbling #WaterInfrastructure via @harvardpolitics http:// hubs.ly/H05sy8m0 pic.twitter.com/BovMsmQYTL","#WaterInfrastructure","2016-12-06 18:09:04"
"#Construction executives, #municipal officials, #lawmakers & more are asking for #NY #waterinfrastructure funding http:// ow.ly/mAb5306B0zt pic.twitter.com/wDceTiYgw3","#Construction #municipal #lawmakers #NY #waterinfrastructure","2016-12-06 18:00:29"
". @SenGreenstein : Water Infrastructure Issues Start with the Pipes #WaterInfrastructure #Environment @EPA http:// bit.ly/2fO7Vzr pic.twitter.com/9RnPlu1eRy","#WaterInfrastructure #Environment","2016-12-06 16:30:04"
". @SenGreenstein : Water Infrastructure Issues Start with the Pipes #WaterInfrastructure #Environment @EPA http:// bit.ly/2fO7Vzr pic.twitter.com/IFewmrbLtn","#WaterInfrastructure #Environment","2016-12-05 19:30:02"
"Sen. Greenstein: #WaterInfrastructure Issues Start with the Pipes http:// hubs.ly/H05nkhT0 by @NJTVonline pic.twitter.com/bOCbMrjooq","#WaterInfrastructure","2016-12-05 17:15:41"
". @SenGreenstein : Water Infrastructure Issues Start with the Pipes #WaterInfrastructure #Environment @EPA http:// bit.ly/2fO7Vzr pic.twitter.com/ZN9vfXp0es","#WaterInfrastructure #Environment","2016-12-04 17:30:01"
". @SenGreenstein : Water Infrastructure Issues Start with the Pipes #WaterInfrastructure #Environment @EPA http:// bit.ly/2fO7Vzr pic.twitter.com/zQC4BxHMCY","#WaterInfrastructure #Environment","2016-12-03 21:30:00"
"@EngineerIreland calls for urgent investment in #waterinfrastructure http:// ow.ly/PY19306KggH @TCIndex #infrastructure #wastewater","#waterinfrastructure #infrastructure #wastewater","2016-12-03 18:01:07"
"America's Crumbling #WaterInfrastructure - Harvard Political Review http:// hubs.ly/H05nkgl0 by @harvardpolitics","#WaterInfrastructure","2016-12-03 15:10:26"
"Reacting is the most expensive way to fix a problem #waterinfrastructure #njwater16","#waterinfrastructure #njwater16","2016-12-02 17:18:15"
". @SenGreenstein : Water Infrastructure Issues Start with the Pipes #WaterInfrastructure #Environment @EPA http:// bit.ly/2fO7Vzr pic.twitter.com/S3GzKzBy5V","#WaterInfrastructure #Environment","2016-12-02 14:30:01"
"You can save #US #waterinfrastructure ! Tell #Congress to settle their differences & pass a final version of #WRDA http:// ow.ly/qAiX306IZWA pic.twitter.com/V8yJJ9o2AT","#US #waterinfrastructure #Congress #WRDA","2016-12-01 21:53:42"
". @SenGreenstein : Water Infrastructure Issues Start with the Pipes #WaterInfrastructure #Environment @EPA http:// bit.ly/2fO7Vzr pic.twitter.com/jTZVCtcb03","#WaterInfrastructure #Environment","2016-12-01 17:00:06"
"For every dollar invested in upgrading #waterinfrastructure , $2.62 is generated across all industries in that year. http:// hubs.ly/H05njjP0","#waterinfrastructure","2016-12-01 15:06:44"
"#trenchless #technology #engineering #waterinfrastructure https:// lnkd.in/grpZF5e","#trenchless #technology #engineering #waterinfrastructure","2016-12-01 05:11:36"
"#PMI 's created this infographic about restoring the nation's aging #WaterInfrastructure to assure #SafeWater . http:// ow.ly/8DSo305P5zq","#PMI #WaterInfrastructure #SafeWater","2016-11-30 23:35:05"
"Sen. Greenstein: NJ's #WaterInfrastructure issues start with the pipes #RepairRenew http:// buff.ly/2gKVMsZ","#WaterInfrastructure #RepairRenew","2016-11-30 21:45:00"
". @SenGreenstein : Water Infrastructure Issues Start with the Pipes #WaterInfrastructure #Environment @EPA http:// bit.ly/2fO7Vzr pic.twitter.com/nt344Bgxe7","#WaterInfrastructure #Environment","2016-11-30 20:30:02"
"Breaking #WaterInfrastructure News in #Boston : A #WaterMain Break has #Flooded #Chinatown http:// ow.ly/O3G8306FWki pic.twitter.com/D1VZ75mGSg","#WaterInfrastructure #Boston #WaterMain #Flooded #Chinatown","2016-11-30 18:04:55"
"How #drought is impacting #water investment markets http:// ow.ly/rAUj305wp1r #waterinfrastructure pic.twitter.com/6Bt7Sfcrs5","#drought #water #waterinfrastructure","2016-11-30 18:03:10"
"Digital Offerings Help Aging #WaterInfrastructure http:// hubs.ly/H05nkd20 by @AaronHand","#WaterInfrastructure","2016-11-30 17:10:50"
"#WaterfactWednesday #WaterInfrastructure #Infrastructure #FailingInfrastructure pic.twitter.com/VCw38V5q10","#WaterfactWednesday #WaterInfrastructure #Infrastructure #FailingInfrastructure","2016-11-30 15:25:16"
". @SenGreenstein : Water Infrastructure Issues Start with the Pipes #WaterInfrastructure #Environment @EPA http:// bit.ly/2fO7Vzr pic.twitter.com/IEJyx24kY3","#WaterInfrastructure #Environment","2016-11-30 01:00:02"
"AWWA encourages collaboration on #waterinfrastructure improvements in 2017 http:// bit.ly/2fS3GTU","#waterinfrastructure","2016-11-29 21:42:15"
"The prickly #political path for new #waterinfrastructure investments http:// ow.ly/X2mN305wvb4 pic.twitter.com/U3adcjiFtI","#political #waterinfrastructure","2016-11-29 18:02:42"
"Working on applications for #waterinfrastructure funding? NMFA posted 2017 schedules for WTB and Colonias http:// bit.ly/2gF0LLL","#waterinfrastructure","2016-11-29 17:22:58"
"What Are The Benefits Of Using #DesignBuild Delivery? #waterinfrastructure http:// hubs.ly/H05jx3X0 by @H2ODesignBuild","#DesignBuild #waterinfrastructure","2016-11-28 17:13:54"
"Just a few days until the 2nd Annual Jersey Water Works Conference - still time to register #waterinfrastructure https:// goo.gl/XTJys7","#waterinfrastructure","2016-11-28 15:42:14"
"The acceptance of #water #reuse http:// ow.ly/sEpg305wmYi #waterinfrastructure pic.twitter.com/yJ3vX6CAot","#water #reuse #waterinfrastructure","2016-11-27 18:01:32"
"#Seattle builds first-of-its-kind #stormwater system http:// ow.ly/94cC305wmm8 #waterinfrastructure pic.twitter.com/oQGvYUKPqk","#Seattle #stormwater #waterinfrastructure","2016-11-26 18:01:46"
"One in nine has no access to #cleanwater http:// ow.ly/7OXe305wwGk #waterinfrastructure pic.twitter.com/km8LF2sG2k","#cleanwater #waterinfrastructure","2016-11-25 18:02:35"
"@WSSCWaterNews is a leader in long-term #WaterInfrastructure w/ latest in cutting-edge technology. #DuctileIronPipe http:// ow.ly/pHaD3065dE6","#WaterInfrastructure #DuctileIronPipe","2016-11-24 17:05:26"
"#Cities with declining #populations feel #infrastructure pressure http:// ow.ly/39FH305wmhb #waterinfrastructure pic.twitter.com/ym0MZtEXiM","#Cities #populations #infrastructure #waterinfrastructure","2016-11-23 18:02:37"
"What is Construction Management At-Risk or #CMAR ? #Waterinfrastructure http:// hubs.ly/H05jrB80 by @H2ODesignBuild","#CMAR #Waterinfrastructure","2016-11-23 17:13:50"
"#Flint mayor urges lawmakers to use her city as a cautionary tale for aging #waterinfrastructure http:// ow.ly/3mJQ305wrCB #FlintWaterCrisis pic.twitter.com/4Apy8uh54y","#Flint #waterinfrastructure #FlintWaterCrisis","2016-11-22 18:02:21"
"#Chehalis Makes Progress on #WaterInfrastructure Projects http:// hubs.ly/H05cVZg0 pic.twitter.com/Avwqf35R8B","#Chehalis #WaterInfrastructure","2016-11-22 17:05:47"
"Join us Dec. 19, 2 p.m. EST to learn how #counties are innovating to improve #waterinfrastructure #resilience http:// bit.ly/2gh38bg","#counties #waterinfrastructure #resilience","2016-11-22 17:00:01"
"#PPPs #NRW #SmartCity #waterinfrastructure #water #sustainabledevelopment #PPP #infrastructure #ppp Let's discuss tomorrow. pic.twitter.com/sT1LzWNEhh","#PPPs #NRW #SmartCity #waterinfrastructure #water #sustainabledevelopment #PPP #infrastructure #ppp","2016-11-22 14:49:12"
"What steps can #counties take to improve #waterinfrastructure and strengthen #resilience ? Join us Dec. 19 2pm EST http:// bit.ly/2gh38bg","#counties #waterinfrastructure #resilience","2016-11-21 21:30:01"
"Join @NACo Webinar Dec. 19, 2 p.m. EST #counties are innovating to build new and retrofit old #waterinfrastructure : http:// bit.ly/2eZ9qvW pic.twitter.com/2Q8szqNiHw","#counties #waterinfrastructure","2016-11-21 18:12:01"
"What Is Construction Management-At-Risk or #CMAR ? #waterinfrastructure http:// hubs.ly/H05cWxv0 by @H2ODesignBuild","#CMAR #waterinfrastructure","2016-11-21 13:33:01"
"Microscopic superhero to the rescue at #watertreatment facilities http:// ow.ly/9BKE305wm9W #waterinfrastructure pic.twitter.com/Qy03PLwIn1","#watertreatment #waterinfrastructure","2016-11-20 18:01:39"
"#Waterinfrastructure improvement should have been done all along http:// hubs.ly/H05cWv40 by @wvgazettemail","#Waterinfrastructure","2016-11-19 13:36:02"
"Join us Dec. 19, 2 p.m. EST to learn how #counties are innovating to build new and retrofit old #waterinfrastructure http:// bit.ly/2gh38bg","#counties #waterinfrastructure","2016-11-18 22:00:04"
"The #US : #FirstWorld Country, #ThirdWorld #Infrastructure http:// ow.ly/oKVE305wuzC #waterinfrastructure pic.twitter.com/MHydHNAnCr","#US #FirstWorld #ThirdWorld #Infrastructure #waterinfrastructure","2016-11-18 18:02:46"
"Is #Trump the answer to #Flint 's #waterinfrastructure crisis? http:// hubs.ly/H05cVQp0 by @JNicoleNews","#Trump #Flint #waterinfrastructure","2016-11-18 13:34:01"
"Californian city to upgrade #waterinfrastructure with @USDA funding - http:// bit.ly/2fYvUt4","#waterinfrastructure","2016-11-17 19:02:47"
"Prepare for your 2017 #designbuild projects with the definitive handbook #waterinfrastructure http:// hubs.ly/H05cV1F0","#designbuild #waterinfrastructure","2016-11-17 15:02:16"
"Well done SA. Another year gone and another #R46Billion wasted. #FeesMustFall #LoomingDowngrade #WaterInfrastructure #ANCMustFall","#R46Billion #FeesMustFall #LoomingDowngrade #WaterInfrastructure #ANCMustFall","2016-11-17 05:41:25"
"Join us Dec. 19, 2 p.m. EST to learn how #counties are innovating to improve #waterinfrastructure #resilience http:// bit.ly/2gh38bg","#counties #waterinfrastructure #resilience","2016-11-16 21:00:02"
"Trump's plan includes #waterinfrastructure updates, but who will be funding these updates? http:// hubs.ly/H05cVMW0 by @thefiscaltimes pic.twitter.com/uSi3pyPDuy","#waterinfrastructure","2016-11-16 18:40:13"
"How to prioritize your aging #waterinfrastructure needs http:// ow.ly/n4eo305wlFz pic.twitter.com/Rok1zIUyeA","#waterinfrastructure","2016-11-16 18:03:33"
"New @EPA grants for #urban #water improvement projects http:// ow.ly/N3EG305wp9I #waterinfrastructure pic.twitter.com/fb0Eqg0yZS","#urban #water #waterinfrastructure","2016-11-15 18:02:28"
"We encourage WASDA Members to participate in @AWWAACE 's #Webinar tomorrow! Find out more here http:// ow.ly/bD40306axT9 #waterinfrastructure","#Webinar #waterinfrastructure","2016-11-14 23:15:09"
"#PMI 's created this infographic about restoring the nation's aging #WaterInfrastructure to assure #SafeWater . http:// ow.ly/8DSo305P5zq pic.twitter.com/fmhNv8hgTk","#PMI #WaterInfrastructure #SafeWater","2016-11-14 19:10:19"
"Read our latest blog about #cities implementing new #greeninfrastructure strategies http:// ow.ly/vIZc3069tqe #waterinfrastructure pic.twitter.com/JItjsBks1V","#cities #greeninfrastructure #waterinfrastructure","2016-11-14 18:01:34"
"#AirForce spills 150,000 gallons of PFCS, did not warn #wastewater utility http:// ow.ly/tBoe305wkwo #waterinfrastructure","#AirForce #wastewater #waterinfrastructure","2016-11-12 18:01:46"
". @NOAA seasonal temperature and precipitation outlook not great. Investing in #waterinfrastructure is critically important.","#waterinfrastructure","2016-11-11 00:19:25"
"#PMI created this infographic about restoring the nation's aging #WaterInfrastructure to help assure #SafeWater . http:// ow.ly/8DSo305P5zq","#PMI #WaterInfrastructure #SafeWater","2016-11-10 01:10:14"
"Quick fact: 2/3 of California population live in the south, where only 10% of precipitation occurs #water #waterinfrastructure","#water #waterinfrastructure","2016-11-09 22:19:33"
"Colorado River faces 50-50 chance of delivery cut backs in 2018 due to #drought #ColoradoRiver #waterinfrastructure #California","#drought #ColoradoRiver #waterinfrastructure #California","2016-11-09 19:39:51"
"Listening to @AWWAACE webinar on New Capital Providers for #waterinfrastructure Funding","#waterinfrastructure","2016-11-09 19:38:27"
"#US #infrastructure will crumble without resilience http:// ow.ly/Moby305wjXX #waterinfrastructure pic.twitter.com/hlvHyPxZcg","#US #infrastructure #waterinfrastructure","2016-11-09 18:03:00"
"Get guidance on how to deal with aging #waterinfrastructure with #AssetManagement from #NJDEP Learn More--> http:// ow.ly/3DK3305OvYk","#waterinfrastructure #AssetManagement #NJDEP","2016-11-09 17:25:13"
"#RainyDay for us as most of our #Technician 's are on no #water calls! #waterinfrastructure #WaterWednesday #HoCoMd #MoCoMD #baltimore pic.twitter.com/qpMHjY53wS","#RainyDay #Technician #water #waterinfrastructure #WaterWednesday #HoCoMd #MoCoMD #baltimore","2016-11-09 15:42:03"
". @EPA awards #Oklahoma nearly $11 million for #cleanwater projects http:// ow.ly/6vus305wiMm #waterinfrastructure pic.twitter.com/ffilDFgde2","#Oklahoma #cleanwater #waterinfrastructure","2016-11-08 18:02:21"
"EPA Awards $3.9 Million to UT for Water Infrastructure Research http:// bit.ly/2fvnSLN #EPA #WaterQuality #WaterInfrastructure #Research","#EPA #WaterQuality #WaterInfrastructure #Research","2016-11-08 15:15:32"
"Israel's largest water desalination plant supplies to 1.5m+ people http:// buff.ly/2fO5Mpu #savewater #conservewater #waterinfrastructure","#savewater #conservewater #waterinfrastructure","2016-11-08 11:30:05"
"Modern #waterinfrastructure is critical for New Jersey's economic growth http:// buff.ly/2fy6Cls","#waterinfrastructure","2016-11-07 22:00:00"
"30% of New Jersey's water is lost to leakage: http:// bit.ly/2eOE2wg #critical to our #infrastructure , & #future . #waterinfrastructure pic.twitter.com/y1eLnGARD3","#critical #infrastructure #future #waterinfrastructure","2016-11-07 17:17:00"
"How #engineers are making old #waterinfrastructure smart http:// ow.ly/iLFK305PuWa pic.twitter.com/ARCOWnTOJC","#engineers #waterinfrastructure","2016-11-05 17:01:24"
"Get guidance on how to deal with aging #waterinfrastructure with #AssetManagement from #NJDEP Learn More--> http:// ow.ly/hghG305RuG4","#waterinfrastructure #AssetManagement #NJDEP","2016-11-04 20:20:09"
"Get guidance on how to deal with aging #waterinfrastructure with #AssetManagement from #NJDEP Learn More--> http:// ow.ly/3DK3305OvYk","#waterinfrastructure #AssetManagement #NJDEP","2016-11-04 18:05:08"
"#Storms show need for better #watermanagement in #Canada http:// ow.ly/5d1D305unsy #waterinfrastructure pic.twitter.com/NtSSYygWwQ","#Storms #watermanagement #Canada #waterinfrastructure","2016-11-04 17:02:04"
"#PMI created this infographic about restoring the nation's aging #WaterInfrastructure to help assure #SafeWater . http:// ow.ly/8DSo305P5zq","#PMI #WaterInfrastructure #SafeWater","2016-11-03 20:45:21"
"Promised #waterinfrastructure investment in Michigan comes only in drips #FixitNow #InvestinInfrastructure http:// buff.ly/2fiM5mx","#waterinfrastructure #FixitNow #InvestinInfrastructure","2016-11-03 19:01:08"
". @USDA announces $331 Million investment for clean #WaterInfrastructure in rural communities #waterwednesday http:// buff.ly/2f19Y0M","#WaterInfrastructure #waterwednesday","2016-11-02 21:00:15"
"Don't forget to stop by the #Esri booth 112 while you are in AWWA's #WaterInfrastructure Conf!","#Esri #WaterInfrastructure","2016-11-01 19:00:02"
"Happy to be at the @AWWAACE #waterinfrastructure conference in Phoenix, AZ! pic.twitter.com/08ZMGc2BZX","#waterinfrastructure","2016-11-01 18:43:56"
"Day 2 of #AWWAWIC Be sure to stop by and get your #ArcGIS questions answered. @AWWAACE @EsriWaterGuy #WaterInfrastructure #Esri pic.twitter.com/h3DWqZ3Pnr","#AWWAWIC #ArcGIS #WaterInfrastructure #Esri","2016-11-01 18:30:34"
"RT @makeitrain66 : Learning about Enhanced Non Revenue Water Mitigation at this years #waterinfrastructure conf pic.twitter.com/B8Fudx5OhZ","#waterinfrastructure","2016-11-01 17:05:05"
"#LA asks state for more money to fund #recycled #water projects http:// ow.ly/PRS9305uhLz #waterinfrastructure pic.twitter.com/DZTKQ5rkyO","#LA #recycled #water #waterinfrastructure","2016-11-01 17:00:35"
"#Esri is helping #waterutilities address challenges. See how at #WaterInfrastructure Conf on 10/30 - 11/2","#Esri #waterutilities #WaterInfrastructure","2016-11-01 17:00:03"
"Learning about Enhanced Non Revenue Water Mitigation techniques at this years #AWWA #waterinfrastructure conference pic.twitter.com/1OMZUDieQx","#AWWA #waterinfrastructure","2016-10-31 19:25:50"
". @EsriWaterGuy congratulates @CSUtilities on their award from AWWA WIC 2016! #WaterInfrastructure #InfrastructureMatters pic.twitter.com/Wu7m6SB9t4","#WaterInfrastructure #InfrastructureMatters","2016-10-31 18:53:44"
"#Esri is at @AWWAACE 's #WaterInfrastructure Conf in Phoenix, AZ Stop by booth 112 to get your #ArcGIS questions answered","#Esri #WaterInfrastructure #ArcGIS","2016-10-30 17:00:03"
"Which #US #city is doing the most to save its #water ? http:// ow.ly/4oW3304J0KX #waterinfrastructure pic.twitter.com/JgLjWf44bn","#US #city #water #waterinfrastructure","2016-10-29 18:01:53"
". @WSSCWaterNews begins installing new water pipes designed to last a century in Maryland #waterinfrastructure http:// buff.ly/2eV3IZl","#waterinfrastructure","2016-10-28 22:00:13"
"Veronica Blette from @EPAwatersense talks about the impact of #WaterInfrastructure on clean, #SafeWater at #PMI2016 @SafePlumbing pic.twitter.com/n5VDJZJtVD","#WaterInfrastructure #SafeWater #PMI2016","2016-10-28 21:05:17"
". @AmyBarrilleaux from @MadWaterUtility speaks about #WaterInfrastructure improvements at #PMI2016 @SafePlumbing pic.twitter.com/2AlfHW6YIJ","#WaterInfrastructure #PMI2016","2016-10-28 20:15:15"
"Darren Olson from @ASCETweets talks about the condition of the nation's aging #WaterInfrastructure at #PMI2016 @SafePlumbing pic.twitter.com/dtTxQZkXsM","#WaterInfrastructure #PMI2016","2016-10-28 19:55:13"
"#Brexit causing #waterindustry uncertainty http:// ow.ly/NuQA304IYbU #waterinfrastructure","#Brexit #waterindustry #waterinfrastructure","2016-10-28 18:02:51"
"Burke #WaterResources Project Manager arren Olson talks #waterinfrastructure report cards during #PMI2016 : http:// bit.ly/2eKFKPt pic.twitter.com/5ozcVTnKUE","#WaterResources #waterinfrastructure #PMI2016","2016-10-28 00:08:37"
"Burke Engineering Senior #WaterResources Project Manager Darren Olson talks #waterinfrastructure report cards during #PMI2016 . pic.twitter.com/Ph84v0YFcE","#WaterResources #waterinfrastructure #PMI2016","2016-10-27 23:39:31"
"In #Chicago , a panel discusses #waterinfrastructure at #PMI2016 . @SafePlumbing pic.twitter.com/TrJbKsJoio","#Chicago #waterinfrastructure #PMI2016","2016-10-27 23:28:32"
". @SafePlumbing panel discussion on #waterinfrastructure at #PMI2016 meeting in #Chicago pic.twitter.com/1TA75F62Mh","#waterinfrastructure #PMI2016 #Chicago","2016-10-27 23:26:27"
"Panel discussion on #waterinfrastructure at #PMI2016 meeting in #Chicago . @SafePlumbing pic.twitter.com/um9a5mUm1L","#waterinfrastructure #PMI2016 #Chicago","2016-10-27 23:24:12"
"#WaterInfrastructure is too important to replace with cheap, fragile material such as #PVC http:// ow.ly/Cnuh305iQrx","#WaterInfrastructure #PVC","2016-10-27 14:02:03"
"#WATERINFRASTRUCTURE ! Excuse me 4 shouting Mr #Turnbull - NO water on #nauru 4 days last week.","#WATERINFRASTRUCTURE #Turnbull #nauru","2016-10-27 01:29:47"
"I'm up next on @abccapricornia talking with @JacMacABC #Rockhampton #waterinfrastructure","#Rockhampton #waterinfrastructure","2016-10-27 00:23:40"
"Why do metro #Detroit 's #highways keep #flooding ? http:// ow.ly/vhlI304IZrC #waterinfrastructure pic.twitter.com/Jm6jqbnxxW","#Detroit #highways #flooding #waterinfrastructure","2016-10-26 18:04:10"
"8 Questions to Ask When Choosing a Project-Delivery Method #waterinfrastructure #wastewater http:// hubs.ly/H04PfTQ0 by @H2ODesignBuild pic.twitter.com/Om6aiL4fzA","#waterinfrastructure #wastewater","2016-10-25 23:00:22"
"Replacing #waterinfrastructure with a hazardous pipeline material is disservice and danger to public. http:// ow.ly/ZN0y305iQN6","#waterinfrastructure","2016-10-25 14:02:25"
