"climatechange","['klionforum', 'ecocide', 'crime', 'peace', 'pollyhiggins', 'ipcc', 'capitalism', 'davidsuzuki', 'methodology', 'globalwarming', 'mlkjr', 'martinlutherkingjr', 'resist', 'brave', 'courage', 'environment', 'syria', 'animalrights', 'science', u'refugee', 'energyefficiency', 'ahca', 'lgbt', u'fact', 'nasa', 'reprorights', 'internetprivacy', 'equalpay', 'tcot', 'tlot', 'solar', 'truth', 'education', 'foodforthought', 'cambodia', 'veggiegardens', 'food', 'currentlyreading', 'effected', u'plan', 'jamaica', 'combat', 'scientific', 'claim', 'fact', 'need', 'cleaner', 'good', 'npm', 'news', 'trump', 'europeanunion', 'cleanenergy', 'climate', 'itstimetochange', 'resistance', 'karma', 'executiveorder', 'steamdrills', 'occupy', 'no', '5star', 'inspiration', 'toronto', 'transformto', 'redstates', 'preservationforum', 'pollution', 'arctic', u'elephant', 'ivory', 'centerspace', 'earthday2017', 'pd', 'trumptaxreturns', 'epa2017', 'renewableenergy', 'china', 'repealepa', 'actonclimate', 'conservationagriculture', 'investigatetrump', 'russia', 'epa', 'coal', 'nutrition', 'risk', 'greenland', 'klionforoum', u'glacier', 'solarenergy', 'trump45', 'planet', 'p2', 'cdnpoli', u'drought', 'risingseas', 'extinction', u'specie', 'earth', 'climatemigration', 'sustainability', 'globaled', 'globalcitizen', 'foxnews', 'seaturtles', 'keystonexl', 'co2', 'nokxl']"
"globalwarming","['climatechange', 'mondayblogs', 'currentlyreading', 'vegan', 'lifestyle', 'green', 'raw', u'emission', u'glacier', 'science', 'internetprivacy', 'gw', 'real', 'nodapl', 'renewableenergy', 'environment', u'flood', u'au', 'sealevel', 'climate', 'hellexpanding', 'conative', 'makingthebestofit', 'oil', 'jk', 'progressive', 'eco', 'co2', 'news', 'clubpenguin', 'ripclubpenguin', 'arctic', 'phytoplankton', 'junkstatus', 'factsmatter', 'epa', 'cleanenergy', 'resist', 'seaturtle', 'politicianstalkleadersact', 'gpwx', 'branding', u'bird', 'wildlife', 'nature', 'writing', 'coffee', 'classicalmusic', 'junkscience', 'thankstrump', 'nosuchthing', u'democrat', u'job', 'gop']"
"deforestation","['indigenous', 'mining', 'arcominero', 'storymap', 'european', 'eu', 'palmoil', 'westpapua', 'ecocide', 'genocide', 'conservation', 'deserved', 'pain', 'pressing', 'past', 'no', 'hurt', u'animal', 'ecuador', 'urw2017', 'adhd', 'exerciseismedicine', 'leuser', 'lovetheleuser', 'colombia', 'jokowi', 'rainforest', 'indonesian', 'extinction', 'sustainable', 'plasticwaste', 'circulareconomy', 'our', u'life', 'every', 'reason', 'stop', 'worldwide', 'alllivesmatter', 'brazil', 'environment', 'colombiamudslide', 'fossilfuel', 'pollution', 'nature', 'womenshealth', 'climatechange', 'se4allforum', 'aceitedepalma', 'tropofilms', 'stanford', 'africa', 'nowreading', 'eplenary', 'forest', 'tropical', 'carbon', u'emission', 'climateaction', 'thinklandscape', 'amazon', 'huiledepalme', 'durable', 'morocco', 'responsible', 'soy', 'production', 'dkbiz', 'dkaid', 'dkpol', 'wildlife', 'argentina', 'plenpe', u'amazona', 'mocoa', 'deforestation']"
"desertification","['drought', 'climatechange', 'ecolodge', 'agadir', 'africa', 'morocco', 'ggv', 'greenwall', 'magnuslarsson', 'population', 'restoration', 'wff17bregenz', u'mar', 'datascience', 'neveradullmoment', 'acaciasforall', 'povertyreduction', 'genderequality', '1milliontrees', 'landdegradation', 'ffa2017', 'complexsystems', 'timeforsolutions', 'agriculture', 'climate', 'deforestation', 'overgrazing', 'nigeria', 'geo4b', 'geog4b', 'geographyteacher', 'sahel', 'somaliland', 'erosion', 'firewood', 'sahara', 'endpoverty', 'fire', 'veoliafoundation', 'greatgreenwall', 'intforestday', 'acaciatrees', 'environment', 'sciencesunday', 'desertification']"
"climateactionplan","['perthproud', 'nationalpoetrymonth', 'climatemarch', 'brexit', 'climatevisuals', 'climate', 'g20germany', 'bethlehem', 'pa', 'pollution', 'isienvision', 'alliancecenter', 'localgovernment', 'sustainability', 'offgrid', '100percentrenewableenergy', '100percentofthetime', 'solarparkinglotlights', 'sandiego', 'growth', 'greenhouse', 'adaptation', 'resilience', 'cccs2017', 'watersoftheusrule', 'badidea', 'trump', 'climatedenier', 'scienceisreal', 'moneywontsaveus', 'oilandgas', 'coal', 'climatechange', 'earthenergy', 'burlington', 'whywemarch', 'inauguration', 'newadmin', 'wotus', 'unacceptable', 'climatechangeisreal', 'whitehouse', 'breakingnews', 'obama', 'cleancoal', 'globalwarming', 'canada', 'usa', 'cleanenergytexas', 'calibaja', u'coalfield', 'worldseries', 'cleanpowerplan', 'government', 'cop22', 'cop21', 'climateactioncampaign', 'california', 'cap', 'potus', 'nodapl', 'sustainable', 'wetlandprotection', 'johnkerry', 'islife', 'nextgeneration', 'kidsgetit', 'snetoday', 'americarecyclesday', 'germany', 'klimaschutzplan', 'renewable', 'diesel', 'vehicle', 'fleet', 'fuel', 'solar', 'parisagreement', 'environmentalaction', 'inaction', 'emissiontargets', 'debate', 'boardoftrustees', 'divestment', 'co2limit', 'roadto2020', 'efficiency', 'ascent', u'u', 'bc', 'tunein', 'brandnewcongress', 'ourrevolution', 'ourprogressives', 'wearethemedia', 'blacklivesmatter', 'viceonhbo', 'lng', 'bcpoli', 'minecraft', 'wildfire', 'windenergy', 'renewables', 'innovation', 'tech', 'canclimateaction', 'climatetargets', 'pdx', 'craftbeer', 'singapore', 'firstandworst', 'equity', 'energyefficiency', 'climateinnovation', 'alternativeenergy', 'cleanpower', 'sdg', 'cpuc', 'ourchange', 'keephydropublic', 'onpoli', 'queensu', 'feelthebern', 'revolution', 'democracyspring', 'savethereefs', 'oligarchy', 'mediabias', 'climateemergency', 'democracy', 'democraticnomination', 'savethereef', 'feeltheburn', 'norway', 'deforestation', 'uganda', 'policy', 'pacificfoodsysystems', 'justtransition', 'carbonneutral', 'publicsector', 'municipal', 'publictransport', 'ontpoli', 'cdnpoli', 'oceansday', 'lowcarbon', 'colabnetwork', 'sustainableliving', 'hte', 'citizenscientists', 'pbl', 'lifebythetide', 'actonclimate', 'climatechangeclimateplanclimateaction', 'presisentobama', 'smartcityio', 'tpp', 'climatejustice', 'tax', 'tod', 'ontario', 'energy', 'downtownmobilityplan', 'ghg', 'seattle', 'epa', 'sodamountainsolar', 'coleg', 'rainbarrel', '1issueisclimate', 'superdelegate', '80x50', 'copolitics', 'hb1004', 'tbt', 'cleantech', 'coloradoans', 'colorado', 'ghgemissions', 'createcommunity', 'newalliances', 'revitalizedneighborhoods', 'nevertrump', 'dumptrump', 'trumpsteaks', 'pdxmayor', 'wrawesome', 'kwawesome', 'climateaction', 'san', 'smartcity', 'stotcsd', 'carbonneutralityplan', 'cleanenergyu', 'losangeles', 'tyranny', 'sdgoes100', 'cleanenergy', 'climateagreement', 'socialsecurity', 'freecollege', 'fightfor15', 'blm', 'bernie2016', 'savingtheworld', 'supermayor', 'umbrella', 'roadtorenewables', 'sdge', 'cnndebate', u'isi', 'climateconference', 'dontbestupid', 'ouraccord', 'sandiegocitycouncil', 'corporatetax', 'corporate', 'corruption', 'food', 'water', 'land', u'arm', 'environmentaljustice', 'healthyhoods', 'makinghistory', 'biggestuscitytogo100', 'cityhallplaza', 'airtoxics', 'enforcement', 'sd', 'unitedstates', 'unfccc', 'bourget', 'cop21paris', 'doe', 'cimate', 'mama', 'indc', 'gmsd', 'transportationjustice', 'fight', 'gocop21', 'homeenergycoach', 'reepawards', 'chulavista', 'hiap', 'publicprivatepartnerships', 'methane', 'humanrights', 'genderequality', 'india', 'china', 'carldemaio', 'kogo', 'carbonneutralby2050', 'businessresilience', 'algeria', 'emissionsreduction', '1000th', 'windpower', 'environment', 'qer', 'energyfrontier', 'nces8', 'sectymoniz', 'senreid', 'moreregulations', 'greenhousegas', 'reduce', u'emission', u'landfill', u'building', 'zerowaste', 'survey', 'lnginbc', 'renewableenergy', 'gopdebate', 'atlanta', 'sfsart', 'sustainableinfrastructure', 'atl', 'cleanair', 'sart', 'greenjobs', 'communityresilience', 'sustainablesolutions', 'futureishere', 'news', 'haveyoursay', 'carbon', 'nma', 'powerplants', 'affordablecareact', 'obamacare', 'eximbank', 'standup4climate', 'urbaninfastructure', 'scotus', 'powerplant', 'globalplan', 'ffrms', 'quebec', 'carbontrading', 'thanks', 'follow', u'thought', u'city']"
"drought","['gpwx', 'news', 'csulb', 'njwx', 'rain', 'encounterlent', 'flooding', 'staytuned', 'dailydroplet', 'california', 'cadrought', 'climatechange', 'twca']"
