"Israeli defense company @ElbitSystemsLtd optimistic in age of Trump http:// reut.rs/2ndcUO8 via @Reuters #IsraelTech #DefenseTechnology pic.twitter.com/nxYbkCINa4","#IsraelTech #DefenseTechnology","2017-03-22 15:42:53"
"It's @SafarilandGroup #DefenseTechnology 40mm Launcher day @AARDVARK w/ @AimpointUSA optics and sights. A LOT being assembled for a client. pic.twitter.com/3bVn8GTMSQ","#DefenseTechnology","2017-01-13 03:14:02"
"US Air Force to acquire 250 next generation precision glide bombs. #military #defensetechnology #armstrade http:// sptnkne.ws/cdC8","#military #defensetechnology #armstrade","2016-09-04 21:40:16"
"Today on r/cybrary The First Line of #defense to consider https:// redd.it/50exea #defensetechnology #security #cybersecurity #infosec","#defense #defensetechnology #security #cybersecurity #infosec","2016-08-31 04:28:48"
"#UK launches $1 billion #DefenseTechnology #initiative http:// goo.gl/c1fzPm","#UK #DefenseTechnology #initiative","2016-08-29 17:39:31"
"Russia turns Gaz Tigr armored vehicle into a robotized combat machine. #Russia #military #defensetechnology http:// sptnkne.ws/ca27","#Russia #military #defensetechnology","2016-08-27 23:40:12"
"Pentagon developing secret anti-drone weapon death laser. #PENTAGON #DARPA #military #defensetechnology http:// sptnkne.ws/bXMZ","#PENTAGON #DARPA #military #defensetechnology","2016-08-22 05:50:03"
"#ThinkingOutLoud is what I am alllllll about! Chuckle an noone will EVER be able 2 #defensetechnology define me toooooo","#ThinkingOutLoud #defensetechnology","2016-08-21 13:27:29"
"HK - No Compromise: 2016 https:// youtu.be/M7NtqTnSe1M via @YouTube #defense #security #defensetechnology #training #threats","#defense #security #defensetechnology #training #threats","2016-08-20 17:22:15"
"#China eyes #ArtificialIntelligence for new cruise missiles: http:// reut.rs/2bC5V9P via @Reuters #cybersecurity #defensetechnology","#China #ArtificialIntelligence #cybersecurity #defensetechnology","2016-08-19 14:32:35"
"Maybe a POC during the Event #dltc16 #fondue #cybsec16 #lte #4G #Safe #network #ics #defensetechnology #IoT pic.twitter.com/5awsaP3wSH","#dltc16 #fondue #cybsec16 #lte #4G #Safe #network #ics #defensetechnology #IoT","2016-08-17 23:46:50"
"@SabreSurvey Thank you for following Copenhagen Sensor Technology. Have a great day. #defence #ElectroOptics #defensetechnology","#defence #ElectroOptics #defensetechnology","2016-08-11 11:14:39"
"@RichShaffer108 Thank you for following Copenhagen Sensor Technology. Have a great day. #CST #ElectroOptics #defensetechnology","#CST #ElectroOptics #defensetechnology","2016-08-11 11:14:25"
"@henryevang Thank you for following Copenhagen Sensor Technology. Have a great day. #defence #ElectroOptics #defensetechnology","#defence #ElectroOptics #defensetechnology","2016-08-11 11:12:52"
"@Defensie_BE Thank you for following Copenhagen Sensor Technology. Have a great day. #defence #ElectroOptics #defensetechnology","#defence #ElectroOptics #defensetechnology","2016-08-11 11:12:25"
"@stakmaskin Thank you for following Copenhagen Sensor Technology. Have a great day. #defencetechnology #ElectroOptics #defensetechnology","#defencetechnology #ElectroOptics #defensetechnology","2016-08-04 08:57:26"
"@DJSzczepson Thank you for following Copenhagen Sensor Technology. Have a great day. #defencetechnology #ElectroOptics #defensetechnology","#defencetechnology #ElectroOptics #defensetechnology","2016-08-04 08:57:07"
"How advanced is India's #missile and Missile #DefenseTechnology ? watch here<> http:// bit.ly/2ae76iy","#missile #DefenseTechnology","2016-08-02 05:55:58"
"#DefenceTechnology #defensetechnology #India will be the only country outside US' formal treaty allies that will... http:// fb.me/8fHaS0SNg","#DefenceTechnology #defensetechnology #India","2016-06-27 05:20:29"
"@SafarilandGroup demonstrates the intense effects of a Pyrotechnic OC Grenade #DemoDaySanDiego #Defensetechnology pic.twitter.com/1Je7IXZiBO","#DemoDaySanDiego #Defensetechnology","2016-06-25 01:09:14"
"Defense Secretary Carter calls for faster technology development http:// ow.ly/eReO300CETR #DefenseTechnology","#DefenseTechnology","2016-05-31 15:05:30"
"Skim through @DefenceTech_Mag to learn the latest in global #defensetechnology : http:// bit.ly/1qwApAN pic.twitter.com/9GkDRQtM2G","#defensetechnology","2016-04-10 20:30:55"
"Enjoying ISNR exhibition in Abu Dhabi http:// sec-sk.com / #exhibition #AbuDhabi #defensetechnology pic.twitter.com/y5cHap8CYb","#exhibition #AbuDhabi #defensetechnology","2016-03-17 09:47:51"
"Ready for the last day at ISNR exhibition. Visit our stand! http:// sec-sk.com / #defensetechnology #detector pic.twitter.com/PKswS0gnbZ","#defensetechnology #detector","2016-03-17 07:29:14"
"New #helicopters been offered to #Iran Check more: http:// buff.ly/1X7gKBI #Russia #DefenseTechnology #aog pic.twitter.com/oZMA7SqwTa","#helicopters #Iran #Russia #DefenseTechnology #aog","2016-02-05 18:30:15"
"#Japan , #Indonesia agree on #defensetechnology transfer talks | http:// sco.lt/5NcAPR #Tokyo #Jakarta #SEAsia","#Japan #Indonesia #defensetechnology #Tokyo #Jakarta #SEAsia","2015-12-19 01:11:43"
"@UNH focuses on #defense and #defensetechnology http:// ow.ly/TtZ6G #MSTgetsIT","#defense #defensetechnology #MSTgetsIT","2015-10-16 23:55:33"
"@UNH focuses on #defense and #defensetechnology http:// ow.ly/TtZ3d #MSTgetsIT","#defense #defensetechnology #MSTgetsIT","2015-10-16 23:50:33"
"Teen Develops Hand Gun Unlocked By Fingerprint http:// goo.gl/fb/jjvsUw #biometrics #defensetechnology #fingerprints #guns #sectors","#biometrics #defensetechnology #fingerprints #guns #sectors","2015-08-25 18:44:46"
"Why Putin Is Cozying Up To Africa http:// goo.gl/fb/XYVFMH #africa #africatrade #defense #defensetechnology #geopolitics #history #putin","#africa #africatrade #defense #defensetechnology #geopolitics #history #putin","2015-08-17 23:43:03"
"#innovation = #energytechnology #biotechnology#informationtechnology #manufacturingtechnology #defensetechnology @Nouriel #GRMAForum","#innovation #energytechnology #biotechnology #informationtechnology #manufacturingtechnology #defensetechnology #GRMAForum","2015-05-14 14:51:59"
"#StartUpIsrael #IsraelIndiarelations #defensetechnology Rolta, Meprolight to set up defense JV in India http:// dlvr.it/9jZcD3","#StartUpIsrael #IsraelIndiarelations #defensetechnology","2015-05-07 17:27:06"
"Liquid body armour proves to be bullet proof - video http:// goo.gl/fb/GiPNGh #defense #defensetechnology #poland #polishtechnology #science","#defense #defensetechnology #poland #polishtechnology #science","2015-04-09 07:29:03"
"RT @PacificCommand : #India -US to jointly develop #defensetechnology projects: US official . @USAndIndia I http:// ow.ly/KU0an","#India #defensetechnology","2015-04-01 11:01:26"
"#India -US to jointly develop #defensetechnology projects: US official . @USAndIndia I http:// ow.ly/KU0an","#India #defensetechnology","2015-03-29 14:01:02"
"Don't forget to RSVP to our next event March 26th: The Boat Stops Here! With #HaloDefenseSystems #defensetechnology http:// eepurl.com/bgEdgr","#HaloDefenseSystems #defensetechnology","2015-03-18 14:08:15"
"Present your brand new products at the NPI session to #defensetechnology experts in Turkey ! More will be posted at http://www. electronicsvalley.us","#defensetechnology","2015-02-12 03:37:28"
"Not-to-miss #defensetechnology event in Turkey. sponsor today & save 30% on all sponsorships. http://www. elektronikvadisi.com.tr pic.twitter.com/3hhAFXkF8B","#defensetechnology","2015-02-10 00:44:25"
"India, USA Expand #DefenseTechnology Cooperation http:// ow.ly/I5i0x #trends","#DefenseTechnology #trends","2015-01-28 15:17:40"
"India, USA Expand #DefenseTechnology Cooperation http:// ow.ly/I5i0u #trends","#DefenseTechnology #trends","2015-01-28 15:17:40"
"@unifygovernment @callorish @JDR1024 @StockTwits Not only are they better businessmen but Israel is the go2 in #defensetechnology #IDF","#defensetechnology #IDF","2014-12-31 19:43:04"
"Unmanned #Helicopter Takes First Flight From Coast Guard Ship http:// goo.gl/fb/EdXN9g #aerospace #aircraft #defense #defensetechnology","#Helicopter #aerospace #aircraft #defense #defensetechnology","2014-12-22 19:23:09"
"U.S. Navy Employs Fully-Realistic Shark Drone http:// goo.gl/fb/9CFbS0 #defense #defensetechnology #drones #robotics #technology #usdefense","#defense #defensetechnology #drones #robotics #technology #usdefense","2014-12-22 19:12:55"
"Soldier worn systems must be this tough! Bionic Power's leg-worn system! #peosoldier #defensetechnology https:// lnkd.in/b9x49XB","#peosoldier #defensetechnology","2014-12-13 00:43:15"
"@SafarilandGroup Less Lethal Impact Munitions Training at Reno-RPSTC #defensetechnology pic.twitter.com/GBVGIod4ui","#defensetechnology","2014-09-17 01:52:59"
"#India , U.S. to boost ties @USAndIndia #DefenseTechnology | http:// ow.ly/AdhaT","#India #DefenseTechnology","2014-08-12 09:00:57"
"#Drones that can fire #pepperspray bullets and blinding #lasers http:// goo.gl/rXxQNX #defensetechnology via @electronicprod","#Drones #pepperspray #lasers #defensetechnology","2014-06-23 21:00:06"
"ForSale: #Drones that can fire #pepperspray bullets and blinding #lasers http:// goo.gl/rXxQNX #defensetechnology #technews #research","#Drones #pepperspray #lasers #defensetechnology #technews #research","2014-06-23 15:04:38"
"#IsraelInside #StartUpIsrael #Matrix #defensetechnology Israeli military expo takes aim at the future http:// dlvr.it/5q4HFy","#IsraelInside #StartUpIsrael #Matrix #defensetechnology","2014-05-29 20:06:43"
"#Robots may be heading to the #battlefield . http:// nbcnews.to/1opXgd9 via @NBCNews #technology #defensetechnology","#Robots #battlefield #technology #defensetechnology","2014-05-14 23:05:12"
"Week of #training ! #DefenseTechnology #OC #instructor course & #Simunition 3-Day Instructor Course. Bringing #gopro ! pic.twitter.com/QC1qO7sHeC","#training #DefenseTechnology #OC #instructor #Simunition #gopro","2014-03-07 17:00:09"
"#drones #military #nationalsecurity #submarines #defensetechnology The Navy Just Launched a Drone from a... http:// dlvr.it/4S7DTL","#drones #military #nationalsecurity #submarines #defensetechnology","2013-12-05 21:41:31"
"#nationaldefense #military #defensetechnology #army #3dprintingweek Army 3D-Prints Futuristic Electronics In Its... http:// dlvr.it/4RlRxy","#nationaldefense #military #defensetechnology #army #3dprintingweek","2013-12-04 19:49:08"
"#military #defense #defensetechnology #pentagon #3dprinting Marching into the Future of 3D-Printed War http:// dlvr.it/4R0bBS","#military #defense #defensetechnology #pentagon #3dprinting","2013-12-02 17:56:33"
"#IsraelInside #DefenseMinistry #defensetechnology Israel to develop unmanned submarines http:// dlvr.it/48J96z","#IsraelInside #DefenseMinistry #defensetechnology","2013-10-16 13:52:35"
"#DefenseTechnology Magazine https:// vimeo.com/72094324","#DefenseTechnology","2013-08-10 14:27:11"
"Oregon Company to Sell Drone Defense Technology to Public http:// ow.ly/j5Yrg #OR #drones #defensetechnology","#OR #drones #defensetechnology","2013-03-17 21:31:21"
"#StartUpIsrael #missiledefensesystem #IronDome #defensetechnology Secrets of the Iron Dome, revealed http:// dlvr.it/2jNVVb","#StartUpIsrael #missiledefensesystem #IronDome #defensetechnology","2012-12-28 11:07:03"
"#StartUpIsrael #defensetechnology #Elbit #marketing Seeking new horizons, Elbit signs deals in Australia, Latin... http:// dlvr.it/2JR0v1","#StartUpIsrael #defensetechnology #Elbit #marketing","2012-10-12 01:47:32"
"$3.48B missile and technology sale http:// goo.gl/fb/sfUst #world #ally #defensetechnology #iran #massivebuildup","#world #ally #defensetechnology #iran #massivebuildup","2011-12-31 13:56:00"
"Technology: the first Chinese car without a driver test #NationalUniversity #DefenseTechnology #GoogleCar http:// blodic.us/131313346413 #USA #followme","#NationalUniversity #DefenseTechnology #GoogleCar #USA #followme","2011-08-13 08:55:03"
"China hot on Google's heels with driverless car #NationalUniversity #DefenseTechnology #China http://blodic.us/131282766396 #USA #followme","#NationalUniversity #DefenseTechnology #China #USA #followme","2011-08-09 15:00:02"
