"Future of US Army Aviation https:// is.gd/h2mH3j #militarytechnology","#militarytechnology","2017-04-06 00:15:56"
"Hammar Maskin-Military Container Handling and Transporting Equipment http:// dlvr.it/NpqcGP #militarytechnology","#militarytechnology","2017-04-05 21:18:36"
"Nordic Shelter-Mobile Field Shelters and Containers http:// dlvr.it/NpqcFs #militarytechnology","#militarytechnology","2017-04-05 21:18:36"
"MilDef -The Smart Choice For Combat - Rugged Computer Systems http:// dlvr.it/NpqcDt #militarytechnology","#militarytechnology","2017-04-05 21:18:35"
"RIPEnergy AG-Power Converters for Military Applications http:// dlvr.it/NpqcDN #militarytechnology","#militarytechnology","2017-04-05 21:18:35"
"North Korea test-fires ballistic missile ahead of US-China summit http:// dlvr.it/NpqcCh #militarytechnology","#militarytechnology","2017-04-05 21:18:35"
"BAE wins $112m M88 recovery vehicles sustainment contract from US Army http:// dlvr.it/Npqc8N #militarytechnology pic.twitter.com/MAu3brGnHh","#militarytechnology","2017-04-05 21:18:34"
"Indian Airforce Sukhoi 30mki Advanced Technology Details https:// is.gd/Hg0IoO #militarytechnology","#militarytechnology","2017-04-05 15:21:25"
"Military Aircraft Hangars and Maintenance Shelters http:// dlvr.it/NpgRnC #militarytechnology","#militarytechnology","2017-04-05 14:38:39"
"CSI wins $132m contract for Husky 2G vehicle and route clearance payloads http:// dlvr.it/NpgRcR #militarytechnology pic.twitter.com/4EqzVtqkrU","#militarytechnology","2017-04-05 14:38:37"
"Future of US Army Aviation https:// is.gd/h2mH3j #militarytechnology","#militarytechnology","2017-04-05 09:09:35"
"Next Future Battlefield Technology will Blow your Mind https:// is.gd/osv5We #militarytechnology","#militarytechnology","2017-04-05 03:21:56"
"The Euroquartz Design Resource http:// dlvr.it/Np9Xh3 #militarytechnology","#militarytechnology","2017-04-04 13:37:15"
"Legacy Building Solutions-Custom Engineered Fabric Structures http:// dlvr.it/Np9Xdr #militarytechnology","#militarytechnology","2017-04-04 13:37:13"
"Nammo plans to pursue $117m investments in new technology and production http:// dlvr.it/Np9XTf #militarytechnology pic.twitter.com/X2lQVqjzmM","#militarytechnology","2017-04-04 13:37:12"
"Iraq takes delivery of counter-IED equipment from Nato http:// dlvr.it/Np9XKv #militarytechnology pic.twitter.com/v6YahOWDBO","#militarytechnology","2017-04-04 13:37:09"
"New study to investigate treatment of tendon problems in UK military personnel http:// dlvr.it/Np9X4G #militarytechnology pic.twitter.com/uWIIL7v5cY","#militarytechnology","2017-04-04 13:37:06"
"Top 10 Countries with best Missile Technology https:// is.gd/B2fZuM #militarytechnology","#militarytechnology","2017-04-04 08:46:11"
"Navy to Shift Equipment Development Into the Virtual Realm http:// dlvr.it/NnvN1y #militarytechnology pic.twitter.com/HyOsW9qN0Z","#militarytechnology","2017-04-03 22:11:36"
"New Technology Aircraft for US Air Force to Rule the Sky's over Red Square https:// is.gd/SXZQBM #militarytechnology #usaf","#militarytechnology #usaf","2017-04-03 21:52:52"
"GD wins $140m enterprise IT and cloud services contract from Nato http:// dlvr.it/Nnnm9r #militarytechnology pic.twitter.com/f0oQx5vdXd","#militarytechnology","2017-04-03 17:21:07"
"Rheinmetall to supply mine clearing equipment to undisclosed customer http:// dlvr.it/NnkCJl #militarytechnology","#militarytechnology","2017-04-03 14:34:06"
"Trump authorises US to expand counter-terrorism operations in Somalia http:// dlvr.it/NnhtqL #militarytechnology","#militarytechnology","2017-04-03 13:26:35"
"Turkey ends Euphrates Shield military operation against ISIS in Syria http:// dlvr.it/Nnhtf2 #militarytechnology","#militarytechnology","2017-04-03 13:26:33"
"Proytecsa Robots Destined for Tunisia http:// dlvr.it/NnbgMD #militarytechnology","#militarytechnology","2017-04-03 08:31:05"
"Most Advanced Helicopters of the U.S Army https:// is.gd/5Lnxcs #militarytechnology","#militarytechnology","2017-04-02 22:43:39"
"Indian Airforce Sukhoi 30mki Advanced Technology Details https:// is.gd/Hg0IoO #militarytechnology","#militarytechnology","2017-04-02 21:16:24"
"Next Generation Robotics Technology to challenge US Military & NATO Power https:// is.gd/oLAGPY #militarytechnology","#militarytechnology","2017-04-02 11:33:40"
"Futuristic Hypersonic Stealth Aircrafts https:// is.gd/pZx1OL #military #militarytechnology","#military #militarytechnology","2017-04-01 15:47:38"
"Coast Guard Eyes Getting Its Own Drone Fleet http:// dlvr.it/Nmplsn #militarytechnology pic.twitter.com/N2hHTQcbol","#militarytechnology","2017-04-01 04:50:08"
"Here are 5 Examples of some Awesome Military Robots. https:// is.gd/xZlN2b #militaryrobots #militarytechnology","#militaryrobots #militarytechnology","2017-04-01 02:54:05"
"N. Korea yet to master the Technology needed to put nuke warhead on Missile to threaten the U. https:// is.gd/Q46vML #militarytechnology","#militarytechnology","2017-03-31 20:16:21"
"With today's advanced explosive detectors, is it time to retire the K9? http:// dlvr.it/NmdVSV #militarytechnology pic.twitter.com/pVFAbvhNAU","#militarytechnology","2017-03-31 18:37:36"
"Leonardo to supply additional AW139 helicopters to Pakistan http:// dlvr.it/NmV7mg #militarytechnology pic.twitter.com/aSy5m0L2Bf","#militarytechnology","2017-03-31 12:29:12"
"Lockheed and Northrop complete US Army's MAPS integration http:// dlvr.it/NmV7hZ #militarytechnology","#militarytechnology","2017-03-31 12:29:08"
"Deals this week: Elbit Systems, L-3 Fuzing and Ordnance Systems, Rheinmetall http:// dlvr.it/NmMRNj #militarytechnology","#militarytechnology","2017-03-31 05:25:06"
"SpaceX Launches Then Lands First-Ever Reusable Rocket http:// dlvr.it/NmJDT0 #militarytechnology pic.twitter.com/bklcD7cf1u","#militarytechnology","2017-03-31 01:24:05"
"Driverless Convoy Technology May Be Fielded Soon http:// dlvr.it/NmFj46 #militarytechnology pic.twitter.com/hictXyqY1T","#militarytechnology","2017-03-30 22:39:06"
"Harrier Cross-Platform Military Messaging on Android http:// dlvr.it/Nm8wJ2 #militarytechnology","#militarytechnology","2017-03-30 18:24:05"
"N. Korea yet to master the Technology needed to put nuke warhead on Missile to threaten the U. https:// is.gd/Q46vML #militarytechnology","#militarytechnology","2017-03-30 18:22:11"
"Opgal Optronic launches new thermal imaging algorithm for surveillance and security http:// dlvr.it/Nm3x2g #militarytechnology pic.twitter.com/So4OYC19X7","#militarytechnology","2017-03-30 14:28:09"
"US TARDEC and AM General to develop new autonomous driving vehicle http:// dlvr.it/Nm3x1S #militarytechnology","#militarytechnology","2017-03-30 14:28:08"
"IDE: New Hybrid Technology System for Defence Applications http:// dlvr.it/Nm1KVQ #militarytechnology","#militarytechnology","2017-03-30 12:14:35"
"Futuristic Hypersonic Stealth Aircrafts https:// is.gd/pZx1OL #military #militarytechnology","#military #militarytechnology","2017-03-30 05:01:58"
"UK to conduct counter-terrorism training exercise in October http:// dlvr.it/NlYxJw #militarytechnology pic.twitter.com/GZg4mEug1j","#militarytechnology","2017-03-29 13:11:35"
"Amnesty accuses Libyan National Army of committing war crimes http:// dlvr.it/NlYxHD #militarytechnology","#militarytechnology","2017-03-29 13:11:33"
"North Korea conducts another rocket engine test http:// dlvr.it/NlYx9T #militarytechnology","#militarytechnology","2017-03-29 13:11:32"
"Terrex 2 Infantry Fighting Vehicle http:// dlvr.it/NlYK4B #militarytechnology pic.twitter.com/Htb5e24R9e","#militarytechnology","2017-03-29 12:39:10"
"Air Force Needs Disposable Aircraft, Official Says http:// dlvr.it/NlR9Bw #militarytechnology pic.twitter.com/rX4Ir0mH9d","#militarytechnology","2017-03-29 06:26:35"
"Next Generation Robotics Technology to challenge US Military & NATO Power https:// is.gd/oLAGPY #militarytechnology","#militarytechnology","2017-03-29 04:37:18"
"These Foreign Tanks Now Match the M1 Abrams, US General Says http:// dlvr.it/NlJ7km #militarytechnology pic.twitter.com/OwyFq4V9zp","#militarytechnology","2017-03-28 22:14:42"
"New Technology Aircraft for US Air Force to Rule the Sky's over Red Square https:// is.gd/SXZQBM #militarytechnology #usaf","#militarytechnology #usaf","2017-03-28 17:48:28"
"US Army awards advanced combat helmet generation II contract to Revision Military http:// dlvr.it/Nl5bk6 #militarytechnology pic.twitter.com/tpTRlVb7NR","#militarytechnology","2017-03-28 13:23:08"
"SmartPlanes Freya UAV Included in BVLOS Testing by Nasa http:// dlvr.it/Nl35VH #militarytechnology","#militarytechnology","2017-03-28 11:11:07"
"Future of US Army Aviation https:// is.gd/h2mH3j #militarytechnology","#militarytechnology","2017-03-28 09:12:22"
"F-22 Pilots Welcome End of Old Missile on New Fighter http:// dlvr.it/NkvD7S #militarytechnology pic.twitter.com/Vm1gkZ3nrD","#militarytechnology","2017-03-28 01:44:07"
"Achleitner Security Vehicles http:// dlvr.it/Nkp6Kb #militarytechnology","#militarytechnology","2017-03-27 20:23:06"
"Rajant to Exhibit at IWCE Annual Conference 2017 http:// dlvr.it/Nkmph9 #militarytechnology","#militarytechnology","2017-03-27 19:15:35"
"UK troops train Zambian soldiers to support UN peacekeeping mission http:// dlvr.it/NkjFsp #militarytechnology","#militarytechnology","2017-03-27 16:27:04"
"ST Kinetics to supply armoured fighting vehicle to MINDEF http:// dlvr.it/NkfXvv #militarytechnology pic.twitter.com/NuIgERlSAc","#militarytechnology","2017-03-27 14:12:06"
"Proytecsa Designs and Manufactures Aunav.VAN and http:// Aunav.NEXT Robots http:// dlvr.it/NkV7RT #militarytechnology","#militarytechnology","2017-03-27 05:23:33"
"Indian Airforce Sukhoi 30mki Advanced Technology Details https:// is.gd/Hg0IoO #militarytechnology","#militarytechnology","2017-03-27 05:23:24"
"Here are 5 Examples of some Awesome Military Robots. https:// is.gd/xZlN2b #militaryrobots #militarytechnology","#militaryrobots #militarytechnology","2017-03-26 20:20:51"
"Most Advanced Helicopters of the U.S Army https:// is.gd/5Lnxcs #militarytechnology","#militarytechnology","2017-03-26 16:07:13"
"Top 10 Countries with best Missile Technology https:// is.gd/B2fZuM #militarytechnology","#militarytechnology","2017-03-26 10:47:03"
"Next Future Battlefield Technology will Blow your Mind https:// is.gd/osv5We #militarytechnology","#militarytechnology","2017-03-25 15:43:50"
"KC-46 Refueling Tanker Faces More Delays, Auditors Say http:// dlvr.it/Njp53b #militarytechnology pic.twitter.com/coS55LlTX4","#militarytechnology","2017-03-25 05:42:07"
"Hydropneumatic Suspension Systems for Heavy-Duty Vehicles http:// dlvr.it/Njdn6m #militarytechnology","#militarytechnology","2017-03-24 19:29:04"
"Marines to Test 100 New Beach-Storming Technologies http:// dlvr.it/NjY0Dv #militarytechnology pic.twitter.com/7Pl4JdMlru","#militarytechnology","2017-03-24 15:29:07"
"Excelitas' Qioptiq receives $100m STAS contract from UK MoD http:// dlvr.it/NjVNH8 #militarytechnology pic.twitter.com/6r0CSghTLZ","#militarytechnology","2017-03-24 13:19:09"
"Elbit to deliver software-defined radios for Israel Defense Forces http:// dlvr.it/NjVNBm #militarytechnology","#militarytechnology","2017-03-24 13:19:06"
"UK deploys first armoured vehicles to Estonia http:// dlvr.it/NjT4xP #militarytechnology","#militarytechnology","2017-03-24 12:14:07"
"Deals this week: Boeing, HX5, Allison Transmission http:// dlvr.it/NjRpnY #militarytechnology","#militarytechnology","2017-03-24 11:09:03"
"Future of US Army Aviation https:// is.gd/EdCTyT #militarytechnology","#militarytechnology","2017-03-24 04:40:06"
"Army Eyes Dual-Rotor Drone for Casualty-Evacuation http:// dlvr.it/NjDFYC #militarytechnology pic.twitter.com/lDryCLCQXL","#militarytechnology","2017-03-23 21:59:09"
"SMART High Reliability Solutions Releases New HRS-M2 SSD http:// dlvr.it/Nj9T8L #militarytechnology","#militarytechnology","2017-03-23 19:22:04"
"Next-Gen. Rafale F4 to Fly in 2023 http:// dlvr.it/Nj6nvQ #militarytechnology pic.twitter.com/zUlxECL1gf","#militarytechnology","2017-03-23 17:11:12"
"British police make arrests in aftermath of terrorist attack in Westminster http:// dlvr.it/Nj3Df6 #militarytechnology","#militarytechnology","2017-03-23 14:24:06"
"Turkish MoD Awards FNSS for Turkish Navy's Armoured Amphibious Assault Vehicle Programme http:// dlvr.it/Nj1rdl #militarytechnology","#militarytechnology","2017-03-23 13:17:10"
"Jenoptik to supply components for Poland's Leopard 2 main battle tanks http:// dlvr.it/Nj1rVm #militarytechnology pic.twitter.com/oRJGKyefIH","#militarytechnology","2017-03-23 13:17:10"
"BAE to procure components from VOP CZ for BvS10 military vehicles http:// dlvr.it/Nj1rHP #militarytechnology pic.twitter.com/S61Rkt4KLA","#militarytechnology","2017-03-23 13:17:08"
"N. Korea yet to master the Technology needed to put nuke warhead on Missile to threaten the U. https:// is.gd/Q46vML #militarytechnology","#militarytechnology","2017-03-23 10:57:05"
"Next Generation Robotics Technology to challenge US Military & NATO Power https:// is.gd/oLAGPY #militarytechnology","#militarytechnology","2017-03-23 06:08:01"
"Marine Corps Want Foreign Buyer to Curb CH-53K Cost http:// dlvr.it/Nht0J9 #militarytechnology pic.twitter.com/D0E3GCAYsq","#militarytechnology","2017-03-23 05:30:50"
"Next Future Battlefield Technology will Blow your Mind https:// is.gd/osv5We #militarytechnology","#militarytechnology","2017-03-22 22:47:25"
"Whoa! This is awesome! Pre-order the exclusive controller inspired by #militarytechnology and performance patterns for #XboxOne ! #gamestop pic.twitter.com/xIb34DYTdj","#militarytechnology #XboxOne #gamestop","2017-03-22 22:25:07"
"VirTra-Firearms and Training Simulators for Military Agencies http:// dlvr.it/Nhhg3s #militarytechnology","#militarytechnology","2017-03-22 19:20:06"
"Navy May Redesign MQ-25A Drone Refueling Tanker http:// dlvr.it/NhhVQ3 #militarytechnology pic.twitter.com/Srks6Y2kB6","#militarytechnology","2017-03-22 19:11:06"
"North Korea's attempt to test-launch missile reportedly fails http:// dlvr.it/NhbpLc #militarytechnology","#militarytechnology","2017-03-22 15:30:04"
"Leonardo and Hensoldt to offer Mode-5 IFF systems to customers worldwide http:// dlvr.it/NhZNPT #militarytechnology","#militarytechnology","2017-03-22 14:23:38"
"Aselsan and FNSS begin production of Korkut system for Turkish Land Forces http:// dlvr.it/NhWfGm #militarytechnology pic.twitter.com/9p52LUPT8y","#militarytechnology","2017-03-22 12:12:06"
"Zenatek http:// dlvr.it/NhNnvz #militarytechnology","#militarytechnology","2017-03-22 05:16:06"
"Top 10 Countries with best Missile Technology https:// is.gd/B2fZuM #militarytechnology","#militarytechnology","2017-03-22 04:56:53"
"Futuristic Hypersonic Stealth Aircrafts https:// is.gd/pZx1OL #military #militarytechnology","#military #militarytechnology","2017-03-22 00:39:43"
"New Technology Aircraft for US Air Force to Rule the Sky's over Red Square https:// is.gd/SXZQBM #militarytechnology #usaf","#militarytechnology #usaf","2017-03-21 17:53:32"
"Israel uses Arrow weapon system to shoot down Syrian missiles http:// dlvr.it/Nh7pjJ #militarytechnology","#militarytechnology","2017-03-21 16:19:12"
"MineWolf-Manned and Unmanned Platforms for Mine Clearance http:// dlvr.it/Nh7pbR #militarytechnology","#militarytechnology","2017-03-21 16:19:11"
"Here are 5 Examples of some Awesome Military Robots. https:// is.gd/xZlN2b #militaryrobots #militarytechnology","#militaryrobots #militarytechnology","2017-03-21 14:30:59"
"FN Herstal to Attend SOFINS 2017 http:// dlvr.it/Nh4y4S #militarytechnology","#militarytechnology","2017-03-21 14:08:05"
"Saab to deliver AT4 weapons for an undisclosed customer http:// dlvr.it/Nh4HQz #militarytechnology","#militarytechnology","2017-03-21 13:36:05"
"Orbital to equip Lithuanian Vilkas 8x8 IFVs with MK44 chain guns http:// dlvr.it/Nh2z7C #militarytechnology","#militarytechnology","2017-03-21 12:30:41"
"TACO to Attend CommunicAsia 2017 http:// dlvr.it/Nh1dQy #militarytechnology","#militarytechnology","2017-03-21 11:26:05"
"Coast Guard Avoids Proposed Budget Cut http:// dlvr.it/Ngn3qw #militarytechnology pic.twitter.com/aU2Vp11Dhi","#militarytechnology","2017-03-20 21:18:09"
"Japan conducts first missile evacuation drill for civilians http:// dlvr.it/NghGDN #militarytechnology","#militarytechnology","2017-03-20 17:08:00"
"Trump makes fiscal 2017 budget amendment request for additional $30bn http:// dlvr.it/NgcqSS #militarytechnology pic.twitter.com/S7BDWkrc3S","#militarytechnology","2017-03-20 14:23:09"
"US approves $150m sale of Hellfire missiles to UK http:// dlvr.it/NgbW30 #militarytechnology pic.twitter.com/OP41ztycEc","#militarytechnology","2017-03-20 13:19:38"
"Boeing wins $3.4bn contract to deliver 268 AH-64E Apache helicopters http:// dlvr.it/NgbVrW #militarytechnology pic.twitter.com/UnmJmsNJrc","#militarytechnology","2017-03-20 13:19:35"
"Indian Airforce Sukhoi 30mki Advanced Technology Details https:// is.gd/Hg0IoO #militarytechnology","#militarytechnology","2017-03-20 13:00:02"
"AJBAN 440A Protected Patrol Vehicle http:// dlvr.it/NgXwgQ #militarytechnology pic.twitter.com/TikCWFABKa","#militarytechnology","2017-03-20 11:09:09"
"Most Advanced Helicopters of the U.S Army https:// is.gd/5Lnxcs #militarytechnology","#militarytechnology","2017-03-19 15:09:11"
"Overheated Engine Downed US Drone Over Turkey in 2015 http:// dlvr.it/Ng4vKc #militarytechnology pic.twitter.com/ShGXbKr1wJ","#militarytechnology","2017-03-19 05:23:06"
"Future of US Army Aviation https:// is.gd/EdCTyT #militarytechnology","#militarytechnology","2017-03-19 03:16:20"
"Amid Tough Talk on North Korea, US Wants More THAAD Interceptors http:// dlvr.it/Nfspw7 #militarytechnology pic.twitter.com/XUxLqEuSDQ","#militarytechnology","2017-03-18 15:05:06"
"Futuristic Hypersonic Stealth Aircrafts https:// is.gd/pZx1OL #military #militarytechnology","#military #militarytechnology","2017-03-18 07:03:30"
"Next Generation Robotics Technology to challenge US Military & NATO Power https:// is.gd/oLAGPY #militarytechnology","#militarytechnology","2017-03-18 05:45:03"
"N. Korea yet to master the Technology needed to put nuke warhead on Missile to threaten the U. https:// is.gd/Q46vML #militarytechnology","#militarytechnology","2017-03-17 20:55:21"
"The First Rule of B-21 Is You Do Not Talk About B-21 http:// dlvr.it/NfY5cz #militarytechnology pic.twitter.com/b5JeetkqVx","#militarytechnology","2017-03-17 19:27:06"
"Chilean Army Set Up Military Camp in Area Severely Affected by Forest Fires http:// dlvr.it/NfTD9T #militarytechnology","#militarytechnology","2017-03-17 16:23:05"
"Australia launches $730m fund to support new defence technologies development http:// dlvr.it/NfNzd3 #militarytechnology","#militarytechnology","2017-03-17 13:08:05"
"Swedish FMV awards two-year contract extension to Exova http:// dlvr.it/NfNzYG #militarytechnology","#militarytechnology","2017-03-17 13:08:04"
"Deals this week: RT Logic, Supacat, JetPack Aviation http:// dlvr.it/NfNKDj #militarytechnology","#militarytechnology","2017-03-17 12:35:12"
"Milosh Multi-Purpose Armoured Vehicle http:// dlvr.it/NfNJs0 #militarytechnology pic.twitter.com/boi5PX7ibL","#militarytechnology","2017-03-17 12:35:10"
"New Technology Aircraft for US Air Force to Rule the Sky's over Red Square https:// is.gd/SXZQBM #militarytechnology #usaf","#militarytechnology #usaf","2017-03-17 07:00:12"
"Top 10 Countries with best Missile Technology https:// is.gd/B2fZuM #militarytechnology","#militarytechnology","2017-03-17 06:11:36"
"Indian Airforce Sukhoi 30mki Advanced Technology Details https:// is.gd/Hg0IoO #militarytechnology","#militarytechnology","2017-03-16 18:17:21"
"US ally used Patriot missile to shoot down small quadcopter drone http:// dlvr.it/Nf1DlQ #militarytechnology","#militarytechnology","2017-03-16 17:20:41"
"Singapore requests sale of XM395 precision mortar rounds from US http:// dlvr.it/Ndxljp #militarytechnology","#militarytechnology","2017-03-16 14:35:36"
"Calibre signs $250m agreement to support US Army's transition to cloud computing http:// dlvr.it/Ndxlhs #militarytechnology","#militarytechnology","2017-03-16 14:35:36"
"Here are 5 Examples of some Awesome Military Robots. https:// is.gd/xZlN2b #militaryrobots #militarytechnology","#militaryrobots #militarytechnology","2017-03-16 12:23:04"
"Army Leaders Discuss Next-Generation Armored Vehicle http:// dlvr.it/Ndm688 #militarytechnology pic.twitter.com/Hgm4NyJIvA","#militarytechnology","2017-03-16 05:25:08"
"Next Future Battlefield Technology will Blow your Mind https:// is.gd/osv5We #militarytechnology","#militarytechnology","2017-03-16 05:07:40"
"This Command Center Keeps Air Traffic Away from Mar-a-Lago http:// dlvr.it/NdgjZC #militarytechnology pic.twitter.com/2k5aRzdArq","#militarytechnology","2017-03-16 00:08:08"
"Estonia to invest in ammunition and armaments for its 2nd Infantry Brigade http:// dlvr.it/Nd3XMv #militarytechnology","#militarytechnology","2017-03-14 17:18:04"
"Warfighters Will Be Able to Press and Repair their Armor http:// dlvr.it/Nd2pYH #militarytechnology pic.twitter.com/bok2jmq64E","#militarytechnology","2017-03-14 16:43:09"
"New Eyes Seeking Targets in Forests http:// dlvr.it/Nd0glt #militarytechnology pic.twitter.com/LqqjzSVrqR","#militarytechnology","2017-03-14 15:05:08"
"India conducts test launch of BrahMos missile with extended range http:// dlvr.it/NcykKC #militarytechnology","#militarytechnology","2017-03-14 13:32:06"
"US DoD offers funding to support science and technology research http:// dlvr.it/NcykJ5 #militarytechnology","#militarytechnology","2017-03-14 13:32:05"
"Koza Launches New Website http:// dlvr.it/NcxP0j #militarytechnology","#militarytechnology","2017-03-14 12:26:05"
"Mobile Lighting Solutions http:// dlvr.it/NcpWXZ #militarytechnology","#militarytechnology","2017-03-14 05:30:34"
"People are worried about #Robots attacking us. Well isnt that the secret motive behind most of their designs? #MilitaryTechnology #War #Money","#Robots #MilitaryTechnology #War #Money","2017-03-14 01:14:53"
"High-Efficiency AC / DC Powered Chillers http:// dlvr.it/NcdDkk #militarytechnology","#militarytechnology","2017-03-13 19:26:05"
"Elma Releases New VPX Technical Guide http:// dlvr.it/Ncc0z0 #militarytechnology","#militarytechnology","2017-03-13 18:22:38"
"Small Form Factor ATR http:// dlvr.it/NcZfCd #militarytechnology","#militarytechnology","2017-03-13 17:18:06"
"Rugged Machined and Fabricated Cabinets http:// dlvr.it/NcZf9N #militarytechnology","#militarytechnology","2017-03-13 17:18:05"
"CP Cases Launches New Extruded Aluminium 19in Rackmount Chassis http:// dlvr.it/NcYDnn #militarytechnology","#militarytechnology","2017-03-13 16:11:06"
"Responsive Jammer http:// dlvr.it/NcYDhz #militarytechnology","#militarytechnology","2017-03-13 16:11:05"
"Proytecsa Newsletter March 2017 http:// dlvr.it/NcW8Nr #militarytechnology","#militarytechnology","2017-03-13 14:32:10"
"Navistar wins two US Army contracts totalling $475m for MRAP vehicles http:// dlvr.it/NcTr8l #militarytechnology","#militarytechnology","2017-03-13 13:28:07"
"Supacat and Rheinmetall partner to deliver military vehicles to Dutch Army http:// dlvr.it/NcTr4Y #militarytechnology","#militarytechnology","2017-03-13 13:28:06"
"Futuristic Hypersonic Stealth Aircrafts https:// is.gd/pZx1OL #military #militarytechnology","#military #militarytechnology","2017-03-12 16:27:34"
"New Technology Aircraft for US Air Force to Rule the Sky's over Red Square https:// is.gd/SXZQBM #militarytechnology #usaf","#militarytechnology #usaf","2017-03-12 00:48:28"
"FN HERSTAL-Firearms Tradition and Technological Innovation http:// dlvr.it/NbqDW8 #militarytechnology","#militarytechnology","2017-03-11 19:36:07"
"PCO SA-Optoelectronic Devices and Laser Systems for the Defence Industry http:// dlvr.it/NbqDTW #militarytechnology","#militarytechnology","2017-03-11 19:36:07"
"Sacil-Ammunition Boxes, Ammunition Links and Military Containers and Accessories http:// dlvr.it/NbqDS9 #militarytechnology","#militarytechnology","2017-03-11 19:36:06"
"CeramTec-ETEC-Lightweight Armour Components http:// dlvr.it/NbqDQP #militarytechnology","#militarytechnology","2017-03-11 19:36:06"
"ESG-Command, Control and Information Systems http:// dlvr.it/NbqDMP #militarytechnology","#militarytechnology","2017-03-11 19:36:05"
"Trival Antene-Tactical, Mobile and Portable Military Antennas and Antenna Masts http:// dlvr.it/NbpJx5 #militarytechnology","#militarytechnology","2017-03-11 18:33:06"
"KALLER-Heavy-Duty Gas Spring Technology for the Defence Industry http:// dlvr.it/NbpJq6 #militarytechnology","#militarytechnology","2017-03-11 18:33:05"
"Top 10 Countries with best Missile Technology https:// is.gd/B2fZuM #militarytechnology","#militarytechnology","2017-03-11 17:40:02"
"Most Advanced Helicopters of the U.S Army https:// is.gd/5Lnxcs #militarytechnology","#militarytechnology","2017-03-11 02:21:49"
"Plasan-Armour Systems for Military Vehicles http:// dlvr.it/NbMpP1 #militarytechnology","#militarytechnology","2017-03-10 17:36:06"
"FAUN Trackway-Military Portable Aluminium Roadways, Temporary Runways and Helipads http:// dlvr.it/NbMpMb #militarytechnology","#militarytechnology","2017-03-10 17:36:05"
"Bellridge-Government-Certified USB Data Devices for Military Applications http:// dlvr.it/NbLQfq #militarytechnology","#militarytechnology","2017-03-10 16:30:06"
"US and Morocco begin Flintlock annual regional exercise http:// dlvr.it/NbGTJ2 #militarytechnology pic.twitter.com/pc8inTGwji","#militarytechnology","2017-03-10 13:16:10"
"FLIR Systems to deliver CBRN DR-SKO equipment to US military http:// dlvr.it/NbGTGK #militarytechnology","#militarytechnology","2017-03-10 13:16:07"
"GE Aviation to develop silicon carbide power electronics for US Army's ground vehicles http:// dlvr.it/NbGTDJ #militarytechnology","#militarytechnology","2017-03-10 13:16:07"
"Report: South Korea will continue to be a major defence export hub http:// dlvr.it/NbFFc6 #militarytechnology","#militarytechnology","2017-03-10 12:12:06"
"Deals this week: Trident Technologies, FLIR Systems, Saab http:// dlvr.it/NbFFXm #militarytechnology","#militarytechnology","2017-03-10 12:12:05"
"Here are 5 Examples of some Awesome Military Robots. https:// is.gd/xZlN2b #militaryrobots #militarytechnology","#militaryrobots #militarytechnology","2017-03-10 11:15:47"
"Future of US Army Aviation https:// is.gd/h2mH3j #militarytechnology","#militarytechnology","2017-03-10 05:21:29"
"Next Future Battlefield Technology will Blow your Mind https:// is.gd/osv5We #militarytechnology","#militarytechnology","2017-03-10 02:17:51"
"Lawmaker Bashes Delay on Huey Replacement Program http:// dlvr.it/Nb1Yns #militarytechnology pic.twitter.com/lLpVSlMVJB","#militarytechnology","2017-03-09 23:59:12"
"Indian Airforce Sukhoi 30mki Advanced Technology Details https:// is.gd/Hg0IoO #militarytechnology","#militarytechnology","2017-03-09 22:21:18"
"Global Defence Technology: Issue 73 http:// dlvr.it/NZs1cZ #militarytechnology pic.twitter.com/6GyJsr74Nk","#militarytechnology","2017-03-09 16:29:11"
"Next Generation Robotics Technology to challenge US Military & NATO Power https:// is.gd/oLAGPY #militarytechnology","#militarytechnology","2017-03-09 15:31:53"
"BattleSafe Military Seats http:// dlvr.it/NZp6ND #militarytechnology","#militarytechnology","2017-03-09 14:11:11"
"International Armored Group Presents New Line of Military Tactical Vehicles http:// dlvr.it/NZnS2h #militarytechnology","#militarytechnology","2017-03-09 13:38:25"
"Brazilian Army orders more RBS 70 very short-range air defence systems http:// dlvr.it/NZnRbm #militarytechnology pic.twitter.com/IQWuLfAKUZ","#militarytechnology","2017-03-09 13:38:24"
"Astronics upgrades CTS-6000 tester with new functions for military tactical radios http:// dlvr.it/NZnRRQ #militarytechnology pic.twitter.com/MLBST2IlVk","#militarytechnology","2017-03-09 13:38:12"
"N. Korea yet to master the Technology needed to put nuke warhead on Missile to threaten the U. https:// is.gd/Q46vML #militarytechnology","#militarytechnology","2017-03-09 09:09:35"
"GCS-200 Unmanned Explosive Ordnance Disposal (EOD) Platform http:// dlvr.it/NZQxHL #militarytechnology pic.twitter.com/f8jKcBLkR9","#militarytechnology","2017-03-08 19:20:22"
"WATCH: THAAD Missile Launchers Arrive in South Korea http:// dlvr.it/NZMRYp #militarytechnology pic.twitter.com/4RPy11uNEY","#militarytechnology","2017-03-08 16:31:00"
"CACI wins $190m task order to provide IT support services in US http:// dlvr.it/NZJV05 #militarytechnology","#militarytechnology","2017-03-08 14:12:44"
"US Army to award contracts for 120mm high-explosive guided mortar http:// dlvr.it/NZJTsk #militarytechnology pic.twitter.com/FReYX59dJZ","#militarytechnology","2017-03-08 14:12:43"
"HRW claims ISIS used chemical weapons in Mosul http:// dlvr.it/NZHnjm #militarytechnology","#militarytechnology","2017-03-08 13:37:09"
"New Technology Aircraft for US Air Force to Rule the Sky's over Red Square https:// is.gd/SXZQBM #militarytechnology #usaf","#militarytechnology #usaf","2017-03-08 01:20:10"
"Report: Navy Should Base Stealthy Zumwalt Destroyers in South Korea http:// dlvr.it/NZ2smw #militarytechnology pic.twitter.com/qnkzXBvtLz","#militarytechnology","2017-03-08 00:25:08"
"US Army awards two contracts to Charles River for its Figaro technology http:// dlvr.it/NYxSfZ #militarytechnology pic.twitter.com/L7EFZ1GR5w","#militarytechnology","2017-03-07 19:21:52"
"Proytecsa Security Robots Destined to Tunisia http:// dlvr.it/NYvN4z #militarytechnology","#militarytechnology","2017-03-07 17:38:04"
"Lower Downtime and Raise Performance of CCTV http:// dlvr.it/NYvN0d #militarytechnology","#militarytechnology","2017-03-07 17:38:03"
"Aqeri Receives IP Phone Order From European NATO Country http:// dlvr.it/NYrMN8 #militarytechnology","#militarytechnology","2017-03-07 15:19:04"
"Cobham Aerospace Communications: New High-Speed Slip Ring for Helicopters http:// dlvr.it/NYpwsp #militarytechnology","#militarytechnology","2017-03-07 14:09:35"
"US begins THAAD deployment in South Korea to counter North Korean missile threats http:// dlvr.it/NYpwmZ #militarytechnology","#militarytechnology","2017-03-07 14:09:35"
"US and South Korea begin Foal Eagle annual field exercise http:// dlvr.it/NYpFsQ #militarytechnology","#militarytechnology","2017-03-07 13:36:34"
"Telescopic Mast and Tower Elevation Soluions http:// dlvr.it/NYdVZp #militarytechnology","#militarytechnology","2017-03-07 05:17:05"
"Here are 5 Examples of some Awesome Military Robots. https:// is.gd/xZlN2b #militaryrobots #militarytechnology","#militaryrobots #militarytechnology","2017-03-07 03:23:32"
"Dominating the New High Ground http:// dlvr.it/NYb4Tf #militarytechnology pic.twitter.com/lW0d5kTokq","#militarytechnology","2017-03-07 02:28:38"
"Hacked Drones Become the Ultimate IEDs http:// dlvr.it/NYb4Sd #militarytechnology pic.twitter.com/zsAGsdijhV","#militarytechnology","2017-03-07 02:28:36"
"Scrambler 300 Drone Rifle http:// dlvr.it/NYb4RT #militarytechnology pic.twitter.com/YGIU7zY4N0","#militarytechnology","2017-03-07 02:28:35"
"DroneGun http:// dlvr.it/NYb4Q0 #militarytechnology pic.twitter.com/mPZbfGRywe","#militarytechnology","2017-03-07 02:28:34"
"US Army Deploys Experimental Counter-Drone Vehicles in Europe http:// dlvr.it/NYYZn3 #militarytechnology pic.twitter.com/y53AyOyPvC","#militarytechnology","2017-03-07 00:51:07"
"Drone Defender http:// dlvr.it/NYYZfH #militarytechnology pic.twitter.com/zRo8Meu4q6","#militarytechnology","2017-03-07 00:51:05"
"Next Future Battlefield Technology will Blow your Mind https:// is.gd/osv5We #militarytechnology","#militarytechnology","2017-03-06 19:35:47"
"North Korea test-fires four intermediate range missiles http:// dlvr.it/NYNSdW #militarytechnology","#militarytechnology","2017-03-06 16:32:05"
"DARPA completes test deployment for radioactive threat detection system http:// dlvr.it/NYGxzs #militarytechnology","#militarytechnology","2017-03-06 12:06:35"
"Most Advanced Helicopters of the U.S Army https:// is.gd/5Lnxcs #militarytechnology","#militarytechnology","2017-03-05 20:52:40"
"Top 10 Countries with best Missile Technology https:// is.gd/B2fZuM #militarytechnology","#militarytechnology","2017-03-05 14:32:27"
"Future of US Army Aviation https:// is.gd/h2mH3j #militarytechnology","#militarytechnology","2017-03-05 07:45:46"
"Indian Airforce Sukhoi 30mki Advanced Technology Details https:// is.gd/Hg0IoO #militarytechnology","#militarytechnology","2017-03-04 10:04:14"
"N. Korea yet to master the Technology needed to put nuke warhead on Missile to threaten the U. https:// is.gd/Q46vML #militarytechnology","#militarytechnology","2017-03-04 02:10:59"
"Next Generation Robotics Technology to challenge US Military & NATO Power https:// is.gd/oLAGPY #militarytechnology","#militarytechnology","2017-03-04 00:03:15"
"Northrop Tests New Global Hawk Drone Sensor http:// dlvr.it/NXB9xv #militarytechnology pic.twitter.com/hZgE6wcM0l","#militarytechnology","2017-03-03 18:19:38"
"Czech Republic and Germany agree to create a single military unit http:// dlvr.it/NXB667 #militarytechnology pic.twitter.com/PzP27CeI83","#militarytechnology","2017-03-03 18:16:06"
"US Army's Black Hawk helicopters arrive in Greece http:// dlvr.it/NX5H32 #militarytechnology pic.twitter.com/Y3OGB2QKEh","#militarytechnology","2017-03-03 14:20:05"
"Sikorsky transfers S-70i Black Hawk for Turkish Utility Helicopter Programme http:// dlvr.it/NX3xzb #militarytechnology","#militarytechnology","2017-03-03 13:13:34"
"Futuristic Hypersonic Stealth Aircrafts https:// is.gd/JN3wyS #military #militarytechnology","#military #militarytechnology","2017-03-03 09:30:35"
"Deals this week: Navistar Defense, Lockheed Martin, General Dynamics Land Systems http:// dlvr.it/NWwBB6 #militarytechnology","#militarytechnology","2017-03-03 05:32:06"
"Army Working to Double Range of 155mm Howitzer http:// dlvr.it/NWtq8C #militarytechnology pic.twitter.com/UIEkoPJaFw","#militarytechnology","2017-03-03 03:57:06"
"Excellence in Connectivity Solutions http:// dlvr.it/NWtnX3 #militarytechnology","#militarytechnology","2017-03-03 03:54:10"
"Rapid Deployment Shelters http:// dlvr.it/NWtnX1 #militarytechnology","#militarytechnology","2017-03-03 03:54:09"
"IDE Wins Contract in International Tender for ESSM http:// dlvr.it/NWtnWx #militarytechnology","#militarytechnology","2017-03-03 03:54:09"
"TACO Announces New Fixed UHF SATCOM Antenna Video http:// dlvr.it/NWtnWw #militarytechnology","#militarytechnology","2017-03-03 03:54:09"
"Drone Aviation upgrades WASP tactical aerostat for US DoD http:// dlvr.it/NWtnWS #militarytechnology pic.twitter.com/r8N0hPOYb5","#militarytechnology","2017-03-03 03:54:08"
"General Dynamics wins DIA contract to provide IT support to USEUCOM ECJ2 http:// dlvr.it/NWtnWC #militarytechnology","#militarytechnology","2017-03-03 03:54:06"
"India launches AAD endo-atmospheric interceptor missile http:// dlvr.it/NWtnVF #militarytechnology pic.twitter.com/Kh2OhIdfQj","#militarytechnology","2017-03-03 03:54:06"
"MARS Armor-High-Quality Ballistic Protection Equipment and Solutions for the Defence Industry http:// dlvr.it/NWtnTp #militarytechnology","#militarytechnology","2017-03-03 03:54:04"
"Greenray Exhibiting at Satellite 2017 http:// dlvr.it/NWtnTC #militarytechnology","#militarytechnology","2017-03-03 03:54:04"
"Remote-Control Firepower: the Oerlikon Fieldranger 20 from Rheinmetall http:// dlvr.it/NWtnQ7 #militarytechnology","#militarytechnology","2017-03-03 03:54:03"
"Most Advanced Helicopters of the U.S Army https:// is.gd/5Lnxcs #militarytechnology","#militarytechnology","2017-03-02 18:51:25"
"Kim Jong Nam and death by #VX : the perils of chemistry https:// goo.gl/fb/5P1vPN #militaryscience #militarytechnology","#VX #militaryscience #militarytechnology","2017-03-02 10:19:14"
"Future of US Army Aviation https:// is.gd/h2mH3j #militarytechnology","#militarytechnology","2017-03-02 00:33:01"
"Top 10 Countries with best Missile Technology https:// is.gd/B2fZuM #militarytechnology","#militarytechnology","2017-03-01 14:43:00"
"Here are 5 Examples of some Awesome Military Robots. https:// is.gd/xZlN2b #militaryrobots #militarytechnology","#militaryrobots #militarytechnology","2017-03-01 00:55:31"
"N. Korea yet to master the Technology needed to put nuke warhead on Missile to threaten the U. https:// is.gd/Q46vML #militarytechnology","#militarytechnology","2017-02-28 17:55:36"
"Indian Airforce Sukhoi 30mki Advanced Technology Details https:// is.gd/Hg0IoO #militarytechnology","#militarytechnology","2017-02-28 13:00:40"
"New Technology Aircraft for US Air Force to Rule the Sky's over Red Square https:// is.gd/SXZQBM #militarytechnology #usaf","#militarytechnology #usaf","2017-02-27 20:14:02"
"Next Generation Robotics Technology to challenge US Military & NATO Power https:// is.gd/oLAGPY #militarytechnology","#militarytechnology","2017-02-26 11:17:32"
"Futuristic Hypersonic Stealth Aircrafts https:// is.gd/pZx1OL #military #militarytechnology","#military #militarytechnology","2017-02-25 17:15:48"
"Next Future Battlefield Technology will Blow your Mind https:// is.gd/osv5We #militarytechnology","#militarytechnology","2017-02-25 09:53:31"
"Future of US Army Aviation https:// is.gd/EdCTyT #militarytechnology","#militarytechnology","2017-02-24 18:32:58"
"Futuristic Hypersonic Stealth Aircrafts https:// is.gd/pZx1OL #military #militarytechnology","#military #militarytechnology","2017-02-24 18:06:00"
"Top 10 Countries with best Missile Technology https:// is.gd/B2fZuM #militarytechnology","#militarytechnology","2017-02-24 15:55:11"
"Most Advanced Helicopters of the U.S Army https:// is.gd/5Lnxcs #militarytechnology","#militarytechnology","2017-02-23 21:28:00"
"Next Future Battlefield Technology will Blow your Mind https:// is.gd/osv5We #militarytechnology","#militarytechnology","2017-02-23 08:45:08"
"Here are 5 Examples of some Awesome Military Robots. https:// is.gd/xZlN2b #militaryrobots #militarytechnology","#militaryrobots #militarytechnology","2017-02-22 00:17:07"
"New Technology Aircraft for US Air Force to Rule the Sky's over Red Square https:// is.gd/SXZQBM #militarytechnology #usaf","#militarytechnology #usaf","2017-02-21 12:52:18"
"Next Generation Robotics Technology to challenge US Military & NATO Power https:// is.gd/oLAGPY #militarytechnology","#militarytechnology","2017-02-21 00:42:18"
"Indian Airforce Sukhoi 30mki Advanced Technology Details https:// is.gd/Hg0IoO #militarytechnology","#militarytechnology","2017-02-20 22:51:58"
"N. Korea yet to master the Technology needed to put nuke warhead on Missile to threaten the U. https:// is.gd/Q46vML #militarytechnology","#militarytechnology","2017-02-20 11:23:27"
"N. Korea yet to master the Technology needed to put nuke warhead on Missile to threaten the U. https:// is.gd/Q46vML #militarytechnology","#militarytechnology","2017-02-18 07:36:05"
"Indian Airforce Sukhoi 30mki Advanced Technology Details https:// is.gd/Hg0IoO #militarytechnology","#militarytechnology","2017-02-17 19:30:04"
"Future of US Army Aviation https:// is.gd/h2mH3j #militarytechnology","#militarytechnology","2017-02-17 18:11:36"
"Next Generation Robotics Technology to challenge US Military & NATO Power https:// is.gd/oLAGPY #militarytechnology","#militarytechnology","2017-02-17 17:20:08"
"Top 10 Countries with best Missile Technology https:// is.gd/B2fZuM #militarytechnology","#militarytechnology","2017-02-16 17:52:44"
"Futuristic Hypersonic Stealth Aircrafts https:// is.gd/pZx1OL #military #militarytechnology","#military #militarytechnology","2017-02-15 09:56:33"
"Most Advanced Helicopters of the U.S Army https:// is.gd/5Lnxcs #militarytechnology","#militarytechnology","2017-02-15 03:38:55"
"#Lewinsky thing was #FalseFlag /distraction for #Clintons ' involvement in selling #MilitaryTechnology to #ForeignGovernMents","#Lewinsky #FalseFlag #Clintons #MilitaryTechnology #ForeignGovernMents","2017-02-14 22:26:14"
"Next Future Battlefield Technology will Blow your Mind https:// is.gd/osv5We #militarytechnology","#militarytechnology","2017-02-14 14:32:53"
"New Technology Aircraft for US Air Force to Rule the Sky's over Red Square https:// is.gd/SXZQBM #militarytechnology #usaf","#militarytechnology #usaf","2017-02-14 06:14:59"
"Here are 5 Examples of some Awesome Military Robots. https:// is.gd/xZlN2b #militaryrobots #militarytechnology","#militaryrobots #militarytechnology","2017-02-14 04:09:15"
"Future of US Army Aviation https:// is.gd/h2mH3j #militarytechnology","#militarytechnology","2017-02-13 23:50:23"
"Futuristic Hypersonic Stealth Aircrafts https:// is.gd/pZx1OL #military #militarytechnology","#military #militarytechnology","2017-02-13 00:07:42"
"New Technology Aircraft for US Air Force to Rule the Sky's over Red Square https:// is.gd/SXZQBM #militarytechnology #usaf","#militarytechnology #usaf","2017-02-11 20:17:15"
"Indian Airforce Sukhoi 30mki Advanced Technology Details https:// is.gd/Hg0IoO #militarytechnology","#militarytechnology","2017-02-11 19:09:12"
"Next Future Battlefield Technology will Blow your Mind https:// is.gd/osv5We #militarytechnology","#militarytechnology","2017-02-11 10:02:30"
"Next Generation Robotics Technology to challenge US Military & NATO Power https:// is.gd/oLAGPY #militarytechnology","#militarytechnology","2017-02-10 19:37:13"
"Most Advanced Helicopters of the U.S Army https:// is.gd/5Lnxcs #militarytechnology","#militarytechnology","2017-02-09 18:22:05"
"Here are 5 Examples of some Awesome Military Robots. https:// is.gd/xZlN2b #militaryrobots #militarytechnology","#militaryrobots #militarytechnology","2017-02-09 17:33:22"
"N. Korea yet to master the Technology needed to put nuke warhead on Missile to threaten the U. https:// is.gd/YHYQ1X #militarytechnology","#militarytechnology","2017-02-09 12:02:28"
"Top 10 Countries with best Missile Technology https:// is.gd/B2fZuM #militarytechnology","#militarytechnology","2017-02-08 17:25:00"
"Futuristic Hypersonic Stealth Aircrafts https:// is.gd/pZx1OL #military #militarytechnology","#military #militarytechnology","2017-02-08 02:33:29"
"N. Korea yet to master the Technology needed to put nuke warhead on Missile to threaten the U. https:// is.gd/Q46vML #militarytechnology","#militarytechnology","2017-02-08 00:17:46"
"New Technology Aircraft for US Air Force to Rule the Sky's over Red Square https:// is.gd/SXZQBM #militarytechnology #usaf","#militarytechnology #usaf","2017-02-06 23:20:49"
"Top 10 Countries with best Missile Technology https:// is.gd/B2fZuM #militarytechnology","#militarytechnology","2017-02-06 20:44:04"
"Indian Airforce Sukhoi 30mki Advanced Technology Details https:// is.gd/Hg0IoO #militarytechnology","#militarytechnology","2017-02-06 16:20:29"
"Here are 5 Examples of some Awesome Military Robots. https:// is.gd/xZlN2b #militaryrobots #militarytechnology","#militaryrobots #militarytechnology","2017-02-06 09:28:42"
"Future of US Army Aviation https:// is.gd/h2mH3j #militarytechnology","#militarytechnology","2017-02-04 20:22:33"
"Most Advanced Helicopters of the U.S Army https:// is.gd/5Lnxcs #militarytechnology","#militarytechnology","2017-02-04 04:36:27"
"Next Generation Robotics Technology to challenge US Military & NATO Power https:// is.gd/fgBuX2 #militarytechnology","#militarytechnology","2017-02-03 06:08:29"
"Next Future Battlefield Technology will Blow your Mind https:// is.gd/osv5We #militarytechnology","#militarytechnology","2017-02-03 03:58:46"
"Top 10 Countries with best Missile Technology https:// is.gd/B2fZuM #militarytechnology","#militarytechnology","2017-02-01 17:08:07"
"Next Future Battlefield Technology will Blow your Mind https:// is.gd/20FzEp #militarytechnology","#militarytechnology","2017-02-01 01:38:02"
"Futuristic Hypersonic Stealth Aircrafts https:// is.gd/pZx1OL #military #militarytechnology","#military #militarytechnology","2017-01-31 16:51:53"
"New Technology Aircraft for US Air Force to Rule the Sky's over Red Square https:// is.gd/r574qp #militarytechnology #usaf","#militarytechnology #usaf","2017-01-31 04:36:46"
"Future of US Army Aviation https:// is.gd/h2mH3j #militarytechnology","#militarytechnology","2017-01-30 22:09:50"
"Indian Airforce Sukhoi 30mki Advanced Technology Details https:// is.gd/GRptbg #militarytechnology","#militarytechnology","2017-01-30 19:01:53"
"Most Advanced Helicopters of the U.S Army https:// is.gd/5Lnxcs #militarytechnology","#militarytechnology","2017-01-29 07:17:38"
"Next Generation Robotics Technology to challenge US Military & NATO Power https:// is.gd/oLAGPY #militarytechnology","#militarytechnology","2017-01-28 23:07:48"
"N. Korea yet to master the Technology needed to put nuke warhead on Missile to threaten the U. https:// is.gd/YHYQ1X #militarytechnology","#militarytechnology","2017-01-28 18:48:09"
"Here are 5 Examples of some Awesome Military Robots. https:// is.gd/xZlN2b #militaryrobots #militarytechnology","#militaryrobots #militarytechnology","2017-01-28 09:44:37"
"Futuristic Hypersonic Stealth Aircrafts https:// is.gd/pZx1OL #military #militarytechnology","#military #militarytechnology","2017-01-26 13:56:18"
"N. Korea yet to master the Technology needed to put nuke warhead on Missile to threaten the U. https:// is.gd/Q46vML #militarytechnology","#militarytechnology","2017-01-26 01:29:05"
"Indian Airforce Sukhoi 30mki Advanced Technology Details https:// is.gd/Hg0IoO #militarytechnology","#militarytechnology","2017-01-25 11:05:36"
"Most Advanced Helicopters of the U.S Army https:// is.gd/5Lnxcs #militarytechnology","#militarytechnology","2017-01-25 04:28:36"
"Next Generation Robotics Technology to challenge US Military & NATO Power https:// is.gd/oLAGPY #militarytechnology","#militarytechnology","2017-01-24 20:54:35"
"Next Future Battlefield Technology will Blow your Mind https:// is.gd/osv5We #militarytechnology","#militarytechnology","2017-01-24 03:40:14"
"Here are 5 Examples of some Awesome Military Robots. https:// is.gd/xZlN2b #militaryrobots #militarytechnology","#militaryrobots #militarytechnology","2017-01-23 11:39:31"
"Top 10 Countries with best Missile Technology https:// is.gd/B2fZuM #militarytechnology","#militarytechnology","2017-01-23 10:15:24"
"New Technology Aircraft for US Air Force to Rule the Sky's over Red Square https:// is.gd/r574qp #militarytechnology #usaf","#militarytechnology #usaf","2017-01-23 09:23:14"
"Dear Military, may we have more technology, please? #MilitaryTechnology #PlannedObsolescence","#MilitaryTechnology #PlannedObsolescence","2017-01-22 17:04:21"
"Future of US Army Aviation https:// is.gd/h2mH3j #militarytechnology","#militarytechnology","2017-01-22 16:47:18"
"#mtv #MTVNews #mtvunplugged IS WRECKING BRAINS THIS IS #MILITARYTECHNOLOGY - INFOWARS ALEX JONES TODAY #FAMOUSQUOTES","#mtv #MTVNews #mtvunplugged #MILITARYTECHNOLOGY #FAMOUSQUOTES","2017-01-21 19:28:45"
"1942 - During World War II, an aircraft ejection seat is utilized for the first time by a German test pilot. #MilitaryTechnology #OTD pic.twitter.com/qACWojFYN8","#MilitaryTechnology #OTD","2017-01-13 14:00:03"
"The Coming Swarm http:// ow.ly/NHtk307T8Xf #IndoAsiaPac #MilitaryTechnology #Drones","#IndoAsiaPac #MilitaryTechnology #Drones","2017-01-12 10:50:11"
"11 Secret Weapons Developed By Japan During World War 2 http:// dlvr.it/MqhBvv #superlist #militarytechnology","#superlist #militarytechnology","2016-12-07 16:23:15"
"Where Are All the #Defense Industry #Startups ? - http:// klou.tt/1ngdo3y5hppi1 #defence #militarytechnology #innovation","#Defense #Startups #defence #militarytechnology #innovation","2016-11-11 17:15:01"
"#Ukraine #Microsoft #Hololens #militarytechnology http:// flip.it/UexiKr","#Ukraine #Microsoft #Hololens #militarytechnology","2016-11-04 04:47:46"
"WANTED: #MaterialCoordinator #Coordinator #Defense #MilitaryTechnology #Sumner #Washington #WA http:// ow.ly/4k2c305icTE pic.twitter.com/k1it8OInDy","#MaterialCoordinator #Coordinator #Defense #MilitaryTechnology #Sumner #Washington #WA","2016-10-19 02:15:17"
"SU 30 - best fighter jet | Military technology #SU30 #BestFighterJet #MilitaryTechnology #Military http:// youtu.be/q1JyvqCjENg?a","#SU30 #BestFighterJet #MilitaryTechnology #Military","2016-09-26 22:11:36"
"#China claims to have invented ##Quantum#Radar ... - http:// bit.ly/2d2Rn2D - #Defense #Extreme #Government #MilitaryTechnology","#China # #Quantum #Radar #Defense #Extreme #Government #MilitaryTechnology","2016-09-23 14:38:43"
"China develops revolutionary technology to strengthen it's defenses http:// owl.li/wBJE304c6D3 #china #militarytechnology","#china #militarytechnology","2016-09-14 08:53:50"
"A new e-textile from @BAESystemsInc will help soldiers stay connected. #defence #militarytechnology http:// bit.ly/2c0odX5","#defence #militarytechnology","2016-09-08 09:31:19"
"A new e-textile from @BAESystemsInc will help soldiers stay connected. #defence #militarytechnology http:// bit.ly/2c0odX5","#defence #militarytechnology","2016-09-08 09:31:19"
"Artificial intelligence for new cruise missiles. China gearing for that. http:// toi.in/x7HOQZ/a19ci #defence #militarytechnology","#defence #militarytechnology","2016-08-19 14:00:14"
"#WednesdayWisdom #innovation #militarytechnology pic.twitter.com/nsAaQJ42wE","#WednesdayWisdom #innovation #militarytechnology","2016-07-13 19:01:36"
"The U.S. navy is developing a new weapon: cyborg locusts #technology #militarytechnology http:// flip.it/n-zVP","#technology #militarytechnology","2016-07-10 14:29:12"
"@LockheedMartin wins contract to research aerial intelligence, surveillance, and reconnaissance. #MilitaryTechnology http:// ow.ly/xdZ5301ZTqR","#MilitaryTechnology","2016-07-10 00:00:55"
"@LockheedMartin receives Aerial Intelligence, Surveillance, and Recon contract http:// ow.ly/1LR6301ZT4y #MilitaryTechnology","#MilitaryTechnology","2016-07-09 18:01:25"
"Watch these 7 futuristic military technologies in action. #militarytechnology #thefuture http:// ow.ly/lQMe301Mi5C pic.twitter.com/JX3OkTzfWv","#militarytechnology #thefuture","2016-06-30 04:30:13"
"They say 3 pillars #militaryleadership #militarystudies #militarytechnology https://www. instagram.com/p/BG6a5fUsCYj/","#militaryleadership #militarystudies #militarytechnology","2016-06-21 12:15:37"
"Can Hollywood teach the military something? Apparently, yes! #militarytechnology http:// ow.ly/fypC301gBOx pic.twitter.com/oh4KSEBhMl","#militarytechnology","2016-06-17 16:31:10"
"Check out ""Project: Soul Catcher: Secrets of #Cyber and #CyberneticWarfare Revealed"" @Amazon --> http:// amzn.to/1WB0ax2 #MilitaryTechnology","#Cyber #CyberneticWarfare #MilitaryTechnology","2016-06-05 19:53:22"
"The Bionic Exoskeleton is one of our favorite new #militarytechnology in development. Yours? http:// ow.ly/NZSZ300Mx9x pic.twitter.com/K3cO4A2yJq","#militarytechnology","2016-06-03 15:02:03"
"Same #DoJ who ran guns to #Mexican #Cartels weaponizes converged invasive #BME #MilitaryTechnology for political purposes, for thmslvs.","#DoJ #Mexican #Cartels #BME #MilitaryTechnology","2016-05-10 03:36:03"
"Video U.S. Military Weapons From Small to Large https:// youtu.be/5TlSeaAdNTY via @MetaBallStudios #MilitaryWeapons #MilitaryTechnology #Weapons","#MilitaryWeapons #MilitaryTechnology #Weapons","2016-05-02 16:52:30"
"#Uscooters never-flat, shock absorbing tires require exactly zero maintenance! #MilitaryTechnology #RideUscooters pic.twitter.com/9mvbKOwddX","#Uscooters #MilitaryTechnology #RideUscooters","2016-04-26 00:06:10"
"Drones come in all different sizes, even pocket size. #militarytechnology #drones http:// ow.ly/10nwW5 pic.twitter.com/q0rKqtsQgN","#militarytechnology #drones","2016-04-11 21:02:43"
"#Putin on #MilitaryTechnology #Cooperation https:// youtu.be/tW8vwd8SQ8I via @YouTube","#Putin #MilitaryTechnology #Cooperation","2016-03-29 20:28:15"
"MilitaryEscort .com #premiumdomain #domainforsale #military #militarytechnology #escorts #militarysecurity #news #magazines #army #RT <3","#premiumdomain #domainforsale #military #militarytechnology #escorts #militarysecurity #news #magazines #army #RT","2016-03-25 05:16:44"
"Ministry of Defence military exercise will feature 'killer robots' http:// flip.it/dteT2 #militarytechnology #killerrobots","#militarytechnology #killerrobots","2016-03-17 05:28:41"
"""The first bomber of the 21st century"" is the B-21. #militarytechnology http:// ow.ly/YWow1 pic.twitter.com/sruGRc8YIn","#militarytechnology","2016-03-10 18:03:34"
"http:// MilitaryEscort.com #premiumdomain #domainforsale #military #militarytechnology #escorts #militarysecurity #news #magazines #army #RT <3","#premiumdomain #domainforsale #military #militarytechnology #escorts #militarysecurity #news #magazines #army #RT","2016-03-09 05:34:50"
"There soon might be a new soldier on the battle fields and her name is Atlas. #militarytechnology #militaryrobot http:// ow.ly/YWiHu","#militarytechnology #militaryrobot","2016-03-09 02:15:33"
"Armed Robots Could Decide to Pull Trigger http:// goo.gl/fb/ToKyl0 #militaryweapons #militarytechnology","#militaryweapons #militarytechnology","2016-03-08 13:02:50"
"DARPA to 'measure privacy protection' http:// goo.gl/vB5hAZ #MilitaryTechnology #PreventTechnologicalSurprise pic.twitter.com/PiHTr1ehpI","#MilitaryTechnology #PreventTechnologicalSurprise","2016-02-25 17:29:29"
"@NIMITZCVN68 #SniperRIFLE #MilitaryTechnology #GrettingBrother pic.twitter.com/zAYUJpQpbD","#SniperRIFLE #MilitaryTechnology #GrettingBrother","2016-02-08 17:37:35"
"Terminator-Type Robots Would Be Mistake: Scientists http:// goo.gl/fb/vBqkvB #militarytechnology #militaryweapons #war","#militarytechnology #militaryweapons #war","2016-01-22 16:53:28"
"Russian TV Revealed Plans for a Nuclear #Drone http:// goo.gl/fb/Bm2gWK #russia #nuclearweapons #militarytechnology","#Drone #russia #nuclearweapons #militarytechnology","2015-11-18 22:12:50"
"See the Navy's amphibious hovercraft http:// cnn.it/1WPtWtl #MilitaryTechnology","#MilitaryTechnology","2015-11-10 20:00:59"
"Russia may provide India with unique #MilitaryTechnology http:// sptnkne.ws/abqw pic.twitter.com/S6X37OdK3o VIA @SputnikInt","#MilitaryTechnology","2015-11-07 16:32:40"
"#Russia may provide #India with unique #MilitaryTechnology http:// sptnkne.ws/abqw pic.twitter.com/rtNxaiA69i","#Russia #India #MilitaryTechnology","2015-11-07 14:58:14"
"Russia may provide India with unique #MilitaryTechnology http:// sptnkne.ws/abqw pic.twitter.com/qfoTIf0yMj","#MilitaryTechnology","2015-11-07 14:45:06"
"Good read http:// bit.ly/1RY7lt0 @C4ISRNET #blos #satcom #rotarywing #militarytechnology #airborne #helicopter #satellite #cotm #waveform","#blos #satcom #rotarywing #militarytechnology #airborne #helicopter #satellite #cotm #waveform","2015-11-05 23:43:48"
"Runaway #Blimp Creates Power Outages http:// goo.gl/fb/SOmLrT #sensors #radar #militarytechnology","#Blimp #sensors #radar #militarytechnology","2015-10-29 16:35:44"
"A very expensive race for superior #militarytechnology : Secret US #StealthBomber Project Takes Off http:// thebea.st/1Nzqsso","#militarytechnology #StealthBomber","2015-10-29 00:00:37"
"The #MilitaryTechnology Behind Your Favorite Foods #foodforthought http:// ow.ly/TLEUk","#MilitaryTechnology #foodforthought","2015-10-24 16:02:14"
"New invisibility cloak can hide just about anything. #militarytechnology http:// bit.ly/1P1qXOY","#militarytechnology","2015-10-08 23:58:52"
"Why the #Navy needs more than just more #ships http:// goo.gl/fb/pSPGhg #lawdisorder #militarytechnology #technologylab","#Navy #ships #lawdisorder #militarytechnology #technologylab","2015-09-30 17:07:28"
"Why the Navy needs more than just more ships http:// dlvr.it/CJjcVK #LawDisorder #TechnologyLab #Militarytechnology #Navy","#LawDisorder #TechnologyLab #Militarytechnology #Navy","2015-09-30 16:08:03"
"Tasty Tech Eye Candy Of The Week (Sept. 20) http:// goo.gl/fb/yGLZh9 #militarytechnology #conceptcars #trains #robots","#militarytechnology #conceptcars #trains #robots","2015-09-20 13:48:52"
"#NaturalizedUSCitizen #Admits Sending #MilitaryTechnology to #Russia http:// bit.ly/1igObmU","#NaturalizedUSCitizen #Admits #MilitaryTechnology #Russia","2015-09-11 14:37:00"
"Navies Could 3D-Print Other #Ships at Sea http:// goo.gl/fb/f9SJ9b #militaryvehiclesmachines #militarytechnology","#Ships #militaryvehiclesmachines #militarytechnology","2015-09-09 19:12:14"
"Did the Nazis have missiles with cockpits? https:// redd.it/3jr8g0 #WW2 #MilitaryHistory #MilitaryTechnology","#WW2 #MilitaryHistory #MilitaryTechnology","2015-09-07 00:45:52"
"Fairy Tales Inspire War #Drones http:// goo.gl/fb/U2u6SI #artificialintelligence #swarms #militarytechnology","#Drones #artificialintelligence #swarms #militarytechnology","2015-09-03 21:22:41"
"What is a arsenal? #militarytechnology #storage #magazine #arms #arsenal http:// dlvr.it/Bk29XR","#militarytechnology #storage #magazine #arms #arsenal","2015-08-02 18:12:34"
"#googleglasses and its new #market . #militarytechnology https:// lnkd.in/eseBtHZ","#googleglasses #market #militarytechnology","2015-07-29 19:06:12"
"Rouhani Putin discuss military nuclear powr ties Russian Official #militarytechnology #nuclearpower #RouhaniPutin #VladimirPutin http:","#militarytechnology #nuclearpower #RouhaniPutin #VladimirPutin","2015-07-10 19:48:38"
"Rouhani Putin discuss military nuclear powr ties Russian Official #militarytechnology #nuclearpower #RouhaniPutin #VladimirPutin http:","#militarytechnology #nuclearpower #RouhaniPutin #VladimirPutin","2015-07-10 19:48:37"
"Persian Might Iranian Military Powr Stops US From Attackin Tehran #Iran #Israel #militarytechnology http://www. patriotradionetwork.com ...","#Iran #Israel #militarytechnology","2015-06-23 07:46:17"
"Persian Might Iranian Military Powr Stops US From Attackin Tehran #Iran #Israel #militarytechnology http://www. patriotradionetwork.com ...","#Iran #Israel #militarytechnology","2015-06-23 07:46:16"
"Persian Might Iranian Military Powr Stops US From Attackin Tehran #Iran #Israel #militarytechnology http://www. patriotradionetwork.com ...","#Iran #Israel #militarytechnology","2015-06-23 04:14:23"
"Persian Might Iranian Military Powr Stops US From Attackin Tehran #Iran #Israel #militarytechnology http://www. patriotradionetwork.com ...","#Iran #Israel #militarytechnology","2015-06-23 04:14:22"
"Persian Might Iranian Military Powr Stops US From Attackin Tehran #Iran #Israel #militarytechnology http://www. patriotradionetwork.com ...","#Iran #Israel #militarytechnology","2015-06-23 03:48:24"
"Persian Might Iranian Military Powr Stops US From Attackin Tehran #Iran #Israel #militarytechnology http://www. patriotradionetwork.com ...","#Iran #Israel #militarytechnology","2015-06-23 03:48:22"
"Persian Might Iranian Military Powr Stops US From Attackin Tehran #Iran #Israel #militarytechnology http://www. patriotradionetwork.com ...","#Iran #Israel #militarytechnology","2015-06-23 03:22:16"
"Persian Might Iranian Military Powr Stops US From Attackin Tehran #Iran #Israel #militarytechnology http://www. patriotradionetwork.com ...","#Iran #Israel #militarytechnology","2015-06-23 03:22:15"
"Persian Might Iranian Military Powr Stops US From Attackin Tehran #Iran #Israel #militarytechnology http://www. patriotradionetwork.com ...","#Iran #Israel #militarytechnology","2015-06-23 02:56:14"
"Persian Might Iranian Military Powr Stops US From Attackin Tehran #Iran #Israel #militarytechnology http://www. patriotradionetwork.com ...","#Iran #Israel #militarytechnology","2015-06-23 02:56:14"
"FUTURE TECHNOLOGY for the US Army Documentry https:// youtu.be/wFp1k0MQQRM #sgthack #uswings #usmilitary #militarytechnology #documentary","#sgthack #uswings #usmilitary #militarytechnology #documentary","2015-06-12 21:06:43"
"What is a arsenal? #militarytechnology #storage #magazine #arms #arsenal http:// dlvr.it/9YZ98c","#militarytechnology #storage #magazine #arms #arsenal","2015-04-26 21:24:07"
"The #USArmy testing clip-on #RayGun attachments for its rifles http:// klou.tt/1bu45eg8ya045 #MilitaryTechnology #Military #Defence","#USArmy #RayGun #MilitaryTechnology #Military #Defence","2015-04-24 18:50:12"
"#PresidentXiJinping #AntiGovernmentDemonstrations #SouthAsia #MilitaryTechnology #PakistanChinaEconomicCorridor ... http:// fb.me/7nykE9S9Z","#PresidentXiJinping #AntiGovernmentDemonstrations #SouthAsia #MilitaryTechnology #PakistanChinaEconomicCorridor","2015-04-17 13:20:58"
"#Security Check the Annual Report on common rules governing control of exports of #MilitaryTechnology & equipment http:// owl.li/KYcNE","#Security #MilitaryTechnology","2015-03-30 15:01:25"
"US Preps To Fight Terror wiv Tech #America #DARPA #militarytechnology #nationalsecurity http:// j.mp/1a94Swp","#America #DARPA #militarytechnology #nationalsecurity","2015-03-30 03:44:08"
"Invisible 'Shield' Redirects Killer Shock Waves http:// goo.gl/fb/rb8vTp #physics #militarytechnology","#physics #militarytechnology","2015-03-25 15:30:43"
"What is a arsenal? #militarytechnology #storage #magazine #arms #arsenal http:// dlvr.it/8kt04F","#militarytechnology #storage #magazine #arms #arsenal","2015-02-26 01:24:12"
"Satellite #Tech Brings Super Bowl to Military at Sea http:// goo.gl/fb/xtVyLn #satellites #militarytechnology","#Tech #satellites #militarytechnology","2015-02-01 15:13:41"
"Technology in the wrong hands? http:// buff.ly/15hn5Wd #technology #drones #USmilitary #militarytechnology #microdrones","#technology #drones #USmilitary #militarytechnology #microdrones","2015-01-24 12:00:28"
"What is a arsenal? #militarytechnology #storage #magazine #arms #arsenal http:// dlvr.it/88GkQk","#militarytechnology #storage #magazine #arms #arsenal","2015-01-18 17:51:33"
"We now have a ray gun http:// goo.gl/fb/8UIIoY #technology #war #laser #militarytechnology","#technology #war #laser #militarytechnology","2015-01-16 11:46:25"
"The 2 latest ones just landed on inbox #MilitaryTechnology #Miltech review.. pic.twitter.com/AEHKOkFdpy","#MilitaryTechnology #Miltech","2015-01-09 15:40:30"
"Check out ""MILES"" on Vimeo http:// vimeo.com/116108307 #Vimeo #motocross #robots #teenagers #comingofage #dirtbiking #militarytechnology","#Vimeo #motocross #robots #teenagers #comingofage #dirtbiking #militarytechnology","2015-01-09 10:48:44"
"Navy #Helicopter Drone Aces Live Testing http:// goo.gl/fb/J9eA8k #militaryinventions #military #militarytechnology","#Helicopter #militaryinventions #military #militarytechnology","2014-12-27 20:06:08"
"Watch @USNavy shoot #boats , #drones , and more, with its new high-power #laser weapon: http:// goo.gl/3XmrHk #militarytechnology #technews","#boats #drones #laser #militarytechnology #technews","2014-12-18 15:22:20"
"Zapped! U.S. #Navy Deploys #Laser Weapons http:// goo.gl/fb/CSEvcs #militaryweapons #militarytechnology #tech","#Navy #Laser #militaryweapons #militarytechnology #tech","2014-12-11 22:10:42"
"Man chargd wiv tryin 2 take US military documents 2 #China http:// j.mp/1yyfnCX #Connecticutresident #militarytechnology","#China #Connecticutresident #militarytechnology","2014-12-10 11:28:53"
"#MilitaryTechnology Finds Way Into #School District Safety Measures http:// nyti.ms/1uagD7O #schoolsafety","#MilitaryTechnology #School #schoolsafety","2014-12-08 13:08:08"
"#TopStories #militarytechnology Military Taps Avatars for 'No Pain' Training http:// dlvr.it/7VcF4v #Share #MikeWorld","#TopStories #militarytechnology #Share #MikeWorld","2014-11-12 23:29:09"
"#China Shows off New Stealth Fighter http:// goo.gl/fb/MzBzjw #aircraft #military #militarytechnology #stealthfighter","#China #aircraft #military #militarytechnology #stealthfighter","2014-11-12 17:05:46"
"What is a arsenal? #militarytechnology #storage #magazine #arms #arsenal http:// dlvr.it/7QNSjT","#militarytechnology #storage #magazine #arms #arsenal","2014-11-05 00:59:10"
"Officials: Russian ... #CharlesMOberly #DmitryUstinov #MilitaryTechnology #NightScopes http:// j.mp/1pSJYST pic.twitter.com/ahSAT4f3xo","#CharlesMOberly #DmitryUstinov #MilitaryTechnology #NightScopes","2014-10-09 04:36:40"
"#TopStories #militarytechnology Well-Armed Design: 8 Octopus-Inspired Techs http:// dlvr.it/745W0W #Share #MikeWorld","#TopStories #militarytechnology #Share #MikeWorld","2014-10-01 08:20:08"
". @missbelletrist : Superglue works for everything #cosplayandcrafting #suredoes #militarytechnology @OzComicCon","#cosplayandcrafting #suredoes #militarytechnology","2014-09-14 08:11:15"
"Navy Destroyer:Ocean-drawn fuel system, Lasers, Electromag Railgun http://www. aw-systems.com/blog/?p=2563 #MilitaryTechnology pic.twitter.com/sru4ySBB0m","#MilitaryTechnology","2014-09-10 20:02:09"
"Former ... #ArmsExport #ChatsworthAircraftComponents #ExportLicense #MilitaryTechnology http:// j.mp/Zfm6CC","#ArmsExport #ChatsworthAircraftComponents #ExportLicense #MilitaryTechnology","2014-09-09 07:23:06"
"T-ray Goggles Could See Through Walls and Skin http:// goo.gl/fb/MveDo0 #vision #militarytechnology","#vision #militarytechnology","2014-09-09 00:03:48"
"What is a arsenal? #militarytechnology #storage #magazine #arms #arsenal http:// dlvr.it/6nSTHR","#militarytechnology #storage #magazine #arms #arsenal","2014-09-02 05:34:32"
"@IntelligenceCBS this is one of the best tele shows I've been watching.. #american #militarytechnology #TvSeries","#american #militarytechnology #TvSeries","2014-08-20 21:43:52"
"#TopStories #militarytechnology Underwater Drone to Hunt Down Enemy Subs http:// dlvr.it/6MMnnb #Share #MikeWorld","#TopStories #militarytechnology #Share #MikeWorld","2014-07-18 16:56:05"
"i dont know what #UGANDA is waiting for to buy the #IronDome ,see how this high #militaryTECHNOLOGY has protectecd #Israel ....","#UGANDA #IronDome #militaryTECHNOLOGY #Israel","2014-07-17 16:06:29"
"china #ChinaUSNews #Crime #China #espionage #MilitaryTechnology 2 Chinese Nationals Smuggling US Military Tech... http:// dlvr.it/61qyXb","#ChinaUSNews #Crime #China #espionage #MilitaryTechnology","2014-06-17 21:33:41"
"US #ChinaUSNews #Crime #China #espionage #MilitaryTechnology 2 Chinese Nationals Smuggling US Military Tech... http:// dlvr.it/61qfyl","#ChinaUSNews #Crime #China #espionage #MilitaryTechnology","2014-06-17 21:23:36"
"#TopStories #MilitaryTechnology Laser-Armed Humvees Could Shoot Down Drones http:// dlvr.it/61kx3w #Share #MikeWorld","#TopStories #MilitaryTechnology #Share #MikeWorld","2014-06-17 17:18:19"
". @DARPA 's Z-man #tech enables wall climbing http:// bit.ly/1i4WRve #military #militarytechnology","#tech #military #militarytechnology","2014-06-16 19:07:01"
"These are the #challengecoins we designed for #lsa39 #sanantonio #militarytechnology day today. Pics by tomasmartinez pic.twitter.com/QcCbPgGbq7","#challengecoins #lsa39 #sanantonio #militarytechnology","2014-06-05 00:06:10"
"@CoachJoeLogan The Mobile Navigation System hands down #militarytechnology","#militarytechnology","2014-06-02 06:01:39"
"#TopStories #militarytechnology Air-Conditioned Helmet Keeps Soldiers Cool http:// dlvr.it/5glLRH #Share #MikeWorld","#TopStories #militarytechnology #Share #MikeWorld","2014-05-15 16:29:22"
"How Israeli drone technology came to be used by the US - Interesting Read from @AlJazeera ! http:// odilli.com/r/2577 #MilitaryTechnology #UAVs","#MilitaryTechnology #UAVs","2014-05-02 10:44:33"
"@ChrisInYGK Careful what you wish for. Next evolution in batteries will be used to power Laser Rifles of all sizes. #MilitaryTechnology","#MilitaryTechnology","2014-04-25 00:09:47"
"What is the future of #militarytechnology ? Click here to find out: http:// ow.ly/vP95e","#militarytechnology","2014-04-16 03:01:11"
"'Invisibility' Cloak May Hide Things from Sonar http:// shar.es/RNtSz #FutureTechnology #InvisibltyCloak #MilitaryTechnology","#FutureTechnology #InvisibltyCloak #MilitaryTechnology","2014-03-22 00:45:03"
"#SR71BlackBird #MilitaryTechnology #NASAHistory http:// fb.me/21bp69VUi","#SR71BlackBird #MilitaryTechnology #NASAHistory","2014-03-21 23:09:08"
"#TopStories #militarytechnology Is It a Helicopter? Plane? Jeep? Yes. http:// dlvr.it/541GR0 #Share #MikeWorld","#TopStories #militarytechnology #Share #MikeWorld","2014-03-04 16:22:03"
"#Iran claims new #drone can deliver 500-kg. payload http:// toi.sr/1g1KQz3 #MilitaryNews #UAV #LongRange #x22report #militaryTechnology","#Iran #drone #MilitaryNews #UAV #LongRange #x22report #militaryTechnology","2014-03-02 11:16:23"
"#Israel shows off trio of new #weapons systems http:// upi.com/2839215 #militaryNews #IDF #MilitaryTechnology #x22report #Laser","#Israel #weapons #militaryNews #IDF #MilitaryTechnology #x22report #Laser","2014-02-28 22:35:45"
"#IHLevent Autonomous Technologies: A Force for Good? Feb 24 @ChathamHouse w/ @FmrAirForceGC http:// goo.gl/dIhyk2 #IHL #militarytechnology","#IHLevent #IHL #militarytechnology","2014-02-23 19:16:06"
"#IHLevent Autonomous Technologies: A Force for Good? Feb 24 @ChathamHouse w/ @FmrAirForceGC http:// goo.gl/dIhyk2 #IHL #militarytechnology","#IHLevent #IHL #militarytechnology","2014-02-23 07:57:54"
"#US developing #smartPhone piloted #military #drones http:// disq.us/8h9syq #MilitaryNews #DARPA #MilitaryTechnology #USmilitary #x22report","#US #smartPhone #military #drones #MilitaryNews #DARPA #MilitaryTechnology #USmilitary #x22report","2014-02-21 19:40:06"
"@mathmovesu is Kenya the location where the next advancement in #MilitaryTechnology will take place for the next millennium @LockheedMartin","#MilitaryTechnology","2014-02-12 15:31:19"
"#TopStories #militarytechnology Xbox Sensor Guards Korean Border http:// dlvr.it/4sq4cQ #Share #MikeWorld","#TopStories #militarytechnology #Share #MikeWorld","2014-02-06 23:19:25"
"Login http:// goo.gl/tOcTqq #Sales #Militarytechnology #Purchasing","#Sales #Militarytechnology #Purchasing","2014-01-31 06:56:50"
"@RomeoDeVoid Those are illegal for civilian use. #MilitaryTechnology","#MilitaryTechnology","2014-01-07 06:17:18"
"#Israel has a long record of getting U.S. #militarytechnology to #China @DefenseTech http:// bit.ly/1lg18Y9","#Israel #militarytechnology #China","2013-12-25 19:34:31"
"CfP ICOHTEC Session on #SocialHistory of #MilitaryTechnology 30 Jan 2014 http://www. icohtec.org","#SocialHistory #MilitaryTechnology","2013-12-20 22:21:37"
"#TopStories #MilitaryTechnology Force Field Could Replace Windshield Wipers http:// dlvr.it/4X6lJJ #MikeTrends","#TopStories #MilitaryTechnology #MikeTrends","2013-12-18 00:02:36"
"#TopStories #militarytechnology 8 Tricky Tasks for Robots in DARPA's Challenge http:// dlvr.it/4X6lDb #MikeTrends","#TopStories #militarytechnology #MikeTrends","2013-12-18 00:02:35"
"#fighterjets #mclaren #militarytechnology #cars #windshieldwipers McLaren Is Using Fighter Jet Technology for... http:// dlvr.it/4WhqNH","#fighterjets #mclaren #militarytechnology #cars #windshieldwipers","2013-12-16 19:55:27"
"What is a arsenal? #militarytechnology #storage #magazine #arms #arsenal http:// dlvr.it/4W2Pqg","#militarytechnology #storage #magazine #arms #arsenal","2013-12-14 16:30:04"
"#Technology helps #troops become #invisible http:// bit.ly/1bx47db #military #militarytechnology . @guy_cramer","#Technology #troops #invisible #military #militarytechnology","2013-12-09 19:44:56"
"#TopStories #militarytechnology Tasty Tech Eye Candy Of The Week (Nov 9) http:// dlvr.it/4HjRlC #MikeTrends","#TopStories #militarytechnology #MikeTrends","2013-11-09 15:29:07"
"#TopStories #militarytechnology Pricey New Supercarrier Boasts Dazzling Tech http:// dlvr.it/4H3h68 #MikeTrends","#TopStories #militarytechnology #MikeTrends","2013-11-07 13:21:12"
"Pentagon working on real Iron Man suits for U.S. military. #militarytechnology http:// ow.ly/qwjAc","#militarytechnology","2013-11-05 22:03:59"
"#TopStories #militarytechnology Rocks that Spy and Other Wild Military Techs http:// dlvr.it/4Bss96 #MikeTrends","#TopStories #militarytechnology #MikeTrends","2013-10-24 19:44:23"
"VIDEO: Army Building Iron-Man-Like Body Suit http:// goo.gl/fb/ywFe1 #it #ironman #ironmansuit #militarytechnology","#it #ironman #ironmansuit #militarytechnology","2013-10-11 00:42:42"
"This speech reminds me of Val at the Olympics. #Dean knows something isn't right but can't say anything. #militarytechnology #americascup","#Dean #militarytechnology #americascup","2013-09-26 00:27:14"
"Brazil builds US$2 billion aircraft @EmbraerSA #Militarytechnology @TheRioTimes http:// wp.me/pkc3A-5nS","#Militarytechnology","2013-09-23 19:33:50"
"#TopStories #militarytechnology Empathy Toward Robots Could Impact Battlezones http:// dlvr.it/40dnb5 #MikeTrends","#TopStories #militarytechnology #MikeTrends","2013-09-20 18:31:01"
"Ray Gun Fries #Electronics , Disables Car Bombs http:// goo.gl/fb/IVcXM #tech #militarytechnology #militaryweapons","#Electronics #tech #militarytechnology #militaryweapons","2013-09-14 16:52:55"
"The future of military technology !! http:// dlvr.it/3xB6b7 #Future #Videos #military #militarytechnology #Technology","#Future #Videos #military #militarytechnology #Technology","2013-09-09 16:44:26"
"The future of military technology !! http:// dlvr.it/3xB6Ct #Future #Videos #military #militarytechnology #Technology","#Future #Videos #military #militarytechnology #Technology","2013-09-09 16:44:04"
"The future of military technology !! http:// dlvr.it/3x8RGB #Future #Videos #military #militarytechnology #Technology","#Future #Videos #military #militarytechnology #Technology","2013-09-09 14:50:06"
"The future of military technology !! http:// dlvr.it/3x6cLj #Future #Videos #military #militarytechnology #Technology","#Future #Videos #military #militarytechnology #Technology","2013-09-09 12:47:40"
"The future of military technology !! http:// dlvr.it/3x6cGN #Future #Videos #military #militarytechnology #Technology","#Future #Videos #military #militarytechnology #Technology","2013-09-09 12:47:24"
"The future of military technology !! http:// dlvr.it/3x6c5K #Future #Videos #military #militarytechnology #Technology","#Future #Videos #military #militarytechnology #Technology","2013-09-09 12:47:09"
"The future of military technology !! http:// dlvr.it/3x6Nfm #Future #Videos #military #militarytechnology #Technology","#Future #Videos #military #militarytechnology #Technology","2013-09-09 12:32:07"
"The future of military technology !! http:// dlvr.it/3x6NY8 #Future #Videos #military #militarytechnology #Technology","#Future #Videos #military #militarytechnology #Technology","2013-09-09 12:32:04"
"The future of military technology !! http:// dlvr.it/3x6NTx #Future #Videos #military #militarytechnology #Technology","#Future #Videos #military #militarytechnology #Technology","2013-09-09 12:32:03"
"The future of military technology !! http:// dlvr.it/3x4prt #Future #Videos #military #militarytechnology #Technology","#Future #Videos #military #militarytechnology #Technology","2013-09-09 10:49:07"
"The future of military technology !! http:// dlvr.it/3x4pZb #Future #Videos #military #militarytechnology #Technology","#Future #Videos #military #militarytechnology #Technology","2013-09-09 10:48:52"
"The future of military technology !! http:// dlvr.it/3x4pWT #Future #Videos #military #militarytechnology #Technology","#Future #Videos #military #militarytechnology #Technology","2013-09-09 10:48:51"
"Suicide #Drones Blow Up With Their Target http:// goo.gl/fb/ZbVOn #robotics #militarytechnology","#Drones #robotics #militarytechnology","2013-08-16 14:25:39"
"@HuffPostDC The appellation ""drone"" is perfectly all right. No sense to change it for any reason. #Drone #MilitaryTechnology #Appellations","#Drone #MilitaryTechnology #Appellations","2013-08-16 02:33:08"
"@AlistairBurtFCO What on Earth is the #UK doing selling #militarytechnology to #Iran ?!?!? Is this some kind of JOKE?!","#UK #militarytechnology #Iran","2013-07-17 12:19:24"
"US weapons designs 'hacked by Chinese' - http:// tinyurl.com/olrckny - #militarytechnology","#militarytechnology","2013-05-28 18:23:35"
"I go to take my asvab practice test and the computer crashes and doesnt reboot... #MilitaryTechnology","#MilitaryTechnology","2013-05-07 02:06:41"
"US makes death laser...releases to public press all of the ways to stop it. #MilitaryTechnology","#MilitaryTechnology","2013-04-11 18:52:19"
"WATCH: The U.S. Navy shoots down a drone with a laser cannon #warfare #drone #military #militarytechnology - http:// buff.ly/ZfD6BP","#warfare #drone #military #militarytechnology","2013-04-10 14:25:09"
"Navy Ship Shoots Down Drone With Laser Blaster : Discov... http:// hashonomy.com/vMAe/ #ifollowback #tech #militarytechnology (via @NewsMau5 )","#ifollowback #tech #militarytechnology","2013-04-09 21:57:33"
"Navy Ship Shoots Down Drone With Laser Blaster http:// dlvr.it/3CN4J7 #Tech #MilitaryTechnology #TeamFollowBack","#Tech #MilitaryTechnology #TeamFollowBack","2013-04-09 21:54:48"
"Hackers attack Israeli websites, extent of damage unknown - http:// tinyurl.com/dync94p - #militarytechnology #Hamas","#militarytechnology #Hamas","2013-04-07 21:21:35"
"I was really hoping we would have giant robots fighters by now #militarytechnology","#militarytechnology","2013-04-02 09:44:30"
"Visiting #shs2013 ? Visit the site of brand-new journal Vulcan for Call for Papers http:// brill.com/vulc #socialhistory #militarytechnology","#shs2013 #socialhistory #militarytechnology","2013-03-21 16:36:58"
"South Korea Cyber Attack Was Virus http:// goo.gl/fb/j0090 #tech #technology #dividedregions #militarytechnology #news #technology","#tech #technology #dividedregions #militarytechnology #news #technology","2013-03-20 13:55:50"
"#CallforPapers for brand-new journal #Vulcan is online! Visit http:// brill.com/vulc #socialhistory #militarytechnology","#CallforPapers #Vulcan #socialhistory #militarytechnology","2013-03-20 10:48:08"
"The Militarization of #Law Enforcement in America: Use of #MilitaryTechnology and Tactics by Local Level #Police http:// bit.ly/16oR3n3","#Law #MilitaryTechnology #Police","2013-03-12 15:07:27"
"If #BigDog is what then can release for the public to see I can imagine a Terminator has been made behind closed doors. #MilitaryTechnology","#BigDog #MilitaryTechnology","2013-03-01 15:27:53"
"How to dodge a drone http:// goo.gl/fb/0xjcK #technology #terrorism #war #alqaeda #drones #militarytechnology","#technology #terrorism #war #alqaeda #drones #militarytechnology","2013-02-25 06:32:47"
"Security experts: Chinese hackers have infiltrated majority of... - http:// tinyurl.com/a6h85ve - #militarytechnology","#militarytechnology","2013-02-22 01:06:37"
"Security experts: Chinese hackers have infiltrated majority of... - http:// tinyurl.com/a6h85ve - #militarytechnology","#militarytechnology","2013-02-22 01:06:32"
"Future Soldiers to Communicate Via Their Shirts http:// goo.gl/fb/yrUvg #nanotechnology #tech #militarytechnology","#nanotechnology #tech #militarytechnology","2013-02-19 22:22:47"
"#MilitaryTechnology - #MIT and US Army crafting uniforms with full-body fiberoptic sensors http:// feedly.com/k/Xgttou Good read","#MilitaryTechnology #MIT","2013-02-18 18:53:01"
"Tool Turns Smartphone into a Biometric Scanner http:// goo.gl/fb/YrDBF #tech #militarytechnology #smartphones","#tech #militarytechnology #smartphones","2013-02-15 18:55:50"
"@SenRandPaul can you also block the #militarytechnology that POTUS is giving to China?","#militarytechnology","2013-01-31 19:15:50"
"Thirty gunshots within 27 seconds recorded on 911 call during Aurora... - http:// tinyurl.com/9wwkpzb - #militarytechnology #JamesHolmes","#militarytechnology #JamesHolmes","2013-01-09 18:12:50"
"#Laser Folds Tiny Origami for US Army http:// goo.gl/fb/PklUl #militaryinventions #militarytechnology #militaryweapons","#Laser #militaryinventions #militarytechnology #militaryweapons","2013-01-06 14:07:47"
"#TopStories #MilitaryTechnology Military Drones Prowl US Skies http:// dlvr.it/2blh92 #MikeTrends","#TopStories #MilitaryTechnology #MikeTrends","2012-12-07 18:08:34"
"Military Drones Prowl US Skies http:// goo.gl/fb/6SVlI #militarytechnology #privacy #unmannedautonomousvehicles","#militarytechnology #privacy #unmannedautonomousvehicles","2012-12-07 18:07:19"
"How Syria Shut Down the #Internet http:// goo.gl/fb/gFJc4 #internetsafety #issuesandethics #militarytechnology","#Internet #internetsafety #issuesandethics #militarytechnology","2012-12-01 18:30:06"
"How Israel's Iron Dome Works http:// goo.gl/fb/uiHn2 #militaryinventions #militarytechnology #militaryweapons","#militaryinventions #militarytechnology #militaryweapons","2012-11-19 19:52:12"
"#debate America needs not ever put boots on the ground. #militarytechnology .","#debate #militarytechnology","2012-10-23 03:43:50"
"Thought: #MilitaryTechnology leads to the #dematerializing of soldiers ie #drones #cyber @JasonSilva","#MilitaryTechnology #dematerializing #drones #cyber","2012-10-19 19:40:41"
"US: Immigrant stole #militarytechnology for Russia http:// phy.so/268546448","#militarytechnology","2012-10-04 11:14:50"
"#US : #Immigrant stole #MilitaryTechnology from #Russia http://www. ntn24.com/news/node/18262","#US #Immigrant #MilitaryTechnology #Russia","2012-10-04 00:04:01"
"New Experimental #MilitaryTechnology Caught on Video http:// bit.ly/Qz9wn6 $ AVAV","#MilitaryTechnology","2012-09-24 15:51:33"
"#StartUpIsrael #drones #militarytechnology Indian investors put $7 million in Israeli UAV maker http:// dlvr.it/21BWKK","#StartUpIsrael #drones #militarytechnology","2012-08-17 09:22:32"
"Future Drones to Work Like Flying Androids http:// goo.gl/fb/8h1iY #militaryaircraft #militarytechnology","#militaryaircraft #militarytechnology","2012-08-04 18:44:35"
"What is a arsenal? #militarytechnology #storage #magazine #arms #arsenal http:// dlvr.it/1vLQs1","#militarytechnology #storage #magazine #arms #arsenal","2012-07-24 15:39:21"
"US #Military CAAT Walks on Water http:// goo.gl/fb/ziXEx #militarytanks #militarytechnology #militaryvehicles","#Military #militarytanks #militarytechnology #militaryvehicles","2012-07-17 17:48:17"
"Navy Resumes Sinking Old Ships: DNews Nuggets http:// goo.gl/fb/1pqcq #militarytechnology #militaryweapons #pollution","#militarytechnology #militaryweapons #pollution","2012-07-03 16:50:58"
"#TopStories #MilitaryTechnology Navy Resumes Sinking Old Ships: DNews Nuggets http:// dlvr.it/1pC1fG #MikeTrends","#TopStories #MilitaryTechnology #MikeTrends","2012-07-03 15:23:35"
"Report claims US and Israel made Flame computer... - http:// tinyurl.com/bmd2loh - #militarytechnology #BarackObama","#militarytechnology #BarackObama","2012-06-20 12:01:34"
"United States, Israel made Flame computer virus to... - http:// tinyurl.com/bmd2loh - #militarytechnology #BarackObama","#militarytechnology #BarackObama","2012-06-20 10:41:25"
"Sci Fi News: Supercomputer simulates nuclear explosion down to the molecular... http:// dlvr.it/1gyfVK #ComputerScience #militarytechnology","#ComputerScience #militarytechnology","2012-06-07 01:53:32"
"Supercomputer simulates nuclear explosion down to the molecular level... http:// dlvr.it/1gyYHK #ComputerScience #militarytechnology","#ComputerScience #militarytechnology","2012-06-07 01:42:04"
"Is the Pentagon ready for an alien invasion? [Military Technology] http:// dlvr.it/1gNjmq #militarytechnology #Advancedconcepts","#militarytechnology #Advancedconcepts","2012-06-04 23:32:42"
"Sci Fi News: Is the Pentagon ready for an alien invasion? [Military Technology] http:// dlvr.it/1gNj2q #militarytechnology #Advancedconcepts","#militarytechnology #Advancedconcepts","2012-06-04 23:31:38"
"#TopStories #MilitaryTechnology World's Loudest Bullhorn for 2012 Olympics http:// dlvr.it/1Zk4s7 #MikeTrends","#TopStories #MilitaryTechnology #MikeTrends","2012-05-17 16:32:43"
"Bulletproof Vests Get A.C. http:// goo.gl/fb/rn3ok #militarytechnology #plastic #weapons","#militarytechnology #plastic #weapons","2012-05-15 14:50:16"
"#TopStories #MilitaryTechnology Bulletproof Vests Get A.C. http:// dlvr.it/1Z9qR2 #MikeTrends","#TopStories #MilitaryTechnology #MikeTrends","2012-05-15 14:42:04"
"U.S. Navy Seeks First Shipboard #Laser Weapon http:// goo.gl/fb/FrAv3 #militaryinventions #militarytechnology","#Laser #militaryinventions #militarytechnology","2012-05-11 20:37:25"
"Russia Pulls Out of Indonesian Rocket System Tender http:// j.mp/IYrona #MilitaryTechnology #Military","#MilitaryTechnology #Military","2012-05-03 16:13:40"
"Forget Google Goggles, these Contact Lenses Give You Superhuman Vision http:// ow.ly/ahHQv #militarytechnology","#militarytechnology","2012-04-21 02:01:10"
"What is a arsenal? #militarytechnology #storage #magazine #arms #arsenal http:// dlvr.it/1Q6Lng","#militarytechnology #storage #magazine #arms #arsenal","2012-04-08 17:09:05"
"Navy Pilots Ejected from Jet Flying 170 MPH http:// goo.gl/fb/I7uhI #aviation #militarytechnology #safetyandprevention","#aviation #militarytechnology #safetyandprevention","2012-04-07 22:27:16"
"Navy Sends Robot Helicopters To Find Pirates http:// goo.gl/fb/d0Ann #militaryrobots #militarytechnology #sensors","#militaryrobots #militarytechnology #sensors","2012-04-07 20:03:06"
"Attack of the Drones Review http:// goo.gl/fb/XwvhM #militarytechnology #uav #militaryscience","#militarytechnology #uav #militaryscience","2012-03-15 20:19:26"
"iPhone Has Night Vision With Adapter http:// goo.gl/fb/1Ykbe #gadgets #infrared #militarytechnology #smartphones","#gadgets #infrared #militarytechnology #smartphones","2012-03-06 17:57:36"
"#MilitaryTechnology has come a long way. The #armycombatvehicle is now back on schedule. #MilitaryReplacementGear http:// ow.ly/9fxuo","#MilitaryTechnology #armycombatvehicle #MilitaryReplacementGear","2012-03-02 16:40:46"
"What is a arsenal? #militarytechnology #storage #magazine #arms #arsenal http:// dlvr.it/1CMsBG","#militarytechnology #storage #magazine #arms #arsenal","2012-02-15 21:50:07"
"Putting new networking capabilities into the hands of soldiers. #MilitaryNetworking #militarytechnology http:// ow.ly/8PZp3","#MilitaryNetworking #militarytechnology","2012-02-08 16:45:23"
"@TheEconomist : ""Magic bullets to make it more dangerous for guerillas fighting regular troops"" http:// econ.st/sWOppP #MilitaryTechnology","#MilitaryTechnology","2012-02-06 21:22:39"
"#Drones - two sides of a military controversy that stems from #militarytechnology and #militaryequipment . http:// ow.ly/8PXyY","#Drones #militarytechnology #militaryequipment","2012-02-06 16:35:17"
"@KristenDawn2012 @uberfacts blue eyes = night vision goggles #militarytechnology","#militarytechnology","2012-02-03 06:36:37"
"Smart Bullet May Have Your Name On It http:// goo.gl/fb/Vq1xz #militaryinventions #militarytechnology #militaryweapons","#militaryinventions #militarytechnology #militaryweapons","2012-01-31 16:53:21"
"DARPA Technology: MAAV Drone Unit http:// youtu.be/BigykjNJ6xU #DARPA #science #militarytechnology","#DARPA #science #militarytechnology","2012-01-19 01:01:08"
"Here's a short list of some of the top #militarytechnology of 2011 http:// exm.nr/tSHKc6","#militarytechnology","2011-12-29 21:50:38"
"New #GPS #Satellites Accurate to Within Three Feet http:// goo.gl/fb/PQrnv #militarytechnology #spacetechnology","#GPS #Satellites #militarytechnology #spacetechnology","2011-12-14 16:36:49"
"Meet ""Guardbot"" - the robot sentinel of the future! http:// ow.ly/7WJOQ #militarytechnology #military #robotics #robots","#militarytechnology #military #robotics #robots","2011-12-12 18:07:33"
"News13 said the meals were packed in ""special thermal packs"". But cameras showed styrofoam to-go boxes and ziploc bags. #MilitaryTechnology","#MilitaryTechnology","2011-11-25 02:09:58"
"#Authoritarian #Post911 atmosphere in which use of force & #MilitaryTechnology became a favored method for dealing with #dissent of any kind","#Authoritarian #Post911 #MilitaryTechnology #dissent","2011-11-22 22:07:42"
"Eerie, Terminator-Like Robot Gets a Torso http:// goo.gl/fb/K3LrZ #biomimetics #militarytechnology #robotics #robots","#biomimetics #militarytechnology #robotics #robots","2011-11-01 19:42:09"
"Malcolm Gladwell: The Norden bombsight http:// on.ted.com/9sKE ....a morality tale.... #militarytechnology #war","#militarytechnology #war","2011-10-26 18:55:33"
"Check the infrared view. #militarytechnology","#militarytechnology","2011-10-20 05:10:44"
"Top Tens (2005) Review http:// goo.gl/fb/A78Si #militarytechnology #discovery #militaryhistory #weapons","#militarytechnology #discovery #militaryhistory #weapons","2011-10-05 10:29:08"
"Antennas Built With Sewing Machines http:// goo.gl/fb/w7MIQ #electronics #militarytechnology #ubiquitouscomputing","#electronics #militarytechnology #ubiquitouscomputing","2011-08-24 19:59:04"
"Joystick Replicates Air Forces' A10 Stick http:// goo.gl/fb/S0ia9 #aviation #gadgets #gamesandgear #militarytechnology","#aviation #gadgets #gamesandgear #militarytechnology","2011-08-19 20:21:19"
"Helicopter lost over Libya is new US drone: officials http://goo.gl/fb/cZm5A #militarytechnology #libyawar","#militarytechnology #libyawar","2011-06-22 14:24:22"
"SpaceWarDaily: Invisible tanks, liquid armor at BAE http://bit.ly/e5oVJ4 ~~ Kind of cool, in a rather disturbing way. #militarytechnology","#militarytechnology","2011-01-21 06:11:15"
"Wow, China punya stealth J-20..!! Mirip F-22 Raptor. Hebat! Hebat! #MilitaryTechnology","#MilitaryTechnology","2011-01-07 06:37:48"
"How do wrinkle free shirts work? #worldwonder #science #nanotechnology #alientechnology #militarytechnology #magic","#worldwonder #science #nanotechnology #alientechnology #militarytechnology #magic","2010-09-20 07:12:20"
"Water Transfer Printing Step By Step http://goo.gl/fb/jFpwk #hobbies #hydroimaging #militarytechnology #waterprinting","#hobbies #hydroimaging #militarytechnology #waterprinting","2010-04-10 16:32:13"
"HULC Exoskeleton carries up to 200lbs http://tinyurl.com/py4khh #MilitaryTechnology","#MilitaryTechnology","2010-01-22 23:19:23"
