"http:// QaysArthur.net #Surveillance and #privacy in the #internet age... http:// dlvr.it/Nptvxh #QaysArthur .net pic.twitter.com/RIjs4ycMki","#Surveillance #privacy #internet #QaysArthur","2017-04-06 00:30:35"
"#Surveillance #Intel #SpyAgencies #Spy #PresidentTrump #TrumpAdmin #TrumpPence16 #DonaldTrump #Trump #Watergate http:// tinyurl.com/k2k6k74","#Surveillance #Intel #SpyAgencies #Spy #PresidentTrump #TrumpAdmin #TrumpPence16 #DonaldTrump #Trump #Watergate","2017-04-06 00:19:04"
"#Obama #SusanRice #Spygate #Surveillance #Treason #Espionage pic.twitter.com/DlPs0tH3JK","#Obama #SusanRice #Spygate #Surveillance #Treason #Espionage","2017-04-06 00:09:42"
"#Surveillance equipment built for ruggedness should be paired with secure, reliable storage. Visit booth #28099 to learn more. #ISCWest","#Surveillance #28099 #ISCWest","2017-04-06 00:00:00"
"How Rand Paul suddenly became Donald Trump's best buddy http:// ift.tt/2oEmhYC #surveillance #privacy #democracy #people #security #tech","#surveillance #privacy #democracy #people #security #tech","2017-04-05 23:56:18"
"in a convention with 27,000.00 people !! #ISCWEST2017 #ISCWest #LasVegas #security #surveillance #DroneSecurity","#ISCWEST2017 #ISCWest #LasVegas #security #surveillance #DroneSecurity","2017-04-05 23:54:54"
"Facial recognition is increasingly common, but how does it work? http:// dlvr.it/Npt9gt #technology #surveillance (via @scifigeneration ) pic.twitter.com/nrERzEX0ie","#technology #surveillance","2017-04-05 23:47:38"
"hey buddy #GangStalking car inferring #MI5 #surveillance . so overt that it can't possibly be true -- that's a goal of the programme. pic.twitter.com/Trbt9h46NW","#GangStalking #MI5 #surveillance","2017-04-05 23:39:24"
"@ViakooInc Showcases OnPremises Automated Data Verification Solution for #Surveillance and Access at #ISCWest http:// bit.ly/2oD101G","#Surveillance #ISCWest","2017-04-05 23:29:00"
"LinkedIn: https:// lnkd.in/gn98Jqn Facebook: https:// lnkd.in/gcTiz_7 Twitter: https:// lnkd.in/g7Y8eMV #investigation #surveillance #siu pic.twitter.com/miBiBNwE7Y","#investigation #surveillance #siu","2017-04-05 23:11:09"
"No Branch of US Government should be spying on the other #TeamObama #surveillance #thefive @thefive","#TeamObama #surveillance #thefive","2017-04-05 23:11:07"
"Who knew!?! https:// lnkd.in/ehq2sE2 #bigdata #surveillance #Privacy #analytics #NSA #telecom #Internet #IoT #AI #TimeWarner #CIO #CEO #CISO","#bigdata #surveillance #Privacy #analytics #NSA #telecom #Internet #IoT #AI #TimeWarner #CIO #CEO #CISO","2017-04-05 23:09:25"
"Who collects What? Why? For whose eyes? https:// lnkd.in/e3CQk6r #Privacy #bigdata #surveillance #terror #AI #IoT #PII #UK","#Privacy #bigdata #surveillance #terror #AI #IoT #PII #UK","2017-04-05 23:08:39"
"Mr. Clement has a theory. Putin did it. #surveillance #pnpcbc pic.twitter.com/6Cd0NwOmyY","#surveillance #pnpcbc","2017-04-05 23:07:54"
"Democrats need a Howard Baker. What did President Obama know, and when did he know it? #rice #unmasking #fisa #spying #surveillance #wiretap","#rice #unmasking #fisa #spying #surveillance #wiretap","2017-04-05 23:02:51"
"You love to post on #SocialMedia right? Are you even aware that #hackers or other #surveillance can access your... http:// fb.me/7oo3mFdvD","#SocialMedia #hackers #surveillance","2017-04-05 23:00:03"
"Amidst growing controversy, #RCMP says it deployed #Stingrays dozens of times in recent years: http:// ow.ly/qAEu30aBAYS #surveillance","#RCMP #Stingrays #surveillance","2017-04-05 22:44:13"
"RCMP reveals its use of cellphone-tracking machines http:// ift.tt/2nYNfY2 #surveillance #privacy #democracy #people #security #tech","#surveillance #privacy #democracy #people #security #tech","2017-04-05 22:42:34"
"Full Show: Surveillance (04/05) http:// ift.tt/2oEewBS #surveillance #privacy #democracy #people #security #tech","#surveillance #privacy #democracy #people #security #tech","2017-04-05 22:42:32"
"How Rand Paul suddenly became Donald Trump's best buddy http:// ift.tt/2nKud76 #surveillance #privacy #democracy #people #security #tech","#surveillance #privacy #democracy #people #security #tech","2017-04-05 22:42:31"
