"Just because you can make killing machines and planet wreckers does not mean it is a wise thing to do. #environment #dronewarfare","#environment #dronewarfare","2017-04-05 01:59:59"
"Grab some #Pure4Health coconut water and do your part for the #environment ! We boast 8 servings per bottle: http:// buff.ly/2oi5ASI pic.twitter.com/xT17MVtDOK","#Pure4Health #environment","2017-04-05 01:58:12"
"#MLKJr #MartinLutherKingJr #resist #brave #courage #environment #climatechange #syria #AnimalRights #science pic.twitter.com/fZU7iFLj1V","#MLKJr #MartinLutherKingJr #resist #brave #courage #environment #climatechange #syria #AnimalRights #science","2017-04-05 01:57:07"
"Two #GOP governors on the #environment in 1970s. No trace of these ideas in today's party. Poor TR! (Tom McCall, 1974; Frank Sargent, 1970) pic.twitter.com/JEWAQcL23u","#GOP #environment","2017-04-05 01:54:04"
"#ICYMI Global Pollution and Prevention #News : @NASA Study Confirms Biofuels Reduce Jet Engine Pollution http:// buff.ly/2oFtm8r #environment pic.twitter.com/XZuvelRshb","#ICYMI #News #environment","2017-04-05 01:48:17"
"Learn about #WaterlooRegion local #environment organizations http:// ow.ly/Jkk230aleey . #PowerShiftWR @WREnviroNetwork @AlternativesJ","#WaterlooRegion #environment #PowerShiftWR","2017-04-05 01:45:12"
"#SIGNandRT : Tell the #Senate : The #Environment isn't Partisan - Defend #PublicHealth and the #EPA http:// dld.bz/f4udY","#SIGNandRT #Senate #Environment #PublicHealth #EPA","2017-04-05 01:41:56"
"EU Criticizes Trump's Executive Order on Climate Change: https:// youtu.be/_CCtX_dNr5w #environment #news #Trump #EuropeanUnion #climatechange","#environment #news #Trump #EuropeanUnion #climatechange","2017-04-05 01:41:51"
"Our environment is worth protecting it, or not ? #nature #climate #environment #wood #trees #tree #Forest pic.twitter.com/BGOaw9i9Hg","#nature #climate #environment #wood #trees #tree #Forest","2017-04-05 01:41:09"
"#Trump #Climate Order - #ClimateChange #Environment http:// buff.ly/2oFk6RT pic.twitter.com/44tylFiRDH","#Trump #Climate #ClimateChange #Environment","2017-04-05 01:40:07"
"@OPSCentralHigh @OPSCHSPrin ignores students & @OmahaPubSchool 'Green Schools Initiative'. Tradition wins over #environment","#environment","2017-04-05 01:39:03"
"Exit 10 #Bronx River Pkwy Exit. #Westchester we need to do better. #Yonkers #TravelTuesday cc: @RobAstorino @LegKenJenkins #environment pic.twitter.com/wIItzFPDNR","#Bronx #Westchester #Yonkers #TravelTuesday #environment","2017-04-05 01:36:14"
"- http:// ow.ly/Glky6?L8Z Why raising beef can be good for the planet via #WSJ #DefendingBeef #environment","#WSJ #DefendingBeef #environment","2017-04-05 01:34:31"
"Bank of America Endorses Data Center Clean Energy Buying Principles http:// ift.tt/2nUUTmr #environment","#environment","2017-04-05 01:31:35"
"Remember that your children are not your own, but are lent to you by the Creator.-Mohawk http:// goo.gl/aC5kEK #environment","#environment","2017-04-05 01:31:14"
"Remember that your children are not your own, but are lent to you by the Creator.-Mohawk http:// goo.gl/aC5kEK #environment","#environment","2017-04-05 01:31:14"
"Remember that your children are not your own, but are lent to you by the Creator.-Mohawk http:// goo.gl/aC5kEK #environment","#environment","2017-04-05 01:31:13"
"Remember that your children are not your own, but are lent to you by the Creator.-Mohawk http:// goo.gl/aC5kEK #environment","#environment","2017-04-05 01:31:13"
"Child Development Resilience and the #Environment : An Ecological Perspective https:// youtu.be/O0hCzxFiW8M via #UCTV","#Environment #UCTV","2017-04-05 01:28:54"
"""The role of the media is to create a truthful narrative."" @Discovery David Zaslav @NRDC @VanityFair #environment def.","#environment","2017-04-05 01:26:26"
"Our environment is worth protecting it, or not ? #nature #climate #environment #wood #trees #tree #Forest pic.twitter.com/s3pc8akskJ","#nature #climate #environment #wood #trees #tree #Forest","2017-04-05 01:25:21"
"leftsidestoryUS: The United States of America - Champions at destroying themselves. http:// ift.tt/2o6hONH #Environment","#Environment","2017-04-05 01:25:14"
"The United States of America - Champions at destroying themselves. http:// ift.tt/2o6hONH #Environment","#Environment","2017-04-05 01:25:12"
"Warm up with @ReddenMorgan for our #2017 @TD_Canada #FEF #Campaign @TDFEF #Green #environment #WetheTD #greenearth @AndyDixon_TD @Banque_TD pic.twitter.com/bz3v6zTIcM","#2017 #FEF #Campaign #Green #environment #WetheTD #greenearth","2017-04-05 01:24:48"
"When Britain Split From Europe, in a Big Way https:// nyti.ms/2nTQtMC #Brexit #environment #NJ","#Brexit #environment #NJ","2017-04-05 01:19:11"
"Nominations sought for Sustainable Raritan Awards http:// goo.gl/fb/HC1n1L #njenviro #awards #environment pic.twitter.com/NFROB9C9Lf","#njenviro #awards #environment","2017-04-05 01:15:17"
"The health benefits of indoor plants. http:// tinyurl.com/cv7jwz3 #air #pollution #environment #soil","#air #pollution #environment #soil","2017-04-05 01:12:13"
"Environmental reporting big job #refinery #economy #Aruba #environment http:// bit.ly/2nTKNCe","#refinery #economy #Aruba #environment","2017-04-05 01:04:01"
"FedEx CEO To Trump: National Security Needs Fuel Economy Standards http:// ift.tt/2o78Ak4 #environment","#environment","2017-04-05 01:01:06"
"Test Environment : Test Environment _2015-10-21_08-21-10 #testenvironment #FreeDownload #Free #Giveaway http:// buff.ly/2nBIRy8 pic.twitter.com/14hkPejATS","#testenvironment #FreeDownload #Free #Giveaway","2017-04-05 01:00:57"
"Kraft Heinz Releases New Palm Oil Policy, But Some NGOs Are Skeptical http:// ow.ly/SJZy30aphb6 #environment #transparency @TriplePundit","#environment #transparency","2017-04-05 01:00:56"
"RT @WanderPhotog ...protect the wonders of our home. #nature #quote #environment pic.twitter.com/yLKtrjnOTz http:// ow.ly/UBwe30arIgE","#nature #quote #environment","2017-04-05 01:00:54"
"Development Environment : code_introduction_b15_0r1_6 #developmentenvironment #FreeDownload #Free #Giveaway http:// buff.ly/2on9HtU pic.twitter.com/Dym24Kd9nv","#developmentenvironment #FreeDownload #Free #Giveaway","2017-04-05 01:00:40"
"What is this new #environment ? http:// hubs.ly/H06ZljF0","#environment","2017-04-05 01:00:04"
"Designed for experienced and novice #cooks , takes #place in a cosy and friendly #environment http:// cookinglisbon.com/market-tour/ #Lisbon #kitchen","#cooks #place #environment #Lisbon #kitchen","2017-04-05 00:59:45"
"Please welcome @UnityCollege to the Classy community! Thank you for educating the next generation about #sustainability & the #environment !","#sustainability #environment","2017-04-05 00:58:24"
"All the wind turbines providing clean energy #Renewables #Ohio #Energy #Environment #YesImInAPlane pic.twitter.com/bpXwSrIbZk","#Renewables #Ohio #Energy #Environment #YesImInAPlane","2017-04-05 00:58:20"
"All the wind turbines providing clean energy #Renewables #Ohio #Energy #Environment #YesImInAPlane https://www. instagram.com/p/BSeyUGbj5Yc/","#Renewables #Ohio #Energy #Environment #YesImInAPlane","2017-04-05 00:58:14"
