"When building #resilient & #conscious communities, establishing local #sustainablefoodproduction facilities is a crucial component pic.twitter.com/VgASn7J0Wz","#resilient #conscious #sustainablefoodproduction","2017-04-03 22:00:55"
"Porphyrio is #RisingFoodStar in EU project @EIT_Food focusing on #Innovation for #SustainableFoodProduction http:// eepurl.com/cCOJmL","#RisingFoodStar #Innovation #SustainableFoodProduction","2017-02-20 09:04:16"
"Innovative robot; Asterix reduces pesticide usage by more than 90% #matoglandbruk17 #sustainablefoodproduction #bioeconomy","#matoglandbruk17 #sustainablefoodproduction #bioeconomy","2017-01-10 10:33:13"
"Solar-powered Farm From a Box is a compact farm kit that feeds 150 people Making #sustainablefoodproduction easier! http:// ow.ly/xxMh307BVsv pic.twitter.com/v6ohG0le54","#sustainablefoodproduction","2017-01-02 18:15:13"
"Discussion now covers #GM , #TB & #soil quality. Discussing threats to both #Welsh & #international #agriculture ! #sustainablefoodproduction pic.twitter.com/1oM1TOOqJG","#GM #TB #soil #Welsh #international #agriculture #sustainablefoodproduction","2016-12-08 22:01:54"
"How do we grow from here? Towards #sustainablefoodproduction w/t @Rothamsted Prof Karp & other speakers #SustFood https:// youtu.be/0jg1ebku4aI","#sustainablefoodproduction #SustFood","2016-10-25 15:26:00"
"Never stop learning. Read @NEIinvestments #FarmtoFork whitepaper on #SustainableFoodProduction http:// bit.ly/1Va21XH","#FarmtoFork #SustainableFoodProduction","2016-10-21 15:53:24"
"Composters in action in the school's Eco-garden yesterday afternoon. #jis #Ecoschools #sustainablefoodproduction #nurture .brunei pic.twitter.com/Cy4ex5q36s","#jis #Ecoschools #sustainablefoodproduction #nurture","2016-10-12 05:52:40"
"At #Smilyfe we believe in #sustainablefoodproduction & #sustainablefoodconsumption #sustainablefarming #sustainable pic.twitter.com/n4BADhXzSb","#Smilyfe #sustainablefoodproduction #sustainablefoodconsumption #sustainablefarming #sustainable","2016-08-30 08:36:08"
"Which of these 2 food sources has the least impact on climate change? #sustainablefoodproduction ... http:// fb.me/89uf0fEST","#sustainablefoodproduction","2016-08-28 21:57:31"
"#VeganChoice #SustainableFoodProduction http:// fb.me/5Gtu2XnhV","#VeganChoice #SustainableFoodProduction","2016-08-21 13:49:55"
"#UNL 's new environ horticulturist @UNL_EnvrHort #sustainablefoodproduction #LESFestival 8/13 http:// bit.ly/2a9Djpr pic.twitter.com/Ss6qwF4ysG","#UNL #sustainablefoodproduction #LESFestival","2016-07-25 21:32:04"
"We very much try to encourage #sustainablefoodproduction & supply from the best sources http://www. globalfoodsandprovisions.com / pic.twitter.com/FQ5VENBysD","#sustainablefoodproduction","2016-07-19 17:28:04"
"@DianeRegas Respect for the planet. Respect for all its inhabitants. #sustainablefood #sustainablefoodproduction","#sustainablefood #sustainablefoodproduction","2016-06-01 05:04:59"
"#Unschooling our way through another day! #Science #SustainableFoodProduction #Climatology #Nutrition #Biology pic.twitter.com/Zp78fOUpWm","#Unschooling #Science #SustainableFoodProduction #Climatology #Nutrition #Biology","2016-05-18 14:44:34"
"@DanBloomfieldis Heh! Heh! But much easier to add macroalgae 2 global diets. #SustainableFoodProduction Save the plankton 4 the whales. ;)","#SustainableFoodProduction","2016-03-25 12:00:48"
"The main challenge in the future is not only to produce more (Food) , but also to do so in a sustainable way. #SustainableFoodProduction","#SustainableFoodProduction","2016-03-09 18:10:47"
"The main challenge in the future is not only to produce more (Food) , but also to do so in a sustainable way. #SustainableFoodProduction","#SustainableFoodProduction","2016-03-09 18:10:03"
"Increasing #sustainablefoodproduction could empower Cambodian women http:// phy.so/375691778 @penn_state","#sustainablefoodproduction","2016-02-26 12:49:47"
"[New #Publicaton ]: #SustainableFoodProduction practices in the #Caribbean ! http:// bit.ly/1QotTan #CPAF15 pic.twitter.com/hhsyZFz365","#Publicaton #SustainableFoodProduction #Caribbean #CPAF15","2016-02-20 11:12:10"
"Had a great time with @k8klav judging the future cities competition for @ASABEorg #sustainablefoodproduction pic.twitter.com/ED4b6r7nCA","#sustainablefoodproduction","2016-01-23 19:15:26"
"Engaging 5th and 8th graders about agroecology #enviroed #sustainablefoodproduction #ElonEd pic.twitter.com/Qmf2H0CgnX","#enviroed #sustainablefoodproduction #ElonEd","2015-12-04 20:32:45"
"With over 9 billion inhabitants expected by 2050, how are we going to feed the world population? #SustainableFoodProduction #WFD2015","#SustainableFoodProduction #WFD2015","2015-10-16 10:08:11"
"A grain closer to reducing #greenhousegases as #research yields new low methane rice. #sustainablefoodproduction http:// ow.ly/Si6V7","#greenhousegases #research #sustainablefoodproduction","2015-09-16 16:37:41"
"Localized, #sustainablefoodproduction would enhance #nutrition , decrease the #environmental impacts of #agriculture , & help local economies","#sustainablefoodproduction #nutrition #environmental #agriculture","2015-09-09 21:20:22"
"@SFSummits : #Soilfertility , #carbonmanagement , #regulatoryframework , #sustainablefoodproduction discussed in summit. http:// ow.ly/Pd2kh","#Soilfertility #carbonmanagement #regulatoryframework #sustainablefoodproduction","2015-07-06 06:05:07"
"Education is key to agri empowerment. Give choices to producers we rely on. #empowermentthrougheducation #Sustainablefoodproduction","#empowermentthrougheducation #Sustainablefoodproduction","2015-07-01 05:57:24"
"NEW COURSE: BSc (Hons) Plant Production Technology. #sustainablefoodproduction #agritech #horticulture Details: http:// bit.ly/1wKDICn","#sustainablefoodproduction #agritech #horticulture","2015-05-01 10:12:06"
"NEW COURSE: BSc (Hons) Plant Production Technology. #sustainablefoodproduction #agritech #horticulture Details: http:// bit.ly/1wKDICn","#sustainablefoodproduction #agritech #horticulture","2015-04-07 15:37:52"
"Thank you @YESIUoY for hosting a @GreenEcoNet poster yesterday at the #EngagementWithIndustryDay - #SustainableFoodProduction #Showcase","#EngagementWithIndustryDay #SustainableFoodProduction #Showcase","2015-03-17 12:12:16"
"@seantfry no apologies necessary #ThankYou for your support! #RaisedWithCare #humane #sustainablefoodproduction","#ThankYou #RaisedWithCare #humane #sustainablefoodproduction","2015-03-04 19:29:24"
"Just to let our followers know that we are now using @RHC_Hortic username. #Horticulture #LandscapeManagement #sustainablefoodproduction","#Horticulture #LandscapeManagement #sustainablefoodproduction","2015-03-04 15:01:14"
"NEW COURSE: BSc (Hons) Plant Production Technology. #sustainablefoodproduction #agritech #horticulture Details: http:// bit.ly/1wKDICn","#sustainablefoodproduction #agritech #horticulture","2015-03-02 10:26:55"
"Dennis founded Garden Pool to help people #DoMore #sustainablefoodproduction - http:// spr.ly/60120L7k pic.twitter.com/tTkc6NpxFc","#DoMore #sustainablefoodproduction","2015-02-27 15:00:01"
"Next issue of @UtopianSJournal will be about Utopia & #sustainablefoodproduction . Out April 2015.","#sustainablefoodproduction","2015-02-01 13:29:47"
"Eden students on tour - http:// bit.ly/1KMTiVj #dairytechnology #sustainablefoodproduction #stem","#dairytechnology #sustainablefoodproduction #stem","2015-01-15 12:42:25"
"NEW COURSE: BSc (Hons) Plant Production Technology. #sustainablefoodproduction #agritech #horticulture Details: http:// bit.ly/1wKDICn","#sustainablefoodproduction #agritech #horticulture","2014-12-17 14:35:40"
"Thirty percent of the world's food wasted http:// aje.me/1pafFge #sustainablefoodproduction","#sustainablefoodproduction","2014-11-03 23:56:50"
"Stardust* olives #sustainablefoodproduction #localfood #foodcultivation #sustanainablecities http:// fb.me/2W5FlLR6y","#sustainablefoodproduction #localfood #foodcultivation #sustanainablecities","2014-10-30 13:28:46"
"Salt-loving plants may be key to global efforts for #sustainablefoodproduction http:// phy.so/333709878","#sustainablefoodproduction","2014-10-28 17:00:03"
"Idd @Matthijsni @Solidaridadnetw Watch @Paul_Schoen on #foodsecurity and #SustainableFoodProduction . http:// ow.ly/zXDal #agriculture#csr","#foodsecurity #SustainableFoodProduction #agriculture #csr","2014-08-05 12:51:06"
"#Aquaponics system allows for virtually emission-free #sustainablefoodproduction http:// phy.so/314008149","#Aquaponics #sustainablefoodproduction","2014-03-14 15:30:02"
"#ChewOnThis & #DriveToFeed at #PoultryScience 10-2 today, free lunch, video on #WorldHunger & #SustainableFoodProduction . #YOUofA","#ChewOnThis #DriveToFeed #PoultryScience #WorldHunger #SustainableFoodProduction #YOUofA","2014-02-17 16:59:57"
"Want to learn more about #Sustainability & #Agriculture order #SustainableFoodProduction manual. Check out http://www. sandinternational.org/resources/ #sandintl","#Sustainability #Agriculture #SustainableFoodProduction #sandintl","2013-09-28 03:39:18"
"#urbangardens #eatrealfood #sustainablefoodproduction","#urbangardens #eatrealfood #sustainablefoodproduction","2013-09-27 22:02:44"
"Just arrived at the convention centre for @Bordbia sustainability conference #OriginGreen #SustainableFoodProduction","#OriginGreen #SustainableFoodProduction","2013-09-26 09:05:58"
"@WILLBE1960 stunning, what an awesome way to live! #urbangardens #eatrealfood #sustainablefoodproduction","#urbangardens #eatrealfood #sustainablefoodproduction","2013-08-17 09:13:08"
"A Lab-Grown Burger Gets a Taste Test http:// nyti.ms/15HB42U Paid for by #SergeyBrin #CSR #SustainableFoodProduction #Experimentation","#SergeyBrin #CSR #SustainableFoodProduction #Experimentation","2013-08-05 21:34:24"
"@bbc5live @NickyAACampbell quote to the day ""close the loop use the poop"" for #sustainablefoodproduction #Yummy","#sustainablefoodproduction #Yummy","2013-07-24 09:01:52"
"Bill Pritchard. On the money. #fooddistribution #feedsecurity #sustainablefoodproduction #TedXSydney","#fooddistribution #feedsecurity #sustainablefoodproduction #TedXSydney","2013-05-04 04:18:33"
"@gardenpool silent auction is over but you can still support our work to bring #sustainablefoodproduction to #Haiti http:// ow.ly/jrBel","#sustainablefoodproduction #Haiti","2013-03-28 14:51:01"
"@cathynewman CAP reform also covers environmental stewardship, it's not all about the growing of food! #sustainablefoodproduction","#sustainablefoodproduction","2011-10-12 17:03:13"
